%!PS-Adobe-2.0 EPSF-1.2
%%Creator: Adobe Illustrator exported from Corel Draw 3.0
%%Title:6
%%BoundingBox:-18 574 955 1125
%%CreationDate:(Unknown)
%%ColorUsage:
%%TemplateBox:-18 574 955 1125
%%EndComments
%%BeginProcSet:Adobe_Illustrator_1.1 0 0
% Version 1.0 3/27/1990 $nokeywords$
% Copyright (C) 1990,1991,1992
% Corel Corporation
% All Rights Reserved

/wPmsDict 150 dict def 
wPmsDict begin 

/$debug 25 string def 

/bd {bind def} bind def 
/ld {load def} bd 
/xd {exch def} bd 
/_ null def 

/$c 0 def 
/$m 0 def 
/$y 0 def 
/$k 0 def 
/$t 1 def 
/$n _ def 
/$o 0 def 
/$pf false def 

/$C 0 def 
/$M 0 def 
/$Y 0 def 
/$K 0 def 
/$T 1 def 
/$N _ def 
/$O 0 def 
/$PF false def 

/$h false def 

/$al 0 def 
/$tr 0 def 
/$le 0 def 
/$lx 0 def 
/$ly 0 def 

/$ctm matrix currentmatrix def 
/$ptm matrix def 

/$pn () def 
/$pm matrix def 
/$px 0 def 
/$py 0 def 
/$pxf 0 def 
/$pyf 0 def 
/$psx 10 def 
/$psy 0 def 

/$llx 0 def 
/$lly 0 def 
/$urx 0 def 
/$ury 0 def 


/$Bbllx 0 def 
/$Bblly 0 def 
/$Bburx 0 def 
/$Bbury 0 def 

/$tllx 0 def 
/$tlly 0 def 
/$turx 0 def 
/$tury 0 def 

/$pd [] def 
/$tx 0 def 
/$ty 0 def 

/$sv 0 def 
/@cp /closepath ld 
/@gs /gsave ld 
/@gr /grestore ld 
/@np /newpath ld 
/@sv {/$sv save def}bd 
/@rs {$sv restore}bd 

/@MN { 
2 copy le{pop}{exch pop}ifelse 
}bd 

/setcmykcolor where {pop} 
{ 
/setcmykcolor 
{ 
4 1 roll 
3 {3 index add 1 @MN 1 exch sub 3 1 roll} repeat 
setrgbcolor 
pop 
}bd 
}ifelse 

/@tc 
{ 
dup 1 ge 
{pop} 
{ 
4 { 
dup 
6 -1 roll 
mul 
exch 
}repeat 
pop 
}ifelse 
}bd 

/@scc 
{ 
$c $m $y $k $t @tc 
setcmykcolor 
true 
}bd 
/@SCC 
{ 
$C $M $Y $K $T @tc 
setcmykcolor 
true 
}bd 

/@sft 
{ 
(setfirsttile sft )print 
/$tx $tllx $pxf add dup $tllx gt {$pwid $psx add sub}if def 
/$ty $tury $pyf sub dup $tury lt {$phei $psy add add}if def 
(setfirsttile exit )print 
}bd 

/@stb 
{ 
pathbbox /$ury xd /$urx xd /$lly xd /$llx xd 
}bd 

/@ep 
{ 
{ 
cvx exec 
}forall 
}bd 

/@tp 
{ 

(tile pattern tp )print 
@sv 
/$in true def 
2 copy 
dup $lly le {/$in false def}if 
$phei sub $ury ge {/$in false def}if 
dup $urx ge {/$in false def}if 
$pwid add $llx le {/$in false def}if 
$in 
{ 
@np 
2 copy moveto 
$pwid 0 rlineto 
0 $phei neg rlineto 
$pwid neg 0 rlineto 
0 $phei rlineto 
clip @np 

$pn cvlit load aload pop 
7 -1 roll 
5 index sub 
7 -1 roll 
3 index sub 
translate 
@ep 
pop pop pop pop 
} 
{pop pop}ifelse 
@rs 
(tile pattern exit )print 
}bd 

/@th 
{ 
(tile horizontal th)print 
@sft 
0 1 $tly 1 sub 
{ 
dup $psx mul $tx add 
{ 
dup $llx gt {$pwid sub}{exit}ifelse 
}loop 
exch $phei mul $ty exch sub 

0 1 $tlx 1 sub 
{ 
$pwid mul 
3 copy 
3 -1 roll add exch 
@tp 
pop 
}for 
pop pop 
} for 
(tile horizontal exiting )print 
}bd 

/@tv 
{ 
(tile vertical tv)print 
@sft 
0 1 $tlx 1 sub 
{ 
dup $pwid mul $tx add 
exch $psy mul $ty exch sub 
{ 
dup $ury lt {$phei add}{exit}ifelse 
}loop 

0 1 $tly 1 sub 
{ 
$phei mul 
3 copy sub 
@tp 
pop 
}for 
pop pop 
} for 
(tile vertical exit )print 
}bd 

/@pf 
{ 
(pattern fill pf)print 
@gs 
$pm concat 
@stb 
@gs 1 setgray eofill @gr 
eoclip 
$Bburx $Bbury $pm itransform /$tury xd /$turx xd 
$Bbllx $Bblly $pm itransform /$tlly xd /$tllx xd 
/$wid $turx $tllx sub def 
/$hei $tury $tlly sub def 
$wid 0 gt $hei 0 gt and 
{ 
$pn cvlit load aload pop 
$pd xd 
3 -1 roll sub /$phei xd 
exch sub /$pwid xd 
/$tlx $wid $pwid div ceiling 1 add def 
/$tly $hei $phei div ceiling 1 add def 
$psx 0 eq 
{ 
@tv 
} 
{ 
@th 
}ifelse 
}if 

@gr 
@np 
(pattern fill exit)print 
}bd 

/@xp 
{ 
{ 
dup (text Character is:) print == 
usertime (time before is:)print == 
(0) dup 3 -1 roll 0 exch put 
@gs 
true charpath currentpoint 
$ctm setmatrix 
@pf 
@gr 
@np 
moveto $tr 0 rmoveto 
usertime (time after is:)print == 
}forall 
pop 
}bd 

/@sm 
{ 
/$ctm $ctm currentmatrix def 
}bd 

%--@lorg  move to line origin   length string @torg length string
/@lorg    % moves currentpoint to line origin according to current alignment
  {      
  $lx $ly moveto    
  /$ly $ly $le sub def      % - prepare for next line(tracking)
  $al 0 ne
    {dup      % ->len str len str
    stringwidth   % ->len str len dx dy
    exch 3 index  % ->len str dy len dx
    1 sub         % ->len str dy len dx (len-1)
    $tr mul add   % ->len str dy len dx+(len-1)*$tr
    neg
    exch neg      % ->len str -dx_total dy len
    $al 1 eq      % check for centered alignment
    {2 div exch 2 div exch} if  
    rmoveto} if
  }bd

/@ft 
{ 
$pf 
{@xp} 
{ 
@scc 
{$tr exch 0 exch ashow pop} 
{pop pop}ifelse 
}ifelse 
}bd 

/@st 
{ 
$PF 
{} 
{ 
@SCC 
{ 
{ 
(0) dup 3 -1 roll 0 exch put 
@gs 
true charpath currentpoint 
$ctm setmatrix $ptm concat 
stroke 
@gr 
moveto $tr 0 rmoveto 
}forall 
pop 
} 
{pop pop}ifelse 
}ifelse 
}bd 
/@pt 
{ 
dup length exch 
}bd 
/@te 
{ 
@pt 
@lorg 
@ft 
}bd 

/@tr 
{ 
@pt 
@lorg 
@st 
}bd 
/@ta 
{ 
@pt 
@lorg 
2 copy 
@gs @ft @gr 
/$lx 0 def 
/$ly 0 def 
@st 
}bd 















/g { 
1 exch sub /$k xd 
/$c 0 def /$m 0 def /$y 0 def /$t 1 def /$n _ def /$pf false def 
}bd 

/G { 
1 exch sub /$K xd 
/$C 0 def /$M 0 def /$Y 0 def /$T 1 def /$N _ def /$PF false def 
}bd 

/k { 
/$k xd /$y xd /$m xd /$c xd 
/$t 1 def /$n _ def /$pf false def 
}bd 

/K { 
/$K xd /$Y xd /$M xd /$C xd 
/$T 1 def /$N _ def /$PF false def 
}bd 

/x { 
/$t xd /$n xd 
/$k xd /$y xd /$m xd /$c xd /$pf false def 
}bd 

/X { 
/$T xd /$N xd 
/$K xd /$Y xd /$M xd /$C xd /$PF false def 
}bd 

/d /setdash ld 

/i { 
dup 0 ne {setflat} {pop} ifelse 
}bd 

/j /setlinejoin ld 

/J /setlinecap ld 

/M /setmiterlimit ld 

/w /setlinewidth ld 

/O { 
/$o xd 
}bd 

/R { 
/$O xd 
}bd 


/c /curveto ld 

/C /c ld 

/v { 
currentpoint
6 2 roll 
curveto 
}bd

/V /v ld 

/y { 
2 copy curveto 
}bd 

/Y /y ld 

/l /lineto ld 

/L /l ld 

/m /moveto ld 



/n /newpath ld 

/N /newpath ld 

/F { 
$pf 
{@pf} 
{ 
@scc 
{eofill}if 
}ifelse 
}bd 

/f { 
@cp F 
}bd 
/S { 
$PF 
{} 
{ 
@SCC 
{ 
@sm 
$ptm concat 
stroke 
$ctm setmatrix 
}if 
}ifelse 
}bd 
/s { 
@cp 
S 
}bd 

/B { 
@gs F @gr 
S 
}bd 
/b { 
@cp 
B 
}bd 

/W { 
oeclip 
@np 
}bd 

/p { 
/$pm xd 
7 {pop} repeat 
/$pyf xd /$pxf xd 
/$pn xd 
/$pf true def 
}bd 

/P { 
11 {pop} repeat 
}bd 

/@p { 
/$pm xd 
/$psy xd 
/$psx xd 
/$pyf xd /$pxf xd 
/$pn xd 
/$pf true def 
}bd 

/@b { 
/$Bbury xd /$Bburx xd 
/$Bblly xd /$Bbllx xd 
}bd 


/z { 
/$al xd 
/$tr xd 
/$le xd 
exch findfont exch scalefont setfont 
}bd 

/Z { 
dup type 0 type eq { /$bDir xd } if
findfont 
dup maxlength 1 add dict exch 



dup 
{1 index /FID ne 
{ 
3 index 
3 1 roll put 
} 
{pop pop}ifelse 
} forall 



pop 
dup dup /Encoding get 
256 array copy 
dup /$fe xd
/Encoding exch put 

dup /Fontname 3 index put 

}bd 

/e { 
@sm 
concat 
[ 
/t {@te}def 
}bd 

/r { 
@sm 
concat 
[ 
/t {@tr}def 
}bd 

/o { 
@sm 
concat 
[ 
/t {pop}def 
}bd 

/a { 
@sm 
concat 
[ 
/t {@ta}def 
}bd 

/@o{
@sm 
concat 
[ 
/t {@t@a}def 
}bd 

/I { 
@sm 
concat 
[ 
/t {pop}def 
}bd 

/t {@te}def 

/T { 
cleartomark 
/$lx 0 def 
/$ly 0 def 
$ctm setmatrix 
}bd 


/u {}bd 

/U {}bd 

/A {pop}bd 

/h { 
$h true def 
}bd 

/h { 
$h true def 
}bd 

/q /@gs ld 

/Q /@gr ld 



/E { 
5 array astore 
exch cvlit exch def 
}bd 

/` {}bd 

/~ {}bd 

/@ {}bd 

/& {}bd 

/CorelDrawRencodeVect [ 
16#80/grave 
16#81/circumflex 
16#82/tilde 
16#83/dotlessi 
16#84/florin 
16#85/quotedblleft 
16#86/quotedblright 
16#87/guilsinglleft 
16#88/guilsinglright 
16#89/fi 
16#8a/fl 
16#8b/dagger 
16#8c/daggerdbl 
16#8d/endash 
16#8e/periodcentered 
16#8f/breve 
16#90/quotedblbase 
16#91/ellipsis 
16#92/perthousand 
16#a1/exclamdown 
16#a2/cent 
16#a3/sterling 
16#a4/currency 
16#a5/yen 
16#a6/bar 
16#a7/section 
16#a8/dieresis 
16#a9/copyright 
16#aa/ordfeminine 
16#ab/guillemotleft 
16#ac/logicalnot 
16#ad/emdash 
16#ae/registered 
16#af/spac 
16#b0/ring 
16#b1/spac 
16#b2/spac 
16#b3/spac 
16#b4/acute 
16#b5/spac 
16#b6/paragraph 
16#b7/bullet 
16#b8/cedilla 
16#b9/spac 
16#ba/ordmasculine 
16#bb/guillemotright 
16#bc/spac 
16#bd/spac 
16#be/spac 
16#bf/questiondown 
16#c0/Agrave 
16#c1/Aacute 
16#c2/Acircumflex 
16#c3/Atilde 
16#c4/Adieresis 
16#c5/Aring 
16#c6/AE 
16#c7/Ccedilla 
16#c8/Egrave 
16#c9/Eacute 
16#ca/Ecircumflex 
16#cb/Edieresis 
16#cc/Igrave 
16#cd/Iacute 
16#ce/Icircumflex 
16#cf/Idieresis 
16#d0/spac 
16#d1/Ntilde 
16#d2/Ograve 
16#d3/Oacute 
16#d4/Ocircumflex 
16#d5/Otilde 
16#d6/Odieresis 
16#d7/OE 
16#d8/Oslash 
16#d9/Ugrave 
16#da/Uacute 
16#db/Ucircumflex 
16#dc/Udieresis 
16#dd/space 
16#de/spac 
16#df/germandbls 
16#e0/agrave 
16#e1/aacute 
16#e2/acircumflex 
16#e3/atilde 
16#e4/adieresis 
16#e5/aring 
16#e6/ae 
16#e7/ccedilla 
16#e8/egrave 
16#e9/eacute 
16#ea/ecircumflex 
16#eb/edieresis 
16#ec/igrave 
16#ed/iacute 
16#ee/icircumflex 
16#ef/idieresis 
16#f0/space 
16#f1/ntilde 
16#f2/ograve 
16#f3/oacute 
16#f4/ocircumflex 
16#f5/otilde 
16#f6/odieresis 
16#f7/oe 
16#f8/oslash 
16#f9/ugrave 
16#fa/uacute 
16#fb/ucircumflex 
16#fc/udieresis 
16#fd/spac 
16#fe/spac 
16#ff/ydieresis 
] def
%%EndProlog
%%BeginSetup
%%BeginEncoding:_Times-Bold Times-Bold
[
]/_Times-Bold/Times-Bold Z
%%EndEncoding
%%EndSetup
0.000 0.000 0.000 1.000 K
0 j
0 J
0.287 w
[]0 d
0.000 0.000 0.000 0.498 k
32.615 952.127 m
32.615 951.623 32.615 951.191 32.615 950.759 C
32.615 923.471 54.719 901.367 82.007 901.367 C
109.223 901.367 131.471 923.471 131.471 950.759 C
131.471 951.191 131.471 951.623 131.471 951.983 C
138.167 952.631 L
138.167 959.903 138.096 961.415 137.231 974.375 c
136.439 987.407 124.703 1007.063 102.671 1009.007 c
80.640 1010.879 84.384 1010.879 62.711 1009.007 c
41.111 1007.135 29.159 987.479 28.151 974.375 c
27.071 961.271 26.927 959.471 26.927 952.055 C
32.615 952.127 L
b
0.000 0.000 0.000 1.000 K
0 j
0 J
0.287 w
[]0 d
0.000 0.000 0.000 0.498 k
614.087 662.759 m
614.087 662.255 614.087 661.823 614.087 661.391 C
614.087 634.175 591.983 612.000 564.695 612.000 C
537.479 612.000 515.231 634.175 515.231 661.391 C
515.231 661.823 515.231 662.255 515.231 662.687 C
508.535 663.335 L
508.535 670.535 508.607 672.048 509.471 685.079 c
510.263 698.039 522.000 717.767 544.031 719.639 c
566.063 721.583 562.319 721.511 583.991 719.639 c
605.591 717.767 617.543 698.183 618.551 685.079 c
619.631 671.975 619.775 670.175 619.775 662.759 C
614.087 662.759 L
b
0.000 0.000 0.000 1.000 K
0 j
0 J
0.863 w
[]0 d
0.000 0.000 0.000 0.000 k
553.607 958.967 m
658.151 966.815 l
662.255 967.103 665.135 972.935 665.135 977.111 c
665.135 987.695 L
664.919 1042.415 L
664.919 1047.816 661.247 1054.151 656.639 1055.447 C
406.367 1055.303 L
406.367 963.215 L
401.975 963.215 L
401.975 1055.447 L
402.911 1075.535 402.911 1101.887 394.631 1123.487 C
251.999 1123.487 L
241.991 1122.624 234.287 1122.336 224.783 1121.039 C
217.655 1120.031 208.799 1117.223 202.751 1112.975 C
178.199 1098.000 154.727 1080.576 132.263 1062.359 C
127.151 1059.048 118.295 1057.535 106.199 1055.663 C
69.839 1051.271 33.768 1045.655 5.471 1039.895 C
-1.799 1037.807 -5.615 1030.463 -8.711 1023.623 C
-9.215 1014.047 -10.223 999.287 -9.575 991.583 C
10.511 991.439 L
10.511 967.391 L
2.087 968.039 L
1.439 964.295 L
24.191 952.415 L
26.927 952.055 L
26.927 959.471 26.999 961.199 28.151 974.375 c
29.231 987.551 41.039 1007.063 62.711 1009.007 c
84.384 1010.879 80.640 1010.879 102.671 1009.007 c
124.703 1007.063 136.367 987.479 137.231 974.375 c
138.096 961.343 138.167 959.903 138.167 952.631 C
442.511 952.343 L
442.511 959.471 442.727 961.343 443.735 974.375 c
444.743 987.479 456.695 1007.135 478.295 1009.007 c
499.967 1010.879 496.223 1010.879 518.255 1009.007 c
540.288 1007.063 552.096 987.335 552.887 974.375 c
553.607 961.415 553.823 966.095 553.607 958.967 C
b
0.000 0.000 0.000 1.000 K
0 j
0 J
0.863 w
[]0 d
0.000 0.000 0.000 0.000 k
93.095 669.599 m
-11.447 677.447 l
-15.551 677.735 -18.431 683.639 -18.431 687.743 c
-18.431 698.327 L
-18.215 753.119 L
-18.215 758.519 -14.543 764.855 -9.935 766.079 C
240.263 766.007 L
240.263 673.847 L
244.655 673.847 L
244.655 766.079 L
243.719 786.167 243.719 812.591 252.071 834.119 C
394.631 834.119 L
404.711 833.327 412.415 832.967 421.847 831.671 C
429.047 830.663 437.903 827.927 443.879 823.607 C
468.431 808.631 491.975 791.207 514.439 773.063 C
519.551 769.679 528.408 768.167 540.503 766.367 C
576.863 761.975 612.935 756.287 641.231 750.527 C
648.503 748.511 652.319 741.095 655.415 734.327 C
655.919 724.751 656.927 709.991 656.279 702.287 C
636.192 702.143 L
636.192 678.024 L
644.615 678.743 L
645.263 674.927 L
622.511 663.048 L
619.775 662.759 L
619.775 670.175 619.703 671.903 618.551 685.079 c
617.471 698.183 605.663 717.767 583.991 719.639 c
562.319 721.583 566.063 721.583 544.031 719.639 c
522.000 717.767 510.335 698.111 509.471 685.079 c
508.607 672.048 508.535 670.535 508.535 663.335 C
204.119 663.048 L
204.119 670.175 203.975 671.975 202.967 685.079 c
201.959 698.111 190.007 717.767 168.335 719.639 c
146.735 721.511 150.479 721.583 128.447 719.639 c
106.415 717.767 94.607 698.039 93.815 685.079 c
93.095 672.120 92.879 676.727 93.095 669.599 C
b
0.000 0.000 0.000 1.000 K
0 j
0 J
0.287 w
[]0 d
0.000 0.000 0.000 0.498 k
450.575 952.847 m
450.575 952.415 450.503 951.623 450.503 950.759 C
450.503 923.471 472.679 901.367 499.967 901.367 C
527.183 901.367 549.431 923.471 549.431 950.759 C
549.431 953.423 549.216 956.087 548.783 958.679 C
553.607 958.967 L
553.823 966.095 553.607 961.415 552.887 974.375 c
552.096 987.407 540.288 1007.063 518.255 1009.007 c
496.223 1010.879 499.967 1010.879 478.295 1009.007 c
456.695 1007.135 444.743 987.479 443.735 974.375 c
442.727 961.343 442.511 959.471 442.511 952.343 C
450.575 952.847 L
b
0.000 0.000 0.000 1.000 K
0 j
0 J
0.287 w
[]0 d
0.000 0.000 0.000 0.498 k
196.055 663.479 m
196.127 663.120 196.127 662.255 196.127 661.391 C
196.127 634.175 174.024 612.000 146.735 612.000 C
119.519 612.000 97.271 634.175 97.271 661.391 C
97.271 664.127 97.487 666.719 97.919 669.311 C
93.095 669.599 L
92.879 676.727 93.095 672.120 93.815 685.079 c
94.607 698.039 106.415 717.767 128.447 719.639 c
150.479 721.583 146.735 721.511 168.335 719.639 c
190.007 717.767 201.959 698.111 202.967 685.079 c
203.975 671.975 204.119 670.175 204.119 663.048 C
196.055 663.479 L
b
0.000 0.000 0.000 1.000 K
0 j
0 J
0.287 w
[]0 d
195.911 735.191 m
177.047 735.191 l
176.256 735.191 175.679 734.615 175.679 733.823 c
175.679 720.863 l
175.679 720.000 176.471 719.927 177.047 719.495 C
180.215 718.343 184.751 717.048 186.695 714.743 C
195.911 714.743 l
196.775 714.743 197.279 715.391 197.279 716.111 c
197.279 733.823 l
197.279 734.543 196.775 735.191 195.911 735.191 c
s
0.000 0.000 0.000 1.000 K
0 j
0 J
0.287 w
[]0 d
0.000 0.000 0.000 0.498 k
178.343 722.159 m
179.279 722.159 180.071 723.024 180.071 724.103 c
180.071 725.111 179.279 725.975 178.343 725.975 c
177.335 725.975 176.543 725.111 176.543 724.103 c
176.543 723.024 177.335 722.159 178.343 722.159 c
b
0.000 0.000 0.000 1.000 K
0 j
0 J
0.287 w
[]0 d
318.383 1114.847 m
318.383 963.503 L
151.560 963.143 L
150.407 1052.135 L
150.407 1054.223 150.407 1054.799 151.271 1056.311 C
168.191 1073.591 194.471 1094.543 213.695 1106.567 C
219.743 1111.535 228.383 1113.911 235.655 1114.631 C
318.383 1114.847 L
s
0.000 0.000 0.000 1.000 K
0 j
0 J
0.287 w
[]0 d
328.247 825.551 m
328.247 674.135 L
495.143 673.847 L
496.295 762.839 L
496.295 764.855 496.295 765.431 495.431 766.943 C
478.511 784.223 452.231 805.247 432.935 817.199 C
426.959 822.167 418.319 824.615 411.047 825.263 C
328.247 825.551 L
s
0.000 0.000 0.000 1.000 K
0 j
0 J
0.287 w
[]0 d
0.000 0.000 0.000 0.200 k
215.423 1110.384 m
188.639 1095.263 165.815 1074.887 143.711 1056.311 C
133.199 1062.000 L
156.599 1080.288 177.695 1099.655 203.543 1114.199 C
215.423 1110.384 L
b
0.000 0.000 0.000 1.000 K
0 j
0 J
0.287 w
[]0 d
0.000 0.000 0.000 0.200 k
431.279 821.087 m
457.991 805.967 480.815 785.591 502.991 767.015 C
513.503 772.631 L
490.103 790.991 468.935 810.359 443.159 824.831 C
431.279 821.087 L
b
0.000 0.000 0.000 1.000 K
0 j
0 J
0.287 w
[]0 d
0.000 0.000 0.000 0.498 k
245.591 1110.311 m
305.423 1110.311 L
309.096 1110.311 309.455 1109.159 309.599 1103.543 C
309.599 1056.959 L
309.455 1047.599 302.759 1047.599 299.303 1047.599 C
156.383 1047.384 L
152.207 1049.615 154.439 1053.503 157.895 1056.959 C
172.512 1071.720 192.455 1085.903 210.095 1098.215 C
216.359 1102.391 222.335 1106.207 229.967 1108.007 C
235.583 1109.735 240.047 1109.951 245.591 1110.311 C
b
0.000 0.000 0.000 1.000 K
0 j
0 J
0.287 w
[]0 d
0.000 0.000 0.000 0.498 k
401.039 821.015 m
341.207 821.015 L
337.536 821.015 337.175 819.863 337.103 814.175 C
337.103 767.591 L
337.175 758.303 343.871 758.303 347.327 758.303 C
490.319 758.087 L
494.495 760.247 492.263 764.135 488.807 767.591 C
474.119 782.351 454.175 796.535 436.535 808.919 C
430.343 813.023 424.367 816.839 416.735 818.711 C
411.119 820.439 406.583 820.655 401.039 821.015 C
b
0.000 0.000 0.000 1.000 K
0 j
0 J
0.287 w
[]0 d
0.000 0.000 0.000 0.200 k
306.575 1053.071 m
304.919 1049.399 301.967 1049.039 298.295 1049.039 C
183.455 1048.895 L
183.527 1076.615 L
185.543 1078.127 187.559 1079.711 189.575 1081.223 C
199.367 1088.351 209.303 1095.983 219.743 1102.103 C
227.087 1105.919 235.151 1108.439 243.431 1108.727 C
244.439 1108.799 L
246.383 1108.943 L
304.343 1108.943 L
307.151 1108.727 306.935 1108.151 307.079 1105.343 C
307.151 1103.471 L
307.151 1056.959 L
307.079 1055.663 306.935 1054.367 306.575 1053.071 C
b
0.000 0.000 0.000 1.000 K
0 j
0 J
0.287 w
[]0 d
0.000 0.000 0.000 0.200 k
340.127 763.775 m
341.711 760.103 344.663 759.671 348.335 759.671 C
463.175 759.527 L
463.103 787.247 L
461.087 788.831 459.071 790.415 457.127 791.927 C
447.335 799.055 437.327 806.615 426.959 812.807 C
419.615 816.551 411.551 819.071 403.271 819.359 C
402.263 819.431 L
400.319 819.575 L
342.287 819.575 L
339.551 819.431 339.767 818.783 339.551 816.047 C
339.479 814.175 L
339.479 767.663 L
339.551 766.295 339.767 764.999 340.127 763.775 C
b
0.000 0.000 0.000 1.000 K
0 j
0 J
0.287 w
[]0 d
0.000 0.000 0.000 0.498 k
-9.503 1019.879 m
-10.080 1011.527 L
-10.367 1004.903 -10.295 998.279 -10.080 991.727 C
3.743 991.727 L
7.487 992.231 10.367 994.535 10.871 998.423 C
10.871 1013.471 L
10.583 1016.927 8.351 1019.303 4.895 1019.879 C
-9.503 1019.879 L
b
0.000 0.000 0.000 1.000 K
0 j
0 J
0.287 w
[]0 d
0.000 0.000 0.000 0.498 k
656.207 730.583 m
656.783 722.159 L
657.072 715.607 657.000 708.983 656.783 702.359 C
642.959 702.359 L
639.216 702.935 636.335 705.239 635.831 709.055 C
635.831 724.103 L
636.120 727.631 638.351 729.935 641.807 730.583 C
656.207 730.583 L
b
0.000 0.000 0.000 1.000 K
0 j
0 J
0.287 w
[]0 d
0.000 0.000 0.000 0.098 k
3.815 1016.351 m
-9.071 1016.351 L
-9.503 1011.599 -9.863 1000.295 -9.503 995.255 C
2.735 995.255 l
4.104 995.255 5.903 996.695 5.903 998.063 c
5.903 1013.903 l
5.903 1014.911 4.823 1016.351 3.815 1016.351 c
b
0.000 0.000 0.000 1.000 K
0 j
0 J
0.287 w
[]0 d
0.000 0.000 0.000 0.098 k
642.887 726.983 m
655.775 726.983 L
656.207 722.231 656.567 710.927 656.207 705.959 C
643.967 705.959 l
642.599 705.959 640.799 707.399 640.799 708.695 c
640.799 724.607 l
640.799 725.615 641.879 726.983 642.887 726.983 c
b
u
u
0.000 0.000 0.000 1.000 K
0 j
0 J
0.287 w
[]0 d
146.951 1053.791 m
101.087 1049.471 56.951 1044.288 11.879 1036.439 C
3.239 1038.816 L
11.879 1036.439 L
7.991 1032.768 4.823 1028.447 2.735 1023.839 C
S
U
U
u
u
0.000 0.000 0.000 1.000 K
0 j
0 J
0.287 w
[]0 d
499.751 764.495 m
545.615 760.103 589.751 754.919 634.823 747.143 C
643.463 749.447 L
634.823 747.143 L
638.711 743.399 641.879 739.151 643.967 734.543 C
S
U
U
u
u
0.000 0.000 0.000 1.000 K
0 j
0 J
0.287 w
[]0 d
6.335 1019.879 m
652.103 1019.735 L
S
0.000 0.000 0.000 1.000 K
0 j
0 J
0.287 w
[]0 d
652.175 1015.631 m
10.511 1015.559 L
S
U
U
u
u
0.000 0.000 0.000 1.000 K
0 j
0 J
0.287 w
[]0 d
640.367 730.583 m
-5.399 730.439 L
S
0.000 0.000 0.000 1.000 K
0 j
0 J
0.287 w
[]0 d
-5.471 726.263 m
636.192 726.191 L
S
U
U
u
u
0.000 0.000 0.000 1.000 K
0 j
0 J
0.287 w
[]0 d
142.631 952.775 m
372.455 952.775 L
S
U
U
u
u
0.000 0.000 0.000 1.000 K
0 j
0 J
0.287 w
[]0 d
504.071 663.479 m
274.175 663.479 L
S
U
U
0.000 0.000 0.000 1.000 K
0 j
0 J
0.287 w
[]0 d
305.351 1002.527 m
307.007 1002.527 308.375 1003.895 308.375 1005.623 c
308.375 1007.351 307.007 1008.719 305.351 1008.719 c
303.551 1008.719 302.183 1007.351 302.183 1005.623 c
302.183 1003.895 303.551 1002.527 305.351 1002.527 c
s
0.000 0.000 0.000 1.000 K
0 j
0 J
0.287 w
[]0 d
341.351 713.159 m
339.623 713.159 338.255 714.527 338.255 716.327 c
338.255 717.983 339.623 719.351 341.351 719.351 c
343.079 719.351 344.447 717.983 344.447 716.327 c
344.447 714.527 343.079 713.159 341.351 713.159 c
s
0.000 0.000 0.000 1.000 K
0 j
0 J
0.287 w
[]0 d
0.000 0.000 0.000 0.498 k
182.375 1072.367 m
173.951 1072.367 L
172.151 1071.864 170.855 1070.495 170.855 1068.263 C
170.855 1051.199 L
170.855 1049.399 171.791 1048.319 173.951 1048.319 C
182.375 1048.319 L
182.375 1072.367 L
b
0.000 0.000 0.000 1.000 K
0 j
0 J
0.287 w
[]0 d
0.000 0.000 0.000 0.498 k
464.327 782.999 m
472.679 782.999 L
474.479 782.495 475.847 781.199 475.847 778.967 C
475.847 761.903 L
475.847 760.031 474.839 758.951 472.679 758.951 C
464.327 758.951 L
464.327 782.999 L
b
0.000 0.000 0.000 1.000 K
0 j
0 J
0.287 w
[]0 d
0.000 0.000 0.000 0.498 k
182.375 1072.367 m
178.631 1072.367 L
178.631 1048.319 L
182.375 1048.319 L
182.375 1072.367 L
b
0.000 0.000 0.000 1.000 K
0 j
0 J
0.287 w
[]0 d
0.000 0.000 0.000 0.498 k
464.327 782.999 m
467.999 782.999 L
467.999 758.951 L
464.327 758.951 L
464.327 782.999 L
b
u
u
0.000 0.000 0.000 1.000 K
0 j
0 J
0.287 w
[]0 d
302.975 963.791 m
443.807 963.791 L
S
U
U
u
u
0.000 0.000 0.000 1.000 K
0 j
0 J
0.287 w
[]0 d
343.655 674.423 m
202.823 674.423 L
S
U
U
0.000 0.000 0.000 1.000 K
0 j
0 J
0.287 w
[]0 d
0.000 0.000 0.000 0.498 k
138.167 952.775 m
442.223 952.775 L
442.223 944.855 L
146.807 944.855 L
141.695 944.711 139.103 945.791 138.167 952.775 C
b
0.000 0.000 0.000 1.000 K
0 j
0 J
0.287 w
[]0 d
0.000 0.000 0.000 0.498 k
508.535 663.407 m
204.407 663.407 L
204.407 655.559 L
499.895 655.559 L
505.007 655.343 507.599 656.423 508.535 663.407 C
b
0.000 0.000 0.000 1.000 K
0 j
0 J
0.287 w
[]0 d
0.000 0.000 0.000 0.498 k
-9.071 991.583 m
10.295 991.583 L
10.295 967.967 L
-12.671 969.479 L
-16.919 969.119 -18.215 980.063 -18.431 987.695 C
-18.215 990.431 -13.031 991.511 -9.071 991.583 C
b
0.000 0.000 0.000 1.000 K
0 j
0 J
0.287 w
[]0 d
0.000 0.000 0.000 0.498 k
655.775 702.287 m
636.407 702.287 L
636.407 678.599 L
659.375 680.111 L
663.623 679.751 664.919 690.767 665.135 698.327 C
664.919 701.135 659.735 702.143 655.775 702.287 C
b
u
u
0.000 0.000 0.000 1.000 K
0 j
0 J
0.287 w
[]0 d
554.399 971.279 m
661.247 979.199 L
S
U
U
u
u
0.000 0.000 0.000 1.000 K
0 j
0 J
0.287 w
[]0 d
92.303 681.911 m
-14.543 689.903 L
S
U
U
0.000 0.000 0.000 1.000 K
0 j
0 J
0.287 w
[]0 d
0.000 0.000 0.000 0.200 k
128.663 1021.967 m
135.647 1021.967 l
136.367 1021.967 136.871 1022.471 136.871 1023.191 c
136.871 1027.655 l
136.871 1028.375 136.367 1028.879 135.647 1028.879 c
128.663 1028.879 l
127.943 1028.879 127.439 1028.375 127.439 1027.655 c
127.439 1023.191 l
127.439 1022.471 127.943 1021.967 128.663 1021.967 c
b
0.000 0.000 0.000 1.000 K
0 j
0 J
0.287 w
[]0 d
0.000 0.000 0.000 0.200 k
518.039 732.671 m
511.055 732.671 l
510.335 732.671 509.831 733.175 509.831 733.895 c
509.831 738.359 l
509.831 739.079 510.335 739.583 511.055 739.583 c
518.039 739.583 l
518.759 739.583 519.264 739.079 519.264 738.359 c
519.264 733.895 l
519.264 733.175 518.759 732.671 518.039 732.671 c
b
0.000 0.000 0.000 1.000 K
0 j
0 J
0.287 w
[]0 d
0.000 0.000 0.000 1.000 k
82.007 901.295 m
109.151 901.295 131.399 923.471 131.399 950.759 c
131.399 977.903 109.151 1000.151 82.007 1000.151 c
54.719 1000.151 32.543 977.903 32.543 950.759 c
32.543 923.471 54.719 901.295 82.007 901.295 c
b
0.000 0.000 0.000 1.000 K
0 j
0 J
0.287 w
[]0 d
0.000 0.000 0.000 1.000 k
564.695 611.927 m
537.551 611.927 515.303 634.175 515.303 661.391 c
515.303 688.607 537.551 710.855 564.695 710.855 c
591.983 710.855 614.159 688.607 614.159 661.391 c
614.159 634.175 591.983 611.927 564.695 611.927 c
b
0.000 0.000 0.000 0.000 k
82.007 920.951 m
98.351 920.951 111.743 934.343 111.743 950.759 c
111.743 967.103 98.351 980.495 82.007 980.495 c
65.591 980.495 52.199 967.103 52.199 950.759 c
52.199 934.343 65.591 920.951 82.007 920.951 c
f
0.000 0.000 0.000 0.000 k
564.695 631.655 m
548.351 631.655 534.959 645.048 534.959 661.463 c
534.959 677.735 548.351 691.199 564.695 691.199 c
581.111 691.199 594.503 677.735 594.503 661.463 c
594.503 645.048 581.111 631.655 564.695 631.655 c
f
0.000 0.000 0.000 1.000 k
81.935 941.399 m
87.119 941.399 91.295 945.575 91.295 950.687 c
91.295 955.871 87.119 960.047 81.935 960.047 c
76.823 960.047 72.647 955.871 72.647 950.687 c
72.647 945.575 76.823 941.399 81.935 941.399 c
f
0.000 0.000 0.000 1.000 k
564.767 652.031 m
559.583 652.031 555.407 656.207 555.407 661.391 c
555.407 666.503 559.583 670.679 564.767 670.679 c
569.879 670.679 574.055 666.503 574.055 661.391 c
574.055 656.207 569.879 652.031 564.767 652.031 c
f
0.000 0.000 0.000 1.000 k
81.935 941.399 m
87.119 941.399 91.295 945.575 91.295 950.687 c
91.295 955.871 87.119 960.047 81.935 960.047 c
76.823 960.047 72.647 955.871 72.647 950.687 c
72.647 945.575 76.823 941.399 81.935 941.399 c
f
0.000 0.000 0.000 1.000 k
564.767 652.031 m
559.583 652.031 555.407 656.207 555.407 661.391 c
555.407 666.503 559.583 670.679 564.767 670.679 c
569.879 670.679 574.055 666.503 574.055 661.391 c
574.055 656.207 569.879 652.031 564.767 652.031 c
f
0.000 0.000 0.000 1.000 k
80.783 966.599 m
81.071 966.599 81.503 966.599 81.935 966.599 c
82.223 966.599 82.655 966.599 82.943 966.599 c
83.375 966.671 84.311 967.751 84.671 968.687 c
84.959 969.335 85.319 970.127 85.535 970.919 c
85.607 971.639 85.823 972.503 85.823 973.223 c
85.895 974.087 85.103 975.455 84.167 975.743 c
83.375 975.959 82.655 976.031 81.935 976.031 c
81.071 976.031 80.351 975.959 79.703 975.743 c
78.695 975.455 77.903 974.087 77.903 973.223 c
77.903 972.503 78.263 971.639 78.479 970.919 c
78.551 970.127 78.839 969.407 79.199 968.687 c
79.487 967.823 80.351 966.671 80.783 966.599 c
f
0.000 0.000 0.000 1.000 k
565.919 677.231 m
565.631 677.231 565.199 677.231 564.767 677.231 c
564.479 677.231 564.048 677.231 563.759 677.231 c
563.327 677.375 562.391 678.383 562.031 679.319 c
561.743 679.967 561.383 680.831 561.168 681.551 c
561.096 682.271 560.879 683.135 560.879 683.855 c
560.807 684.719 561.599 686.087 562.535 686.375 c
563.327 686.591 564.048 686.735 564.767 686.735 c
565.631 686.735 566.351 686.591 567.000 686.375 c
568.007 686.087 568.799 684.719 568.799 683.855 c
568.799 683.135 568.439 682.271 568.223 681.551 c
568.151 680.831 567.863 680.111 567.503 679.319 c
567.216 678.527 566.351 677.375 565.919 677.231 c
f
0.000 0.000 0.000 1.000 k
83.015 934.991 m
82.655 934.991 82.367 935.135 81.935 935.135 c
81.503 935.135 81.215 935.135 80.783 934.991 c
80.351 934.919 79.487 933.983 79.199 932.975 c
78.911 932.399 78.479 931.535 78.335 930.671 c
78.263 930.095 77.975 929.231 77.975 928.511 c
77.975 927.647 78.695 926.135 79.703 925.919 c
80.351 925.775 81.215 925.559 81.935 925.559 c
82.655 925.559 83.447 925.775 84.167 925.919 c
85.103 926.135 85.967 927.647 85.823 928.511 c
85.823 929.231 85.535 929.951 85.391 930.671 c
85.319 931.463 85.031 932.255 84.671 932.975 c
84.384 933.839 83.447 934.919 83.015 934.991 c
f
0.000 0.000 0.000 1.000 k
563.687 645.695 m
564.048 645.695 564.336 645.767 564.767 645.767 c
565.199 645.767 565.487 645.767 565.919 645.695 c
566.351 645.551 567.216 644.615 567.503 643.679 c
567.791 643.031 568.223 642.168 568.367 641.375 c
568.439 640.727 568.727 639.863 568.727 639.144 c
568.727 638.279 568.007 636.839 567.000 636.623 c
566.351 636.407 565.487 636.192 564.767 636.192 c
564.048 636.192 563.255 636.407 562.535 636.623 c
561.599 636.839 560.735 638.279 560.879 639.144 c
560.879 639.863 561.168 640.655 561.312 641.375 c
561.383 642.096 561.671 642.959 562.031 643.679 c
562.319 644.543 563.255 645.551 563.687 645.695 c
f
0.000 0.000 0.000 1.000 k
69.839 961.271 m
70.055 961.487 70.415 961.703 70.703 961.991 c
70.991 962.279 71.207 962.495 71.567 962.855 c
71.783 963.143 71.567 964.511 71.207 965.447 c
70.920 966.167 70.559 966.959 70.199 967.535 c
69.768 968.183 69.335 968.975 68.831 969.479 c
68.183 970.199 66.671 970.487 65.735 969.983 c
65.087 969.767 64.512 969.263 63.935 968.759 c
63.431 968.111 62.999 967.535 62.711 966.959 c
62.135 966.023 62.495 964.511 63.215 963.863 c
63.719 963.359 64.583 963.071 65.087 962.639 c
65.879 962.207 66.455 961.775 67.247 961.487 c
68.183 961.271 69.551 961.055 69.839 961.271 c
f
0.000 0.000 0.000 1.000 k
576.863 671.903 m
576.647 672.120 576.288 672.335 576.000 672.623 c
575.711 672.983 575.495 673.199 575.135 673.487 c
574.919 673.847 575.135 675.215 575.495 676.151 c
575.783 676.871 576.144 677.591 576.503 678.239 c
576.935 678.887 577.367 679.607 577.871 680.111 c
578.519 680.903 580.031 681.191 580.967 680.687 c
581.615 680.471 582.192 679.895 582.767 679.391 c
583.271 678.743 583.703 678.239 583.991 677.591 c
584.567 676.655 584.207 675.215 583.487 674.567 c
582.983 673.991 582.120 673.703 581.615 673.271 c
580.823 672.839 580.247 672.479 579.455 672.120 c
578.519 671.903 577.151 671.687 576.863 671.903 c
f
0.000 0.000 0.000 1.000 k
93.743 940.535 m
93.527 940.319 93.239 939.959 93.023 939.671 c
92.807 939.455 92.519 939.239 92.159 938.951 c
91.943 938.519 92.087 937.223 92.519 936.287 c
92.807 935.567 93.023 934.847 93.527 934.127 c
93.959 933.551 94.391 932.831 94.895 932.327 c
95.471 931.535 97.055 931.175 97.991 931.679 c
98.495 931.967 99.215 932.543 99.647 933.047 c
100.295 933.551 100.727 934.199 101.015 934.703 c
101.519 935.639 101.159 937.223 100.367 937.799 c
99.863 938.303 99.143 938.735 98.495 939.167 c
97.991 939.599 97.127 939.959 96.407 940.175 c
95.543 940.535 94.175 940.751 93.743 940.535 c
f
0.000 0.000 0.000 1.000 k
552.959 651.168 m
553.175 650.951 553.463 650.663 553.679 650.375 c
553.895 650.159 554.183 649.943 554.543 649.583 c
554.759 649.151 554.615 647.927 554.183 646.991 c
553.895 646.271 553.679 645.479 553.175 644.759 c
552.743 644.255 552.312 643.463 551.807 642.959 c
551.231 642.239 549.647 641.807 548.711 642.311 c
548.207 642.671 547.487 643.175 547.055 643.679 c
546.408 644.255 545.975 644.903 545.687 645.407 c
545.183 646.343 545.543 647.927 546.336 648.431 c
546.839 649.007 547.559 649.367 548.207 649.799 c
548.711 650.231 549.575 650.663 550.295 650.879 c
551.159 651.168 552.527 651.383 552.959 651.168 c
f
0.000 0.000 0.000 1.000 k
66.095 949.751 m
66.095 950.111 66.095 950.399 66.095 950.831 c
66.095 951.263 66.095 951.551 66.095 951.983 c
66.024 952.415 64.943 953.279 64.007 953.639 c
63.359 953.855 62.567 954.287 61.775 954.431 c
61.199 954.647 60.191 954.791 59.471 954.791 c
58.607 954.791 57.239 954.071 56.951 953.063 c
56.735 952.415 56.663 951.551 56.663 950.831 c
56.663 950.111 56.735 949.319 56.951 948.743 c
57.239 947.663 58.607 946.799 59.471 946.943 c
60.191 946.943 61.055 947.231 61.775 947.375 c
62.567 947.447 63.287 947.735 64.007 948.095 c
64.943 948.383 66.024 949.319 66.095 949.751 c
f
0.000 0.000 0.000 1.000 k
580.607 660.455 m
580.607 660.743 580.607 661.103 580.607 661.463 c
580.607 661.895 580.607 662.255 580.607 662.615 c
580.679 663.048 581.759 663.911 582.695 664.343 c
583.343 664.559 584.135 664.991 584.927 665.063 c
585.503 665.279 586.511 665.495 587.231 665.495 c
588.096 665.495 589.463 664.775 589.751 663.695 c
589.967 663.048 590.039 662.255 590.039 661.463 c
590.039 660.743 589.967 660.024 589.751 659.375 c
589.463 658.367 588.096 657.503 587.231 657.575 c
586.511 657.575 585.647 657.935 584.927 658.007 c
584.135 658.151 583.415 658.439 582.695 658.727 c
581.759 659.087 580.679 660.024 580.607 660.455 c
f
0.000 0.000 0.000 1.000 k
97.631 951.911 m
97.631 951.623 97.559 951.191 97.559 950.759 c
97.559 950.471 97.559 950.039 97.631 949.751 c
97.775 949.319 98.711 948.383 99.647 948.023 c
100.367 947.735 101.159 947.375 101.951 947.159 c
102.599 947.087 103.463 946.871 104.183 946.871 c
105.119 946.799 106.487 947.591 106.703 948.671 c
106.991 949.319 107.135 950.039 107.135 950.759 c
107.135 951.623 106.991 952.343 106.703 952.991 c
106.487 953.999 105.119 954.791 104.183 954.791 c
103.463 954.791 102.671 954.431 101.951 954.359 c
101.231 954.143 100.367 953.855 99.647 953.639 c
98.783 953.207 97.775 952.343 97.631 951.911 c
f
0.000 0.000 0.000 1.000 k
549.072 662.615 m
549.072 662.255 549.144 661.895 549.144 661.463 c
549.144 661.103 549.144 660.671 549.072 660.383 c
548.927 659.951 547.991 659.015 547.055 658.727 c
546.336 658.367 545.543 658.079 544.751 657.863 c
544.103 657.719 543.240 657.575 542.519 657.575 c
541.583 657.431 540.216 658.295 540.000 659.303 c
539.711 659.951 539.567 660.671 539.567 661.463 c
539.567 662.255 539.711 663.048 540.000 663.623 c
540.216 664.703 541.583 665.423 542.519 665.423 c
543.240 665.423 544.031 665.135 544.751 664.991 c
545.471 664.775 546.336 664.487 547.055 664.271 c
547.919 663.839 548.927 663.048 549.072 662.615 c
f
0.000 0.000 0.000 1.000 k
71.423 938.951 m
71.207 939.023 70.991 939.455 70.775 939.671 c
70.487 939.959 70.271 940.175 69.839 940.391 c
69.623 940.751 68.183 940.607 67.319 940.175 c
66.599 939.959 65.879 939.671 65.159 939.239 c
64.583 938.735 63.863 938.303 63.359 937.799 c
62.567 937.223 62.279 935.639 62.783 934.703 c
62.999 934.199 63.575 933.551 64.079 933.047 c
64.727 932.399 65.231 931.967 65.879 931.679 c
66.815 931.175 68.256 931.535 68.903 932.327 c
69.335 932.831 69.768 933.551 70.199 934.199 c
70.631 934.847 70.920 935.639 71.207 936.287 c
71.567 937.151 71.783 938.519 71.423 938.951 c
f
0.000 0.000 0.000 1.000 k
575.279 649.583 m
575.495 649.727 575.711 650.159 575.927 650.303 c
576.216 650.663 576.431 650.879 576.863 651.096 c
577.079 651.383 578.519 651.311 579.383 650.879 c
580.103 650.663 580.823 650.303 581.543 649.943 c
582.120 649.367 582.839 648.935 583.343 648.431 c
584.135 647.927 584.423 646.343 583.919 645.407 c
583.703 644.831 583.127 644.255 582.623 643.679 c
581.975 643.103 581.471 642.671 580.823 642.311 c
579.887 641.807 578.447 642.239 577.799 642.959 c
577.367 643.463 576.935 644.255 576.503 644.831 c
576.072 645.479 575.783 646.343 575.495 646.991 c
575.135 647.783 574.919 649.151 575.279 649.583 c
f
0.000 0.000 0.000 1.000 k
92.303 962.855 m
92.519 962.639 92.807 962.279 93.023 961.991 c
93.239 961.775 93.527 961.487 93.743 961.271 c
94.175 961.055 95.543 961.127 96.479 961.487 c
97.127 961.919 97.991 962.135 98.567 962.639 c
99.215 962.855 100.007 963.359 100.511 963.863 c
101.159 964.439 101.519 966.023 101.015 966.959 c
100.799 967.607 100.295 968.183 99.791 968.759 c
99.215 969.263 98.567 969.767 97.991 969.983 c
97.055 970.559 95.471 970.127 94.895 969.479 c
94.463 968.975 93.959 968.183 93.671 967.607 c
93.239 966.959 92.807 966.239 92.591 965.447 c
92.159 964.655 92.087 963.143 92.303 962.855 c
f
0.000 0.000 0.000 1.000 k
554.399 673.487 m
554.183 673.271 553.895 672.983 553.679 672.695 c
553.463 672.479 553.175 672.120 552.959 671.903 c
552.527 671.687 551.159 671.831 550.223 672.120 c
549.575 672.551 548.711 672.767 548.135 673.271 c
547.487 673.487 546.695 674.063 546.192 674.567 c
545.543 675.072 545.183 676.655 545.687 677.591 c
545.903 678.239 546.408 678.887 546.911 679.391 c
547.487 679.895 548.135 680.471 548.711 680.687 c
549.647 681.191 551.231 680.759 551.807 680.111 c
552.240 679.607 552.743 678.887 553.031 678.239 c
553.463 677.591 553.895 676.871 554.111 676.151 c
554.543 675.287 554.615 673.847 554.399 673.487 c
f
0.000 0.000 0.000 1.000 k
74.879 957.095 m
75.527 957.095 76.031 957.599 76.031 958.175 c
76.031 958.823 75.527 959.327 74.879 959.327 c
74.303 959.327 73.799 958.823 73.799 958.175 c
73.799 957.599 74.303 957.095 74.879 957.095 c
f
0.000 0.000 0.000 1.000 k
571.823 667.727 m
571.175 667.727 570.671 668.231 570.671 668.879 c
570.671 669.455 571.175 669.959 571.823 669.959 c
572.399 669.959 572.903 669.455 572.903 668.879 c
572.903 668.231 572.399 667.727 571.823 667.727 c
f
0.000 0.000 0.000 1.000 k
89.135 942.191 m
89.711 942.191 90.215 942.695 90.215 943.343 c
90.215 943.919 89.711 944.423 89.135 944.423 c
88.487 944.423 87.983 943.919 87.983 943.343 c
87.983 942.695 88.487 942.191 89.135 942.191 c
f
0.000 0.000 0.000 1.000 k
557.567 652.895 m
556.991 652.895 556.487 653.399 556.487 653.975 c
556.487 654.623 556.991 655.127 557.567 655.127 c
558.216 655.127 558.719 654.623 558.719 653.975 c
558.719 653.399 558.216 652.895 557.567 652.895 c
f
0.000 0.000 0.000 1.000 k
82.583 960.263 m
83.015 959.759 83.663 959.687 84.167 960.047 c
84.671 960.479 84.743 961.127 84.384 961.631 c
83.951 962.135 83.303 962.207 82.799 961.847 c
82.295 961.415 82.223 960.767 82.583 960.263 c
f
0.000 0.000 0.000 1.000 k
564.120 670.967 m
563.687 670.463 563.039 670.391 562.535 670.751 c
562.031 671.111 561.959 671.831 562.319 672.335 c
562.751 672.767 563.399 672.911 563.903 672.479 c
564.407 672.120 564.479 671.399 564.120 670.967 c
f
0.000 0.000 0.000 1.000 k
79.559 939.887 m
79.991 939.383 80.640 939.311 81.143 939.671 c
81.647 940.031 81.719 940.751 81.359 941.255 c
80.927 941.687 80.279 941.831 79.775 941.399 c
79.271 941.039 79.199 940.319 79.559 939.887 c
f
0.000 0.000 0.000 1.000 k
567.144 650.519 m
566.711 650.015 566.063 649.943 565.559 650.303 c
565.055 650.735 564.983 651.383 565.343 651.887 c
565.775 652.391 566.423 652.463 566.927 652.103 c
567.431 651.671 567.503 651.024 567.144 650.519 c
f
0.000 0.000 0.000 1.000 k
90.215 955.583 m
90.000 955.007 90.359 954.359 90.935 954.215 c
91.511 953.999 92.159 954.287 92.303 954.863 c
92.519 955.439 92.231 956.087 91.655 956.303 c
91.079 956.519 90.431 956.159 90.215 955.583 c
f
0.000 0.000 0.000 1.000 k
556.487 666.287 m
556.703 665.711 556.343 665.063 555.767 664.847 c
555.192 664.631 554.543 664.919 554.399 665.567 c
554.183 666.144 554.471 666.719 555.048 666.935 c
555.623 667.151 556.271 666.863 556.487 666.287 c
f
0.000 0.000 0.000 1.000 k
71.640 946.943 m
71.423 946.367 71.711 945.719 72.287 945.503 c
72.863 945.287 73.512 945.575 73.727 946.223 c
73.943 946.799 73.583 947.375 73.007 947.591 c
72.431 947.807 71.855 947.519 71.640 946.943 c
f
0.000 0.000 0.000 1.000 k
575.063 657.575 m
575.279 657.000 574.991 656.351 574.415 656.207 c
573.839 655.991 573.192 656.279 572.975 656.855 c
572.759 657.431 573.120 658.079 573.695 658.295 c
574.271 658.511 574.847 658.151 575.063 657.575 c
f
0.000 0.000 0.000 0.000 k
81.863 945.575 m
84.743 945.575 86.975 947.807 86.975 950.615 c
86.975 953.495 84.743 955.727 81.863 955.727 c
79.055 955.727 76.823 953.495 76.823 950.615 c
76.823 947.807 79.055 945.575 81.863 945.575 c
f
0.000 0.000 0.000 0.000 k
564.839 656.207 m
561.959 656.207 559.727 658.511 559.727 661.319 c
559.727 664.127 561.959 666.431 564.839 666.431 c
567.647 666.431 569.879 664.127 569.879 661.319 c
569.879 658.511 567.647 656.207 564.839 656.207 c
f
0.000 0.000 0.000 1.000 k
81.935 946.799 m
84.095 946.799 85.823 948.527 85.823 950.687 c
85.823 952.847 84.095 954.575 81.935 954.575 c
79.775 954.575 78.047 952.847 78.047 950.687 c
78.047 948.527 79.775 946.799 81.935 946.799 c
f
0.000 0.000 0.000 1.000 k
564.767 657.503 m
562.607 657.503 560.879 659.231 560.879 661.391 c
560.879 663.551 562.607 665.279 564.767 665.279 c
566.927 665.279 568.655 663.551 568.655 661.391 c
568.655 659.231 566.927 657.503 564.767 657.503 c
f
0.000 0.000 0.000 1.000 K
0 j
0 J
0.287 w
[]0 d
0.000 0.000 0.000 1.000 k
499.967 901.295 m
527.111 901.295 549.360 923.471 549.360 950.759 c
549.360 977.903 527.111 1000.151 499.967 1000.151 c
472.679 1000.151 450.431 977.903 450.431 950.759 c
450.431 923.471 472.679 901.295 499.967 901.295 c
b
0.000 0.000 0.000 1.000 K
0 j
0 J
0.287 w
[]0 d
0.000 0.000 0.000 1.000 k
146.735 611.927 m
119.591 611.927 97.343 634.175 97.343 661.391 c
97.343 688.607 119.591 710.855 146.735 710.855 c
174.024 710.855 196.199 688.607 196.199 661.391 c
196.199 634.175 174.024 611.927 146.735 611.927 c
b
0.000 0.000 0.000 0.000 k
499.967 920.951 m
516.312 920.951 529.703 934.343 529.703 950.759 c
529.703 967.103 516.312 980.495 499.967 980.495 c
483.551 980.495 470.159 967.103 470.159 950.759 c
470.159 934.343 483.551 920.951 499.967 920.951 c
f
0.000 0.000 0.000 0.000 k
146.735 631.655 m
130.391 631.655 116.999 645.048 116.999 661.463 c
116.999 677.735 130.391 691.199 146.735 691.199 c
163.151 691.199 176.543 677.735 176.543 661.463 c
176.543 645.048 163.151 631.655 146.735 631.655 c
f
0.000 0.000 0.000 1.000 k
499.967 941.399 m
505.151 941.399 509.327 945.575 509.327 950.687 c
509.327 955.871 505.151 960.047 499.967 960.047 c
494.855 960.047 490.679 955.871 490.679 950.687 c
490.679 945.575 494.855 941.399 499.967 941.399 c
f
0.000 0.000 0.000 1.000 k
146.735 652.031 m
141.551 652.031 137.375 656.207 137.375 661.391 c
137.375 666.503 141.551 670.679 146.735 670.679 c
151.847 670.679 156.024 666.503 156.024 661.391 c
156.024 656.207 151.847 652.031 146.735 652.031 c
f
0.000 0.000 0.000 1.000 k
499.967 941.399 m
505.151 941.399 509.327 945.575 509.327 950.687 c
509.327 955.871 505.151 960.047 499.967 960.047 c
494.855 960.047 490.679 955.871 490.679 950.687 c
490.679 945.575 494.855 941.399 499.967 941.399 c
f
0.000 0.000 0.000 1.000 k
146.735 652.031 m
141.551 652.031 137.375 656.207 137.375 661.391 c
137.375 666.503 141.551 670.679 146.735 670.679 c
151.847 670.679 156.024 666.503 156.024 661.391 c
156.024 656.207 151.847 652.031 146.735 652.031 c
f
0.000 0.000 0.000 1.000 k
498.959 966.599 m
499.247 966.599 499.679 966.599 500.111 966.599 c
500.399 966.599 500.831 966.599 501.119 966.599 c
501.551 966.671 502.487 967.751 502.847 968.687 c
503.135 969.335 503.495 970.127 503.711 970.919 c
503.783 971.639 503.999 972.503 503.999 973.223 c
504.071 974.087 503.279 975.455 502.343 975.743 c
501.551 975.959 500.831 976.031 500.111 976.031 c
499.247 976.031 498.527 975.959 497.879 975.743 c
496.871 975.455 496.079 974.087 496.079 973.223 c
496.079 972.503 496.439 971.639 496.655 970.919 c
496.727 970.127 497.015 969.407 497.375 968.687 c
497.663 967.823 498.527 966.671 498.959 966.599 c
f
0.000 0.000 0.000 1.000 k
147.743 677.231 m
147.455 677.231 147.024 677.231 146.591 677.231 c
146.304 677.231 145.871 677.231 145.584 677.231 c
145.151 677.375 144.215 678.383 143.855 679.319 c
143.567 679.967 143.207 680.831 142.991 681.551 c
142.919 682.271 142.703 683.135 142.703 683.855 c
142.631 684.719 143.423 686.087 144.359 686.375 c
145.151 686.591 145.871 686.735 146.591 686.735 c
147.455 686.735 148.175 686.591 148.823 686.375 c
149.831 686.087 150.623 684.719 150.623 683.855 c
150.623 683.135 150.263 682.271 150.048 681.551 c
149.975 680.831 149.687 680.111 149.327 679.319 c
149.039 678.527 148.175 677.375 147.743 677.231 c
f
0.000 0.000 0.000 1.000 k
501.191 934.991 m
500.831 934.991 500.543 935.135 500.111 935.135 c
499.679 935.135 499.391 935.135 498.959 934.991 c
498.527 934.919 497.663 933.983 497.375 932.975 c
497.087 932.399 496.655 931.535 496.511 930.671 c
496.439 930.095 496.151 929.231 496.151 928.511 c
496.151 927.647 496.871 926.135 497.879 925.919 c
498.527 925.775 499.391 925.559 500.111 925.559 c
500.831 925.559 501.623 925.775 502.343 925.919 c
503.279 926.135 504.143 927.647 503.999 928.511 c
503.999 929.231 503.711 929.951 503.567 930.671 c
503.495 931.463 503.207 932.255 502.847 932.975 c
502.559 933.839 501.623 934.919 501.191 934.991 c
f
0.000 0.000 0.000 1.000 k
145.512 645.695 m
145.871 645.695 146.159 645.767 146.591 645.767 c
147.024 645.767 147.311 645.767 147.743 645.695 c
148.175 645.551 149.039 644.615 149.327 643.679 c
149.615 643.031 150.048 642.168 150.191 641.375 c
150.263 640.727 150.551 639.863 150.551 639.144 c
150.551 638.279 149.831 636.839 148.823 636.623 c
148.175 636.407 147.311 636.192 146.591 636.192 c
145.871 636.192 145.079 636.407 144.359 636.623 c
143.423 636.839 142.560 638.279 142.703 639.144 c
142.703 639.863 142.991 640.655 143.135 641.375 c
143.207 642.096 143.495 642.959 143.855 643.679 c
144.143 644.543 145.079 645.551 145.512 645.695 c
f
0.000 0.000 0.000 1.000 k
488.087 961.271 m
488.303 961.487 488.591 961.703 488.879 961.991 c
489.239 962.279 489.455 962.495 489.743 962.855 c
489.959 963.143 489.743 964.511 489.455 965.447 c
489.095 966.167 488.807 966.959 488.375 967.535 c
487.943 968.183 487.511 968.975 487.007 969.479 c
486.359 970.199 484.847 970.487 483.911 969.983 c
483.263 969.767 482.687 969.263 482.111 968.759 c
481.607 968.111 481.175 967.535 480.887 966.959 c
480.311 966.023 480.671 964.511 481.391 963.863 c
481.895 963.359 482.759 963.071 483.263 962.639 c
484.055 962.207 484.631 961.775 485.423 961.487 c
486.359 961.271 487.727 961.055 488.087 961.271 c
f
0.000 0.000 0.000 1.000 k
158.615 671.903 m
158.399 672.120 158.111 672.335 157.823 672.623 c
157.463 672.983 157.247 673.199 156.959 673.487 c
156.743 673.847 156.959 675.215 157.247 676.151 c
157.607 676.871 157.895 677.591 158.327 678.239 c
158.759 678.887 159.191 679.607 159.695 680.111 c
160.343 680.903 161.783 681.191 162.719 680.687 c
163.367 680.471 164.015 679.895 164.519 679.391 c
165.024 678.743 165.455 678.239 165.815 677.591 c
166.319 676.655 166.031 675.215 165.239 674.567 c
164.735 673.991 163.871 673.703 163.367 673.271 c
162.647 672.839 162.000 672.479 161.280 672.120 c
160.343 671.903 158.975 671.687 158.615 671.903 c
f
0.000 0.000 0.000 1.000 k
511.991 940.535 m
511.775 940.319 511.487 939.959 511.271 939.671 c
511.055 939.455 510.767 939.239 510.407 938.951 c
510.191 938.519 510.335 937.223 510.767 936.287 c
511.055 935.567 511.271 934.847 511.775 934.127 c
512.207 933.551 512.639 932.831 513.144 932.327 c
513.719 931.535 515.303 931.175 516.240 931.679 c
516.743 931.967 517.463 932.543 517.895 933.047 c
518.543 933.551 518.975 934.199 519.264 934.703 c
519.767 935.639 519.408 937.223 518.615 937.799 c
518.111 938.303 517.391 938.735 516.743 939.167 c
516.240 939.599 515.375 939.959 514.655 940.175 c
513.791 940.535 512.423 940.751 511.991 940.535 c
f
0.000 0.000 0.000 1.000 k
134.711 651.168 m
134.927 650.951 135.215 650.663 135.431 650.375 c
135.647 650.159 135.935 649.943 136.295 649.583 c
136.512 649.151 136.367 647.927 135.935 646.991 c
135.647 646.271 135.431 645.479 134.927 644.759 c
134.495 644.255 134.063 643.463 133.560 642.959 c
132.983 642.239 131.399 641.807 130.463 642.311 c
129.959 642.671 129.239 643.175 128.807 643.679 c
128.159 644.255 127.727 644.903 127.439 645.407 c
126.935 646.343 127.295 647.927 128.087 648.431 c
128.591 649.007 129.311 649.367 129.959 649.799 c
130.463 650.231 131.328 650.663 132.048 650.879 c
132.911 651.168 134.280 651.383 134.711 651.168 c
f
0.000 0.000 0.000 1.000 k
484.271 949.751 m
484.271 950.111 484.271 950.399 484.271 950.831 c
484.271 951.263 484.271 951.551 484.271 951.983 c
484.127 952.415 483.119 953.279 482.183 953.639 c
481.535 953.855 480.671 954.287 479.951 954.431 c
479.303 954.647 478.367 954.791 477.647 954.791 c
476.783 954.791 475.415 954.071 475.127 953.063 c
474.911 952.415 474.767 951.551 474.767 950.831 c
474.767 950.111 474.911 949.319 475.127 948.743 c
475.415 947.663 476.783 946.799 477.647 946.943 c
478.367 946.943 479.231 947.231 479.951 947.375 c
480.671 947.447 481.391 947.735 482.183 948.095 c
483.119 948.383 484.127 949.319 484.271 949.751 c
f
0.000 0.000 0.000 1.000 k
162.431 660.455 m
162.431 660.743 162.431 661.103 162.431 661.463 c
162.431 661.895 162.431 662.255 162.431 662.615 c
162.503 663.048 163.583 663.911 164.519 664.343 c
165.167 664.559 165.959 664.991 166.751 665.063 c
167.327 665.279 168.335 665.495 169.055 665.495 c
169.919 665.495 171.287 664.775 171.575 663.695 c
171.791 663.048 171.863 662.255 171.863 661.463 c
171.863 660.743 171.791 660.024 171.575 659.375 c
171.287 658.367 169.919 657.503 169.055 657.575 c
168.335 657.575 167.471 657.935 166.751 658.007 c
165.959 658.151 165.239 658.439 164.519 658.727 c
163.583 659.087 162.503 660.024 162.431 660.455 c
f
0.000 0.000 0.000 1.000 k
515.879 951.911 m
515.879 951.623 515.807 951.191 515.807 950.759 c
515.807 950.471 515.807 950.039 515.879 949.751 c
516.024 949.319 516.959 948.383 517.895 948.023 c
518.615 947.735 519.408 947.375 520.199 947.159 c
520.847 947.087 521.711 946.871 522.432 946.871 c
523.367 946.799 524.735 947.591 524.951 948.671 c
525.240 949.319 525.384 950.039 525.384 950.759 c
525.384 951.623 525.240 952.343 524.951 952.991 c
524.735 953.999 523.367 954.791 522.432 954.791 c
521.711 954.791 520.919 954.431 520.199 954.359 c
519.479 954.143 518.615 953.855 517.895 953.639 c
517.031 953.207 516.024 952.343 515.879 951.911 c
f
0.000 0.000 0.000 1.000 k
130.823 662.615 m
130.823 662.255 130.895 661.895 130.895 661.463 c
130.895 661.103 130.895 660.671 130.823 660.383 c
130.679 659.951 129.743 659.015 128.807 658.727 c
128.087 658.367 127.295 658.079 126.503 657.863 c
125.855 657.719 124.991 657.575 124.271 657.575 c
123.335 657.431 121.967 658.295 121.751 659.303 c
121.463 659.951 121.319 660.671 121.319 661.463 c
121.319 662.255 121.463 663.048 121.751 663.623 c
121.967 664.703 123.335 665.423 124.271 665.423 c
124.991 665.423 125.783 665.135 126.503 664.991 c
127.223 664.775 128.087 664.487 128.807 664.271 c
129.671 663.839 130.679 663.048 130.823 662.615 c
f
0.000 0.000 0.000 1.000 k
489.743 938.951 m
489.527 939.023 489.311 939.455 489.095 939.671 c
488.807 939.959 488.591 940.175 488.159 940.391 c
487.943 940.751 486.431 940.607 485.567 940.175 c
484.847 939.959 484.127 939.671 483.407 939.239 c
482.831 938.735 482.111 938.303 481.607 937.799 c
480.815 937.223 480.527 935.639 481.031 934.703 c
481.247 934.199 481.823 933.551 482.327 933.047 c
482.975 932.399 483.479 931.967 484.127 931.679 c
485.063 931.175 486.503 931.535 487.223 932.327 c
487.655 932.831 488.015 933.551 488.447 934.199 c
488.879 934.847 489.167 935.639 489.527 936.287 c
489.815 937.151 490.031 938.519 489.743 938.951 c
f
0.000 0.000 0.000 1.000 k
156.959 649.583 m
157.175 649.727 157.391 650.159 157.607 650.303 c
157.895 650.663 158.111 650.879 158.543 651.096 c
158.759 651.383 160.271 651.311 161.063 650.879 c
161.855 650.663 162.575 650.303 163.295 649.943 c
163.799 649.367 164.591 648.935 165.095 648.431 c
165.815 647.927 166.103 646.343 165.599 645.407 c
165.383 644.831 164.879 644.255 164.375 643.679 c
163.727 643.103 163.223 642.671 162.575 642.311 c
161.639 641.807 160.127 642.239 159.479 642.959 c
159.048 643.463 158.687 644.255 158.256 644.831 c
157.823 645.479 157.536 646.343 157.175 646.991 c
156.887 647.783 156.671 649.151 156.959 649.583 c
f
0.000 0.000 0.000 1.000 k
510.551 962.855 m
510.767 962.639 511.055 962.279 511.271 961.991 c
511.487 961.775 511.775 961.487 511.991 961.271 c
512.423 961.055 513.791 961.127 514.727 961.487 c
515.375 961.919 516.240 962.135 516.815 962.639 c
517.463 962.855 518.255 963.359 518.759 963.863 c
519.408 964.439 519.767 966.023 519.264 966.959 c
519.048 967.607 518.543 968.183 518.039 968.759 c
517.463 969.263 516.815 969.767 516.240 969.983 c
515.303 970.559 513.719 970.127 513.144 969.479 c
512.711 968.975 512.207 968.183 511.919 967.607 c
511.487 966.959 511.055 966.239 510.839 965.447 c
510.407 964.655 510.335 963.143 510.551 962.855 c
f
0.000 0.000 0.000 1.000 k
136.151 673.487 m
135.935 673.271 135.647 672.983 135.431 672.695 c
135.215 672.479 134.927 672.120 134.711 671.903 c
134.280 671.687 132.911 671.831 131.975 672.120 c
131.328 672.551 130.463 672.767 129.887 673.271 c
129.239 673.487 128.447 674.063 127.943 674.567 c
127.295 675.072 126.935 676.655 127.439 677.591 c
127.655 678.239 128.159 678.887 128.663 679.391 c
129.239 679.895 129.887 680.471 130.463 680.687 c
131.399 681.191 132.983 680.759 133.560 680.111 c
133.991 679.607 134.495 678.887 134.783 678.239 c
135.215 677.591 135.647 676.871 135.863 676.151 c
136.295 675.287 136.367 673.847 136.151 673.487 c
f
0.000 0.000 0.000 1.000 k
492.911 957.095 m
493.559 957.095 494.063 957.599 494.063 958.175 c
494.063 958.823 493.559 959.327 492.911 959.327 c
492.335 959.327 491.831 958.823 491.831 958.175 c
491.831 957.599 492.335 957.095 492.911 957.095 c
f
0.000 0.000 0.000 1.000 k
153.792 667.727 m
153.143 667.727 152.639 668.231 152.639 668.879 c
152.639 669.455 153.143 669.959 153.792 669.959 c
154.367 669.959 154.871 669.455 154.871 668.879 c
154.871 668.231 154.367 667.727 153.792 667.727 c
f
0.000 0.000 0.000 1.000 k
507.095 942.191 m
507.671 942.191 508.175 942.695 508.175 943.343 c
508.175 943.919 507.671 944.423 507.095 944.423 c
506.447 944.423 505.943 943.919 505.943 943.343 c
505.943 942.695 506.447 942.191 507.095 942.191 c
f
0.000 0.000 0.000 1.000 k
139.607 652.895 m
139.031 652.895 138.527 653.399 138.527 653.975 c
138.527 654.623 139.031 655.127 139.607 655.127 c
140.256 655.127 140.759 654.623 140.759 653.975 c
140.759 653.399 140.256 652.895 139.607 652.895 c
f
0.000 0.000 0.000 1.000 k
500.687 960.263 m
501.119 959.759 501.767 959.687 502.271 960.047 c
502.775 960.479 502.847 961.127 502.487 961.631 c
502.055 962.135 501.407 962.207 500.903 961.847 c
500.399 961.415 500.327 960.767 500.687 960.263 c
f
0.000 0.000 0.000 1.000 k
146.015 670.967 m
145.584 670.463 144.935 670.391 144.431 670.751 c
143.927 671.111 143.855 671.831 144.215 672.335 c
144.647 672.767 145.295 672.911 145.799 672.479 c
146.304 672.120 146.375 671.399 146.015 670.967 c
f
0.000 0.000 0.000 1.000 k
497.663 939.887 m
498.023 939.383 498.743 939.311 499.175 939.671 c
499.679 940.031 499.751 940.751 499.391 941.255 c
499.031 941.687 498.311 941.831 497.807 941.399 c
497.375 941.039 497.231 940.319 497.663 939.887 c
f
0.000 0.000 0.000 1.000 k
149.039 650.519 m
148.679 650.015 147.959 649.943 147.527 650.303 c
147.024 650.735 146.951 651.383 147.311 651.887 c
147.671 652.391 148.391 652.463 148.895 652.103 c
149.327 651.671 149.471 651.024 149.039 650.519 c
f
0.000 0.000 0.000 1.000 k
508.391 955.583 m
508.175 955.007 508.535 954.359 509.111 954.215 c
509.687 953.999 510.335 954.287 510.479 954.863 c
510.695 955.439 510.407 956.087 509.831 956.303 c
509.255 956.519 508.607 956.159 508.391 955.583 c
f
0.000 0.000 0.000 1.000 k
138.311 666.287 m
138.527 665.711 138.167 665.063 137.591 664.847 c
137.015 664.631 136.367 664.919 136.223 665.567 c
136.007 666.144 136.295 666.719 136.871 666.935 c
137.447 667.151 138.096 666.863 138.311 666.287 c
f
0.000 0.000 0.000 1.000 k
489.671 946.943 m
489.455 946.367 489.743 945.719 490.319 945.503 c
490.895 945.287 491.543 945.575 491.759 946.223 c
491.975 946.799 491.615 947.375 491.039 947.591 c
490.463 947.807 489.887 947.519 489.671 946.943 c
f
0.000 0.000 0.000 1.000 k
157.031 657.575 m
157.247 657.000 156.959 656.351 156.383 656.207 c
155.807 655.991 155.159 656.279 154.943 656.855 c
154.727 657.431 155.087 658.079 155.663 658.295 c
156.239 658.511 156.815 658.151 157.031 657.575 c
f
0.000 0.000 0.000 0.000 k
500.039 945.575 m
502.847 945.575 505.151 947.807 505.151 950.615 c
505.151 953.495 502.847 955.727 500.039 955.727 c
497.231 955.727 494.927 953.495 494.927 950.615 c
494.927 947.807 497.231 945.575 500.039 945.575 c
f
0.000 0.000 0.000 0.000 k
146.663 656.207 m
143.855 656.207 141.551 658.511 141.551 661.319 c
141.551 664.127 143.855 666.431 146.663 666.431 c
149.471 666.431 151.775 664.127 151.775 661.319 c
151.775 658.511 149.471 656.207 146.663 656.207 c
f
0.000 0.000 0.000 1.000 k
499.967 946.799 m
502.127 946.799 503.855 948.527 503.855 950.687 c
503.855 952.847 502.127 954.575 499.967 954.575 c
497.807 954.575 496.079 952.847 496.079 950.687 c
496.079 948.527 497.807 946.799 499.967 946.799 c
f
0.000 0.000 0.000 1.000 k
146.735 657.503 m
144.575 657.503 142.847 659.231 142.847 661.391 c
142.847 663.551 144.575 665.279 146.735 665.279 c
148.895 665.279 150.623 663.551 150.623 661.391 c
150.623 659.231 148.895 657.503 146.735 657.503 c
f
0.000 0.000 0.000 1.000 K
0 j
0 J
0.287 w
[]0 d
0.000 0.000 0.000 0.498 k
652.463 1040.831 m
664.199 1040.831 L
664.631 990.431 L
652.463 990.431 L
652.463 1040.831 L
b
0.000 0.000 0.000 1.000 K
0 j
0 J
0.287 w
[]0 d
0.000 0.000 0.000 0.498 k
-5.759 751.535 m
-17.495 751.535 L
-17.927 701.063 L
-5.759 701.063 L
-5.759 751.535 L
b
0.000 0.000 0.000 1.000 K
0 j
0 J
0.287 w
[]0 d
0.000 0.000 0.000 0.200 k
655.343 1024.199 m
661.463 1024.199 l
662.255 1024.199 662.975 1024.991 662.975 1026.071 c
662.975 1037.375 l
662.975 1038.455 662.255 1039.247 661.463 1039.247 c
655.343 1039.247 l
654.479 1039.247 653.831 1038.455 653.831 1037.375 c
653.831 1026.071 l
653.831 1024.991 654.479 1024.199 655.343 1024.199 c
b
0.000 0.000 0.000 1.000 K
0 j
0 J
0.287 w
[]0 d
0.000 0.000 0.000 0.200 k
-8.639 734.903 m
-14.759 734.903 l
-15.551 734.903 -16.271 735.695 -16.271 736.775 c
-16.271 748.079 l
-16.271 749.087 -15.551 749.879 -14.759 749.879 c
-8.639 749.879 l
-7.775 749.879 -7.127 749.087 -7.127 748.079 c
-7.127 736.775 l
-7.127 735.695 -7.775 734.903 -8.639 734.903 c
b
0.000 0.000 0.000 1.000 K
0 j
0 J
0.287 w
[]0 d
0.000 0.000 0.000 0.200 k
655.343 1008.503 m
661.607 1008.503 l
662.471 1008.503 663.120 1009.295 663.120 1010.375 c
663.120 1021.679 l
663.120 1022.687 662.471 1023.479 661.607 1023.479 c
655.343 1023.479 l
654.479 1023.479 653.831 1022.687 653.831 1021.679 c
653.831 1010.375 l
653.831 1009.295 654.479 1008.503 655.343 1008.503 c
b
0.000 0.000 0.000 1.000 K
0 j
0 J
0.287 w
[]0 d
0.000 0.000 0.000 0.200 k
-8.639 719.135 m
-14.903 719.135 l
-15.767 719.135 -16.416 719.927 -16.416 721.007 c
-16.416 732.311 l
-16.416 733.391 -15.767 734.183 -14.903 734.183 c
-8.639 734.183 l
-7.775 734.183 -7.127 733.391 -7.127 732.311 c
-7.127 721.007 l
-7.127 719.927 -7.775 719.135 -8.639 719.135 c
b
0.000 0.000 0.000 1.000 K
0 j
0 J
0.287 w
[]0 d
0.000 0.000 0.000 0.200 k
655.343 992.087 m
661.607 992.087 l
662.471 992.087 663.120 992.879 663.120 993.959 c
663.120 1005.263 l
663.120 1006.271 662.471 1007.063 661.607 1007.063 c
655.343 1007.063 l
654.479 1007.063 653.831 1006.271 653.831 1005.263 c
653.831 993.959 l
653.831 992.879 654.479 992.087 655.343 992.087 c
b
0.000 0.000 0.000 1.000 K
0 j
0 J
0.287 w
[]0 d
0.000 0.000 0.000 0.200 k
-8.639 702.719 m
-14.903 702.719 l
-15.767 702.719 -16.416 703.511 -16.416 704.591 c
-16.416 715.895 l
-16.416 716.975 -15.767 717.767 -14.903 717.767 c
-8.639 717.767 l
-7.775 717.767 -7.127 716.975 -7.127 715.895 c
-7.127 704.591 l
-7.127 703.511 -7.775 702.719 -8.639 702.719 c
b
u
u
0.000 0.000 0.000 1.000 K
0 j
0 J
0.287 w
[]0 d
11.231 975.023 m
29.303 968.471 L
S
U
U
u
u
0.000 0.000 0.000 1.000 K
0 j
0 J
0.287 w
[]0 d
635.471 685.727 m
617.399 679.175 L
S
U
U
0.000 0.000 0.000 1.000 K
0 j
0 J
0.287 w
[]0 d
289.007 1023.191 m
305.783 1023.191 l
307.079 1023.191 308.087 1022.111 308.087 1020.815 c
308.087 1014.191 l
308.087 1012.895 307.079 1011.815 305.783 1011.815 c
289.007 1011.815 l
287.711 1011.815 286.703 1012.895 286.703 1014.191 c
286.703 1020.815 l
286.703 1022.111 287.711 1023.191 289.007 1023.191 c
s
0.000 0.000 0.000 1.000 K
0 j
0 J
0.287 w
[]0 d
357.623 733.823 m
340.919 733.823 l
339.623 733.823 338.543 732.815 338.543 731.519 c
338.543 724.823 l
338.543 723.527 339.623 722.519 340.919 722.519 c
357.623 722.519 l
358.919 722.519 360.000 723.527 360.000 724.823 c
360.000 731.519 l
360.000 732.815 358.919 733.823 357.623 733.823 c
s
0.000 0.000 0.000 1.000 K
0 j
0 J
0.287 w
[]0 d
0.000 0.000 0.000 0.498 k
337.751 1119.311 m
375.191 1119.311 l
377.207 1119.311 378.863 1117.727 378.935 1115.639 c
381.095 1051.415 l
381.167 1049.327 379.583 1047.743 377.567 1047.743 c
340.127 1047.743 l
338.039 1047.743 336.383 1049.327 336.311 1051.415 c
334.151 1115.639 l
334.079 1117.727 335.663 1119.311 337.751 1119.311 c
b
0.000 0.000 0.000 1.000 K
0 j
0 J
0.287 w
[]0 d
0.000 0.000 0.000 0.498 k
308.951 830.015 m
271.512 830.015 l
269.423 830.015 267.767 828.359 267.695 826.343 c
265.536 762.047 l
265.536 760.031 267.048 758.375 269.135 758.375 c
306.575 758.375 l
308.591 758.375 310.319 760.031 310.319 762.047 c
312.479 826.343 l
312.551 828.359 310.967 830.015 308.951 830.015 c
b
0.000 0.000 0.000 1.000 K
0 j
0 J
0.287 w
[]0 d
0.000 0.000 0.000 0.200 k
375.119 1117.943 m
376.559 1117.871 377.351 1116.935 377.567 1115.567 C
379.727 1051.415 L
379.511 1050.048 378.935 1049.183 377.495 1049.111 C
340.199 1049.111 L
338.831 1049.183 337.823 1050.119 337.751 1051.487 C
335.591 1115.639 L
335.663 1117.079 336.383 1117.871 337.823 1117.943 C
375.119 1117.943 L
b
0.000 0.000 0.000 1.000 K
0 j
0 J
0.287 w
[]0 d
0.000 0.000 0.000 0.200 k
271.584 828.575 m
270.144 828.503 269.279 827.639 269.135 826.199 C
266.975 762.119 L
267.120 760.751 267.767 759.887 269.207 759.815 C
306.503 759.815 L
307.799 759.887 308.879 760.823 308.951 762.191 C
311.111 826.343 L
311.039 827.783 310.319 828.503 308.879 828.575 C
271.584 828.575 L
b
0.000 0.000 0.000 1.000 K
0 j
0 J
0.863 w
[]0 d
0.000 0.000 0.000 0.000 k
821.303 986.975 m
710.135 986.975 L
710.135 1051.127 L
718.127 1077.407 728.639 1099.511 736.919 1119.455 C
737.567 1120.391 739.871 1121.471 741.599 1121.471 c
759.023 1121.543 789.191 1124.495 821.303 1124.711 C
853.487 1124.495 883.655 1121.543 901.007 1121.471 c
902.807 1121.471 905.111 1120.391 905.687 1119.455 C
913.031 1099.511 924.047 1080.647 932.471 1054.295 C
932.471 986.975 L
821.303 986.975 L
b
0.000 0.000 0.000 1.000 K
0 j
0 J
0.287 w
[]0 d
0.000 0.000 0.000 1.000 k
715.391 611.783 m
733.319 611.783 l
735.767 611.783 737.495 614.375 737.495 617.759 c
737.495 675.144 L
711.215 675.144 L
711.215 617.759 l
711.215 614.375 713.015 611.783 715.391 611.783 c
b
0.000 0.000 0.000 1.000 K
0 j
0 J
0.287 w
[]0 d
0.000 0.000 0.000 1.000 k
927.215 611.063 m
909.359 611.063 l
906.911 611.063 905.111 613.655 905.111 617.039 c
905.111 675.072 L
931.463 675.072 L
931.463 617.039 l
931.463 613.655 929.663 611.063 927.215 611.063 c
b
0.000 0.000 0.000 1.000 K
0 j
0 J
0.287 w
[]0 d
0.000 0.000 0.000 0.498 k
737.567 675.144 m
905.687 675.144 L
905.687 665.423 L
900.863 663.335 L
897.263 654.479 L
889.343 654.479 L
889.343 664.487 L
839.087 664.559 L
836.855 661.535 L
837.215 652.463 809.423 650.375 809.135 660.383 C
803.591 664.919 L
787.175 664.487 L
755.495 664.487 L
755.135 654.479 L
749.375 654.479 L
746.279 663.335 L
737.567 665.423 L
737.567 675.144 L
b
0.000 0.000 0.000 1.000 K
0 j
0 J
0.863 w
[]0 d
0.000 0.000 0.000 0.000 k
821.303 675.072 m
717.839 675.072 l
714.671 675.072 710.135 677.591 710.135 680.759 c
710.135 751.175 L
714.527 777.527 725.039 808.703 736.919 828.575 C
737.567 829.583 739.871 830.591 741.599 830.591 c
759.023 830.663 789.191 833.615 821.303 833.831 C
853.487 833.615 883.655 830.663 901.007 830.591 c
902.807 830.591 905.111 829.583 905.687 828.575 C
917.567 808.703 928.079 777.527 932.471 751.175 C
932.471 681.479 l
932.471 678.096 927.935 675.072 924.551 675.072 c
821.303 675.072 L
b
0.000 0.000 0.000 1.000 K
0 j
0 J
0.287 w
[]0 d
0.000 0.000 0.000 0.498 k
692.927 778.103 m
708.335 778.247 L
709.631 778.103 709.847 777.599 710.063 776.519 C
712.367 763.919 L
710.927 760.175 L
705.671 758.951 703.151 759.887 702.935 764.207 C
702.935 761.471 L
691.487 761.543 L
689.831 761.471 688.823 761.975 688.751 763.127 C
687.743 770.831 689.471 773.423 691.559 777.239 C
691.559 777.239 692.351 777.887 692.927 778.103 C
b
0.000 0.000 0.000 1.000 K
0 j
0 J
0.287 w
[]0 d
0.000 0.000 0.000 0.498 k
949.751 778.103 m
934.343 778.247 L
932.975 778.103 932.759 777.599 932.543 776.519 C
930.239 763.919 L
931.679 760.175 L
936.935 758.951 939.527 759.887 939.743 764.207 C
939.743 761.471 L
951.191 761.543 L
952.847 761.471 953.783 761.975 953.927 763.127 C
954.935 770.831 953.135 773.423 951.047 777.239 C
951.047 777.239 950.255 777.887 949.751 778.103 C
b
u
u
0.000 0.000 0.000 1.000 K
0 j
0 J
0.287 w
[]0 d
722.375 754.847 m
918.071 754.847 L
S
U
U
0.000 0.000 0.000 1.000 K
0 j
0 J
0.287 w
[]0 d
0.000 0.000 0.000 0.498 k
810.863 751.895 m
830.447 751.895 L
830.447 744.983 L
810.863 744.983 L
810.863 751.895 L
b
0.000 0.000 0.000 1.000 K
0 j
0 J
0.287 w
[]0 d
0.000 0.000 0.000 0.298 k
810.863 745.127 m
830.447 745.127 L
830.447 741.167 824.543 741.167 821.015 741.167 C
816.839 741.167 810.863 741.167 810.863 745.127 C
b
0.000 0.000 0.000 1.000 K
0 j
0 J
0.287 w
[]0 d
771.047 691.487 m
871.055 691.487 L
870.839 682.847 867.887 674.351 863.351 674.351 C
778.751 674.351 L
772.127 674.351 771.047 682.847 771.047 691.487 C
s
u
u
0.000 0.000 0.000 1.000 K
0 j
0 J
0.287 w
[]0 d
821.015 674.783 m
821.015 691.703 L
S
U
U
u
u
0.000 0.000 0.000 1.000 K
0 j
0 J
0.287 w
[]0 d
821.015 674.783 m
821.015 691.703 L
S
U
U
u
u
0.000 0.000 0.000 1.000 K
0 j
0 J
0.287 w
[]0 d
713.087 765.863 m
930.671 765.863 L
S
U
U
u
u
0.000 0.000 0.000 1.000 K
0 j
0 J
0.287 w
[]0 d
918.143 765.863 m
918.143 699.048 L
723.024 699.048 L
723.024 765.863 L
S
U
U
0.000 0.000 0.000 1.000 K
0 j
0 J
0.287 w
[]0 d
0.000 0.000 0.000 0.498 k
821.231 767.879 m
725.399 767.879 L
722.951 774.719 734.759 820.943 742.031 826.343 C
765.143 828.215 793.439 829.367 821.231 829.367 C
849.095 829.367 877.319 828.215 900.503 826.343 C
907.703 820.943 919.583 774.719 917.135 767.879 C
821.231 767.879 L
b
0.000 0.000 0.000 1.000 K
0 j
0 J
0.287 w
[]0 d
0.000 0.000 0.000 0.498 k
821.231 1059.048 m
717.407 1059.048 L
719.639 1065.887 740.159 1112.039 742.031 1117.511 C
765.143 1119.384 793.439 1120.535 821.231 1120.535 C
849.095 1120.535 877.319 1119.384 900.503 1117.511 C
904.679 1110.528 923.759 1064.519 924.047 1059.048 C
821.231 1059.048 L
b
0.000 0.000 0.000 1.000 K
0 j
0 J
0.287 w
[]0 d
0.000 0.000 0.000 0.200 k
746.639 823.103 m
758.591 823.823 770.615 824.687 782.567 825.047 C
812.447 826.271 842.471 825.839 872.423 824.543 C
881.135 824.039 890.063 823.535 898.847 822.815 C
899.063 822.599 L
903.959 814.895 906.407 805.391 908.999 796.751 C
911.015 788.615 913.103 780.335 913.823 771.983 C
913.823 771.479 L
728.711 771.479 L
728.711 776.519 730.151 782.207 731.159 787.175 C
733.823 798.479 736.919 810.431 742.247 820.727 C
743.903 823.391 743.255 822.815 746.639 823.103 C
b
0.000 0.000 0.000 1.000 K
0 j
0 J
0.287 w
[]0 d
0.000 0.000 0.000 0.200 k
760.319 1117.367 m
797.687 1119.528 835.199 1119.528 872.495 1117.871 C
881.567 1117.367 890.639 1116.863 899.639 1116.144 C
905.183 1105.343 909.719 1093.607 914.399 1082.303 C
916.991 1075.751 919.655 1068.911 921.887 1062.215 C
922.319 1060.487 L
719.423 1060.487 L
725.759 1076.615 733.103 1092.384 739.727 1108.367 C
740.879 1110.959 741.959 1113.551 742.967 1116.144 C
748.727 1116.647 754.559 1117.079 760.319 1117.367 C
b
0.000 0.000 0.000 1.000 K
0 j
0 J
0.287 w
[]0 d
0.000 0.000 0.000 0.498 k
691.919 1071.791 m
707.327 1071.935 L
708.695 1071.791 708.911 1071.288 709.127 1070.135 C
711.431 1057.031 L
709.991 1053.215 L
704.735 1051.919 702.143 1052.855 701.927 1057.391 C
701.927 1054.511 L
690.479 1054.655 L
688.823 1054.511 687.887 1055.087 687.743 1056.311 C
686.735 1064.231 688.535 1066.967 690.623 1070.927 C
690.623 1070.927 691.415 1071.576 691.919 1071.791 C
b
0.000 0.000 0.000 1.000 K
0 j
0 J
0.287 w
[]0 d
0.000 0.000 0.000 0.498 k
950.255 1071.791 m
934.847 1071.935 L
933.551 1071.791 933.335 1071.288 933.119 1070.135 C
930.815 1057.031 L
932.255 1053.215 L
937.511 1051.919 940.031 1052.855 940.247 1057.391 C
940.247 1054.511 L
951.695 1054.655 L
953.351 1054.511 954.359 1055.087 954.431 1056.311 C
955.439 1064.231 953.711 1066.967 951.623 1070.927 C
951.623 1070.927 950.831 1071.576 950.255 1071.791 C
b
0.000 0.000 0.000 1.000 K
0 j
0 J
0.287 w
[]0 d
0.000 0.000 0.000 0.000 k
710.423 1016.495 m
931.751 1016.567 L
933.695 1016.423 933.191 995.039 932.759 985.823 c
932.543 981.215 931.391 976.895 929.735 973.151 c
928.295 969.695 921.887 963.863 917.567 963.863 C
912.743 963.863 L
905.183 955.367 L
905.471 945.071 L
737.855 945.143 L
737.927 955.727 L
730.151 963.863 L
725.327 963.863 L
713.087 969.551 709.703 980.639 709.343 993.023 c
709.127 1000.655 708.407 1016.495 710.423 1016.495 C
b
0.000 0.000 0.000 1.000 K
0 j
0 J
0.287 w
[]0 d
0.000 0.000 0.000 0.498 k
912.743 963.863 m
905.183 955.367 L
905.471 945.071 L
737.855 945.143 L
737.927 955.727 L
730.151 963.863 L
912.743 963.863 L
b
0.000 0.000 0.000 1.000 K
0 j
0 J
0.287 w
[]0 d
0.000 0.000 0.000 0.000 k
912.743 963.863 m
905.183 955.367 L
737.927 955.727 L
730.151 963.863 L
912.743 963.863 L
b
0.000 0.000 0.000 1.000 K
0 j
0 J
0.287 w
[]0 d
0.000 0.000 0.000 0.498 k
710.423 1016.495 m
931.751 1016.567 L
933.695 1016.423 933.191 994.967 932.759 985.823 c
932.615 981.215 931.319 976.895 929.735 973.151 c
928.295 969.767 921.887 963.863 917.567 963.863 C
912.743 963.863 L
730.151 963.863 L
725.327 963.863 L
713.087 969.551 709.631 980.639 709.343 993.023 c
709.127 1000.583 708.407 1016.495 710.423 1016.495 C
b
0.000 0.000 0.000 1.000 K
0 j
0 J
0.287 w
[]0 d
0.000 0.000 0.000 0.498 k
710.063 1014.119 m
931.607 1014.119 L
931.535 988.631 L
710.063 988.631 L
710.063 1014.119 L
b
0.000 0.000 0.000 1.000 K
0 j
0 J
0.287 w
[]0 d
0.000 0.000 0.000 0.098 k
726.983 1012.103 m
749.447 1012.103 l
750.887 1012.103 752.111 1011.023 752.111 1009.583 c
752.111 993.887 l
752.111 992.447 750.887 991.295 749.447 991.295 c
726.983 991.295 l
725.543 991.295 724.535 992.447 724.535 993.887 c
724.535 1009.583 l
724.535 1011.023 725.543 1012.103 726.983 1012.103 c
b
0.000 0.000 0.000 1.000 K
0 j
0 J
0.287 w
[]0 d
0.000 0.000 0.000 0.000 k
749.951 1010.591 m
750.311 1010.375 750.527 1010.231 750.671 1009.727 C
750.671 993.959 L
750.599 993.239 750.095 992.735 749.447 992.663 C
727.055 992.663 L
726.335 992.735 725.975 993.239 725.903 993.959 C
725.903 1009.583 L
725.975 1010.303 726.335 1010.591 727.055 1010.663 C
749.447 1010.663 L
749.735 1010.663 L
749.951 1010.591 L
b
0.000 0.000 0.000 1.000 K
0 j
0 J
0.287 w
[]0 d
0.000 0.000 0.000 0.298 k
915.551 1012.103 m
893.087 1012.103 l
891.647 1012.103 890.423 1011.023 890.423 1009.583 c
890.423 993.887 l
890.423 992.447 891.647 991.295 893.087 991.295 c
915.551 991.295 l
916.991 991.295 917.999 992.447 917.999 993.887 c
917.999 1009.583 l
917.999 1011.023 916.991 1012.103 915.551 1012.103 c
b
0.000 0.000 0.000 1.000 K
0 j
0 J
0.287 w
[]0 d
0.000 0.000 0.000 0.000 k
892.223 1010.375 m
892.079 1010.159 L
891.935 1009.943 L
891.863 1009.727 L
891.863 993.959 L
891.935 993.239 892.439 992.735 893.087 992.663 C
915.695 992.663 L
916.271 992.879 916.559 993.311 916.631 993.959 C
916.631 1009.583 L
916.559 1010.303 916.271 1010.591 915.479 1010.663 C
893.087 1010.663 L
892.727 1010.663 892.511 1010.519 892.223 1010.375 C
b
0.000 0.000 0.000 1.000 K
0 j
0 J
0.287 w
[]0 d
0.000 0.000 0.000 0.098 k
711.719 991.583 m
721.151 991.583 L
721.151 1011.527 L
721.151 1012.391 720.791 1012.751 720.359 1012.751 C
712.583 1012.751 L
712.007 1012.751 711.719 1012.391 711.719 1011.527 C
711.719 991.583 L
b
0.000 0.000 0.000 1.000 K
0 j
0 J
0.287 w
[]0 d
0.000 0.000 0.000 0.098 k
930.815 991.583 m
921.383 991.583 L
921.383 1011.527 L
921.383 1012.391 921.743 1012.751 922.175 1012.751 C
929.951 1012.751 L
930.527 1012.751 930.815 1012.391 930.815 1011.527 C
930.815 991.583 L
b
u
u
0.000 0.000 0.000 1.000 K
0 j
0 J
0.287 w
[]0 d
721.079 1017.647 m
721.007 1032.119 L
716.759 1053.144 L
S
U
U
u
u
0.000 0.000 0.000 1.000 K
0 j
0 J
0.287 w
[]0 d
921.095 1017.647 m
921.239 1032.119 L
925.415 1053.144 L
S
U
U
u
u
0.000 0.000 0.000 1.000 K
0 j
0 J
0.287 w
[]0 d
712.007 1054.295 m
784.367 1055.447 859.895 1055.447 932.327 1054.295 C
S
U
U
u
u
0.000 0.000 0.000 1.000 K
0 j
0 J
0.287 w
[]0 d
721.223 1032.119 m
793.655 1033.343 853.271 1034.207 921.167 1032.048 C
S
U
U
0.000 0.000 0.000 1.000 K
0 j
0 J
0.287 w
[]0 d
0.000 0.000 0.000 0.000 k
824.975 1026.864 m
815.975 1026.864 L
819.215 1031.255 823.391 1029.599 824.975 1026.864 C
b
0.000 0.000 0.000 1.000 K
0 j
0 J
0.287 w
[]0 d
0.000 0.000 0.000 0.000 k
816.047 1021.895 m
824.831 1021.895 L
823.679 1018.871 817.847 1018.151 816.047 1021.895 C
b
0.000 0.000 0.000 1.000 K
0 j
0 J
0.287 w
[]0 d
0.000 0.000 0.000 0.000 k
813.815 1022.687 m
827.063 1022.687 l
827.423 1022.687 827.711 1022.975 827.711 1023.335 c
827.711 1025.711 l
827.711 1026.071 827.423 1026.288 827.063 1026.288 c
813.815 1026.288 l
813.455 1026.288 813.167 1026.071 813.167 1025.711 c
813.167 1023.335 l
813.167 1022.975 813.455 1022.687 813.815 1022.687 c
b
0.000 0.000 0.000 1.000 K
0 j
0 J
0.287 w
[]0 d
0.000 0.000 0.000 1.000 k
816.623 1023.767 m
816.623 1025.783 L
817.271 1025.783 L
817.271 1023.767 L
816.623 1023.767 L
b
0.000 0.000 0.000 1.000 K
0 j
0 J
0.287 w
[]0 d
0.000 0.000 0.000 1.000 k
822.671 1024.199 m
823.607 1024.199 L
823.823 1023.767 L
824.399 1023.767 L
823.607 1025.783 L
822.671 1025.783 L
821.807 1023.767 L
822.527 1023.767 L
822.671 1024.199 L
b
0.000 0.000 0.000 1.000 K
0 j
0 J
0.287 w
[]0 d
0.000 0.000 0.000 1.000 k
821.303 1025.135 m
820.511 1025.135 L
820.511 1025.351 L
821.663 1025.351 L
821.663 1025.783 L
820.511 1025.783 L
819.575 1025.783 819.719 1024.487 820.439 1024.487 C
821.303 1024.487 L
821.303 1024.199 L
820.007 1024.199 L
820.007 1023.767 L
821.303 1023.767 L
822.239 1023.767 822.095 1025.135 821.303 1025.135 C
b
0.000 0.000 0.000 1.000 K
0 j
0 J
0.287 w
[]0 d
0.000 0.000 0.000 1.000 k
818.927 1025.135 m
818.207 1025.135 L
818.207 1025.351 L
819.359 1025.351 L
819.359 1025.783 L
818.207 1025.783 L
817.271 1025.783 817.271 1024.487 818.135 1024.487 C
818.927 1024.487 L
818.927 1024.199 L
817.703 1024.199 L
817.703 1023.767 L
818.927 1023.767 L
819.935 1023.767 819.791 1025.135 818.927 1025.135 C
b
0.000 0.000 0.000 1.000 K
0 j
0 J
0.287 w
[]0 d
0.000 0.000 0.000 1.000 k
825.623 1025.783 m
824.615 1025.783 L
824.543 1023.695 L
825.263 1023.695 L
825.263 1025.279 L
825.911 1023.695 L
826.991 1023.695 L
826.847 1025.783 L
826.343 1025.783 L
826.343 1024.271 L
825.623 1025.783 L
b
0.000 0.000 0.000 1.000 K
0 j
0 J
0.287 w
[]0 d
0.000 0.000 0.000 1.000 k
814.967 1025.783 m
814.031 1025.783 L
814.031 1023.767 L
814.607 1023.767 L
814.607 1025.279 L
815.255 1023.767 L
816.191 1023.767 L
816.191 1025.783 L
815.615 1025.783 L
815.615 1024.415 L
814.967 1025.783 L
b
u
u
0.000 0.000 0.000 1.000 K
0 j
0 J
0.287 w
[]0 d
735.623 964.079 m
909.215 964.079 L
S
U
U
u
u
0.000 0.000 0.000 1.000 K
0 j
0 J
0.287 w
[]0 d
722.375 988.631 m
722.087 980.423 723.095 970.559 732.095 964.223 C
S
U
U
u
u
0.000 0.000 0.000 1.000 K
0 j
0 J
0.287 w
[]0 d
920.159 988.631 m
920.447 979.919 918.647 968.975 911.807 964.223 C
S
U
U
0.000 0.000 0.000 1.000 K
0 j
0 J
0.287 w
[]0 d
0.000 0.000 0.000 0.498 k
887.111 1012.175 m
887.111 991.295 L
754.991 991.295 L
754.991 1012.175 L
887.111 1012.175 L
b
u
u
0.000 0.000 0.000 1.000 K
0 j
0 J
0.287 w
[]0 d
771.695 1054.871 m
773.495 1038.023 L
777.671 1052.567 L
808.631 1053.071 838.943 1052.567 870.551 1052.567 C
874.655 1038.023 L
877.823 1054.871 L
S
U
U
0.000 0.000 0.000 1.000 K
0 j
0 J
0.287 w
[]0 d
0.000 0.000 0.000 0.498 k
710.423 753.047 m
722.159 753.047 L
722.663 702.647 L
710.423 702.647 L
710.423 753.047 L
b
0.000 0.000 0.000 1.000 K
0 j
0 J
0.287 w
[]0 d
0.000 0.000 0.000 0.498 k
932.183 753.047 m
920.447 753.047 L
920.015 702.647 L
932.183 702.647 L
932.183 753.047 L
b
0.000 0.000 0.000 1.000 K
0 j
0 J
0.287 w
[]0 d
0.000 0.000 0.000 0.298 k
713.375 736.415 m
719.423 736.415 l
720.287 736.415 720.935 737.207 720.935 738.287 c
720.935 749.591 l
720.935 750.671 720.287 751.463 719.423 751.463 c
713.375 751.463 l
712.511 751.463 711.863 750.671 711.863 749.591 c
711.863 738.287 l
711.863 737.207 712.511 736.415 713.375 736.415 c
b
0.000 0.000 0.000 1.000 K
0 j
0 J
0.287 w
[]0 d
0.000 0.000 0.000 0.298 k
929.303 736.415 m
923.183 736.415 l
922.391 736.415 921.671 737.207 921.671 738.287 c
921.671 749.591 l
921.671 750.671 922.391 751.463 923.183 751.463 c
929.303 751.463 l
930.167 751.463 930.815 750.671 930.815 749.591 c
930.815 738.287 l
930.815 737.207 930.167 736.415 929.303 736.415 c
b
0.000 0.000 0.000 1.000 K
0 j
0 J
0.287 w
[]0 d
0.000 0.000 0.000 0.298 k
713.375 720.719 m
719.639 720.719 l
720.431 720.719 721.151 721.511 721.151 722.591 c
721.151 733.895 l
721.151 734.903 720.431 735.695 719.639 735.695 c
713.375 735.695 l
712.511 735.695 711.863 734.903 711.863 733.895 c
711.863 722.591 l
711.863 721.511 712.511 720.719 713.375 720.719 c
b
0.000 0.000 0.000 1.000 K
0 j
0 J
0.287 w
[]0 d
0.000 0.000 0.000 0.298 k
929.303 720.719 m
923.039 720.719 l
922.175 720.719 921.527 721.511 921.527 722.591 c
921.527 733.895 l
921.527 734.903 922.175 735.695 923.039 735.695 c
929.303 735.695 l
930.167 735.695 930.815 734.903 930.815 733.895 c
930.815 722.591 l
930.815 721.511 930.167 720.719 929.303 720.719 c
b
0.000 0.000 0.000 1.000 K
0 j
0 J
0.287 w
[]0 d
0.000 0.000 0.000 0.298 k
713.375 704.303 m
719.639 704.303 l
720.431 704.303 721.151 705.095 721.151 706.175 c
721.151 717.479 l
721.151 718.487 720.431 719.279 719.639 719.279 c
713.375 719.279 l
712.511 719.279 711.863 718.487 711.863 717.479 c
711.863 706.175 l
711.863 705.095 712.511 704.303 713.375 704.303 c
b
0.000 0.000 0.000 1.000 K
0 j
0 J
0.287 w
[]0 d
0.000 0.000 0.000 0.298 k
929.303 704.303 m
923.039 704.303 l
922.175 704.303 921.527 705.095 921.527 706.175 c
921.527 717.479 l
921.527 718.487 922.175 719.279 923.039 719.279 c
929.303 719.279 l
930.167 719.279 930.815 718.487 930.815 717.479 c
930.815 706.175 l
930.815 705.095 930.167 704.303 929.303 704.303 c
b
0.000 0.000 0.000 1.000 K
0 j
0 J
0.287 w
[]0 d
0.000 0.000 0.000 0.000 k
823.463 1024.703 m
822.815 1024.703 L
823.175 1025.495 L
823.463 1024.703 L
b
u
u
0.000 0.000 0.000 1.000 K
0 j
0 J
0.287 w
[]0 d
724.031 734.903 m
918.071 734.903 L
S
U
U
u
u
0.000 0.000 0.000 1.000 K
0 j
0 J
0.287 w
[]0 d
724.031 729.503 m
918.071 729.503 L
S
U
U
u
u
0.000 0.000 0.000 1.000 K
0 j
0 J
0.287 w
[]0 d
710.279 1036.007 m
718.055 1016.495 L
S
U
U
u
u
0.000 0.000 0.000 1.000 K
0 j
0 J
0.287 w
[]0 d
932.255 1035.791 m
925.847 1019.231 L
S
U
U
u
u
0.000 0.000 0.000 1.000 K
0 j
0 J
0.287 w
[]0 d
710.279 1031.759 m
716.543 1016.207 L
S
U
U
u
u
0.000 0.000 0.000 1.000 K
0 j
0 J
0.287 w
[]0 d
932.183 1032.192 m
926.135 1016.783 L
S
U
U
u
u
0.000 0.000 0.000 1.000 K
0 j
0 J
0.287 w
[]0 d
711.287 1052.567 m
716.471 1031.327 L
716.759 988.703 L
S
U
U
u
u
0.000 0.000 0.000 1.000 K
0 j
0 J
0.287 w
[]0 d
931.175 1052.567 m
925.991 1031.327 L
925.703 988.703 L
S
U
U
0.000 0.000 0.000 1.000 K
0 j
0 J
0.287 w
[]0 d
0.000 0.000 0.000 1.000 k
931.607 978.551 m
931.103 976.679 930.455 974.879 929.735 973.151 c
928.295 969.695 921.887 963.863 917.567 963.863 C
912.743 963.863 L
905.327 955.511 L
905.327 906.407 l
905.327 903.023 907.127 900.431 909.503 900.431 c
927.431 900.431 l
929.879 900.431 931.607 903.023 931.607 906.407 c
931.607 978.551 L
b
0.000 0.000 0.000 1.000 K
0 j
0 J
0.287 w
[]0 d
0.000 0.000 0.000 1.000 k
737.495 956.159 m
730.151 963.863 L
725.327 963.863 L
717.479 967.535 713.303 973.367 711.215 980.351 C
711.215 906.407 l
711.215 903.023 713.015 900.431 715.391 900.431 c
733.319 900.431 l
735.767 900.431 737.495 903.023 737.495 906.407 c
737.495 956.159 L
b
0.000 0.000 0.000 1.000 K
0 j
0 J
0.287 w
[]0 d
0.000 0.000 0.000 1.000 k
852.551 1009.511 m
850.823 994.319 L
883.511 994.175 L
883.511 1009.511 L
852.551 1009.511 L
b
0.000 0.000 0.000 1.000 K
0 j
0 J
0.287 w
[]0 d
0.000 0.000 0.000 1.000 k
845.423 994.175 m
847.151 1009.367 L
795.383 1009.511 L
797.111 994.319 L
845.423 994.175 L
b
0.000 0.000 0.000 1.000 K
0 j
0 J
0.287 w
[]0 d
0.000 0.000 0.000 1.000 k
791.711 994.175 m
789.983 1009.367 L
758.735 1009.511 L
758.735 994.175 L
791.711 994.175 L
b
0.000 0.000 0.000 1.000 K
0 j
0 J
0.215 w
[]0 d
0.000 0.000 0.000 1.000 k
732.527 981.431 m
783.359 981.431 l
784.871 981.431 786.023 980.207 786.023 978.695 c
786.023 973.367 l
786.023 971.855 784.871 970.631 783.359 970.631 c
732.527 970.631 l
731.015 970.631 729.863 971.855 729.863 973.367 c
729.863 978.695 l
729.863 980.207 731.015 981.431 732.527 981.431 c
b
0.000 0.000 0.000 1.000 K
0 j
0 J
0.215 w
[]0 d
0.000 0.000 0.000 1.000 k
909.791 981.431 m
858.959 981.431 l
857.447 981.431 856.295 980.207 856.295 978.695 c
856.295 973.367 l
856.295 971.855 857.447 970.631 858.959 970.631 c
909.791 970.631 l
911.303 970.631 912.455 971.855 912.455 973.367 c
912.455 978.695 l
912.455 980.207 911.303 981.431 909.791 981.431 c
b
0.000 0.000 0.000 1.000 K
0 j
0 J
0.287 w
[]0 d
0.000 0.000 0.000 0.298 k
753.047 980.423 m
731.591 980.423 L
731.591 971.855 L
753.047 971.855 L
753.047 980.423 L
b
0.000 0.000 0.000 1.000 K
0 j
0 J
0.287 w
[]0 d
0.000 0.000 0.000 0.298 k
889.271 980.423 m
910.727 980.423 L
910.727 971.855 L
889.271 971.855 L
889.271 980.423 L
b
u
u
0.000 0.000 0.000 1.000 K
0 j
0 J
0.215 w
[]0 d
710.567 699.263 m
931.967 699.263 L
S
U
U
u
u
0.000 0.000 0.000 1.000 K
0 j
0 J
0.215 w
[]0 d
710.567 691.631 m
931.967 691.631 L
S
U
U
0.000 0.000 0.000 1.000 K
0 j
0 J
0.287 w
[]0 d
0.000 0.000 0.000 0.000 k
788.183 685.151 m
853.919 685.151 L
853.919 671.975 L
788.183 671.975 L
788.183 685.151 L
b
u
u
U
u
0.000 0.000 0.000 1.000 K
0 j
0 J
0.215 w
[]0 d
-18.935 608.831 m
-18.935 578.087 L
S
U
U
0.000 0.000 0.000 1.000 k
-19.151 595.079 m
-9.000 592.055 L
-9.000 598.103 L
-19.151 595.079 L
f
u
u
U
u
0.000 0.000 0.000 1.000 K
0 j
0 J
0.215 w
[]0 d
664.991 604.583 m
664.991 574.271 L
S
U
U
0.000 0.000 0.000 1.000 k
665.135 592.919 m
654.983 589.895 L
654.983 595.943 L
665.135 592.919 L
f
u
u
U
u
0.000 0.000 0.000 1.000 K
0 j
0 J
0.215 w
[]0 d
-16.487 594.359 m
251.495 594.359 L
S
U
U
u
u
U
u
0.000 0.000 0.000 1.000 K
0 j
0 J
0.215 w
[]0 d
444.167 593.135 m
665.855 593.135 L
S
U
U
0.000 0.000 0.000 1.000 k
400.463 587.591 m
401.759 589.319 402.551 590.975 402.551 593.207 c
402.551 595.439 401.759 596.951 400.463 598.751 C
399.887 598.751 L
400.967 597.096 401.687 595.223 401.687 593.207 c
401.687 591.192 400.967 589.247 399.887 587.591 C
400.463 587.591 L
f
0.000 0.000 0.000 1.000 k
390.671 593.279 m
390.671 593.783 390.815 594.503 391.103 594.935 c
391.463 595.439 391.967 595.655 392.543 595.655 c
393.551 595.655 393.839 595.079 393.839 594.216 c
393.839 589.895 L
394.559 589.895 L
394.559 593.279 l
394.559 593.783 394.631 594.503 394.991 594.935 c
395.351 595.439 395.855 595.655 396.359 595.655 c
397.367 595.655 397.727 595.079 397.727 594.216 c
397.727 589.895 L
398.447 589.895 L
398.447 593.855 l
398.447 595.079 398.159 596.303 396.503 596.303 c
395.567 596.303 394.847 595.871 394.487 595.079 C
394.199 595.727 393.767 596.303 392.615 596.303 c
391.823 596.303 391.103 595.871 390.743 595.223 C
390.671 595.223 L
390.671 596.087 L
389.951 596.087 L
389.951 589.895 L
390.671 589.895 L
390.671 593.279 l
f
0.000 0.000 0.000 1.000 k
380.735 593.279 m
380.735 593.783 380.807 594.503 381.167 594.935 c
381.527 595.439 382.031 595.655 382.535 595.655 c
383.543 595.655 383.903 595.079 383.903 594.216 c
383.903 589.895 L
384.623 589.895 L
384.623 593.279 l
384.623 593.783 384.695 594.503 384.983 594.935 c
385.343 595.439 385.847 595.655 386.423 595.655 c
387.431 595.655 387.719 595.079 387.719 594.216 c
387.719 589.895 L
388.439 589.895 L
388.439 593.855 l
388.439 595.079 388.223 596.303 386.495 596.303 c
385.631 596.303 384.911 595.871 384.479 595.079 C
384.263 595.727 383.831 596.303 382.679 596.303 c
381.887 596.303 381.095 595.871 380.735 595.223 C
380.735 595.223 L
380.735 596.087 L
380.015 596.087 L
380.015 589.895 L
380.735 589.895 L
380.735 593.279 l
f
0.000 0.000 0.000 1.000 k
369.647 592.127 m
369.791 590.327 371.015 589.679 372.599 589.679 c
374.039 589.679 375.263 590.759 375.263 592.559 c
375.263 594.288 374.183 595.367 372.599 595.367 c
371.879 595.367 371.447 595.223 370.799 594.791 C
371.303 597.599 L
374.831 597.599 L
374.831 598.247 L
370.655 598.247 L
369.935 593.927 L
370.583 593.855 L
371.087 594.431 371.663 594.719 372.455 594.719 c
373.751 594.719 374.543 593.783 374.543 592.559 c
374.543 591.335 373.751 590.399 372.527 590.399 c
371.375 590.399 370.583 590.975 370.439 592.127 C
369.647 592.127 L
f
0.000 0.000 0.000 1.000 k
364.247 595.583 m
364.175 596.735 364.967 597.743 366.047 597.743 c
367.127 597.743 367.919 597.096 367.919 595.943 c
367.919 594.000 365.543 594.000 363.815 591.983 c
363.239 591.335 363.167 590.687 363.167 589.895 C
368.639 589.895 L
368.639 590.543 L
363.959 590.543 L
364.031 591.335 364.535 591.839 365.039 592.271 c
366.335 593.207 368.711 593.783 368.711 596.015 c
368.711 597.311 367.847 598.391 366.119 598.391 c
364.463 598.391 363.383 597.240 363.383 595.583 C
364.247 595.583 L
f
0.000 0.000 0.000 1.000 k
357.911 594.431 m
356.975 594.072 356.471 593.279 356.471 592.271 c
356.471 590.615 357.839 589.679 359.063 589.679 c
360.863 589.679 362.015 590.687 362.015 592.343 c
362.015 593.279 361.512 594.072 360.575 594.431 C
361.367 594.791 361.727 595.439 361.727 596.303 c
361.727 597.743 360.431 598.391 359.135 598.391 c
357.839 598.391 356.759 597.455 356.759 596.303 c
356.759 595.295 357.119 595.007 357.911 594.431 C
f
0.000 0.000 0.000 1.000 k
353.519 589.895 m
354.311 589.895 L
354.311 591.983 L
355.463 591.983 L
355.463 592.631 L
354.311 592.631 L
354.311 598.247 L
353.591 598.247 L
349.703 592.631 L
349.703 591.983 L
353.519 591.983 L
353.519 589.895 L
f
0.000 0.000 0.000 1.000 k
347.975 598.751 m
346.679 597.024 345.887 595.439 345.887 593.207 c
345.887 590.975 346.679 589.391 347.975 587.591 C
348.551 587.591 L
347.471 589.247 346.751 591.192 346.751 593.135 c
346.751 595.151 347.471 597.096 348.551 598.751 C
347.975 598.751 L
f
0.000 0.000 0.000 1.000 k
340.560 595.799 m
341.207 595.799 L
341.207 598.535 L
340.560 598.535 L
340.560 595.799 L
f
0.000 0.000 0.000 1.000 k
339.263 595.799 m
339.839 595.799 L
339.839 598.535 L
339.263 598.535 L
339.263 595.799 L
f
0.000 0.000 0.000 1.000 k
335.231 598.391 m
332.783 598.391 332.351 596.231 332.351 594.072 c
332.351 591.767 332.927 589.679 335.231 589.679 c
337.536 589.679 338.111 591.767 338.111 594.000 c
338.111 595.943 337.751 598.391 335.231 598.391 c
f
0.000 0.000 0.000 1.000 k
330.623 590.975 m
329.759 590.975 L
329.759 589.895 L
330.191 589.895 L
330.191 589.463 l
330.191 588.959 329.975 588.815 329.759 588.671 C
329.759 588.240 L
330.263 588.383 330.623 588.815 330.623 589.535 c
330.623 590.975 L
f
0.000 0.000 0.000 1.000 k
325.223 598.391 m
322.775 598.391 322.343 596.231 322.343 594.072 c
322.343 591.767 322.919 589.679 325.223 589.679 c
327.527 589.679 328.103 591.767 328.103 594.000 c
328.103 595.943 327.743 598.391 325.223 598.391 c
f
0.000 0.000 0.000 1.000 k
315.863 591.767 m
316.007 590.399 317.015 589.679 318.311 589.679 c
320.111 589.679 321.407 591.264 321.407 594.072 c
321.407 596.447 320.759 598.391 318.455 598.391 c
316.584 598.391 315.719 597.168 315.719 595.583 c
315.719 593.927 316.727 592.847 318.311 592.847 c
319.319 592.847 320.111 593.351 320.615 594.144 C
320.615 594.144 L
320.543 592.631 320.327 590.399 318.311 590.399 c
317.375 590.399 316.799 590.903 316.655 591.767 C
315.863 591.767 L
f
0.000 0.000 0.000 1.000 k
312.191 589.895 m
312.983 589.895 L
312.983 598.391 L
312.335 598.391 L
312.120 596.879 311.327 596.807 310.031 596.663 C
310.031 596.159 L
312.191 596.159 L
312.191 589.895 L
f
0.000 0.000 0.000 0.000 k
359.207 597.743 m
360.359 597.743 360.935 597.240 360.935 596.375 c
360.935 595.151 360.215 594.719 359.279 594.719 c
358.343 594.719 357.479 595.151 357.479 596.159 c
357.479 597.168 358.271 597.743 359.207 597.743 c
f
0.000 0.000 0.000 0.000 k
359.279 594.072 m
360.359 594.072 361.295 593.495 361.295 592.271 c
361.295 591.192 360.431 590.399 359.279 590.399 c
358.055 590.399 357.191 591.192 357.191 592.271 c
357.191 593.495 358.055 594.072 359.279 594.072 c
f
0.000 0.000 0.000 0.000 k
353.519 597.096 m
353.519 592.631 L
350.423 592.631 L
353.519 597.096 L
f
0.000 0.000 0.000 0.000 k
337.319 594.072 m
337.319 592.343 337.031 590.399 335.231 590.399 c
333.647 590.399 333.143 591.839 333.143 594.000 c
333.143 595.871 333.503 597.743 335.231 597.743 c
337.031 597.743 337.319 595.871 337.319 594.072 c
f
0.000 0.000 0.000 0.000 k
327.311 594.072 m
327.311 592.343 327.024 590.399 325.223 590.399 c
323.639 590.399 323.135 591.839 323.135 594.000 c
323.135 595.871 323.495 597.743 325.223 597.743 c
327.024 597.743 327.311 595.871 327.311 594.072 c
f
0.000 0.000 0.000 0.000 k
318.455 597.743 m
319.608 597.671 320.327 596.807 320.327 595.583 c
320.327 594.431 319.679 593.495 318.455 593.495 c
317.231 593.495 316.512 594.288 316.512 595.583 c
316.512 596.879 317.159 597.671 318.455 597.743 c
f
%%Trailer
_E end