%!PS-Adobe-2.0 EPSF-1.2
%%Creator: Adobe Illustrator exported from Corel Draw 3.0
%%Title:6
%%BoundingBox:9 794 869 1205
%%CreationDate:(Unknown)
%%ColorUsage:
%%TemplateBox:9 794 869 1205
%%EndComments
%%BeginProcSet:Adobe_Illustrator_1.1 0 0
% Version 1.0 3/27/1990 $nokeywords$
% Copyright (C) 1990,1991,1992
% Corel Corporation
% All Rights Reserved

/wPmsDict 150 dict def 
wPmsDict begin 

/$debug 25 string def 

/bd {bind def} bind def 
/ld {load def} bd 
/xd {exch def} bd 
/_ null def 

/$c 0 def 
/$m 0 def 
/$y 0 def 
/$k 0 def 
/$t 1 def 
/$n _ def 
/$o 0 def 
/$pf false def 

/$C 0 def 
/$M 0 def 
/$Y 0 def 
/$K 0 def 
/$T 1 def 
/$N _ def 
/$O 0 def 
/$PF false def 

/$h false def 

/$al 0 def 
/$tr 0 def 
/$le 0 def 
/$lx 0 def 
/$ly 0 def 

/$ctm matrix currentmatrix def 
/$ptm matrix def 

/$pn () def 
/$pm matrix def 
/$px 0 def 
/$py 0 def 
/$pxf 0 def 
/$pyf 0 def 
/$psx 10 def 
/$psy 0 def 

/$llx 0 def 
/$lly 0 def 
/$urx 0 def 
/$ury 0 def 


/$Bbllx 0 def 
/$Bblly 0 def 
/$Bburx 0 def 
/$Bbury 0 def 

/$tllx 0 def 
/$tlly 0 def 
/$turx 0 def 
/$tury 0 def 

/$pd [] def 
/$tx 0 def 
/$ty 0 def 

/$sv 0 def 
/@cp /closepath ld 
/@gs /gsave ld 
/@gr /grestore ld 
/@np /newpath ld 
/@sv {/$sv save def}bd 
/@rs {$sv restore}bd 

/@MN { 
2 copy le{pop}{exch pop}ifelse 
}bd 

/setcmykcolor where {pop} 
{ 
/setcmykcolor 
{ 
4 1 roll 
3 {3 index add 1 @MN 1 exch sub 3 1 roll} repeat 
setrgbcolor 
pop 
}bd 
}ifelse 

/@tc 
{ 
dup 1 ge 
{pop} 
{ 
4 { 
dup 
6 -1 roll 
mul 
exch 
}repeat 
pop 
}ifelse 
}bd 

/@scc 
{ 
$c $m $y $k $t @tc 
setcmykcolor 
true 
}bd 
/@SCC 
{ 
$C $M $Y $K $T @tc 
setcmykcolor 
true 
}bd 

/@sft 
{ 
(setfirsttile sft )print 
/$tx $tllx $pxf add dup $tllx gt {$pwid $psx add sub}if def 
/$ty $tury $pyf sub dup $tury lt {$phei $psy add add}if def 
(setfirsttile exit )print 
}bd 

/@stb 
{ 
pathbbox /$ury xd /$urx xd /$lly xd /$llx xd 
}bd 

/@ep 
{ 
{ 
cvx exec 
}forall 
}bd 

/@tp 
{ 

(tile pattern tp )print 
@sv 
/$in true def 
2 copy 
dup $lly le {/$in false def}if 
$phei sub $ury ge {/$in false def}if 
dup $urx ge {/$in false def}if 
$pwid add $llx le {/$in false def}if 
$in 
{ 
@np 
2 copy moveto 
$pwid 0 rlineto 
0 $phei neg rlineto 
$pwid neg 0 rlineto 
0 $phei rlineto 
clip @np 

$pn cvlit load aload pop 
7 -1 roll 
5 index sub 
7 -1 roll 
3 index sub 
translate 
@ep 
pop pop pop pop 
} 
{pop pop}ifelse 
@rs 
(tile pattern exit )print 
}bd 

/@th 
{ 
(tile horizontal th)print 
@sft 
0 1 $tly 1 sub 
{ 
dup $psx mul $tx add 
{ 
dup $llx gt {$pwid sub}{exit}ifelse 
}loop 
exch $phei mul $ty exch sub 

0 1 $tlx 1 sub 
{ 
$pwid mul 
3 copy 
3 -1 roll add exch 
@tp 
pop 
}for 
pop pop 
} for 
(tile horizontal exiting )print 
}bd 

/@tv 
{ 
(tile vertical tv)print 
@sft 
0 1 $tlx 1 sub 
{ 
dup $pwid mul $tx add 
exch $psy mul $ty exch sub 
{ 
dup $ury lt {$phei add}{exit}ifelse 
}loop 

0 1 $tly 1 sub 
{ 
$phei mul 
3 copy sub 
@tp 
pop 
}for 
pop pop 
} for 
(tile vertical exit )print 
}bd 

/@pf 
{ 
(pattern fill pf)print 
@gs 
$pm concat 
@stb 
@gs 1 setgray eofill @gr 
eoclip 
$Bburx $Bbury $pm itransform /$tury xd /$turx xd 
$Bbllx $Bblly $pm itransform /$tlly xd /$tllx xd 
/$wid $turx $tllx sub def 
/$hei $tury $tlly sub def 
$wid 0 gt $hei 0 gt and 
{ 
$pn cvlit load aload pop 
$pd xd 
3 -1 roll sub /$phei xd 
exch sub /$pwid xd 
/$tlx $wid $pwid div ceiling 1 add def 
/$tly $hei $phei div ceiling 1 add def 
$psx 0 eq 
{ 
@tv 
} 
{ 
@th 
}ifelse 
}if 

@gr 
@np 
(pattern fill exit)print 
}bd 

/@xp 
{ 
{ 
dup (text Character is:) print == 
usertime (time before is:)print == 
(0) dup 3 -1 roll 0 exch put 
@gs 
true charpath currentpoint 
$ctm setmatrix 
@pf 
@gr 
@np 
moveto $tr 0 rmoveto 
usertime (time after is:)print == 
}forall 
pop 
}bd 

/@sm 
{ 
/$ctm $ctm currentmatrix def 
}bd 

%--@lorg  move to line origin   length string @torg length string
/@lorg    % moves currentpoint to line origin according to current alignment
  {      
  $lx $ly moveto    
  /$ly $ly $le sub def      % - prepare for next line(tracking)
  $al 0 ne
    {dup      % ->len str len str
    stringwidth   % ->len str len dx dy
    exch 3 index  % ->len str dy len dx
    1 sub         % ->len str dy len dx (len-1)
    $tr mul add   % ->len str dy len dx+(len-1)*$tr
    neg
    exch neg      % ->len str -dx_total dy len
    $al 1 eq      % check for centered alignment
    {2 div exch 2 div exch} if  
    rmoveto} if
  }bd

/@ft 
{ 
$pf 
{@xp} 
{ 
@scc 
{$tr exch 0 exch ashow pop} 
{pop pop}ifelse 
}ifelse 
}bd 

/@st 
{ 
$PF 
{} 
{ 
@SCC 
{ 
{ 
(0) dup 3 -1 roll 0 exch put 
@gs 
true charpath currentpoint 
$ctm setmatrix $ptm concat 
stroke 
@gr 
moveto $tr 0 rmoveto 
}forall 
pop 
} 
{pop pop}ifelse 
}ifelse 
}bd 
/@pt 
{ 
dup length exch 
}bd 
/@te 
{ 
@pt 
@lorg 
@ft 
}bd 

/@tr 
{ 
@pt 
@lorg 
@st 
}bd 
/@ta 
{ 
@pt 
@lorg 
2 copy 
@gs @ft @gr 
/$lx 0 def 
/$ly 0 def 
@st 
}bd 















/g { 
1 exch sub /$k xd 
/$c 0 def /$m 0 def /$y 0 def /$t 1 def /$n _ def /$pf false def 
}bd 

/G { 
1 exch sub /$K xd 
/$C 0 def /$M 0 def /$Y 0 def /$T 1 def /$N _ def /$PF false def 
}bd 

/k { 
/$k xd /$y xd /$m xd /$c xd 
/$t 1 def /$n _ def /$pf false def 
}bd 

/K { 
/$K xd /$Y xd /$M xd /$C xd 
/$T 1 def /$N _ def /$PF false def 
}bd 

/x { 
/$t xd /$n xd 
/$k xd /$y xd /$m xd /$c xd /$pf false def 
}bd 

/X { 
/$T xd /$N xd 
/$K xd /$Y xd /$M xd /$C xd /$PF false def 
}bd 

/d /setdash ld 

/i { 
dup 0 ne {setflat} {pop} ifelse 
}bd 

/j /setlinejoin ld 

/J /setlinecap ld 

/M /setmiterlimit ld 

/w /setlinewidth ld 

/O { 
/$o xd 
}bd 

/R { 
/$O xd 
}bd 


/c /curveto ld 

/C /c ld 

/v { 
currentpoint
6 2 roll 
curveto 
}bd

/V /v ld 

/y { 
2 copy curveto 
}bd 

/Y /y ld 

/l /lineto ld 

/L /l ld 

/m /moveto ld 



/n /newpath ld 

/N /newpath ld 

/F { 
$pf 
{@pf} 
{ 
@scc 
{eofill}if 
}ifelse 
}bd 

/f { 
@cp F 
}bd 
/S { 
$PF 
{} 
{ 
@SCC 
{ 
@sm 
$ptm concat 
stroke 
$ctm setmatrix 
}if 
}ifelse 
}bd 
/s { 
@cp 
S 
}bd 

/B { 
@gs F @gr 
S 
}bd 
/b { 
@cp 
B 
}bd 

/W { 
oeclip 
@np 
}bd 

/p { 
/$pm xd 
7 {pop} repeat 
/$pyf xd /$pxf xd 
/$pn xd 
/$pf true def 
}bd 

/P { 
11 {pop} repeat 
}bd 

/@p { 
/$pm xd 
/$psy xd 
/$psx xd 
/$pyf xd /$pxf xd 
/$pn xd 
/$pf true def 
}bd 

/@b { 
/$Bbury xd /$Bburx xd 
/$Bblly xd /$Bbllx xd 
}bd 


/z { 
/$al xd 
/$tr xd 
/$le xd 
exch findfont exch scalefont setfont 
}bd 

/Z { 
dup type 0 type eq { /$bDir xd } if
findfont 
dup maxlength 1 add dict exch 



dup 
{1 index /FID ne 
{ 
3 index 
3 1 roll put 
} 
{pop pop}ifelse 
} forall 



pop 
dup dup /Encoding get 
256 array copy 
dup /$fe xd
/Encoding exch put 

dup /Fontname 3 index put 

}bd 

/e { 
@sm 
concat 
[ 
/t {@te}def 
}bd 

/r { 
@sm 
concat 
[ 
/t {@tr}def 
}bd 

/o { 
@sm 
concat 
[ 
/t {pop}def 
}bd 

/a { 
@sm 
concat 
[ 
/t {@ta}def 
}bd 

/@o{
@sm 
concat 
[ 
/t {@t@a}def 
}bd 

/I { 
@sm 
concat 
[ 
/t {pop}def 
}bd 

/t {@te}def 

/T { 
cleartomark 
/$lx 0 def 
/$ly 0 def 
$ctm setmatrix 
}bd 


/u {}bd 

/U {}bd 

/A {pop}bd 

/h { 
$h true def 
}bd 

/h { 
$h true def 
}bd 

/q /@gs ld 

/Q /@gr ld 



/E { 
5 array astore 
exch cvlit exch def 
}bd 

/` {}bd 

/~ {}bd 

/@ {}bd 

/& {}bd 

/CorelDrawRencodeVect [ 
16#80/grave 
16#81/circumflex 
16#82/tilde 
16#83/dotlessi 
16#84/florin 
16#85/quotedblleft 
16#86/quotedblright 
16#87/guilsinglleft 
16#88/guilsinglright 
16#89/fi 
16#8a/fl 
16#8b/dagger 
16#8c/daggerdbl 
16#8d/endash 
16#8e/periodcentered 
16#8f/breve 
16#90/quotedblbase 
16#91/ellipsis 
16#92/perthousand 
16#a1/exclamdown 
16#a2/cent 
16#a3/sterling 
16#a4/currency 
16#a5/yen 
16#a6/bar 
16#a7/section 
16#a8/dieresis 
16#a9/copyright 
16#aa/ordfeminine 
16#ab/guillemotleft 
16#ac/logicalnot 
16#ad/emdash 
16#ae/registered 
16#af/spac 
16#b0/ring 
16#b1/spac 
16#b2/spac 
16#b3/spac 
16#b4/acute 
16#b5/spac 
16#b6/paragraph 
16#b7/bullet 
16#b8/cedilla 
16#b9/spac 
16#ba/ordmasculine 
16#bb/guillemotright 
16#bc/spac 
16#bd/spac 
16#be/spac 
16#bf/questiondown 
16#c0/Agrave 
16#c1/Aacute 
16#c2/Acircumflex 
16#c3/Atilde 
16#c4/Adieresis 
16#c5/Aring 
16#c6/AE 
16#c7/Ccedilla 
16#c8/Egrave 
16#c9/Eacute 
16#ca/Ecircumflex 
16#cb/Edieresis 
16#cc/Igrave 
16#cd/Iacute 
16#ce/Icircumflex 
16#cf/Idieresis 
16#d0/spac 
16#d1/Ntilde 
16#d2/Ograve 
16#d3/Oacute 
16#d4/Ocircumflex 
16#d5/Otilde 
16#d6/Odieresis 
16#d7/OE 
16#d8/Oslash 
16#d9/Ugrave 
16#da/Uacute 
16#db/Ucircumflex 
16#dc/Udieresis 
16#dd/space 
16#de/spac 
16#df/germandbls 
16#e0/agrave 
16#e1/aacute 
16#e2/acircumflex 
16#e3/atilde 
16#e4/adieresis 
16#e5/aring 
16#e6/ae 
16#e7/ccedilla 
16#e8/egrave 
16#e9/eacute 
16#ea/ecircumflex 
16#eb/edieresis 
16#ec/igrave 
16#ed/iacute 
16#ee/icircumflex 
16#ef/idieresis 
16#f0/space 
16#f1/ntilde 
16#f2/ograve 
16#f3/oacute 
16#f4/ocircumflex 
16#f5/otilde 
16#f6/odieresis 
16#f7/oe 
16#f8/oslash 
16#f9/ugrave 
16#fa/uacute 
16#fb/ucircumflex 
16#fc/udieresis 
16#fd/spac 
16#fe/spac 
16#ff/ydieresis 
] def
%%EndProlog
%%BeginSetup
%%BeginEncoding:_Times-Bold Times-Bold
[
]/_Times-Bold/Times-Bold Z
%%EndEncoding
%%EndSetup
0.000 0.000 0.000 1.000 K
0 j
0 J
0.071 w
[]0 d
0.000 0.000 0.000 0.298 k
788.039 849.959 m
796.607 849.959 799.775 852.263 801.791 856.007 c
803.087 858.527 802.799 866.375 802.583 868.751 c
802.295 871.631 798.479 873.287 795.455 873.287 c
678.959 873.287 l
675.935 873.287 672.048 871.631 671.831 868.751 c
671.615 866.375 671.327 858.527 672.623 856.007 c
674.567 852.263 677.807 849.959 686.303 849.959 c
788.039 849.959 l
b
0.000 0.000 0.000 1.000 K
0 j
0 J
0.071 w
[]0 d
0.000 0.000 0.000 0.000 k
737.207 898.919 m
738.215 898.919 739.367 898.991 740.015 899.063 c
740.447 899.063 740.519 899.279 740.663 899.567 c
740.951 900.215 741.167 902.807 741.095 904.319 c
741.095 904.895 740.663 905.111 740.087 905.183 c
739.223 905.255 738.143 905.255 737.207 905.255 c
736.271 905.255 735.191 905.255 734.327 905.183 c
733.751 905.111 733.319 904.895 733.319 904.319 c
733.247 902.807 733.463 900.215 733.751 899.567 c
733.895 899.279 734.039 899.063 734.399 899.063 c
735.119 898.991 736.271 898.919 737.207 898.919 c
b
0.000 0.000 0.000 1.000 K
0 j
0 J
0.071 w
[]0 d
0.000 0.000 0.000 0.000 k
737.207 1147.751 m
738.215 1147.751 739.367 1147.751 740.015 1147.823 c
740.447 1147.823 740.519 1148.111 740.663 1148.399 c
740.951 1149.048 741.167 1151.567 741.095 1153.151 c
741.095 1153.727 740.663 1153.943 740.087 1153.943 c
739.223 1154.015 738.143 1154.087 737.207 1154.087 c
736.271 1154.087 735.191 1154.015 734.327 1153.943 c
733.751 1153.943 733.319 1153.727 733.319 1153.151 c
733.247 1151.567 733.463 1149.048 733.751 1148.399 c
733.895 1148.111 734.039 1147.823 734.399 1147.823 c
735.119 1147.751 736.271 1147.751 737.207 1147.751 c
b
0.000 0.000 0.000 1.000 K
0 j
0 J
0.071 w
[]0 d
0.000 0.000 0.000 0.298 k
735.119 899.351 m
734.759 904.895 L
734.615 904.895 734.471 904.823 734.327 904.823 C
733.967 904.823 733.679 904.751 733.679 904.319 C
733.607 903.455 733.679 902.519 733.751 901.655 C
733.823 901.079 733.895 900.431 734.039 899.783 C
734.183 899.279 734.687 899.351 735.119 899.351 C
b
0.000 0.000 0.000 1.000 K
0 j
0 J
0.071 w
[]0 d
0.000 0.000 0.000 0.298 k
735.119 1148.111 m
734.759 1153.655 L
734.615 1153.655 734.471 1153.655 734.327 1153.655 C
733.967 1153.583 733.679 1153.511 733.679 1153.079 C
733.607 1152.215 733.679 1151.351 733.751 1150.415 C
733.823 1149.839 733.895 1149.192 734.039 1148.615 C
734.183 1148.039 734.687 1148.111 735.119 1148.111 C
b
0.000 0.000 0.000 1.000 K
0 j
0 J
0.071 w
[]0 d
0.000 0.000 0.000 0.298 k
738.935 904.895 m
738.719 903.743 738.431 902.735 738.287 902.159 C
738.143 901.655 737.927 901.655 737.207 901.655 C
736.487 901.655 736.271 901.655 736.127 902.159 C
735.983 902.735 735.695 903.743 735.551 904.895 C
736.127 904.895 736.703 904.967 737.207 904.967 C
737.711 904.967 738.287 904.895 738.935 904.895 C
b
0.000 0.000 0.000 1.000 K
0 j
0 J
0.071 w
[]0 d
0.000 0.000 0.000 0.298 k
738.935 1153.727 m
738.719 1152.576 738.431 1151.495 738.287 1150.991 C
738.143 1150.415 737.927 1150.415 737.207 1150.415 C
736.487 1150.415 736.271 1150.415 736.127 1150.991 C
735.983 1151.495 735.695 1152.576 735.551 1153.727 C
736.127 1153.727 736.703 1153.727 737.207 1153.727 C
737.711 1153.727 738.287 1153.727 738.935 1153.727 C
b
0.000 0.000 0.000 1.000 K
0 j
0 J
0.071 w
[]0 d
0.000 0.000 0.000 0.298 k
739.655 904.895 m
739.295 899.351 L
739.799 899.351 740.231 899.279 740.375 899.783 C
740.519 900.431 740.591 901.079 740.663 901.655 C
740.735 902.519 740.807 903.455 740.807 904.319 C
740.735 904.751 740.447 904.823 740.087 904.823 C
739.943 904.823 739.799 904.895 739.655 904.895 C
b
0.000 0.000 0.000 1.000 K
0 j
0 J
0.071 w
[]0 d
0.000 0.000 0.000 0.298 k
739.655 1153.655 m
739.295 1148.111 L
739.799 1148.111 740.231 1148.039 740.375 1148.615 C
740.519 1149.192 740.591 1149.839 740.663 1150.415 C
740.735 1151.351 740.807 1152.215 740.807 1153.079 C
740.735 1153.511 740.447 1153.583 740.087 1153.655 C
739.943 1153.655 739.799 1153.655 739.655 1153.655 C
b
0.000 0.000 0.000 1.000 K
0 j
0 J
0.071 w
[]0 d
0.000 0.000 0.000 0.298 k
737.207 900.863 m
737.783 900.863 737.927 900.791 738.000 900.503 C
738.071 900.143 738.215 899.783 738.287 899.279 C
737.927 899.279 737.495 899.279 737.207 899.279 C
736.919 899.279 736.487 899.279 736.127 899.279 C
736.271 899.783 736.343 900.143 736.487 900.503 C
736.487 900.791 736.631 900.863 737.207 900.863 C
b
0.000 0.000 0.000 1.000 K
0 j
0 J
0.071 w
[]0 d
0.000 0.000 0.000 0.298 k
737.207 1149.695 m
737.783 1149.695 737.927 1149.551 738.000 1149.336 C
738.071 1148.903 738.215 1148.543 738.287 1148.111 C
737.927 1148.039 737.495 1148.039 737.207 1148.039 C
736.919 1148.039 736.487 1148.039 736.127 1148.111 C
736.271 1148.543 736.343 1148.903 736.487 1149.336 C
736.487 1149.551 736.631 1149.695 737.207 1149.695 C
b
0.000 0.000 0.000 1.000 K
0 j
0 J
0.071 w
[]0 d
737.207 848.951 m
654.551 848.951 L
646.559 846.719 L
633.887 846.359 l
629.351 846.215 624.959 852.119 624.024 856.223 c
621.791 865.295 622.295 862.919 622.007 871.415 c
621.719 880.055 617.399 896.183 618.120 906.911 c
618.839 919.511 644.255 958.895 660.024 978.263 c
665.063 984.527 675.647 987.839 683.711 988.631 c
701.495 990.215 719.423 991.079 737.207 991.079 c
754.991 991.079 772.919 990.215 790.703 988.631 c
798.767 987.839 809.279 984.527 814.391 978.263 c
830.159 958.895 855.575 919.511 856.295 906.911 c
856.943 896.183 852.695 880.055 852.335 871.415 c
852.047 862.919 852.623 865.295 850.391 856.223 c
849.455 852.119 844.991 846.215 840.527 846.359 c
827.855 846.719 L
819.791 848.951 L
737.207 848.951 L
s
0.000 0.000 0.000 1.000 K
0 j
0 J
0.071 w
[]0 d
806.111 905.327 m
812.303 909.575 820.727 913.175 828.647 912.383 c
839.735 911.231 851.183 892.871 843.551 892.871 c
810.287 892.871 l
802.295 892.871 800.207 901.295 806.111 905.327 c
s
0.000 0.000 0.000 1.000 K
0 j
0 J
0.071 w
[]0 d
808.055 904.967 m
814.751 908.999 822.455 912.095 830.303 910.583 C
836.639 908.495 843.119 902.303 844.631 895.679 C
844.559 894.599 844.487 894.455 843.407 894.239 C
810.287 894.239 L
806.831 894.527 804.239 895.823 804.095 899.567 C
804.311 902.231 805.967 903.527 808.055 904.967 C
s
u
u
0.000 0.000 0.000 1.000 K
0 j
0 J
0.071 w
[]0 d
832.535 931.967 m
834.767 925.919 832.463 923.327 828.647 911.879 C
832.175 892.871 L
S
U
U
u
u
0.000 0.000 0.000 1.000 K
0 j
0 J
0.071 w
[]0 d
808.631 906.911 m
737.207 906.839 L
S
U
U
u
u
0.000 0.000 0.000 1.000 K
0 j
0 J
0.071 w
[]0 d
805.031 906.767 m
800.279 904.751 799.199 900.935 799.847 897.047 c
800.639 892.583 805.175 890.495 810.431 890.495 c
854.639 890.423 L
S
U
U
u
u
0.000 0.000 0.000 1.000 K
0 j
0 J
0.071 w
[]0 d
621.791 888.191 m
852.623 888.191 L
S
U
U
0.000 0.000 0.000 1.000 K
0 j
0 J
0.071 w
[]0 d
0.000 0.000 0.000 0.498 k
686.159 852.551 m
682.487 852.551 680.039 854.999 678.527 858.023 c
677.447 860.399 677.591 864.359 677.519 865.943 c
677.447 868.031 678.743 871.271 681.263 871.271 c
793.151 871.271 l
795.671 871.271 796.967 868.031 796.895 865.943 c
796.823 864.359 796.967 860.399 795.815 858.023 c
794.375 854.999 791.927 852.551 788.255 852.551 c
686.159 852.551 l
b
0.000 0.000 0.000 1.000 K
0 j
0 J
0.071 w
[]0 d
0.000 0.000 0.000 0.298 k
788.111 904.463 m
792.791 904.463 796.679 901.151 796.679 897.119 c
796.679 893.087 792.791 889.775 788.111 889.775 c
783.431 889.775 779.543 893.087 779.543 897.119 c
779.543 901.151 783.431 904.463 788.111 904.463 c
b
0.000 0.000 0.000 1.000 K
0 j
0 J
0.071 w
[]0 d
0.000 0.000 0.000 0.098 k
789.407 904.463 m
793.655 904.463 797.183 901.151 797.183 897.119 c
797.183 893.087 793.655 889.775 789.407 889.775 c
785.087 889.775 781.559 893.087 781.559 897.119 c
781.559 901.151 785.087 904.463 789.407 904.463 c
b
u
u
0.000 0.000 0.000 1.000 K
0 j
0 J
0.071 w
[]0 d
809.423 932.327 m
796.895 926.207 787.031 915.191 783.431 907.271 C
S
U
U
u
u
0.000 0.000 0.000 1.000 K
0 j
0 J
0.071 w
[]0 d
812.303 930.527 m
803.231 928.223 788.039 914.831 783.431 907.343 C
S
U
U
0.000 0.000 0.000 1.000 K
0 j
0 J
0.071 w
[]0 d
0.000 0.000 0.000 0.498 k
850.607 949.607 m
862.415 949.607 l
871.487 949.607 871.775 932.111 863.063 932.111 c
855.287 932.111 849.959 927.863 847.295 920.447 C
843.191 926.567 L
845.711 932.327 841.103 949.607 850.607 949.607 c
b
u
u
0.000 0.000 0.000 1.000 K
0 j
0 J
0.071 w
[]0 d
832.535 931.967 m
833.183 932.759 833.975 933.119 834.839 933.119 c
840.743 933.047 849.815 914.183 856.295 906.911 C
S
U
U
u
u
0.000 0.000 0.000 1.000 K
0 j
0 J
0.071 w
[]0 d
845.423 898.415 m
856.079 898.415 L
S
U
U
u
u
0.000 0.000 0.000 1.000 K
0 j
0 J
0.071 w
[]0 d
852.983 878.255 m
851.543 866.951 843.983 862.271 843.695 856.727 c
843.551 854.567 846.503 853.775 849.887 854.711 C
S
U
U
0.000 0.000 0.000 1.000 K
0 j
0 J
0.071 w
[]0 d
0.000 0.000 0.000 1.000 k
855.791 896.183 m
854.783 887.183 852.623 877.463 852.335 871.415 C
852.047 862.919 852.623 865.367 850.391 856.223 C
849.383 852.119 845.063 846.215 840.527 846.359 C
827.855 846.719 L
826.631 847.079 L
826.631 821.447 L
826.631 817.919 828.575 815.183 831.167 815.183 C
851.327 815.183 L
853.847 815.183 855.863 817.919 855.863 821.447 C
855.863 895.319 L
855.863 895.607 855.863 895.895 855.791 896.183 C
b
u
u
0.000 0.000 0.000 1.000 K
0 j
0 J
0.071 w
[]0 d
843.695 856.799 m
803.231 856.799 L
803.231 872.279 L
851.615 872.279 L
S
U
U
u
u
0.000 0.000 0.000 1.000 K
0 j
0 J
0.071 w
[]0 d
806.399 862.631 m
846.215 862.631 L
S
U
U
u
u
0.000 0.000 0.000 1.000 K
0 j
0 J
0.071 w
[]0 d
803.231 872.279 m
806.471 866.087 L
806.471 857.879 L
803.231 856.799 L
S
U
U
u
u
0.000 0.000 0.000 1.000 K
0 j
0 J
0.071 w
[]0 d
806.399 857.879 m
843.839 857.879 L
S
U
U
0.000 0.000 0.000 1.000 K
0 j
0 J
0.071 w
[]0 d
0.000 0.000 0.000 0.498 k
737.207 933.839 m
775.871 933.839 800.711 932.975 832.535 931.967 C
830.663 947.015 820.151 962.351 811.151 975.167 c
807.911 979.775 796.679 982.439 791.351 983.015 c
771.479 985.031 757.223 985.679 737.207 985.679 c
717.191 985.679 702.935 985.031 683.063 983.015 c
677.663 982.439 666.431 979.775 663.263 975.167 c
654.192 962.351 643.751 947.015 641.879 931.967 C
673.631 932.975 698.471 933.839 737.207 933.839 c
b
0.000 0.000 0.000 1.000 K
0 j
0 J
0.071 w
[]0 d
0.000 0.000 0.000 0.200 k
829.151 934.919 m
826.127 947.807 818.927 959.183 811.367 969.839 C
810.287 971.423 809.207 973.223 807.839 974.591 C
802.367 978.191 795.671 979.847 789.191 980.351 C
769.607 982.295 749.663 983.231 729.935 982.799 C
715.103 982.799 699.983 981.791 685.151 980.351 C
678.743 979.847 671.975 978.191 666.575 974.591 C
665.279 973.295 664.055 971.423 662.975 969.839 C
655.487 959.183 648.215 947.735 645.263 934.919 C
672.335 935.711 699.623 936.647 726.695 936.647 C
760.823 937.007 794.951 935.927 829.151 934.919 C
b
0.000 0.000 0.000 1.000 K
0 j
0 J
0.071 w
[]0 d
668.231 905.327 m
662.111 909.575 653.615 913.175 645.767 912.383 c
634.607 911.231 623.159 892.871 630.863 892.871 c
664.127 892.871 l
672.120 892.871 674.207 901.295 668.231 905.327 c
s
0.000 0.000 0.000 1.000 K
0 j
0 J
0.071 w
[]0 d
0.000 0.000 0.000 0.098 k
666.287 904.967 m
659.663 908.999 651.959 912.095 644.039 910.583 C
637.703 908.495 631.223 902.303 629.783 895.679 C
629.783 894.599 629.855 894.455 630.935 894.239 C
664.055 894.239 L
667.511 894.527 670.103 895.823 670.247 899.567 C
670.031 902.231 668.375 903.527 666.287 904.967 C
b
u
u
0.000 0.000 0.000 1.000 K
0 j
0 J
0.071 w
[]0 d
641.879 931.967 m
639.647 925.919 641.951 923.327 645.767 911.879 C
642.168 892.871 L
S
U
U
u
u
0.000 0.000 0.000 1.000 K
0 j
0 J
0.071 w
[]0 d
665.711 906.911 m
737.207 906.839 L
S
U
U
u
u
0.000 0.000 0.000 1.000 K
0 j
0 J
0.071 w
[]0 d
669.311 906.767 m
674.135 904.751 675.215 900.935 674.495 897.047 c
673.775 892.583 669.239 890.495 663.983 890.495 c
619.775 890.423 L
S
U
U
0.000 0.000 0.000 1.000 K
0 j
0 J
0.071 w
[]0 d
0.000 0.000 0.000 0.298 k
686.303 904.463 m
681.551 904.463 677.663 901.151 677.663 897.119 c
677.663 893.087 681.551 889.775 686.303 889.775 c
690.983 889.775 694.871 893.087 694.871 897.119 c
694.871 901.151 690.983 904.463 686.303 904.463 c
b
0.000 0.000 0.000 1.000 K
0 j
0 J
0.071 w
[]0 d
0.000 0.000 0.000 0.098 k
685.007 904.463 m
680.687 904.463 677.231 901.151 677.231 897.119 c
677.231 893.087 680.687 889.775 685.007 889.775 c
689.327 889.775 692.783 893.087 692.783 897.119 c
692.783 901.151 689.327 904.463 685.007 904.463 c
b
u
u
0.000 0.000 0.000 1.000 K
0 j
0 J
0.071 w
[]0 d
664.991 932.327 m
677.447 926.207 687.311 915.191 690.983 907.271 C
S
U
U
u
u
0.000 0.000 0.000 1.000 K
0 j
0 J
0.071 w
[]0 d
662.111 930.527 m
671.183 928.223 686.303 914.831 690.983 907.343 C
S
U
U
0.000 0.000 0.000 1.000 K
0 j
0 J
0.071 w
[]0 d
0.000 0.000 0.000 0.498 k
623.735 949.607 m
611.927 949.607 l
602.855 949.607 602.639 932.111 611.351 932.111 c
619.055 932.111 624.455 927.863 627.048 920.447 C
631.151 926.567 L
628.703 932.327 633.311 949.607 623.735 949.607 c
b
u
u
0.000 0.000 0.000 1.000 K
0 j
0 J
0.071 w
[]0 d
641.879 931.967 m
641.159 932.759 640.367 933.119 639.503 933.119 c
633.599 933.047 624.527 914.183 618.048 906.911 C
S
U
U
u
u
0.000 0.000 0.000 1.000 K
0 j
0 J
0.071 w
[]0 d
628.991 898.415 m
618.264 898.415 L
S
U
U
u
u
0.000 0.000 0.000 1.000 K
0 j
0 J
0.071 w
[]0 d
621.359 878.255 m
622.871 866.951 630.359 862.271 630.719 856.727 c
630.863 854.567 627.911 853.775 624.455 854.711 C
S
U
U
0.000 0.000 0.000 1.000 K
0 j
0 J
0.071 w
[]0 d
0.000 0.000 0.000 1.000 k
618.551 896.183 m
619.631 887.183 621.791 877.463 622.007 871.415 C
622.295 862.919 621.719 865.367 623.951 856.223 C
624.959 852.119 629.351 846.215 633.815 846.359 C
646.487 846.719 L
647.783 847.079 L
647.783 821.447 L
647.783 817.919 645.767 815.183 643.175 815.183 C
623.015 815.183 L
620.495 815.183 618.479 817.919 618.479 821.447 C
618.479 895.319 L
618.479 895.607 618.551 895.895 618.551 896.183 C
b
u
u
0.000 0.000 0.000 1.000 K
0 j
0 J
0.071 w
[]0 d
839.663 930.455 m
838.151 942.551 821.591 963.863 813.455 975.743 c
810.071 980.711 799.271 985.031 792.215 985.679 c
773.495 987.551 756.287 988.631 737.207 988.631 c
718.127 988.631 700.919 987.551 682.199 985.679 c
675.144 985.031 664.271 980.711 660.887 975.743 c
652.751 963.863 636.192 942.551 634.679 930.455 C
S
U
U
u
u
0.000 0.000 0.000 1.000 K
0 j
0 J
0.071 w
[]0 d
630.647 856.799 m
671.183 856.799 L
671.183 872.279 L
622.799 872.279 L
S
U
U
u
u
0.000 0.000 0.000 1.000 K
0 j
0 J
0.071 w
[]0 d
668.015 862.631 m
628.199 862.631 L
S
U
U
u
u
0.000 0.000 0.000 1.000 K
0 j
0 J
0.071 w
[]0 d
671.183 872.279 m
667.943 866.087 L
667.943 857.879 L
671.183 856.799 L
S
U
U
u
u
0.000 0.000 0.000 1.000 K
0 j
0 J
0.071 w
[]0 d
667.943 857.879 m
630.503 857.879 L
S
U
U
0.000 0.000 0.000 1.000 K
0 j
0 J
0.071 w
[]0 d
0.000 0.000 0.000 0.298 k
642.455 894.239 m
645.551 910.799 L
645.048 910.727 644.543 910.655 644.039 910.583 C
637.703 908.495 631.223 902.303 629.783 895.679 C
629.783 894.599 629.855 894.455 630.935 894.239 C
642.455 894.239 L
b
0.000 0.000 0.000 1.000 K
0 j
0 J
0.071 w
[]0 d
0.000 0.000 0.000 0.298 k
832.175 894.239 m
829.151 910.799 L
829.655 910.727 830.159 910.655 830.591 910.583 C
836.927 908.495 843.407 902.303 844.919 895.679 C
844.847 894.599 844.775 894.455 843.695 894.239 C
832.175 894.239 L
b
u
u
0.000 0.000 0.000 1.000 K
0 j
0 J
0.071 w
[]0 d
737.207 1117.079 m
700.703 1117.079 l
696.455 1117.079 692.207 1119.815 692.135 1123.055 c
691.343 1140.336 L
737.207 1140.336 L
S
U
U
0.000 0.000 0.000 1.000 K
0 j
0 J
0.071 w
[]0 d
737.207 1140.336 m
777.959 1140.336 L
777.167 1125.000 l
777.167 1122.119 773.351 1119.672 769.679 1119.672 c
737.207 1119.815 L
705.095 1119.887 l
701.423 1119.887 697.679 1122.263 697.607 1125.144 c
696.887 1140.336 L
737.207 1140.336 L
s
0.000 0.000 0.000 1.000 K
0 j
0 J
0.071 w
[]0 d
641.879 1143.647 m
657.072 1143.935 l
660.239 1144.007 663.767 1141.271 664.487 1138.463 c
667.799 1125.503 l
669.024 1120.607 666.719 1117.079 661.895 1117.079 c
627.839 1117.079 l
617.543 1117.079 631.439 1143.432 641.879 1143.647 c
s
0.000 0.000 0.000 1.000 K
0 j
0 J
0.071 w
[]0 d
0.000 0.000 0.000 0.098 k
657.072 1142.495 m
659.807 1142.351 662.255 1140.624 663.191 1138.103 C
666.431 1125.215 L
667.079 1121.255 666.144 1118.591 661.823 1118.447 C
627.911 1118.447 L
625.247 1118.663 625.535 1120.607 625.823 1122.911 C
627.551 1129.895 632.735 1138.319 639.431 1141.631 C
640.295 1141.919 L
641.159 1142.135 L
642.024 1142.207 L
657.072 1142.495 L
b
0.000 0.000 0.000 1.000 K
0 j
0 J
0.071 w
[]0 d
675.791 1128.887 m
684.935 1128.887 l
686.519 1128.887 687.743 1127.591 687.743 1125.935 c
687.743 1120.823 l
687.743 1119.167 686.519 1117.871 684.935 1117.871 c
675.791 1117.871 l
674.207 1117.871 672.983 1119.167 672.983 1120.823 c
672.983 1125.935 l
672.983 1127.591 674.207 1128.887 675.791 1128.887 c
s
u
u
0.000 0.000 0.000 1.000 K
0 j
0 J
0.071 w
[]0 d
660.815 1142.855 m
737.135 1142.855 L
S
U
U
u
u
0.000 0.000 0.000 1.000 K
0 j
0 J
0.071 w
[]0 d
663.623 1140.263 m
737.135 1140.263 L
S
U
U
u
u
0.000 0.000 0.000 1.000 K
0 j
0 J
0.071 w
[]0 d
663.695 1117.223 m
663.479 1115.063 665.207 1114.127 666.935 1114.127 c
737.207 1114.055 L
S
U
U
u
u
0.000 0.000 0.000 1.000 K
0 j
0 J
0.071 w
[]0 d
626.759 1117.079 m
625.679 1114.631 626.111 1111.895 618.695 1111.895 C
S
U
U
u
u
0.000 0.000 0.000 1.000 K
0 j
0 J
0.071 w
[]0 d
737.207 1062.864 m
654.551 1062.864 L
646.559 1060.631 L
633.887 1060.271 L
629.351 1060.127 624.959 1066.031 624.024 1070.135 C
621.791 1079.207 622.295 1076.831 622.007 1085.327 C
621.719 1093.967 617.399 1110.096 618.120 1120.823 C
618.839 1133.423 644.255 1172.807 660.024 1192.175 C
665.063 1198.439 675.647 1201.751 683.711 1202.543 C
701.495 1204.127 719.423 1204.991 737.207 1204.991 C
S
U
U
0.000 0.000 0.000 1.000 K
0 j
0 J
0.071 w
[]0 d
0.000 0.000 0.000 0.498 k
630.216 1148.615 m
628.271 1145.231 626.471 1141.919 624.887 1138.895 C
621.863 1143.432 617.327 1146.023 611.351 1146.023 C
602.639 1146.023 602.855 1163.519 611.927 1163.519 C
623.735 1163.519 L
630.216 1163.519 630.144 1155.528 630.216 1148.615 C
b
0.000 0.000 0.000 1.000 K
0 j
0 J
0.071 w
[]0 d
0.000 0.000 0.000 1.000 k
618.551 1110.096 m
619.631 1101.096 621.791 1091.375 622.007 1085.327 C
622.295 1076.831 621.719 1079.279 623.951 1070.135 C
624.959 1066.031 629.351 1060.127 633.815 1060.271 C
646.487 1060.631 L
647.783 1060.991 L
647.783 1035.359 L
647.783 1031.831 645.767 1029.096 643.175 1029.096 C
623.015 1029.096 L
620.495 1029.096 618.479 1031.831 618.479 1035.359 C
618.479 1109.231 L
618.479 1109.519 618.551 1109.807 618.551 1110.096 C
b
u
u
0.000 0.000 0.000 1.000 K
0 j
0 J
0.071 w
[]0 d
653.255 1160.135 m
647.135 1158.911 642.887 1156.823 640.367 1154.159 C
S
U
U
u
u
0.000 0.000 0.000 1.000 K
0 j
0 J
0.071 w
[]0 d
640.367 1154.159 m
661.967 1156.103 704.087 1156.319 737.207 1156.319 C
S
U
U
u
u
0.000 0.000 0.000 1.000 K
0 j
0 J
0.071 w
[]0 d
649.439 1159.127 m
651.527 1154.663 L
652.391 1143.576 L
S
U
U
u
u
0.000 0.000 0.000 1.000 K
0 j
0 J
0.071 w
[]0 d
852.407 1092.311 m
622.079 1092.311 L
S
U
U
0.000 0.000 0.000 1.000 K
0 j
0 J
0.071 w
[]0 d
0.000 0.000 0.000 0.298 k
629.711 1132.055 m
664.631 1132.055 L
663.191 1138.103 L
662.255 1140.624 659.807 1142.351 657.072 1142.495 C
642.024 1142.207 L
641.159 1142.135 L
640.295 1141.919 L
639.431 1141.631 L
635.543 1139.687 632.231 1136.087 629.711 1132.055 C
b
u
u
0.000 0.000 0.000 1.000 K
0 j
0 J
0.071 w
[]0 d
622.439 1079.063 m
669.599 1079.063 L
S
U
U
0.000 0.000 0.000 1.000 K
0 j
0 J
0.071 w
[]0 d
737.207 1062.864 m
817.271 1062.864 L
813.311 1074.311 806.471 1080.215 798.335 1081.007 C
737.207 1081.871 L
676.151 1081.007 L
668.015 1080.215 661.175 1074.311 657.215 1062.864 C
737.207 1062.864 L
s
0.000 0.000 0.000 1.000 K
0 j
0 J
0.071 w
[]0 d
0.000 0.000 0.000 0.498 k
737.207 1196.279 m
715.823 1196.279 699.119 1196.927 678.671 1192.391 c
668.663 1190.231 661.463 1179.719 653.255 1160.207 C
684.575 1163.087 712.799 1162.583 737.207 1162.583 c
761.615 1162.583 789.839 1163.087 821.231 1160.207 C
812.951 1179.719 805.751 1190.231 795.743 1192.391 c
775.367 1196.927 758.591 1196.279 737.207 1196.279 c
b
0.000 0.000 0.000 1.000 K
0 j
0 J
0.071 w
[]0 d
0.000 0.000 0.000 0.200 k
675.503 1188.215 m
666.863 1183.319 662.255 1172.879 658.151 1164.311 C
657.791 1163.447 L
670.103 1164.672 682.775 1164.959 695.159 1165.247 C
717.983 1165.535 740.951 1165.463 763.775 1165.463 C
777.167 1165.247 790.631 1165.175 804.095 1164.311 C
808.199 1164.167 812.591 1163.879 816.695 1163.447 C
815.543 1166.039 814.247 1168.703 813.023 1171.151 C
808.991 1178.567 804.383 1186.631 795.959 1189.439 C
783.503 1192.247 770.687 1193.183 757.943 1193.471 C
754.271 1193.471 750.599 1193.471 747.000 1193.471 C
728.135 1193.183 709.055 1194.263 690.263 1191.599 C
685.439 1190.951 679.967 1190.231 675.503 1188.215 C
b
u
u
0.000 0.000 0.000 1.000 K
0 j
0 J
0.071 w
[]0 d
649.439 1159.127 m
658.079 1179.503 665.783 1191.743 676.007 1193.903 c
697.247 1198.367 714.887 1197.935 737.207 1197.935 c
759.599 1197.935 777.239 1198.367 798.407 1193.903 c
808.703 1191.743 816.407 1179.503 825.047 1159.127 C
S
U
U
u
u
0.000 0.000 0.000 1.000 K
0 j
0 J
0.071 w
[]0 d
640.367 1154.159 m
651.311 1176.839 662.399 1193.687 673.487 1196.279 c
696.527 1201.679 712.943 1201.175 737.207 1201.175 c
761.543 1201.175 777.527 1201.679 800.495 1196.279 c
811.655 1193.687 823.823 1177.271 834.047 1154.159 C
S
U
U
u
u
0.000 0.000 0.000 1.000 K
0 j
0 J
0.071 w
[]0 d
737.207 1117.079 m
773.783 1117.079 l
778.031 1117.079 782.207 1119.815 782.279 1123.055 c
783.143 1140.336 L
737.207 1140.336 L
S
U
U
0.000 0.000 0.000 1.000 K
0 j
0 J
0.071 w
[]0 d
832.535 1143.647 m
817.343 1143.935 l
814.175 1144.007 810.719 1141.271 809.927 1138.463 c
806.615 1125.503 l
805.391 1120.607 807.767 1117.079 812.519 1117.079 c
846.647 1117.079 l
856.871 1117.079 842.975 1143.432 832.535 1143.647 c
s
0.000 0.000 0.000 1.000 K
0 j
0 J
0.071 w
[]0 d
0.000 0.000 0.000 0.098 k
817.415 1142.495 m
814.679 1142.351 812.231 1140.624 811.295 1138.103 C
808.055 1125.215 L
807.335 1121.255 808.343 1118.591 812.591 1118.447 C
846.575 1118.447 L
849.167 1118.663 848.879 1120.607 848.663 1122.911 C
846.935 1129.895 841.679 1138.319 834.983 1141.631 C
834.119 1141.919 L
833.327 1142.135 L
832.463 1142.207 L
817.415 1142.495 L
b
u
u
0.000 0.000 0.000 1.000 K
0 j
0 J
0.071 w
[]0 d
813.671 1142.855 m
737.279 1142.855 L
S
U
U
u
u
0.000 0.000 0.000 1.000 K
0 j
0 J
0.071 w
[]0 d
810.863 1140.263 m
737.279 1140.263 L
S
U
U
u
u
0.000 0.000 0.000 1.000 K
0 j
0 J
0.071 w
[]0 d
810.791 1117.223 m
810.935 1115.063 809.279 1114.127 807.551 1114.127 c
737.207 1114.055 L
S
U
U
u
u
0.000 0.000 0.000 1.000 K
0 j
0 J
0.071 w
[]0 d
847.655 1117.079 m
848.807 1114.631 848.303 1111.895 855.719 1111.895 C
S
U
U
u
u
0.000 0.000 0.000 1.000 K
0 j
0 J
0.071 w
[]0 d
737.279 1062.864 m
819.863 1062.864 L
827.927 1060.631 L
840.599 1060.271 L
845.063 1060.127 849.527 1066.031 850.463 1070.135 C
852.695 1079.207 852.119 1076.831 852.407 1085.327 C
852.767 1093.967 857.015 1110.096 856.367 1120.823 C
855.647 1133.423 830.231 1172.807 814.463 1192.175 C
809.351 1198.439 798.839 1201.751 790.775 1202.543 C
772.991 1204.127 755.063 1204.991 737.279 1204.991 C
S
U
U
0.000 0.000 0.000 1.000 K
0 j
0 J
0.071 w
[]0 d
0.000 0.000 0.000 0.498 k
844.199 1148.615 m
846.143 1145.231 848.015 1141.919 849.599 1138.895 C
852.551 1143.432 857.087 1146.023 863.135 1146.023 C
871.847 1146.023 871.559 1163.519 862.487 1163.519 C
850.679 1163.519 L
844.271 1163.519 844.271 1155.528 844.199 1148.615 C
b
0.000 0.000 0.000 1.000 K
0 j
0 J
0.071 w
[]0 d
0.000 0.000 0.000 1.000 k
855.863 1110.096 m
854.855 1101.096 852.695 1091.375 852.407 1085.327 C
852.119 1076.831 852.695 1079.279 850.463 1070.135 C
849.455 1066.031 845.135 1060.127 840.599 1060.271 C
827.927 1060.631 L
826.703 1060.991 L
826.703 1035.359 L
826.703 1031.831 828.647 1029.096 831.239 1029.096 C
851.399 1029.096 L
853.919 1029.096 855.935 1031.831 855.935 1035.359 C
855.935 1109.231 L
855.935 1109.519 855.935 1109.807 855.863 1110.096 C
b
u
u
0.000 0.000 0.000 1.000 K
0 j
0 J
0.071 w
[]0 d
821.159 1160.135 m
827.279 1158.911 831.527 1156.823 834.119 1154.159 C
S
U
U
u
u
0.000 0.000 0.000 1.000 K
0 j
0 J
0.071 w
[]0 d
834.119 1154.159 m
812.447 1156.103 770.327 1156.319 737.279 1156.319 C
S
U
U
u
u
0.000 0.000 0.000 1.000 K
0 j
0 J
0.071 w
[]0 d
825.047 1159.127 m
822.959 1154.663 L
822.023 1143.576 L
S
U
U
u
u
0.000 0.000 0.000 1.000 K
0 j
0 J
0.071 w
[]0 d
852.047 1079.063 m
804.887 1079.063 L
S
U
U
u
u
0.000 0.000 0.000 1.000 K
0 j
0 J
0.071 w
[]0 d
619.559 1108.007 m
854.927 1108.007 L
S
U
U
0.000 0.000 0.000 1.000 K
0 j
0 J
0.071 w
[]0 d
0.000 0.000 0.000 0.298 k
844.703 1132.055 m
809.783 1132.055 L
811.295 1138.103 L
812.231 1140.624 814.679 1142.351 817.415 1142.495 C
832.463 1142.207 L
833.327 1142.135 L
834.119 1141.919 L
834.983 1141.631 L
838.871 1139.687 842.255 1136.087 844.703 1132.055 C
b
0.000 0.000 0.000 1.000 K
0 j
0 J
0.071 w
[]0 d
794.807 1134.144 m
796.031 1134.144 797.039 1133.135 797.039 1131.911 c
797.039 1130.687 796.031 1129.679 794.807 1129.679 c
793.583 1129.679 792.575 1130.687 792.575 1131.911 c
792.575 1133.135 793.583 1134.144 794.807 1134.144 c
s
u
u
0.000 0.000 0.000 1.000 K
0 j
0 J
0.071 w
[]0 d
646.775 1142.351 m
646.487 1137.672 646.775 1129.535 646.919 1118.231 C
S
U
U
0.000 0.000 0.000 1.000 K
0 j
0 J
0.071 w
[]0 d
649.511 1130.975 m
663.048 1130.975 L
664.343 1125.720 L
664.991 1122.263 664.127 1119.815 660.239 1119.672 C
649.511 1119.672 L
649.511 1130.975 L
s
0.000 0.000 0.000 1.000 K
0 j
0 J
0.071 w
[]0 d
662.399 1133.423 m
649.511 1133.423 L
649.511 1141.127 L
655.991 1141.271 L
658.439 1141.127 660.599 1139.615 661.463 1137.311 C
662.399 1133.423 L
s
u
u
0.000 0.000 0.000 1.000 K
0 j
0 J
0.071 w
[]0 d
827.639 1142.351 m
827.927 1137.672 827.711 1129.535 827.495 1118.231 C
S
U
U
0.000 0.000 0.000 1.000 K
0 j
0 J
0.071 w
[]0 d
824.975 1130.975 m
811.439 1130.975 L
810.071 1125.720 L
809.495 1122.263 810.359 1119.815 814.175 1119.672 C
824.975 1119.672 L
824.975 1130.975 L
s
0.000 0.000 0.000 1.000 K
0 j
0 J
0.071 w
[]0 d
812.015 1133.423 m
824.975 1133.423 L
824.975 1141.127 L
818.495 1141.271 L
816.047 1141.127 813.815 1139.615 813.023 1137.311 C
812.015 1133.423 L
s
0.000 0.000 0.000 1.000 K
0 j
0 J
0.071 w
[]0 d
0.000 0.000 0.000 0.098 k
34.487 1118.807 m
42.119 1123.847 57.671 1129.175 64.799 1124.423 c
71.135 1120.103 70.199 1106.783 61.919 1106.783 c
32.759 1106.783 l
21.815 1106.783 30.383 1116.000 34.487 1118.807 c
b
0.000 0.000 0.000 1.000 K
0 j
0 J
0.071 w
[]0 d
15.047 1068.551 m
14.111 1070.279 20.807 1068.768 20.519 1070.711 c
17.135 1089.935 L
16.416 1091.879 9.215 1090.367 9.215 1092.528 c
9.215 1101.672 L
9.287 1114.055 38.591 1127.015 66.671 1135.367 c
95.183 1143.863 129.599 1149.263 164.879 1152.647 C
175.535 1149.767 L
207.431 1167.480 238.967 1183.535 271.512 1196.711 c
279.791 1200.023 288.935 1202.687 297.719 1203.623 c
332.567 1207.007 365.255 1203.480 399.383 1202.183 c
402.839 1202.111 405.647 1201.175 405.359 1198.223 c
405.071 1194.911 405.071 1192.103 407.807 1190.015 c
421.343 1180.007 440.135 1170.215 458.135 1162.655 C
488.159 1161.647 516.743 1159.847 544.175 1157.111 C
549.647 1156.103 556.127 1151.855 558.288 1144.079 C
554.615 1144.151 L
558.000 1142.279 561.312 1130.399 561.240 1113.983 C
565.559 1108.295 573.048 1110.528 573.911 1105.631 c
575.423 1097.495 573.983 1084.463 568.007 1082.231 c
560.519 1079.423 556.127 1070.279 546.336 1069.343 c
537.264 1068.551 527.759 1067.615 515.087 1065.240 C
512.855 1097.855 492.047 1117.511 463.031 1117.511 C
437.543 1117.511 409.895 1100.519 411.911 1051.487 C
337.319 1054.439 260.495 1056.023 180.647 1055.159 C
182.087 1093.319 163.583 1120.751 129.671 1120.679 c
103.535 1120.679 77.327 1108.367 78.191 1060.127 C
34.343 1060.127 l
27.503 1060.127 17.423 1064.303 15.047 1068.551 c
s
0.000 0.000 0.000 1.000 K
0 j
0 J
0.071 w
[]0 d
38.735 1119.672 m
45.359 1122.983 55.367 1126.655 62.855 1123.919 C
67.896 1121.543 69.479 1113.048 65.087 1109.303 C
64.007 1108.655 63.215 1108.439 61.847 1108.295 C
32.615 1108.367 L
30.023 1108.511 28.727 1108.799 29.951 1111.463 C
32.039 1115.423 34.919 1117.583 38.735 1119.672 C
s
u
u
0.000 0.000 0.000 1.000 K
0 j
0 J
0.071 w
[]0 d
60.191 1126.079 m
78.335 1130.975 109.367 1138.535 131.256 1141.415 c
168.695 1146.311 194.543 1145.087 202.895 1150.415 C
S
U
U
0.000 0.000 0.000 1.000 K
0 j
0 J
0.071 w
[]0 d
0.000 0.000 0.000 0.498 k
277.991 1190.015 m
283.536 1192.679 289.295 1194.983 295.487 1195.631 c
325.512 1199.087 356.255 1198.511 386.711 1194.839 C
382.463 1182.528 379.583 1168.487 373.535 1157.687 c
369.359 1150.199 364.679 1145.879 356.183 1145.447 c
310.031 1142.927 263.807 1141.127 217.727 1140.911 c
212.183 1140.911 211.679 1143.071 212.831 1144.367 c
228.239 1161.935 250.415 1176.839 277.991 1190.015 c
b
0.000 0.000 0.000 1.000 K
0 j
0 J
0.071 w
[]0 d
372.023 1161.000 m
369.000 1155.096 365.615 1150.055 358.703 1148.615 C
355.103 1147.967 351.071 1147.967 347.399 1147.823 C
303.695 1145.663 259.847 1143.863 216.143 1143.863 C
226.943 1155.311 239.399 1165.319 253.007 1173.311 C
262.295 1179.071 272.303 1184.327 282.239 1188.863 C
286.703 1190.735 291.311 1192.391 296.135 1192.823 C
309.167 1194.192 322.055 1194.911 335.159 1195.055 C
348.407 1195.055 361.799 1194.407 375.047 1193.255 C
382.895 1192.463 L
379.439 1182.023 376.991 1170.935 372.023 1161.000 C
s
0.000 0.000 0.000 1.000 K
0 j
0 J
0.071 w
[]0 d
0.000 0.000 0.000 0.498 k
175.607 1149.839 m
175.607 1149.767 L
183.527 1146.815 196.271 1146.599 206.135 1152.215 C
229.463 1166.543 255.167 1183.175 278.135 1194.048 C
279.791 1194.911 280.079 1197.215 279.000 1199.447 C
276.479 1198.583 273.887 1197.647 271.512 1196.711 C
238.967 1183.535 207.503 1167.480 175.607 1149.839 C
b
u
u
0.000 0.000 0.000 1.000 K
0 j
0 J
0.071 w
[]0 d
293.471 1195.271 m
291.096 1202.543 L
S
U
U
u
u
0.000 0.000 0.000 1.000 K
0 j
0 J
0.071 w
[]0 d
386.711 1194.839 m
389.159 1202.615 L
S
U
U
0.000 0.000 0.000 1.000 K
0 j
0 J
0.071 w
[]0 d
0.000 0.000 0.000 0.200 k
350.855 1137.096 m
366.983 1138.175 l
370.583 1138.463 370.223 1127.375 366.983 1127.375 c
350.639 1127.087 l
339.048 1126.943 339.191 1136.231 350.855 1137.096 c
b
0.000 0.000 0.000 1.000 K
0 j
0 J
0.071 w
[]0 d
0.000 0.000 0.000 0.200 k
351.791 1136.087 m
364.175 1136.951 l
366.911 1137.167 365.831 1130.903 360.719 1129.247 c
357.839 1128.384 354.599 1128.672 351.575 1128.384 c
342.791 1127.591 342.791 1135.439 351.791 1136.087 c
b
0.000 0.000 0.000 1.000 K
0 j
0 J
0.071 w
[]0 d
402.263 1141.559 m
415.511 1141.559 l
418.319 1141.559 420.551 1139.327 420.551 1136.519 c
420.551 1126.727 l
420.551 1123.919 418.319 1121.687 415.511 1121.687 c
402.263 1121.687 l
399.455 1121.687 397.223 1123.919 397.223 1126.727 c
397.223 1136.519 l
397.223 1139.327 399.455 1141.559 402.263 1141.559 c
s
u
u
0.000 0.000 0.000 1.000 K
0 j
0 J
0.071 w
[]0 d
279.575 1195.703 m
285.767 1197.791 293.183 1199.807 299.663 1200.240 c
326.735 1202.471 362.303 1201.535 405.287 1197.647 C
S
U
U
0.000 0.000 0.000 1.000 K
0 j
0 J
0.071 w
[]0 d
529.919 1143.288 m
545.255 1143.935 l
557.927 1144.511 558.000 1117.007 552.096 1117.007 c
521.855 1117.007 l
518.039 1117.007 514.007 1120.751 515.735 1125.215 c
517.895 1130.831 520.487 1135.727 523.295 1139.687 c
524.663 1141.631 527.399 1143.144 529.919 1143.288 c
s
0.000 0.000 0.000 1.000 K
0 j
0 J
0.071 w
[]0 d
0.000 0.000 0.000 0.098 k
547.199 1142.351 m
554.255 1140.119 555.407 1127.807 553.967 1121.687 C
553.751 1120.751 553.103 1118.663 552.024 1118.519 C
521.855 1118.447 L
518.471 1118.591 515.951 1121.255 517.031 1124.711 C
518.975 1129.535 521.351 1134.647 524.447 1138.823 C
525.671 1140.624 527.903 1141.703 529.991 1141.919 C
545.255 1142.567 L
546.264 1142.495 L
547.199 1142.351 L
b
u
u
0.000 0.000 0.000 1.000 K
0 j
0 J
0.071 w
[]0 d
399.167 1202.183 m
399.167 1197.503 l
399.167 1193.111 399.743 1190.519 402.839 1187.567 c
410.975 1179.719 442.439 1163.159 456.695 1158.048 c
462.095 1156.103 466.127 1154.591 472.103 1154.735 c
476.279 1154.807 475.631 1155.455 476.351 1156.895 C
S
U
U
u
u
0.000 0.000 0.000 1.000 K
0 j
0 J
0.071 w
[]0 d
458.135 1162.655 m
463.751 1160.279 469.583 1157.327 476.351 1156.895 c
496.007 1155.743 518.543 1156.175 538.343 1154.159 C
S
U
U
u
u
0.000 0.000 0.000 1.000 K
0 j
0 J
0.071 w
[]0 d
418.679 1100.447 m
424.223 1109.447 435.239 1122.551 463.895 1122.551 c
500.039 1122.551 517.679 1095.336 520.559 1066.103 C
S
U
U
u
u
0.000 0.000 0.000 1.000 K
0 j
0 J
0.071 w
[]0 d
502.199 1107.935 m
572.615 1107.935 L
S
U
U
u
u
0.000 0.000 0.000 1.000 K
0 j
0 J
0.071 w
[]0 d
514.079 1090.799 m
573.839 1092.311 L
S
U
U
u
u
0.000 0.000 0.000 1.000 K
0 j
0 J
0.071 w
[]0 d
518.543 1078.343 m
562.607 1079.135 L
S
U
U
u
u
0.000 0.000 0.000 1.000 K
0 j
0 J
0.071 w
[]0 d
519.336 1117.583 m
519.336 1114.631 l
519.336 1113.480 517.679 1111.895 516.384 1111.895 c
497.231 1111.895 L
S
U
U
u
u
0.000 0.000 0.000 1.000 K
0 j
0 J
0.071 w
[]0 d
373.103 1156.895 m
379.295 1153.511 381.167 1153.223 381.167 1145.159 c
381.167 1114.631 373.319 1089.576 364.463 1066.607 C
S
U
U
u
u
0.000 0.000 0.000 1.000 K
0 j
0 J
0.071 w
[]0 d
202.895 1150.415 m
207.143 1142.927 L
198.935 1125.935 196.343 1092.959 207.071 1068.263 C
S
U
U
u
u
0.000 0.000 0.000 1.000 K
0 j
0 J
0.071 w
[]0 d
207.143 1142.927 m
212.255 1143.000 L
S
U
U
0.000 0.000 0.000 1.000 K
0 j
0 J
0.071 w
[]0 d
220.175 1099.511 m
299.159 1099.583 353.663 1098.071 420.623 1094.183 C
173.807 1094.543 L
186.767 1098.288 205.199 1099.511 220.175 1099.511 c
s
u
u
0.000 0.000 0.000 1.000 K
0 j
0 J
0.071 w
[]0 d
178.631 1080.215 m
414.503 1077.768 L
S
U
U
u
u
0.000 0.000 0.000 1.000 K
0 j
0 J
0.071 w
[]0 d
179.207 1074.311 m
413.063 1072.511 L
S
U
U
u
u
0.000 0.000 0.000 1.000 K
0 j
0 J
0.071 w
[]0 d
179.927 1068.695 m
412.343 1065.887 L
S
U
U
u
u
0.000 0.000 0.000 1.000 K
0 j
0 J
0.071 w
[]0 d
181.007 1065.240 m
412.055 1063.079 L
S
U
U
u
u
0.000 0.000 0.000 1.000 K
0 j
0 J
0.071 w
[]0 d
180.287 1057.535 m
259.632 1059.048 336.383 1057.391 412.055 1054.079 C
S
U
U
u
u
0.000 0.000 0.000 1.000 K
0 j
0 J
0.071 w
[]0 d
68.615 1112.327 m
98.855 1112.327 L
S
U
U
u
u
0.000 0.000 0.000 1.000 K
0 j
0 J
0.071 w
[]0 d
73.007 1060.127 m
72.359 1116.576 105.983 1125.359 129.816 1125.359 c
147.527 1125.359 167.039 1120.031 179.207 1095.695 C
S
U
U
u
u
0.000 0.000 0.000 1.000 K
0 j
0 J
0.071 w
[]0 d
9.215 1102.103 m
82.295 1102.103 L
S
U
U
u
u
0.000 0.000 0.000 1.000 K
0 j
0 J
0.071 w
[]0 d
17.711 1086.192 m
71.280 1086.192 L
S
U
U
u
u
0.000 0.000 0.000 1.000 K
0 j
0 J
0.071 w
[]0 d
23.543 1076.543 m
60.407 1076.543 L
S
U
U
u
u
0.000 0.000 0.000 1.000 K
0 j
0 J
0.071 w
[]0 d
24.623 1071.720 m
58.463 1071.720 L
S
U
U
u
u
0.000 0.000 0.000 1.000 K
0 j
0 J
0.071 w
[]0 d
81.287 1100.663 m
77.471 1097.639 73.295 1086.119 68.975 1082.663 c
64.367 1078.991 56.879 1075.247 57.959 1072.511 c
58.751 1070.423 61.775 1067.831 78.407 1068.624 C
S
U
U
u
u
0.000 0.000 0.000 1.000 K
0 j
0 J
0.071 w
[]0 d
35.135 1120.679 m
29.951 1117.943 25.199 1114.487 20.735 1109.375 c
19.727 1108.223 18.863 1104.336 23.615 1104.336 c
83.087 1104.336 L
S
U
U
u
u
0.000 0.000 0.000 1.000 K
0 j
0 J
0.071 w
[]0 d
17.711 1086.192 m
23.615 1076.471 L
24.623 1071.720 L
S
U
U
0.000 0.000 0.000 1.000 K
0 j
0 J
0.071 w
[]0 d
0.000 0.000 0.000 1.000 k
129.671 1111.175 m
152.207 1111.175 170.639 1092.672 170.639 1070.063 c
170.639 1047.528 152.207 1029.096 129.671 1029.096 c
107.063 1029.096 88.559 1047.528 88.559 1070.063 c
88.559 1092.672 107.063 1111.175 129.671 1111.175 c
b
0.000 0.000 0.000 1.000 K
0 j
0 J
0.071 w
[]0 d
0.000 0.000 0.000 0.400 k
129.671 1101.599 m
112.319 1101.599 98.207 1087.487 98.207 1070.063 c
98.207 1052.783 112.319 1038.599 129.671 1038.599 c
147.024 1038.599 161.207 1052.783 161.207 1070.063 c
161.207 1087.487 147.024 1101.599 129.671 1101.599 c
b
0.000 0.000 0.000 1.000 K
0 j
0 J
0.071 w
[]0 d
0.000 0.000 0.000 0.200 k
129.671 1099.583 m
113.471 1099.583 100.223 1086.336 100.223 1070.135 c
100.223 1053.864 113.471 1040.687 129.671 1040.687 c
145.943 1040.687 159.119 1053.864 159.119 1070.135 c
159.119 1086.336 145.943 1099.583 129.671 1099.583 c
b
0.000 0.000 0.000 1.000 K
0 j
0 J
0.071 w
[]0 d
0.000 0.000 0.000 0.000 k
153.287 1084.895 m
152.063 1086.624 150.695 1088.423 149.256 1089.863 C
146.735 1086.407 142.271 1082.231 142.271 1077.768 C
143.280 1070.639 145.799 1069.271 152.207 1067.183 C
153.647 1066.751 155.663 1066.103 157.103 1065.672 C
158.327 1072.439 156.671 1078.991 153.287 1084.895 C
b
0.000 0.000 0.000 1.000 K
0 j
0 J
0.071 w
[]0 d
0.000 0.000 0.000 0.000 k
143.135 1060.919 m
139.751 1060.631 135.719 1057.751 134.352 1054.655 C
133.487 1050.911 133.919 1046.591 133.919 1042.703 C
142.560 1044.071 150.695 1049.831 154.512 1057.607 C
150.839 1058.831 147.095 1060.631 143.135 1060.919 C
b
0.000 0.000 0.000 1.000 K
0 j
0 J
0.071 w
[]0 d
0.000 0.000 0.000 0.000 k
125.063 1054.655 m
123.767 1057.679 119.519 1060.631 116.279 1060.919 C
112.463 1060.559 108.503 1058.831 104.903 1057.679 C
108.863 1049.831 116.927 1044.000 125.495 1042.703 C
125.495 1046.591 125.999 1050.911 125.063 1054.655 C
b
0.000 0.000 0.000 1.000 K
0 j
0 J
0.071 w
[]0 d
0.000 0.000 0.000 0.000 k
115.847 1073.087 m
117.719 1078.703 116.999 1081.151 113.183 1085.615 C
112.175 1086.983 111.095 1088.423 110.087 1089.720 C
104.615 1083.599 102.023 1077.407 102.023 1069.199 C
102.095 1068.119 102.239 1066.751 102.311 1065.672 C
106.847 1067.255 112.751 1067.615 115.415 1072.151 C
115.847 1073.087 L
b
0.000 0.000 0.000 1.000 K
0 j
0 J
0.071 w
[]0 d
0.000 0.000 0.000 0.000 k
135.647 1085.975 m
138.096 1088.423 140.471 1092.023 142.343 1094.759 C
140.687 1096.487 134.135 1097.567 131.831 1097.855 C
126.791 1098.144 121.535 1096.991 116.999 1094.759 C
119.015 1092.023 121.175 1088.423 123.623 1085.975 C
126.359 1083.528 132.768 1083.672 135.647 1085.975 C
b
0.000 0.000 0.000 1.000 K
0 j
0 J
0.071 w
[]0 d
0.000 0.000 0.000 0.098 k
129.743 1082.807 m
136.727 1082.807 142.415 1077.119 142.415 1070.063 c
142.415 1063.079 136.727 1057.391 129.743 1057.391 c
122.687 1057.391 116.999 1063.079 116.999 1070.063 c
116.999 1077.119 122.687 1082.807 129.743 1082.807 c
b
0.000 0.000 0.000 1.000 K
0 j
0 J
0.071 w
[]0 d
0.000 0.000 0.000 0.498 k
141.407 1095.480 m
139.751 1093.247 137.951 1090.943 136.151 1089.215 C
132.911 1086.839 126.143 1086.695 123.119 1089.215 C
121.391 1090.871 119.807 1093.175 118.223 1095.336 C
122.471 1097.207 127.223 1098.144 131.831 1097.783 C
133.847 1097.639 138.887 1096.775 141.407 1095.480 C
b
0.000 0.000 0.000 1.000 K
0 j
0 J
0.071 w
[]0 d
0.000 0.000 0.000 0.498 k
109.223 1089.071 m
110.807 1086.839 112.463 1084.391 113.615 1082.159 C
114.767 1078.415 112.895 1071.864 109.511 1069.775 C
107.423 1068.624 104.759 1067.831 102.167 1067.039 C
101.735 1071.576 102.311 1076.471 104.039 1080.720 C
104.831 1082.519 107.207 1087.055 109.223 1089.071 C
b
0.000 0.000 0.000 1.000 K
0 j
0 J
0.071 w
[]0 d
0.000 0.000 0.000 0.498 k
105.335 1056.528 m
107.999 1057.319 110.807 1058.183 113.255 1058.543 C
117.287 1058.543 122.903 1054.655 123.839 1050.839 C
124.271 1048.463 124.199 1045.655 124.127 1042.991 C
119.663 1044.000 115.271 1046.087 111.743 1048.967 C
110.231 1050.336 106.631 1054.007 105.335 1056.528 C
b
0.000 0.000 0.000 1.000 K
0 j
0 J
0.071 w
[]0 d
0.000 0.000 0.000 0.498 k
135.143 1042.775 m
135.215 1045.511 135.287 1048.463 135.647 1050.911 C
136.943 1054.727 142.271 1058.831 146.231 1058.615 C
148.607 1058.255 151.271 1057.319 153.792 1056.455 C
151.487 1052.495 148.175 1048.967 144.287 1046.519 C
142.560 1045.511 137.951 1043.207 135.143 1042.775 C
b
0.000 0.000 0.000 1.000 K
0 j
0 J
0.071 w
[]0 d
0.000 0.000 0.000 0.498 k
157.391 1066.895 m
154.799 1067.759 152.063 1068.695 149.831 1069.847 C
146.591 1072.223 144.359 1078.631 145.799 1082.303 C
146.879 1084.463 148.536 1086.695 150.119 1088.855 C
153.215 1085.399 155.591 1081.151 156.671 1076.687 C
157.103 1074.743 157.823 1069.631 157.391 1066.895 C
b
0.000 0.000 0.000 1.000 K
0 j
0 J
0.071 w
[]0 d
0.000 0.000 0.000 0.000 k
129.671 1064.159 m
131.543 1064.159 133.775 1064.231 135.000 1064.303 c
135.792 1064.375 136.079 1064.879 136.295 1065.384 c
136.799 1066.607 137.231 1071.432 137.087 1074.384 c
137.015 1075.463 136.295 1075.895 135.215 1075.967 c
133.487 1076.111 131.471 1076.183 129.671 1076.183 c
127.943 1076.183 125.927 1076.111 124.199 1075.967 c
123.119 1075.895 122.399 1075.463 122.327 1074.384 c
122.183 1071.432 122.615 1066.607 123.119 1065.384 c
123.335 1064.879 123.623 1064.375 124.415 1064.303 c
125.639 1064.231 127.871 1064.159 129.671 1064.159 c
b
0.000 0.000 0.000 1.000 K
0 j
0 J
0.071 w
[]0 d
0.000 0.000 0.000 0.298 k
125.783 1064.879 m
125.063 1075.391 L
124.775 1075.391 124.487 1075.391 124.271 1075.391 C
123.551 1075.319 123.047 1075.175 122.975 1074.311 C
122.903 1072.727 123.047 1070.927 123.191 1069.271 C
123.263 1068.192 123.335 1066.895 123.623 1065.816 C
123.983 1064.735 124.847 1064.879 125.783 1064.879 C
b
0.000 0.000 0.000 1.000 K
0 j
0 J
0.071 w
[]0 d
0.000 0.000 0.000 0.298 k
132.911 1075.463 m
132.551 1073.303 132.048 1071.288 131.831 1070.279 C
131.543 1069.271 131.111 1069.271 129.743 1069.271 C
128.304 1069.271 127.871 1069.271 127.655 1070.279 C
127.367 1071.288 126.863 1073.303 126.503 1075.463 C
127.655 1075.463 128.807 1075.535 129.671 1075.535 C
130.608 1075.535 131.831 1075.463 132.911 1075.463 C
b
0.000 0.000 0.000 1.000 K
0 j
0 J
0.071 w
[]0 d
0.000 0.000 0.000 0.298 k
134.352 1075.391 m
133.631 1064.879 L
134.567 1064.879 135.431 1064.735 135.792 1065.816 C
136.079 1066.895 136.151 1068.192 136.223 1069.271 C
136.367 1070.927 136.512 1072.727 136.439 1074.311 C
136.367 1075.175 135.863 1075.319 135.143 1075.391 C
134.855 1075.391 134.639 1075.391 134.352 1075.391 C
b
0.000 0.000 0.000 1.000 K
0 j
0 J
0.071 w
[]0 d
0.000 0.000 0.000 0.298 k
129.743 1067.831 m
130.823 1067.831 131.039 1067.615 131.111 1067.111 C
131.328 1066.391 131.543 1065.672 131.759 1064.807 C
131.039 1064.807 130.247 1064.807 129.671 1064.807 C
129.096 1064.807 128.375 1064.807 127.655 1064.807 C
127.871 1065.672 128.087 1066.391 128.304 1067.111 C
128.375 1067.615 128.591 1067.831 129.743 1067.831 C
b
0.000 0.000 0.000 1.000 K
0 j
0 J
0.071 w
[]0 d
0.000 0.000 0.000 1.000 k
463.751 1111.463 m
486.287 1111.463 504.719 1093.031 504.719 1070.423 c
504.719 1047.816 486.287 1029.384 463.751 1029.384 c
441.071 1029.384 422.639 1047.816 422.639 1070.423 c
422.639 1093.031 441.071 1111.463 463.751 1111.463 c
b
0.000 0.000 0.000 1.000 K
0 j
0 J
0.071 w
[]0 d
0.000 0.000 0.000 0.400 k
463.751 1101.959 m
446.399 1101.959 432.287 1087.775 432.287 1070.423 c
432.287 1053.071 446.399 1038.959 463.751 1038.959 c
481.103 1038.959 495.287 1053.071 495.287 1070.423 c
495.287 1087.775 481.103 1101.959 463.751 1101.959 c
b
0.000 0.000 0.000 1.000 K
0 j
0 J
0.071 w
[]0 d
0.000 0.000 0.000 0.200 k
463.751 1099.871 m
447.551 1099.871 434.303 1086.695 434.303 1070.423 c
434.303 1054.223 447.551 1040.975 463.751 1040.975 c
480.023 1040.975 493.199 1054.223 493.199 1070.423 c
493.199 1086.695 480.023 1099.871 463.751 1099.871 c
b
0.000 0.000 0.000 1.000 K
0 j
0 J
0.071 w
[]0 d
0.000 0.000 0.000 0.000 k
487.295 1085.255 m
486.143 1086.911 484.775 1088.711 483.335 1090.151 C
480.815 1086.695 476.351 1082.591 476.351 1078.127 C
477.359 1070.927 479.879 1069.559 486.215 1067.471 C
487.727 1067.111 489.743 1066.391 491.183 1066.031 C
492.407 1072.799 490.679 1079.351 487.295 1085.255 C
b
0.000 0.000 0.000 1.000 K
0 j
0 J
0.071 w
[]0 d
0.000 0.000 0.000 0.000 k
477.215 1061.279 m
473.831 1060.991 469.799 1058.039 468.431 1054.943 C
467.567 1051.199 467.927 1046.879 467.927 1043.063 C
476.639 1044.432 484.775 1050.119 488.591 1057.967 C
484.919 1059.192 481.175 1060.991 477.215 1061.279 C
b
0.000 0.000 0.000 1.000 K
0 j
0 J
0.071 w
[]0 d
0.000 0.000 0.000 0.000 k
459.143 1054.943 m
457.775 1058.039 453.599 1060.991 450.359 1061.279 C
446.543 1060.919 442.583 1059.192 438.983 1058.039 C
442.943 1050.119 450.935 1044.359 459.575 1043.063 C
459.575 1046.879 460.007 1051.199 459.143 1054.943 C
b
0.000 0.000 0.000 1.000 K
0 j
0 J
0.071 w
[]0 d
0.000 0.000 0.000 0.000 k
449.927 1073.447 m
451.799 1078.991 451.007 1081.511 447.263 1085.975 C
446.255 1087.343 445.175 1088.711 444.095 1090.007 C
438.695 1083.959 436.103 1077.695 436.103 1069.487 C
436.103 1068.407 436.319 1067.111 436.391 1066.031 C
440.927 1067.543 446.831 1067.975 449.495 1072.511 C
449.927 1073.447 L
b
0.000 0.000 0.000 1.000 K
0 j
0 J
0.071 w
[]0 d
0.000 0.000 0.000 0.000 k
469.727 1086.336 m
472.175 1088.711 474.551 1092.311 476.423 1095.119 C
474.767 1096.775 468.215 1097.855 465.911 1098.144 C
460.871 1098.503 455.615 1097.351 451.079 1095.119 C
453.095 1092.311 455.255 1088.711 457.703 1086.336 C
460.439 1083.887 466.775 1084.031 469.727 1086.336 C
b
0.000 0.000 0.000 1.000 K
0 j
0 J
0.071 w
[]0 d
0.000 0.000 0.000 0.098 k
463.823 1083.096 m
470.807 1083.096 476.495 1077.480 476.495 1070.423 c
476.495 1063.439 470.807 1057.751 463.823 1057.751 c
456.767 1057.751 451.079 1063.439 451.079 1070.423 c
451.079 1077.480 456.767 1083.096 463.823 1083.096 c
b
0.000 0.000 0.000 1.000 K
0 j
0 J
0.071 w
[]0 d
0.000 0.000 0.000 0.498 k
475.487 1095.768 m
473.831 1093.607 472.031 1091.303 470.231 1089.503 C
466.991 1087.199 460.223 1086.983 457.199 1089.503 C
455.471 1091.231 453.815 1093.535 452.303 1095.695 C
456.551 1097.495 461.303 1098.432 465.911 1098.144 C
467.855 1097.927 472.895 1097.063 475.487 1095.768 C
b
0.000 0.000 0.000 1.000 K
0 j
0 J
0.071 w
[]0 d
0.000 0.000 0.000 0.498 k
443.303 1089.432 m
444.887 1087.127 446.543 1084.751 447.623 1082.519 C
448.847 1078.703 446.975 1072.223 443.591 1070.063 C
441.503 1068.983 438.767 1068.119 436.247 1067.399 C
435.815 1071.935 436.391 1076.759 438.119 1081.007 C
438.911 1082.879 441.287 1087.415 443.303 1089.432 C
b
0.000 0.000 0.000 1.000 K
0 j
0 J
0.071 w
[]0 d
0.000 0.000 0.000 0.498 k
439.415 1056.816 m
442.079 1057.679 444.887 1058.471 447.335 1058.831 C
451.295 1058.831 456.911 1055.015 457.919 1051.199 C
458.279 1048.823 458.279 1046.015 458.207 1043.351 C
453.743 1044.359 449.351 1046.375 445.823 1049.327 C
444.311 1050.695 440.711 1054.295 439.415 1056.816 C
b
0.000 0.000 0.000 1.000 K
0 j
0 J
0.071 w
[]0 d
0.000 0.000 0.000 0.498 k
469.223 1043.135 m
469.223 1045.871 469.295 1048.823 469.727 1051.271 C
471.023 1055.015 476.351 1059.192 480.311 1058.903 C
482.687 1058.543 485.351 1057.679 487.871 1056.816 C
485.567 1052.855 482.183 1049.255 478.367 1046.879 C
476.567 1045.799 472.031 1043.567 469.223 1043.135 C
b
0.000 0.000 0.000 1.000 K
0 j
0 J
0.071 w
[]0 d
0.000 0.000 0.000 0.498 k
491.471 1067.183 m
488.879 1068.048 486.143 1069.055 483.911 1070.207 C
480.671 1072.583 478.367 1078.991 479.879 1082.663 C
480.959 1084.751 482.615 1087.055 484.199 1089.144 C
487.223 1085.687 489.599 1081.439 490.751 1077.048 C
491.183 1075.031 491.903 1069.991 491.471 1067.183 C
b
0.000 0.000 0.000 1.000 K
0 j
0 J
0.071 w
[]0 d
0.000 0.000 0.000 0.000 k
463.751 1064.447 m
465.623 1064.447 467.783 1064.591 469.079 1064.663 c
469.871 1064.663 470.087 1065.167 470.375 1065.743 c
470.879 1066.967 471.311 1071.791 471.167 1074.672 c
471.095 1075.751 470.375 1076.255 469.295 1076.327 c
467.567 1076.399 465.551 1076.471 463.751 1076.471 c
462.023 1076.471 460.007 1076.399 458.279 1076.327 c
457.199 1076.255 456.407 1075.751 456.407 1074.672 c
456.263 1071.791 456.623 1066.967 457.199 1065.743 c
457.415 1065.167 457.703 1064.663 458.495 1064.663 c
459.719 1064.591 461.951 1064.447 463.751 1064.447 c
b
0.000 0.000 0.000 1.000 K
0 j
0 J
0.071 w
[]0 d
0.000 0.000 0.000 0.298 k
459.863 1065.167 m
459.143 1075.751 L
458.855 1075.679 458.567 1075.679 458.351 1075.679 C
457.631 1075.607 457.055 1075.463 457.055 1074.672 C
456.983 1073.015 457.127 1071.288 457.199 1069.631 C
457.343 1068.480 457.415 1067.255 457.703 1066.103 C
458.063 1065.096 458.927 1065.240 459.863 1065.167 C
b
0.000 0.000 0.000 1.000 K
0 j
0 J
0.071 w
[]0 d
0.000 0.000 0.000 0.298 k
466.991 1075.751 m
466.631 1073.591 466.127 1071.647 465.839 1070.639 C
465.623 1069.559 465.191 1069.559 463.751 1069.559 C
462.383 1069.559 461.951 1069.559 461.735 1070.639 C
461.447 1071.647 460.943 1073.591 460.583 1075.751 C
461.663 1075.823 462.887 1075.823 463.751 1075.823 C
464.687 1075.823 465.911 1075.823 466.991 1075.751 C
b
0.000 0.000 0.000 1.000 K
0 j
0 J
0.071 w
[]0 d
0.000 0.000 0.000 0.298 k
468.431 1075.751 m
467.711 1065.167 L
468.647 1065.240 469.511 1065.096 469.799 1066.103 C
470.087 1067.255 470.159 1068.480 470.303 1069.631 C
470.447 1071.288 470.591 1073.015 470.519 1074.672 C
470.447 1075.463 469.871 1075.607 469.223 1075.679 C
468.935 1075.679 468.719 1075.679 468.431 1075.751 C
b
0.000 0.000 0.000 1.000 K
0 j
0 J
0.071 w
[]0 d
0.000 0.000 0.000 0.298 k
463.751 1068.192 m
464.903 1068.192 465.119 1067.975 465.191 1067.471 C
465.407 1066.751 465.623 1066.031 465.839 1065.096 C
465.119 1065.096 464.327 1065.096 463.751 1065.096 C
463.175 1065.096 462.455 1065.096 461.735 1065.096 C
461.951 1066.031 462.167 1066.751 462.311 1067.471 C
462.455 1067.975 462.671 1068.192 463.751 1068.192 C
b
0.000 0.000 0.000 1.000 K
0 j
0 J
0.071 w
[]0 d
0.000 0.000 0.000 0.498 k
129.599 1111.175 m
152.207 1111.175 170.639 1092.816 170.639 1070.135 C
170.639 1067.255 170.351 1064.375 169.775 1061.639 C
180.647 1055.159 L
182.087 1093.319 163.583 1120.679 129.743 1120.607 C
103.535 1120.607 77.399 1108.367 78.263 1060.199 C
88.919 1064.807 L
88.703 1066.535 88.559 1068.336 88.559 1070.135 C
88.559 1092.816 106.991 1111.175 129.599 1111.175 C
b
u
u
0.000 0.000 0.000 1.000 K
0 j
0 J
0.071 w
[]0 d
20.519 1070.711 m
24.623 1071.791 L
S
U
U
0.000 0.000 0.000 1.000 K
0 j
0 J
0.071 w
[]0 d
0.000 0.000 0.000 0.498 k
463.679 1111.535 m
486.359 1111.535 504.719 1093.103 504.719 1070.423 C
504.719 1069.847 504.719 1069.271 504.719 1068.768 C
515.087 1065.240 L
512.855 1097.855 491.975 1117.439 463.031 1117.439 C
437.543 1117.439 409.895 1100.519 411.911 1051.559 C
423.503 1062.288 L
422.999 1064.951 422.711 1067.615 422.711 1070.423 C
422.711 1093.103 441.071 1111.535 463.679 1111.535 C
b
0.000 0.000 0.000 1.000 K
0 j
0 J
0.071 w
[]0 d
0.000 0.000 0.000 0.200 k
289.295 1191.455 m
258.120 1144.367 L
287.927 1145.015 317.663 1146.311 347.399 1147.823 C
351.071 1147.967 355.103 1147.967 358.703 1148.615 C
365.615 1150.055 369.000 1155.096 372.023 1161.000 C
376.991 1170.935 379.439 1182.023 382.895 1192.463 C
375.047 1193.255 L
361.799 1194.407 348.407 1195.055 335.159 1195.055 C
322.055 1194.911 309.167 1194.192 296.135 1192.823 C
293.831 1192.607 291.527 1192.103 289.295 1191.455 C
b
0.000 0.000 0.000 1.000 K
0 j
0 J
0.071 w
[]0 d
0.000 0.000 0.000 0.200 k
255.023 1144.295 m
284.255 1189.655 L
283.608 1189.367 282.887 1189.079 282.239 1188.863 C
272.303 1184.327 262.295 1179.071 253.007 1173.311 C
239.399 1165.319 226.943 1155.311 216.143 1143.863 C
229.031 1143.863 241.991 1144.007 255.023 1144.295 C
b
0.000 0.000 0.000 1.000 K
0 j
0 J
0.071 w
[]0 d
0.000 0.000 0.000 0.200 k
190.007 1150.631 m
191.591 1150.775 193.175 1150.919 194.759 1151.207 C
201.959 1152.215 207.431 1156.391 213.551 1160.135 C
223.271 1166.327 233.351 1172.447 243.215 1178.279 C
251.351 1182.959 266.687 1190.879 275.039 1195.559 C
275.615 1195.919 275.471 1196.927 275.543 1197.000 C
275.615 1197.503 275.615 1197.863 275.543 1198.223 C
274.175 1197.719 272.807 1197.215 271.512 1196.711 C
240.047 1183.967 209.591 1168.559 178.775 1151.567 C
181.439 1150.415 188.207 1150.631 190.007 1150.631 C
b
0.000 0.000 0.000 1.000 K
0 j
0 J
0.071 w
[]0 d
0.000 0.000 0.000 0.498 k
245.015 1137.528 m
246.455 1143.000 248.111 1148.039 250.775 1153.079 c
255.959 1162.439 266.903 1164.887 269.783 1162.655 c
273.239 1159.991 274.608 1148.111 268.847 1146.743 c
256.319 1143.576 255.887 1142.351 253.367 1136.303 c
251.927 1132.991 244.079 1133.855 245.015 1137.528 c
b
0.000 0.000 0.000 1.000 K
0 j
0 J
0.071 w
[]0 d
0.000 0.000 0.000 0.298 k
45.719 1108.295 m
47.447 1114.343 51.263 1121.111 57.527 1124.855 C
59.399 1124.783 61.127 1124.495 62.855 1123.919 C
67.896 1121.543 69.479 1113.048 65.087 1109.303 C
64.007 1108.655 63.215 1108.439 61.847 1108.295 C
45.719 1108.295 L
b
0.000 0.000 0.000 1.000 K
0 j
0 J
0.071 w
[]0 d
544.967 1156.895 m
541.367 1156.319 538.415 1154.159 538.415 1154.159 C
543.527 1151.063 547.487 1147.607 550.943 1144.151 C
558.288 1144.079 L
556.199 1151.423 550.223 1155.672 544.967 1156.895 C
s
u
u
0.000 0.000 0.000 1.000 K
0 j
0 J
0.071 w
[]0 d
552.096 1117.079 m
553.247 1114.631 556.631 1113.911 561.240 1113.983 C
S
U
U
u
u
0.000 0.000 0.000 1.000 K
0 j
0 J
0.071 w
[]0 d
20.591 1070.711 m
59.543 1070.711 L
S
U
U
0.000 0.000 0.000 1.000 K
0 j
0 J
0.071 w
[]0 d
0.000 0.000 0.000 0.298 k
520.343 1132.055 m
553.895 1132.055 L
554.039 1132.127 L
553.175 1136.807 551.087 1141.127 547.199 1142.351 C
546.264 1142.495 L
545.255 1142.567 L
529.991 1141.919 L
527.903 1141.703 525.671 1140.624 524.447 1138.823 C
522.863 1136.735 521.567 1134.432 520.343 1132.055 C
b
u
u
0.000 0.000 0.000 1.000 K
0 j
0 J
0.071 w
[]0 d
541.223 1142.351 m
543.959 1139.615 543.527 1120.463 541.367 1118.447 C
S
U
U
0.000 0.000 0.000 1.000 K
0 j
0 J
0.071 w
[]0 d
554.183 1130.975 m
545.327 1130.975 L
545.327 1126.439 544.967 1121.543 544.319 1119.743 C
553.247 1119.743 L
553.607 1120.391 553.823 1121.183 553.967 1121.687 C
554.543 1124.135 554.687 1127.591 554.183 1130.975 C
s
0.000 0.000 0.000 1.000 K
0 j
0 J
0.071 w
[]0 d
553.751 1133.423 m
545.183 1133.423 L
545.183 1136.087 544.679 1138.679 544.031 1141.199 C
549.288 1141.271 L
551.591 1139.615 552.959 1136.663 553.751 1133.423 C
s
0.000 0.000 0.000 1.000 K
0 j
0 J
0.071 w
[]0 d
0.000 0.000 0.000 0.098 k
550.151 904.895 m
542.519 909.935 526.967 915.263 519.839 910.511 c
513.503 906.191 514.439 892.871 522.719 892.871 c
551.879 892.871 l
562.823 892.871 554.255 902.087 550.151 904.895 c
b
0.000 0.000 0.000 1.000 K
0 j
0 J
0.071 w
[]0 d
569.591 854.639 m
570.527 856.367 563.831 854.855 564.120 856.799 c
567.503 876.023 L
568.223 877.967 575.423 876.455 575.423 878.615 c
575.423 887.759 L
575.351 900.143 546.048 913.103 517.967 921.455 c
489.455 929.951 455.039 935.351 419.687 938.735 C
409.031 935.855 L
377.135 953.567 345.599 969.623 313.127 982.799 c
304.775 986.111 295.703 988.775 286.847 989.711 c
251.999 993.095 219.383 989.567 185.183 988.271 c
181.727 988.199 178.991 987.263 179.279 984.311 c
179.495 980.999 179.495 978.191 176.759 976.103 c
163.223 966.095 144.503 956.303 126.503 948.743 C
96.479 947.735 67.896 945.935 40.463 943.199 C
34.991 942.191 28.511 937.943 26.351 930.167 C
30.023 930.239 L
26.639 928.367 23.327 916.487 23.399 900.071 C
19.079 894.383 11.591 896.615 10.727 891.719 c
9.215 883.583 10.655 870.551 16.631 868.319 c
24.119 865.511 28.511 856.367 38.303 855.431 c
47.375 854.639 56.879 853.703 69.551 851.327 C
71.783 883.943 92.591 903.599 121.607 903.599 C
147.095 903.599 174.671 886.607 172.655 837.575 C
247.247 840.527 324.072 842.111 403.991 841.247 C
402.479 879.407 421.055 906.839 454.967 906.767 c
481.103 906.767 507.311 894.455 506.447 846.215 C
550.295 846.215 l
557.135 846.215 567.216 850.391 569.591 854.639 c
s
0.000 0.000 0.000 1.000 K
0 j
0 J
0.071 w
[]0 d
545.903 905.759 m
539.279 909.071 529.271 912.743 521.783 910.007 C
516.743 907.631 515.159 899.135 519.551 895.391 C
520.631 894.743 521.423 894.527 522.791 894.383 C
552.024 894.455 L
554.615 894.599 555.911 894.887 554.687 897.551 C
552.599 901.511 549.719 903.671 545.903 905.759 C
s
u
u
0.000 0.000 0.000 1.000 K
0 j
0 J
0.071 w
[]0 d
524.447 912.167 m
506.303 917.063 475.271 924.623 453.383 927.503 c
415.871 932.399 390.023 931.175 381.743 936.503 C
S
U
U
0.000 0.000 0.000 1.000 K
0 j
0 J
0.071 w
[]0 d
0.000 0.000 0.000 0.498 k
306.647 976.103 m
301.031 978.767 295.271 981.071 289.151 981.719 c
259.127 985.175 228.383 984.599 197.855 980.927 C
202.175 968.615 205.055 954.575 211.103 943.775 c
215.207 936.287 219.887 931.967 228.455 931.535 c
274.608 929.015 320.831 927.215 366.839 926.999 c
372.383 926.999 372.959 929.159 371.807 930.455 c
356.399 948.023 334.223 962.927 306.647 976.103 c
b
0.000 0.000 0.000 1.000 K
0 j
0 J
0.071 w
[]0 d
212.543 947.087 m
215.639 941.183 219.023 936.143 225.935 934.703 C
229.535 934.055 233.567 934.055 237.239 933.911 C
280.943 931.751 324.719 929.951 368.495 929.951 C
357.695 941.399 345.239 951.407 331.631 959.399 C
322.271 965.159 312.263 970.415 302.327 974.951 C
297.935 976.823 293.255 978.479 288.503 978.911 C
275.399 980.279 262.512 980.999 249.407 981.143 C
236.159 981.143 222.767 980.495 209.591 979.343 C
201.671 978.551 L
205.127 968.111 207.647 957.023 212.543 947.087 C
s
0.000 0.000 0.000 1.000 K
0 j
0 J
0.071 w
[]0 d
0.000 0.000 0.000 0.498 k
408.959 935.927 m
408.959 935.855 L
401.111 932.903 388.367 932.687 378.431 938.303 C
355.103 952.631 329.471 969.263 306.503 980.135 C
304.775 980.999 304.560 983.303 305.639 985.535 C
308.159 984.671 310.679 983.735 313.127 982.799 C
345.599 969.623 377.063 953.567 408.959 935.927 C
b
u
u
0.000 0.000 0.000 1.000 K
0 j
0 J
0.071 w
[]0 d
291.168 981.359 m
293.471 988.631 L
S
U
U
u
u
0.000 0.000 0.000 1.000 K
0 j
0 J
0.071 w
[]0 d
197.855 980.927 m
195.479 988.703 L
S
U
U
0.000 0.000 0.000 1.000 K
0 j
0 J
0.071 w
[]0 d
0.000 0.000 0.000 0.200 k
233.711 923.183 m
217.655 924.263 l
214.055 924.551 214.343 913.463 217.655 913.463 c
233.999 913.175 l
245.591 913.031 245.447 922.319 233.711 923.183 c
b
0.000 0.000 0.000 1.000 K
0 j
0 J
0.071 w
[]0 d
0.000 0.000 0.000 0.200 k
232.847 922.175 m
220.463 923.039 l
217.655 923.255 218.807 916.991 223.919 915.335 c
226.727 914.471 229.967 914.759 232.991 914.471 c
241.847 913.679 241.847 921.527 232.847 922.175 c
b
0.000 0.000 0.000 1.000 K
0 j
0 J
0.071 w
[]0 d
182.303 927.647 m
169.055 927.647 l
166.247 927.647 164.015 925.415 164.015 922.607 c
164.015 912.815 l
164.015 910.007 166.247 907.775 169.055 907.775 c
182.303 907.775 l
185.111 907.775 187.343 910.007 187.343 912.815 c
187.343 922.607 l
187.343 925.415 185.111 927.647 182.303 927.647 c
s
u
u
0.000 0.000 0.000 1.000 K
0 j
0 J
0.071 w
[]0 d
304.991 981.791 m
298.871 983.879 291.383 985.895 284.903 986.327 c
257.831 988.559 222.335 987.623 179.351 983.735 C
S
U
U
0.000 0.000 0.000 1.000 K
0 j
0 J
0.071 w
[]0 d
54.719 929.375 m
39.384 930.023 l
26.711 930.599 26.639 903.095 32.543 903.095 c
62.783 903.095 l
66.599 903.095 70.631 906.839 68.903 911.303 c
66.743 916.919 64.152 921.815 61.343 925.775 c
59.975 927.719 57.239 929.231 54.719 929.375 c
s
0.000 0.000 0.000 1.000 K
0 j
0 J
0.071 w
[]0 d
0.000 0.000 0.000 0.098 k
37.439 928.439 m
30.383 926.207 29.231 913.895 30.671 907.775 C
30.887 906.839 31.535 904.751 32.615 904.607 C
62.783 904.535 L
66.167 904.679 68.687 907.343 67.607 910.799 C
65.664 915.623 63.287 920.735 60.191 924.911 C
58.967 926.711 56.735 927.791 54.647 928.007 C
39.384 928.655 L
38.375 928.583 L
37.439 928.439 L
b
u
u
0.000 0.000 0.000 1.000 K
0 j
0 J
0.071 w
[]0 d
185.399 988.271 m
185.399 983.591 l
185.399 979.199 184.895 976.607 181.799 973.655 c
173.591 965.807 142.199 949.247 127.943 944.135 c
122.543 942.191 118.511 940.679 112.535 940.823 c
108.359 940.895 109.007 941.543 108.287 942.983 C
S
U
U
u
u
0.000 0.000 0.000 1.000 K
0 j
0 J
0.071 w
[]0 d
126.503 948.743 m
120.887 946.367 115.055 943.415 108.287 942.983 c
88.631 941.831 66.095 942.263 46.295 940.247 C
S
U
U
u
u
0.000 0.000 0.000 1.000 K
0 j
0 J
0.071 w
[]0 d
165.887 886.535 m
160.343 895.535 149.399 908.639 120.743 908.639 c
84.599 908.639 66.959 881.423 64.079 852.191 C
S
U
U
u
u
0.000 0.000 0.000 1.000 K
0 j
0 J
0.071 w
[]0 d
82.439 894.023 m
12.023 894.023 L
S
U
U
u
u
0.000 0.000 0.000 1.000 K
0 j
0 J
0.071 w
[]0 d
70.559 876.887 m
10.799 878.399 L
S
U
U
u
u
0.000 0.000 0.000 1.000 K
0 j
0 J
0.071 w
[]0 d
66.095 864.431 m
22.032 865.223 L
S
U
U
u
u
0.000 0.000 0.000 1.000 K
0 j
0 J
0.071 w
[]0 d
65.304 903.671 m
65.304 900.719 l
65.304 899.567 66.959 897.983 68.256 897.983 c
87.407 897.983 L
S
U
U
u
u
0.000 0.000 0.000 1.000 K
0 j
0 J
0.071 w
[]0 d
211.463 942.983 m
205.343 939.599 203.471 939.311 203.471 931.247 c
203.471 900.719 211.247 875.663 220.103 852.695 C
S
U
U
u
u
0.000 0.000 0.000 1.000 K
0 j
0 J
0.071 w
[]0 d
381.743 936.503 m
377.423 929.015 L
385.703 912.023 388.295 879.047 377.567 854.351 C
S
U
U
u
u
0.000 0.000 0.000 1.000 K
0 j
0 J
0.071 w
[]0 d
377.423 929.015 m
372.311 929.087 L
S
U
U
0.000 0.000 0.000 1.000 K
0 j
0 J
0.071 w
[]0 d
364.463 885.599 m
285.407 885.671 230.903 884.159 163.943 880.271 C
410.759 880.631 L
397.871 884.375 379.367 885.599 364.463 885.599 c
s
u
u
0.000 0.000 0.000 1.000 K
0 j
0 J
0.071 w
[]0 d
405.935 866.303 m
170.063 863.855 L
S
U
U
u
u
0.000 0.000 0.000 1.000 K
0 j
0 J
0.071 w
[]0 d
405.359 860.399 m
171.575 858.599 L
S
U
U
u
u
0.000 0.000 0.000 1.000 K
0 j
0 J
0.071 w
[]0 d
404.711 854.783 m
172.295 851.975 L
S
U
U
u
u
0.000 0.000 0.000 1.000 K
0 j
0 J
0.071 w
[]0 d
403.631 851.327 m
172.583 849.167 L
S
U
U
u
u
0.000 0.000 0.000 1.000 K
0 j
0 J
0.071 w
[]0 d
404.279 843.623 m
324.935 845.135 248.183 843.479 172.583 840.167 C
S
U
U
u
u
0.000 0.000 0.000 1.000 K
0 j
0 J
0.071 w
[]0 d
516.024 898.415 m
485.783 898.415 L
S
U
U
u
u
0.000 0.000 0.000 1.000 K
0 j
0 J
0.071 w
[]0 d
511.631 846.215 m
512.279 902.663 478.655 911.447 454.823 911.447 c
437.111 911.447 417.527 906.119 405.359 881.783 C
S
U
U
u
u
0.000 0.000 0.000 1.000 K
0 j
0 J
0.071 w
[]0 d
575.423 888.191 m
502.343 888.191 L
S
U
U
u
u
0.000 0.000 0.000 1.000 K
0 j
0 J
0.071 w
[]0 d
566.927 872.279 m
513.360 872.279 L
S
U
U
u
u
0.000 0.000 0.000 1.000 K
0 j
0 J
0.071 w
[]0 d
561.096 862.631 m
524.231 862.631 L
S
U
U
u
u
0.000 0.000 0.000 1.000 K
0 j
0 J
0.071 w
[]0 d
560.015 857.807 m
526.175 857.807 L
S
U
U
u
u
0.000 0.000 0.000 1.000 K
0 j
0 J
0.071 w
[]0 d
503.351 886.751 m
507.167 883.727 511.343 872.207 515.663 868.751 c
520.271 865.079 527.759 861.335 526.679 858.599 c
525.887 856.511 522.863 853.919 506.231 854.711 C
S
U
U
u
u
0.000 0.000 0.000 1.000 K
0 j
0 J
0.071 w
[]0 d
549.503 906.767 m
554.687 904.031 559.439 900.575 563.903 895.463 c
564.911 894.311 565.775 890.423 561.024 890.423 c
501.551 890.423 L
S
U
U
u
u
0.000 0.000 0.000 1.000 K
0 j
0 J
0.071 w
[]0 d
566.927 872.279 m
561.024 862.559 L
560.015 857.807 L
S
U
U
0.000 0.000 0.000 1.000 K
0 j
0 J
0.071 w
[]0 d
0.000 0.000 0.000 1.000 k
454.967 897.263 m
432.431 897.263 413.927 878.759 413.927 856.151 c
413.927 833.615 432.431 815.183 454.967 815.183 c
477.575 815.183 496.079 833.615 496.079 856.151 c
496.079 878.759 477.575 897.263 454.967 897.263 c
b
0.000 0.000 0.000 1.000 K
0 j
0 J
0.071 w
[]0 d
0.000 0.000 0.000 0.400 k
454.967 887.687 m
472.319 887.687 486.431 873.575 486.431 856.151 c
486.431 838.871 472.319 824.687 454.967 824.687 c
437.615 824.687 423.431 838.871 423.431 856.151 c
423.431 873.575 437.615 887.687 454.967 887.687 c
b
0.000 0.000 0.000 1.000 K
0 j
0 J
0.071 w
[]0 d
0.000 0.000 0.000 0.200 k
454.967 885.671 m
471.167 885.671 484.415 872.423 484.415 856.223 c
484.415 839.951 471.167 826.775 454.967 826.775 c
438.695 826.775 425.447 839.951 425.447 856.223 c
425.447 872.423 438.695 885.671 454.967 885.671 c
b
0.000 0.000 0.000 1.000 K
0 j
0 J
0.071 w
[]0 d
0.000 0.000 0.000 0.000 k
431.351 870.983 m
432.575 872.711 433.943 874.511 435.383 875.951 C
437.903 872.495 442.367 868.319 442.367 863.855 C
441.359 856.727 438.839 855.359 432.431 853.271 C
430.991 852.839 428.903 852.191 427.463 851.759 C
426.239 858.527 427.967 865.079 431.351 870.983 C
b
0.000 0.000 0.000 1.000 K
0 j
0 J
0.071 w
[]0 d
0.000 0.000 0.000 0.000 k
441.503 847.007 m
444.887 846.719 448.919 843.839 450.287 840.743 C
451.151 836.999 450.719 832.679 450.719 828.791 C
442.079 830.159 433.943 835.919 430.055 843.695 C
433.799 844.919 437.543 846.719 441.503 847.007 C
b
0.000 0.000 0.000 1.000 K
0 j
0 J
0.071 w
[]0 d
0.000 0.000 0.000 0.000 k
459.575 840.743 m
460.871 843.767 465.119 846.719 468.359 847.007 C
472.175 846.647 476.135 844.919 479.735 843.767 C
475.775 835.919 467.711 830.087 459.143 828.791 C
459.143 832.679 458.639 836.999 459.575 840.743 C
b
0.000 0.000 0.000 1.000 K
0 j
0 J
0.071 w
[]0 d
0.000 0.000 0.000 0.000 k
468.791 859.175 m
466.919 864.791 467.639 867.239 471.455 871.703 C
472.463 873.071 473.543 874.511 474.551 875.807 C
480.023 869.687 482.615 863.495 482.615 855.287 C
482.543 854.207 482.399 852.839 482.327 851.759 C
477.791 853.343 471.887 853.703 469.223 858.239 C
468.791 859.175 L
b
0.000 0.000 0.000 1.000 K
0 j
0 J
0.071 w
[]0 d
0.000 0.000 0.000 0.000 k
448.991 872.063 m
446.543 874.511 444.167 878.111 442.295 880.847 C
443.951 882.575 450.503 883.655 452.807 883.943 C
457.847 884.231 463.103 883.079 467.639 880.847 C
465.623 878.111 463.463 874.511 461.015 872.063 C
458.279 869.615 451.871 869.759 448.991 872.063 C
b
0.000 0.000 0.000 1.000 K
0 j
0 J
0.071 w
[]0 d
0.000 0.000 0.000 0.098 k
454.895 868.895 m
447.911 868.895 442.223 863.207 442.223 856.151 c
442.223 849.167 447.911 843.479 454.895 843.479 c
461.951 843.479 467.639 849.167 467.639 856.151 c
467.639 863.207 461.951 868.895 454.895 868.895 c
b
0.000 0.000 0.000 1.000 K
0 j
0 J
0.071 w
[]0 d
0.000 0.000 0.000 0.498 k
443.231 881.567 m
444.887 879.335 446.687 877.031 448.487 875.303 C
451.727 872.927 458.495 872.783 461.519 875.303 C
463.247 876.959 464.831 879.263 466.415 881.423 C
462.167 883.295 457.415 884.231 452.807 883.871 C
450.791 883.727 445.751 882.863 443.231 881.567 C
b
0.000 0.000 0.000 1.000 K
0 j
0 J
0.071 w
[]0 d
0.000 0.000 0.000 0.498 k
475.415 875.159 m
473.831 872.927 472.175 870.479 471.023 868.247 C
469.871 864.503 471.743 857.951 475.127 855.863 C
477.215 854.711 479.879 853.919 482.471 853.127 C
482.903 857.663 482.327 862.559 480.599 866.807 C
479.807 868.607 477.431 873.143 475.415 875.159 C
b
0.000 0.000 0.000 1.000 K
0 j
0 J
0.071 w
[]0 d
0.000 0.000 0.000 0.498 k
479.303 842.615 m
476.639 843.407 473.831 844.271 471.383 844.631 C
467.351 844.631 461.735 840.743 460.799 836.927 C
460.367 834.551 460.439 831.743 460.511 829.079 C
464.975 830.087 469.367 832.175 472.895 835.055 C
474.407 836.423 478.007 840.095 479.303 842.615 C
b
0.000 0.000 0.000 1.000 K
0 j
0 J
0.071 w
[]0 d
0.000 0.000 0.000 0.498 k
449.495 828.863 m
449.423 831.599 449.351 834.551 448.991 836.999 C
447.695 840.815 442.367 844.919 438.407 844.703 C
436.031 844.343 433.367 843.407 430.847 842.543 C
433.151 838.583 436.463 835.055 440.351 832.607 C
442.079 831.599 446.687 829.295 449.495 828.863 C
b
0.000 0.000 0.000 1.000 K
0 j
0 J
0.071 w
[]0 d
0.000 0.000 0.000 0.498 k
427.175 852.983 m
429.767 853.847 432.575 854.783 434.807 855.935 C
438.047 858.311 440.279 864.719 438.839 868.391 C
437.759 870.551 436.103 872.783 434.519 874.943 C
431.423 871.487 429.047 867.239 427.967 862.775 C
427.535 860.831 426.743 855.719 427.175 852.983 C
b
0.000 0.000 0.000 1.000 K
0 j
0 J
0.071 w
[]0 d
0.000 0.000 0.000 0.000 k
454.967 850.247 m
453.095 850.247 450.863 850.319 449.639 850.391 c
448.847 850.463 448.559 850.967 448.343 851.471 c
447.839 852.695 447.407 857.519 447.551 860.471 c
447.623 861.551 448.343 861.983 449.423 862.055 c
451.151 862.199 453.167 862.271 454.967 862.271 c
456.695 862.271 458.711 862.199 460.439 862.055 c
461.519 861.983 462.239 861.551 462.311 860.471 c
462.455 857.519 462.023 852.695 461.519 851.471 c
461.303 850.967 461.015 850.463 460.223 850.391 c
458.999 850.319 456.767 850.247 454.967 850.247 c
b
0.000 0.000 0.000 1.000 K
0 j
0 J
0.071 w
[]0 d
0.000 0.000 0.000 0.298 k
458.855 850.967 m
459.575 861.479 L
459.863 861.479 460.151 861.479 460.367 861.479 C
461.087 861.407 461.591 861.263 461.663 860.399 C
461.735 858.815 461.591 857.015 461.447 855.359 C
461.375 854.279 461.303 852.983 461.015 851.903 C
460.655 850.823 459.791 850.967 458.855 850.967 C
b
0.000 0.000 0.000 1.000 K
0 j
0 J
0.071 w
[]0 d
0.000 0.000 0.000 0.298 k
451.727 861.551 m
452.087 859.391 452.591 857.375 452.807 856.367 C
453.095 855.359 453.527 855.359 454.895 855.359 C
456.335 855.359 456.767 855.359 456.983 856.367 C
457.271 857.375 457.775 859.391 458.135 861.551 C
456.983 861.551 455.831 861.623 454.967 861.623 C
454.031 861.623 452.807 861.551 451.727 861.551 C
b
0.000 0.000 0.000 1.000 K
0 j
0 J
0.071 w
[]0 d
0.000 0.000 0.000 0.298 k
450.287 861.479 m
451.007 850.967 L
450.071 850.967 449.207 850.823 448.847 851.903 C
448.559 852.983 448.487 854.279 448.415 855.359 C
448.271 857.015 448.127 858.815 448.199 860.399 C
448.271 861.263 448.775 861.407 449.495 861.479 C
449.783 861.479 449.999 861.479 450.287 861.479 C
b
0.000 0.000 0.000 1.000 K
0 j
0 J
0.071 w
[]0 d
0.000 0.000 0.000 0.298 k
454.895 853.919 m
453.815 853.919 453.599 853.703 453.527 853.199 C
453.311 852.479 453.095 851.759 452.879 850.895 C
453.599 850.895 454.391 850.895 454.967 850.895 C
455.543 850.895 456.263 850.895 456.983 850.895 C
456.767 851.759 456.551 852.479 456.335 853.199 C
456.263 853.703 456.047 853.919 454.895 853.919 C
b
0.000 0.000 0.000 1.000 K
0 j
0 J
0.071 w
[]0 d
0.000 0.000 0.000 1.000 k
120.887 897.551 m
98.351 897.551 79.919 879.119 79.919 856.511 c
79.919 833.903 98.351 815.471 120.887 815.471 c
143.567 815.471 162.000 833.903 162.000 856.511 c
162.000 879.119 143.567 897.551 120.887 897.551 c
b
0.000 0.000 0.000 1.000 K
0 j
0 J
0.071 w
[]0 d
0.000 0.000 0.000 0.400 k
120.887 888.047 m
138.239 888.047 152.351 873.863 152.351 856.511 c
152.351 839.159 138.239 825.047 120.887 825.047 c
103.535 825.047 89.351 839.159 89.351 856.511 c
89.351 873.863 103.535 888.047 120.887 888.047 c
b
0.000 0.000 0.000 1.000 K
0 j
0 J
0.071 w
[]0 d
0.000 0.000 0.000 0.200 k
120.887 885.959 m
137.087 885.959 150.335 872.783 150.335 856.511 c
150.335 840.311 137.087 827.063 120.887 827.063 c
104.615 827.063 91.439 840.311 91.439 856.511 c
91.439 872.783 104.615 885.959 120.887 885.959 c
b
0.000 0.000 0.000 1.000 K
0 j
0 J
0.071 w
[]0 d
0.000 0.000 0.000 0.000 k
97.343 871.343 m
98.495 872.999 99.863 874.799 101.303 876.239 C
103.823 872.783 108.287 868.679 108.287 864.215 C
107.279 857.015 104.759 855.647 98.423 853.559 C
96.911 853.199 94.895 852.479 93.455 852.119 C
92.231 858.887 93.959 865.439 97.343 871.343 C
b
0.000 0.000 0.000 1.000 K
0 j
0 J
0.071 w
[]0 d
0.000 0.000 0.000 0.000 k
107.423 847.367 m
110.807 847.079 114.839 844.127 116.207 841.031 C
117.071 837.287 116.711 832.967 116.711 829.151 C
107.999 830.519 99.863 836.207 96.047 844.055 C
99.719 845.279 103.463 847.079 107.423 847.367 C
b
0.000 0.000 0.000 1.000 K
0 j
0 J
0.071 w
[]0 d
0.000 0.000 0.000 0.000 k
125.495 841.031 m
126.863 844.127 131.039 847.079 134.280 847.367 C
138.096 847.007 142.055 845.279 145.655 844.127 C
141.695 836.207 133.703 830.447 125.063 829.151 C
125.063 832.967 124.631 837.287 125.495 841.031 C
b
0.000 0.000 0.000 1.000 K
0 j
0 J
0.071 w
[]0 d
0.000 0.000 0.000 0.000 k
134.711 859.535 m
132.840 865.079 133.631 867.599 137.375 872.063 C
138.383 873.431 139.463 874.799 140.543 876.095 C
145.943 870.047 148.536 863.783 148.536 855.575 C
148.536 854.495 148.319 853.199 148.247 852.119 C
143.711 853.631 137.807 854.063 135.143 858.599 C
134.711 859.535 L
b
0.000 0.000 0.000 1.000 K
0 j
0 J
0.071 w
[]0 d
0.000 0.000 0.000 0.000 k
114.911 872.423 m
112.463 874.799 110.087 878.399 108.215 881.207 C
109.871 882.863 116.423 883.943 118.727 884.231 C
123.767 884.591 129.024 883.439 133.560 881.207 C
131.543 878.399 129.383 874.799 126.935 872.423 C
124.199 869.975 117.863 870.119 114.911 872.423 C
b
0.000 0.000 0.000 1.000 K
0 j
0 J
0.071 w
[]0 d
0.000 0.000 0.000 0.098 k
120.815 869.183 m
113.831 869.183 108.143 863.567 108.143 856.511 c
108.143 849.527 113.831 843.839 120.815 843.839 c
127.871 843.839 133.560 849.527 133.560 856.511 c
133.560 863.567 127.871 869.183 120.815 869.183 c
b
0.000 0.000 0.000 1.000 K
0 j
0 J
0.071 w
[]0 d
0.000 0.000 0.000 0.498 k
109.151 881.855 m
110.807 879.695 112.607 877.391 114.407 875.591 C
117.647 873.287 124.415 873.071 127.439 875.591 C
129.167 877.319 130.823 879.623 132.335 881.783 C
128.087 883.583 123.335 884.519 118.727 884.231 C
116.783 884.015 111.743 883.151 109.151 881.855 C
b
0.000 0.000 0.000 1.000 K
0 j
0 J
0.071 w
[]0 d
0.000 0.000 0.000 0.498 k
141.335 875.519 m
139.751 873.215 138.096 870.839 137.015 868.607 C
135.792 864.791 137.663 858.311 141.048 856.151 C
143.135 855.071 145.871 854.207 148.391 853.487 C
148.823 858.023 148.247 862.847 146.519 867.095 C
145.727 868.967 143.351 873.503 141.335 875.519 C
b
0.000 0.000 0.000 1.000 K
0 j
0 J
0.071 w
[]0 d
0.000 0.000 0.000 0.498 k
145.223 842.903 m
142.560 843.767 139.751 844.559 137.304 844.919 C
133.343 844.919 127.727 841.103 126.719 837.287 C
126.359 834.911 126.359 832.103 126.431 829.439 C
130.895 830.447 135.287 832.463 138.816 835.415 C
140.328 836.783 143.927 840.383 145.223 842.903 C
b
0.000 0.000 0.000 1.000 K
0 j
0 J
0.071 w
[]0 d
0.000 0.000 0.000 0.498 k
115.415 829.223 m
115.415 831.959 115.343 834.911 114.911 837.359 C
113.615 841.103 108.287 845.279 104.327 844.991 C
101.951 844.631 99.287 843.767 96.767 842.903 C
99.071 838.943 102.455 835.343 106.271 832.967 C
108.071 831.887 112.607 829.655 115.415 829.223 C
b
0.000 0.000 0.000 1.000 K
0 j
0 J
0.071 w
[]0 d
0.000 0.000 0.000 0.498 k
93.167 853.271 m
95.759 854.135 98.495 855.143 100.727 856.295 C
103.967 858.671 106.271 865.079 104.759 868.751 C
103.679 870.839 102.023 873.143 100.439 875.231 C
97.415 871.775 95.039 867.527 93.887 863.135 C
93.455 861.119 92.735 856.079 93.167 853.271 C
b
0.000 0.000 0.000 1.000 K
0 j
0 J
0.071 w
[]0 d
0.000 0.000 0.000 0.000 k
120.887 850.535 m
119.015 850.535 116.855 850.679 115.559 850.751 c
114.767 850.751 114.551 851.255 114.263 851.831 c
113.759 853.055 113.327 857.879 113.471 860.759 c
113.543 861.839 114.263 862.343 115.343 862.415 c
117.071 862.487 119.087 862.559 120.887 862.559 c
122.615 862.559 124.631 862.487 126.359 862.415 c
127.439 862.343 128.231 861.839 128.231 860.759 c
128.375 857.879 128.015 853.055 127.439 851.831 c
127.223 851.255 126.935 850.751 126.143 850.751 c
124.919 850.679 122.687 850.535 120.887 850.535 c
b
0.000 0.000 0.000 1.000 K
0 j
0 J
0.071 w
[]0 d
0.000 0.000 0.000 0.298 k
124.775 851.255 m
125.495 861.839 L
125.783 861.767 126.071 861.767 126.287 861.767 C
127.007 861.695 127.583 861.551 127.583 860.759 C
127.655 859.103 127.511 857.375 127.439 855.719 C
127.295 854.567 127.223 853.343 126.935 852.191 C
126.575 851.183 125.711 851.327 124.775 851.255 C
b
0.000 0.000 0.000 1.000 K
0 j
0 J
0.071 w
[]0 d
0.000 0.000 0.000 0.298 k
117.647 861.839 m
118.007 859.679 118.511 857.735 118.799 856.727 C
119.015 855.647 119.447 855.647 120.887 855.647 C
122.255 855.647 122.687 855.647 122.903 856.727 C
123.191 857.735 123.695 859.679 124.055 861.839 C
122.975 861.911 121.751 861.911 120.887 861.911 C
119.951 861.911 118.727 861.911 117.647 861.839 C
b
0.000 0.000 0.000 1.000 K
0 j
0 J
0.071 w
[]0 d
0.000 0.000 0.000 0.298 k
116.207 861.839 m
116.927 851.255 L
115.991 851.327 115.127 851.183 114.839 852.191 C
114.551 853.343 114.479 854.567 114.335 855.719 C
114.191 857.375 114.047 859.103 114.119 860.759 C
114.191 861.551 114.767 861.695 115.415 861.767 C
115.703 861.767 115.919 861.767 116.207 861.839 C
b
0.000 0.000 0.000 1.000 K
0 j
0 J
0.071 w
[]0 d
0.000 0.000 0.000 0.298 k
120.887 854.279 m
119.735 854.279 119.519 854.063 119.447 853.559 C
119.231 852.839 119.015 852.119 118.799 851.183 C
119.519 851.183 120.311 851.183 120.887 851.183 C
121.463 851.183 122.183 851.183 122.903 851.183 C
122.687 852.119 122.471 852.839 122.327 853.559 C
122.183 854.063 121.967 854.279 120.887 854.279 C
b
0.000 0.000 0.000 1.000 K
0 j
0 J
0.071 w
[]0 d
0.000 0.000 0.000 0.498 k
455.039 897.263 m
432.431 897.263 413.927 878.903 413.927 856.223 C
413.927 853.343 414.215 850.463 414.791 847.727 C
403.991 841.247 L
402.551 879.407 421.055 906.767 454.895 906.695 C
481.103 906.695 507.239 894.455 506.375 846.287 C
495.719 850.895 L
495.935 852.623 496.079 854.423 496.079 856.223 C
496.079 878.903 477.647 897.263 455.039 897.263 C
b
u
u
0.000 0.000 0.000 1.000 K
0 j
0 J
0.071 w
[]0 d
564.120 856.799 m
560.015 857.879 L
S
U
U
0.000 0.000 0.000 1.000 K
0 j
0 J
0.071 w
[]0 d
0.000 0.000 0.000 0.498 k
120.959 897.623 m
98.279 897.623 79.919 879.191 79.919 856.511 C
79.919 855.935 79.919 855.359 79.919 854.855 C
69.551 851.327 L
71.783 883.943 92.663 903.527 121.607 903.527 C
147.095 903.527 174.671 886.607 172.655 837.647 C
161.063 848.375 L
161.639 851.039 161.927 853.703 161.927 856.511 C
161.927 879.191 143.567 897.623 120.959 897.623 C
b
0.000 0.000 0.000 1.000 K
0 j
0 J
0.071 w
[]0 d
0.000 0.000 0.000 0.200 k
295.271 977.543 m
326.447 930.455 L
296.711 931.103 266.975 932.399 237.239 933.911 C
233.567 934.055 229.535 934.055 225.935 934.703 C
219.023 936.143 215.639 941.183 212.543 947.087 C
207.647 957.023 205.127 968.111 201.671 978.551 C
209.591 979.343 L
222.767 980.495 236.159 981.143 249.407 981.143 C
262.512 980.999 275.399 980.279 288.503 978.911 C
290.807 978.695 293.039 978.191 295.271 977.543 C
b
0.000 0.000 0.000 1.000 K
0 j
0 J
0.071 w
[]0 d
0.000 0.000 0.000 0.200 k
329.615 930.383 m
300.311 975.743 L
301.031 975.455 301.679 975.167 302.327 974.951 C
312.263 970.415 322.271 965.159 331.631 959.399 C
345.239 951.407 357.695 941.399 368.495 929.951 C
355.536 929.951 342.575 930.095 329.615 930.383 C
b
0.000 0.000 0.000 1.000 K
0 j
0 J
0.071 w
[]0 d
0.000 0.000 0.000 0.200 k
394.559 936.719 m
392.975 936.863 391.391 937.007 389.807 937.295 C
382.607 938.303 377.135 942.479 371.015 946.223 C
361.295 952.415 351.215 958.535 341.351 964.367 C
333.215 969.047 317.879 976.967 309.527 981.647 C
308.951 982.007 309.096 983.015 309.024 983.087 C
309.024 983.591 309.024 983.951 309.024 984.311 C
310.391 983.807 311.759 983.303 313.127 982.799 C
344.519 970.055 375.047 954.647 405.791 937.655 C
403.127 936.503 396.431 936.719 394.559 936.719 C
b
0.000 0.000 0.000 1.000 K
0 j
0 J
0.071 w
[]0 d
0.000 0.000 0.000 0.498 k
339.551 923.615 m
338.183 929.087 336.527 934.127 333.791 939.167 c
328.679 948.527 317.663 950.975 314.783 948.743 c
311.399 946.079 309.959 934.199 315.719 932.831 c
328.247 929.663 328.751 928.439 331.271 922.391 c
332.639 919.079 340.487 919.943 339.551 923.615 c
b
0.000 0.000 0.000 1.000 K
0 j
0 J
0.071 w
[]0 d
0.000 0.000 0.000 0.298 k
538.919 894.383 m
537.192 900.431 533.375 907.199 527.111 910.943 C
525.240 910.871 523.511 910.583 521.783 910.007 C
516.743 907.631 515.159 899.135 519.551 895.391 C
520.631 894.743 521.423 894.527 522.791 894.383 C
538.919 894.383 L
b
0.000 0.000 0.000 1.000 K
0 j
0 J
0.071 w
[]0 d
39.671 942.983 m
43.271 942.407 46.223 940.247 46.223 940.247 C
41.111 937.151 37.151 933.695 33.695 930.239 C
26.351 930.167 L
28.439 937.511 34.415 941.759 39.671 942.983 C
s
u
u
0.000 0.000 0.000 1.000 K
0 j
0 J
0.071 w
[]0 d
32.543 903.167 m
31.391 900.719 28.007 899.999 23.399 900.071 C
S
U
U
u
u
0.000 0.000 0.000 1.000 K
0 j
0 J
0.071 w
[]0 d
564.048 856.799 m
525.096 856.799 L
S
U
U
0.000 0.000 0.000 1.000 K
0 j
0 J
0.071 w
[]0 d
0.000 0.000 0.000 0.298 k
64.295 918.143 m
30.743 918.143 L
30.599 918.215 L
31.463 922.895 33.551 927.215 37.439 928.439 C
38.375 928.583 L
39.384 928.655 L
54.647 928.007 L
56.735 927.791 58.967 926.711 60.191 924.911 C
61.775 922.823 63.071 920.519 64.295 918.143 C
b
u
u
0.000 0.000 0.000 1.000 K
0 j
0 J
0.071 w
[]0 d
43.415 928.439 m
40.679 925.703 41.111 906.551 43.271 904.535 C
S
U
U
0.000 0.000 0.000 1.000 K
0 j
0 J
0.071 w
[]0 d
30.455 917.063 m
39.311 917.063 L
39.311 912.527 39.671 907.631 40.320 905.831 C
31.391 905.831 L
31.031 906.479 30.815 907.271 30.671 907.775 C
30.095 910.223 29.951 913.679 30.455 917.063 C
s
0.000 0.000 0.000 1.000 K
0 j
0 J
0.071 w
[]0 d
30.887 919.511 m
39.455 919.511 L
39.455 922.175 39.959 924.767 40.607 927.287 C
35.351 927.359 L
33.047 925.703 31.679 922.751 30.887 919.511 C
s
u
u
0.000 0.000 0.000 1.000 K
0 j
0 J
0.071 w
[]0 d
658.727 1066.679 m
815.687 1066.679 L
S
U
U
u
u
0.000 0.000 0.000 1.000 K
0 j
0 J
0.071 w
[]0 d
659.807 1068.768 m
814.679 1068.768 L
S
U
U
0.000 0.000 0.000 1.000 K
0 j
0 J
2.016 w
[]0 d
304.127 793.583 m
304.127 800.855 L
303.911 800.855 L
301.319 794.807 L
300.959 794.807 L
298.295 800.855 L
298.151 800.855 L
298.151 793.583 L
298.151 800.855 L
298.295 800.855 L
300.959 794.807 L
301.319 794.807 L
303.911 800.855 L
304.127 800.855 L
304.127 793.583 L
s
0.000 0.000 0.000 1.000 K
0 j
0 J
2.016 w
[]0 d
295.055 793.583 m
295.055 800.855 L
294.839 800.855 L
292.247 794.807 L
291.887 794.807 L
289.223 800.855 L
289.079 800.855 L
289.079 793.583 L
289.079 800.855 L
289.223 800.855 L
291.887 794.807 L
292.247 794.807 L
294.839 800.855 L
295.055 800.855 L
295.055 793.583 L
s
0.000 0.000 0.000 1.000 K
0 j
0 J
2.016 w
[]0 d
280.079 794.519 m
280.439 793.799 281.087 793.511 281.807 793.511 c
282.527 793.511 282.959 793.871 283.247 794.231 c
283.463 794.663 283.608 795.095 283.608 795.887 c
283.608 796.823 283.463 797.255 283.103 797.687 c
282.887 797.975 282.455 798.191 281.879 798.191 c
281.375 798.191 280.943 798.047 280.656 797.615 C
280.079 797.615 L
280.079 800.855 L
283.391 800.855 L
280.079 800.855 L
280.079 797.615 L
280.656 797.615 L
280.943 798.047 281.375 798.191 281.879 798.191 c
282.455 798.191 282.887 797.975 283.103 797.687 c
283.463 797.255 283.608 796.823 283.608 795.887 c
283.608 795.095 283.463 794.663 283.247 794.231 c
282.959 793.871 282.527 793.511 281.807 793.511 c
281.087 793.511 280.439 793.799 280.079 794.519 C
s
0.000 0.000 0.000 1.000 K
0 j
0 J
2.016 w
[]0 d
277.775 798.335 m
277.775 797.111 276.983 796.391 275.975 796.391 c
274.967 796.391 274.175 797.111 274.175 798.335 c
274.175 799.055 l
274.175 800.207 274.967 800.927 275.975 800.927 c
276.983 800.927 277.775 800.207 277.775 799.055 c
277.775 798.335 l
s
0.000 0.000 0.000 1.000 K
0 j
0 J
2.016 w
[]0 d
277.775 795.383 m
277.775 799.055 L
277.775 795.383 l
277.775 794.159 276.983 793.511 275.975 793.511 c
275.399 793.511 274.823 793.727 274.463 794.231 C
274.823 793.727 275.399 793.511 275.975 793.511 c
276.983 793.511 277.775 794.159 277.775 795.383 c
s
0.000 0.000 0.000 1.000 K
0 j
0 J
2.016 w
[]0 d
277.775 798.335 m
277.775 799.055 l
277.775 800.207 276.983 800.927 275.975 800.927 c
274.967 800.927 274.175 800.207 274.175 799.055 c
274.175 798.335 l
274.175 797.111 274.967 796.391 275.975 796.391 c
276.983 796.391 277.775 797.111 277.775 798.335 c
s
0.000 0.000 0.000 1.000 K
0 j
0 J
2.016 w
[]0 d
272.015 798.335 m
272.015 797.111 271.223 796.391 270.215 796.391 c
269.207 796.391 268.415 797.111 268.415 798.335 c
268.415 799.055 l
268.415 800.207 269.207 800.927 270.215 800.927 c
271.223 800.927 272.015 800.207 272.015 799.055 c
272.015 798.335 l
s
0.000 0.000 0.000 1.000 K
0 j
0 J
2.016 w
[]0 d
272.015 795.383 m
272.015 799.055 L
272.015 795.383 l
272.015 794.159 271.223 793.511 270.215 793.511 c
269.639 793.511 269.063 793.727 268.704 794.231 C
269.063 793.727 269.639 793.511 270.215 793.511 c
271.223 793.511 272.015 794.159 272.015 795.383 c
s
0.000 0.000 0.000 1.000 K
0 j
0 J
2.016 w
[]0 d
272.015 798.335 m
272.015 799.055 l
272.015 800.207 271.223 800.927 270.215 800.927 c
269.207 800.927 268.415 800.207 268.415 799.055 c
268.415 798.335 l
268.415 797.111 269.207 796.391 270.215 796.391 c
271.223 796.391 272.015 797.111 272.015 798.335 c
s
0.000 0.000 0.000 1.000 K
0 j
0 J
2.016 w
[]0 d
262.584 794.447 m
262.943 793.871 263.519 793.511 264.239 793.511 c
265.247 793.511 266.183 794.303 266.183 795.455 c
266.183 796.391 265.608 797.327 264.311 797.327 C
264.311 797.399 L
265.391 797.471 266.039 798.263 266.039 799.127 c
266.039 800.063 265.247 800.927 264.168 800.927 c
263.519 800.927 262.871 800.567 262.584 799.919 C
262.871 800.567 263.519 800.927 264.168 800.927 c
265.247 800.927 266.039 800.063 266.039 799.127 c
266.039 798.263 265.391 797.471 264.311 797.399 C
264.311 797.327 L
265.608 797.327 266.183 796.391 266.183 795.455 c
266.183 794.303 265.247 793.511 264.239 793.511 c
263.519 793.511 262.943 793.871 262.584 794.447 C
s
u
u
0.000 0.000 0.000 1.000 K
0 j
0 J
0.215 w
[]0 d
10.007 813.527 m
10.007 795.887 L
249.911 795.887 L
S
U
U
u
u
0.000 0.000 0.000 1.000 K
0 j
0 J
0.215 w
[]0 d
575.135 813.527 m
575.135 795.887 L
336.024 795.887 L
S
U
U
%%Trailer
_E end