%!PS-Adobe-2.0 EPSF-1.2
%%Creator: Adobe Illustrator exported from Corel Draw 3.0
%%Title:6
%%BoundingBox:33 338 1880 1680
%%CreationDate:(Unknown)
%%ColorUsage:
%%TemplateBox:33 338 1880 1680
%%EndComments
%%BeginProcSet:Adobe_Illustrator_1.1 0 0
% Version 1.0 3/27/1990 $nokeywords$
% Copyright (C) 1990,1991,1992
% Corel Corporation
% All Rights Reserved

/wPmsDict 150 dict def 
wPmsDict begin 

/$debug 25 string def 

/bd {bind def} bind def 
/ld {load def} bd 
/xd {exch def} bd 
/_ null def 

/$c 0 def 
/$m 0 def 
/$y 0 def 
/$k 0 def 
/$t 1 def 
/$n _ def 
/$o 0 def 
/$pf false def 

/$C 0 def 
/$M 0 def 
/$Y 0 def 
/$K 0 def 
/$T 1 def 
/$N _ def 
/$O 0 def 
/$PF false def 

/$h false def 

/$al 0 def 
/$tr 0 def 
/$le 0 def 
/$lx 0 def 
/$ly 0 def 

/$ctm matrix currentmatrix def 
/$ptm matrix def 

/$pn () def 
/$pm matrix def 
/$px 0 def 
/$py 0 def 
/$pxf 0 def 
/$pyf 0 def 
/$psx 10 def 
/$psy 0 def 

/$llx 0 def 
/$lly 0 def 
/$urx 0 def 
/$ury 0 def 


/$Bbllx 0 def 
/$Bblly 0 def 
/$Bburx 0 def 
/$Bbury 0 def 

/$tllx 0 def 
/$tlly 0 def 
/$turx 0 def 
/$tury 0 def 

/$pd [] def 
/$tx 0 def 
/$ty 0 def 

/$sv 0 def 
/@cp /closepath ld 
/@gs /gsave ld 
/@gr /grestore ld 
/@np /newpath ld 
/@sv {/$sv save def}bd 
/@rs {$sv restore}bd 

/@MN { 
2 copy le{pop}{exch pop}ifelse 
}bd 

/setcmykcolor where {pop} 
{ 
/setcmykcolor 
{ 
4 1 roll 
3 {3 index add 1 @MN 1 exch sub 3 1 roll} repeat 
setrgbcolor 
pop 
}bd 
}ifelse 

/@tc 
{ 
dup 1 ge 
{pop} 
{ 
4 { 
dup 
6 -1 roll 
mul 
exch 
}repeat 
pop 
}ifelse 
}bd 

/@scc 
{ 
$c $m $y $k $t @tc 
setcmykcolor 
true 
}bd 
/@SCC 
{ 
$C $M $Y $K $T @tc 
setcmykcolor 
true 
}bd 

/@sft 
{ 
(setfirsttile sft )print 
/$tx $tllx $pxf add dup $tllx gt {$pwid $psx add sub}if def 
/$ty $tury $pyf sub dup $tury lt {$phei $psy add add}if def 
(setfirsttile exit )print 
}bd 

/@stb 
{ 
pathbbox /$ury xd /$urx xd /$lly xd /$llx xd 
}bd 

/@ep 
{ 
{ 
cvx exec 
}forall 
}bd 

/@tp 
{ 

(tile pattern tp )print 
@sv 
/$in true def 
2 copy 
dup $lly le {/$in false def}if 
$phei sub $ury ge {/$in false def}if 
dup $urx ge {/$in false def}if 
$pwid add $llx le {/$in false def}if 
$in 
{ 
@np 
2 copy moveto 
$pwid 0 rlineto 
0 $phei neg rlineto 
$pwid neg 0 rlineto 
0 $phei rlineto 
clip @np 

$pn cvlit load aload pop 
7 -1 roll 
5 index sub 
7 -1 roll 
3 index sub 
translate 
@ep 
pop pop pop pop 
} 
{pop pop}ifelse 
@rs 
(tile pattern exit )print 
}bd 

/@th 
{ 
(tile horizontal th)print 
@sft 
0 1 $tly 1 sub 
{ 
dup $psx mul $tx add 
{ 
dup $llx gt {$pwid sub}{exit}ifelse 
}loop 
exch $phei mul $ty exch sub 

0 1 $tlx 1 sub 
{ 
$pwid mul 
3 copy 
3 -1 roll add exch 
@tp 
pop 
}for 
pop pop 
} for 
(tile horizontal exiting )print 
}bd 

/@tv 
{ 
(tile vertical tv)print 
@sft 
0 1 $tlx 1 sub 
{ 
dup $pwid mul $tx add 
exch $psy mul $ty exch sub 
{ 
dup $ury lt {$phei add}{exit}ifelse 
}loop 

0 1 $tly 1 sub 
{ 
$phei mul 
3 copy sub 
@tp 
pop 
}for 
pop pop 
} for 
(tile vertical exit )print 
}bd 

/@pf 
{ 
(pattern fill pf)print 
@gs 
$pm concat 
@stb 
@gs 1 setgray eofill @gr 
eoclip 
$Bburx $Bbury $pm itransform /$tury xd /$turx xd 
$Bbllx $Bblly $pm itransform /$tlly xd /$tllx xd 
/$wid $turx $tllx sub def 
/$hei $tury $tlly sub def 
$wid 0 gt $hei 0 gt and 
{ 
$pn cvlit load aload pop 
$pd xd 
3 -1 roll sub /$phei xd 
exch sub /$pwid xd 
/$tlx $wid $pwid div ceiling 1 add def 
/$tly $hei $phei div ceiling 1 add def 
$psx 0 eq 
{ 
@tv 
} 
{ 
@th 
}ifelse 
}if 

@gr 
@np 
(pattern fill exit)print 
}bd 

/@xp 
{ 
{ 
dup (text Character is:) print == 
usertime (time before is:)print == 
(0) dup 3 -1 roll 0 exch put 
@gs 
true charpath currentpoint 
$ctm setmatrix 
@pf 
@gr 
@np 
moveto $tr 0 rmoveto 
usertime (time after is:)print == 
}forall 
pop 
}bd 

/@sm 
{ 
/$ctm $ctm currentmatrix def 
}bd 

%--@lorg  move to line origin   length string @torg length string
/@lorg    % moves currentpoint to line origin according to current alignment
  {      
  $lx $ly moveto    
  /$ly $ly $le sub def      % - prepare for next line(tracking)
  $al 0 ne
    {dup      % ->len str len str
    stringwidth   % ->len str len dx dy
    exch 3 index  % ->len str dy len dx
    1 sub         % ->len str dy len dx (len-1)
    $tr mul add   % ->len str dy len dx+(len-1)*$tr
    neg
    exch neg      % ->len str -dx_total dy len
    $al 1 eq      % check for centered alignment
    {2 div exch 2 div exch} if  
    rmoveto} if
  }bd

/@ft 
{ 
$pf 
{@xp} 
{ 
@scc 
{$tr exch 0 exch ashow pop} 
{pop pop}ifelse 
}ifelse 
}bd 

/@st 
{ 
$PF 
{} 
{ 
@SCC 
{ 
{ 
(0) dup 3 -1 roll 0 exch put 
@gs 
true charpath currentpoint 
$ctm setmatrix $ptm concat 
stroke 
@gr 
moveto $tr 0 rmoveto 
}forall 
pop 
} 
{pop pop}ifelse 
}ifelse 
}bd 
/@pt 
{ 
dup length exch 
}bd 
/@te 
{ 
@pt 
@lorg 
@ft 
}bd 

/@tr 
{ 
@pt 
@lorg 
@st 
}bd 
/@ta 
{ 
@pt 
@lorg 
2 copy 
@gs @ft @gr 
/$lx 0 def 
/$ly 0 def 
@st 
}bd 















/g { 
1 exch sub /$k xd 
/$c 0 def /$m 0 def /$y 0 def /$t 1 def /$n _ def /$pf false def 
}bd 

/G { 
1 exch sub /$K xd 
/$C 0 def /$M 0 def /$Y 0 def /$T 1 def /$N _ def /$PF false def 
}bd 

/k { 
/$k xd /$y xd /$m xd /$c xd 
/$t 1 def /$n _ def /$pf false def 
}bd 

/K { 
/$K xd /$Y xd /$M xd /$C xd 
/$T 1 def /$N _ def /$PF false def 
}bd 

/x { 
/$t xd /$n xd 
/$k xd /$y xd /$m xd /$c xd /$pf false def 
}bd 

/X { 
/$T xd /$N xd 
/$K xd /$Y xd /$M xd /$C xd /$PF false def 
}bd 

/d /setdash ld 

/i { 
dup 0 ne {setflat} {pop} ifelse 
}bd 

/j /setlinejoin ld 

/J /setlinecap ld 

/M /setmiterlimit ld 

/w /setlinewidth ld 

/O { 
/$o xd 
}bd 

/R { 
/$O xd 
}bd 


/c /curveto ld 

/C /c ld 

/v { 
currentpoint
6 2 roll 
curveto 
}bd

/V /v ld 

/y { 
2 copy curveto 
}bd 

/Y /y ld 

/l /lineto ld 

/L /l ld 

/m /moveto ld 



/n /newpath ld 

/N /newpath ld 

/F { 
$pf 
{@pf} 
{ 
@scc 
{eofill}if 
}ifelse 
}bd 

/f { 
@cp F 
}bd 
/S { 
$PF 
{} 
{ 
@SCC 
{ 
@sm 
$ptm concat 
stroke 
$ctm setmatrix 
}if 
}ifelse 
}bd 
/s { 
@cp 
S 
}bd 

/B { 
@gs F @gr 
S 
}bd 
/b { 
@cp 
B 
}bd 

/W { 
oeclip 
@np 
}bd 

/p { 
/$pm xd 
7 {pop} repeat 
/$pyf xd /$pxf xd 
/$pn xd 
/$pf true def 
}bd 

/P { 
11 {pop} repeat 
}bd 

/@p { 
/$pm xd 
/$psy xd 
/$psx xd 
/$pyf xd /$pxf xd 
/$pn xd 
/$pf true def 
}bd 

/@b { 
/$Bbury xd /$Bburx xd 
/$Bblly xd /$Bbllx xd 
}bd 


/z { 
/$al xd 
/$tr xd 
/$le xd 
exch findfont exch scalefont setfont 
}bd 

/Z { 
dup type 0 type eq { /$bDir xd } if
findfont 
dup maxlength 1 add dict exch 



dup 
{1 index /FID ne 
{ 
3 index 
3 1 roll put 
} 
{pop pop}ifelse 
} forall 



pop 
dup dup /Encoding get 
256 array copy 
dup /$fe xd
/Encoding exch put 

dup /Fontname 3 index put 

}bd 

/e { 
@sm 
concat 
[ 
/t {@te}def 
}bd 

/r { 
@sm 
concat 
[ 
/t {@tr}def 
}bd 

/o { 
@sm 
concat 
[ 
/t {pop}def 
}bd 

/a { 
@sm 
concat 
[ 
/t {@ta}def 
}bd 

/@o{
@sm 
concat 
[ 
/t {@t@a}def 
}bd 

/I { 
@sm 
concat 
[ 
/t {pop}def 
}bd 

/t {@te}def 

/T { 
cleartomark 
/$lx 0 def 
/$ly 0 def 
$ctm setmatrix 
}bd 


/u {}bd 

/U {}bd 

/A {pop}bd 

/h { 
$h true def 
}bd 

/h { 
$h true def 
}bd 

/q /@gs ld 

/Q /@gr ld 



/E { 
5 array astore 
exch cvlit exch def 
}bd 

/` {}bd 

/~ {}bd 

/@ {}bd 

/& {}bd 

/CorelDrawRencodeVect [ 
16#80/grave 
16#81/circumflex 
16#82/tilde 
16#83/dotlessi 
16#84/florin 
16#85/quotedblleft 
16#86/quotedblright 
16#87/guilsinglleft 
16#88/guilsinglright 
16#89/fi 
16#8a/fl 
16#8b/dagger 
16#8c/daggerdbl 
16#8d/endash 
16#8e/periodcentered 
16#8f/breve 
16#90/quotedblbase 
16#91/ellipsis 
16#92/perthousand 
16#a1/exclamdown 
16#a2/cent 
16#a3/sterling 
16#a4/currency 
16#a5/yen 
16#a6/bar 
16#a7/section 
16#a8/dieresis 
16#a9/copyright 
16#aa/ordfeminine 
16#ab/guillemotleft 
16#ac/logicalnot 
16#ad/emdash 
16#ae/registered 
16#af/spac 
16#b0/ring 
16#b1/spac 
16#b2/spac 
16#b3/spac 
16#b4/acute 
16#b5/spac 
16#b6/paragraph 
16#b7/bullet 
16#b8/cedilla 
16#b9/spac 
16#ba/ordmasculine 
16#bb/guillemotright 
16#bc/spac 
16#bd/spac 
16#be/spac 
16#bf/questiondown 
16#c0/Agrave 
16#c1/Aacute 
16#c2/Acircumflex 
16#c3/Atilde 
16#c4/Adieresis 
16#c5/Aring 
16#c6/AE 
16#c7/Ccedilla 
16#c8/Egrave 
16#c9/Eacute 
16#ca/Ecircumflex 
16#cb/Edieresis 
16#cc/Igrave 
16#cd/Iacute 
16#ce/Icircumflex 
16#cf/Idieresis 
16#d0/spac 
16#d1/Ntilde 
16#d2/Ograve 
16#d3/Oacute 
16#d4/Ocircumflex 
16#d5/Otilde 
16#d6/Odieresis 
16#d7/OE 
16#d8/Oslash 
16#d9/Ugrave 
16#da/Uacute 
16#db/Ucircumflex 
16#dc/Udieresis 
16#dd/space 
16#de/spac 
16#df/germandbls 
16#e0/agrave 
16#e1/aacute 
16#e2/acircumflex 
16#e3/atilde 
16#e4/adieresis 
16#e5/aring 
16#e6/ae 
16#e7/ccedilla 
16#e8/egrave 
16#e9/eacute 
16#ea/ecircumflex 
16#eb/edieresis 
16#ec/igrave 
16#ed/iacute 
16#ee/icircumflex 
16#ef/idieresis 
16#f0/space 
16#f1/ntilde 
16#f2/ograve 
16#f3/oacute 
16#f4/ocircumflex 
16#f5/otilde 
16#f6/odieresis 
16#f7/oe 
16#f8/oslash 
16#f9/ugrave 
16#fa/uacute 
16#fb/ucircumflex 
16#fc/udieresis 
16#fd/spac 
16#fe/spac 
16#ff/ydieresis 
] def
%%EndProlog
%%BeginSetup
%%BeginEncoding:_Times-Bold Times-Bold
[
]/_Times-Bold/Times-Bold Z
%%EndEncoding
%%EndSetup
u
u
0.000 0.000 0.000 0.000 k
1194.119 457.343 m
1194.119 456.911 L
1194.192 457.055 1194.263 457.199 1194.336 457.415 C
1194.119 457.343 L
f
0.000 0.000 0.000 0.000 k
1194.119 670.247 m
1194.119 557.639 L
1275.192 557.639 L
1275.119 559.079 L
1274.399 575.063 1272.167 589.895 1269.503 603.719 C
1267.343 614.879 1262.015 625.103 1248.407 635.975 C
1237.391 643.751 1217.879 656.567 1194.119 670.247 C
f
0.000 0.000 0.000 0.000 k
1194.119 557.639 m
1194.119 670.247 L
1178.207 679.319 1160.351 688.823 1141.991 697.391 C
1082.807 758.231 1025.927 814.679 962.567 871.127 C
903.671 916.775 L
877.895 936.719 847.367 942.839 816.767 942.551 C
113.831 942.551 L
93.599 942.551 82.799 928.367 78.263 909.791 C
66.167 857.591 L
60.479 826.919 L
43.271 736.415 40.391 646.271 42.623 557.711 C
42.623 555.336 L
82.799 555.336 L
87.263 555.336 90.431 551.735 90.863 547.271 C
101.015 452.447 L
101.159 450.575 100.583 448.847 99.503 447.551 C
183.455 447.551 L
182.519 452.519 182.015 457.631 182.015 462.815 C
182.015 506.447 217.655 542.087 261.287 542.087 C
304.919 542.087 340.560 506.447 340.560 462.815 C
340.560 457.631 340.055 452.519 339.048 447.551 C
997.343 447.551 L
997.415 498.887 1005.479 559.871 1092.959 559.871 C
1170.432 559.367 1189.943 511.055 1193.471 465.191 C
1190.447 505.799 1175.255 547.271 1120.607 557.639 C
1194.119 557.639 L
f
0.000 0.000 0.000 0.000 k
1194.119 456.911 m
1194.119 457.343 L
1193.903 457.343 L
1193.903 457.055 1193.903 456.767 1193.903 456.551 C
1193.903 456.623 1194.048 456.767 1194.119 456.911 C
f
U
u
0.000 0.000 0.000 1.000 K
0 j
0 J
0.215 w
[]0 d
1193.471 465.191 m
1190.447 505.799 1175.255 547.271 1120.607 557.639 C
1275.192 557.639 L
1275.119 559.079 L
1274.399 575.063 1272.167 589.895 1269.503 603.719 C
1267.343 614.879 1262.015 625.103 1248.407 635.975 C
1230.119 649.007 1188.000 676.007 1141.991 697.391 C
1082.807 758.231 1025.927 814.679 962.567 871.127 C
903.671 916.775 L
877.895 936.719 847.367 942.839 816.767 942.551 C
113.831 942.551 L
93.599 942.551 82.799 928.367 78.263 909.791 C
66.167 857.591 L
60.479 826.919 L
43.271 736.415 40.391 646.271 42.623 557.711 C
42.623 555.336 L
82.799 555.336 L
87.263 555.336 90.431 551.735 90.863 547.271 C
101.015 452.447 L
101.159 450.575 100.583 448.847 99.503 447.551 C
183.455 447.551 L
182.519 452.519 182.015 457.631 182.015 462.815 C
182.015 506.447 217.655 542.087 261.287 542.087 C
304.919 542.087 340.560 506.447 340.560 462.815 C
340.560 457.631 340.055 452.519 339.048 447.551 C
997.343 447.551 L
997.415 498.887 1005.479 559.871 1092.959 559.871 C
1170.432 559.367 1189.943 511.055 1193.471 465.191 C
s
0.000 0.000 0.000 1.000 K
0 j
0 J
0.215 w
[]0 d
1193.903 457.343 m
1194.336 457.415 L
1194.263 457.127 1194.048 456.839 1193.903 456.551 C
1193.903 456.767 1193.903 457.055 1193.903 457.343 C
s
U
U
0.000 0.000 0.000 1.000 K
0 j
0 J
0.215 w
[]0 d
0.000 0.000 0.000 0.200 k
1141.991 697.391 m
1096.199 744.407 1051.775 788.903 1004.687 832.679 C
996.119 827.639 L
1037.159 784.295 1076.975 738.791 1114.703 690.120 C
1121.183 682.343 1136.591 696.311 1141.991 697.391 C
b
0.000 0.000 0.000 1.000 K
0 j
0 J
0.215 w
[]0 d
693.791 662.759 m
445.535 662.759 l
441.143 662.759 437.543 659.159 437.543 654.839 c
437.543 635.255 l
437.543 630.863 441.143 627.263 445.535 627.263 c
693.791 627.263 l
698.111 627.263 701.711 630.863 701.711 635.255 c
701.711 654.839 l
701.711 659.159 698.111 662.759 693.791 662.759 c
s
0.000 0.000 0.000 1.000 K
0 j
0 J
0.215 w
[]0 d
810.935 662.759 m
729.215 662.759 l
724.823 662.759 721.223 659.159 721.223 654.839 c
721.223 635.255 l
721.223 630.863 724.823 627.263 729.215 627.263 c
810.935 627.263 l
815.255 627.263 818.855 630.863 818.855 635.255 c
818.855 654.839 l
818.855 659.159 815.255 662.759 810.935 662.759 c
s
0.000 0.000 0.000 1.000 K
0 j
0 J
0.215 w
[]0 d
445.607 660.671 m
442.151 660.383 440.063 658.295 439.775 654.839 C
439.775 635.471 L
440.063 632.015 442.151 630.000 445.607 629.711 C
693.647 629.711 L
697.103 630.000 699.119 632.087 699.407 635.471 C
699.407 654.839 L
699.119 658.295 697.103 660.383 693.647 660.671 C
445.607 660.671 L
s
0.000 0.000 0.000 1.000 K
0 j
0 J
0.215 w
[]0 d
729.287 660.671 m
725.831 660.383 723.743 658.295 723.455 654.839 C
723.455 635.471 L
723.743 632.015 725.831 630.000 729.287 629.711 C
810.791 629.711 L
814.247 630.000 816.263 632.087 816.551 635.471 C
816.551 654.839 L
816.263 658.295 814.247 660.383 810.791 660.671 C
729.287 660.671 L
s
u
u
0.000 0.000 0.000 1.000 K
0 j
0 J
0.215 w
[]0 d
425.807 467.351 m
425.807 926.783 L
S
U
U
u
u
0.000 0.000 0.000 1.000 K
0 j
0 J
0.215 w
[]0 d
844.919 467.351 m
844.919 837.863 L
S
U
U
u
u
0.000 0.000 0.000 1.000 K
0 j
0 J
0.215 w
[]0 d
79.343 553.103 m
76.607 647.567 78.335 857.591 104.687 926.423 C
S
U
U
0.000 0.000 0.000 1.000 K
0 j
0 J
0.215 w
[]0 d
0.000 0.000 0.000 0.498 k
1065.816 652.391 m
1028.735 652.391 l
1014.407 652.391 1009.511 659.447 1004.687 664.775 c
995.399 675.072 980.711 677.015 967.751 677.735 c
884.519 682.775 l
874.511 683.423 866.447 690.983 866.303 700.991 c
864.359 809.423 l
864.143 819.431 872.783 827.855 882.575 827.567 c
959.183 824.975 l
968.831 824.687 982.727 815.759 989.351 809.135 c
1022.687 776.015 1051.847 739.295 1078.631 700.991 c
1084.823 692.207 1085.903 666.647 1083.672 658.007 c
1081.943 651.455 1071.144 652.391 1065.816 652.391 c
b
0.000 0.000 0.000 1.000 K
0 j
0 J
0.215 w
[]0 d
0.000 0.000 0.000 0.200 k
996.479 676.367 m
988.847 679.679 981.215 681.335 972.935 681.983 C
967.895 682.343 L
884.735 687.455 L
876.743 688.031 871.343 693.215 870.767 701.279 C
868.751 809.423 L
869.039 817.271 874.583 822.815 882.431 823.103 C
958.823 820.439 L
968.399 819.791 979.343 812.447 986.111 805.967 C
1019.015 773.063 1048.031 736.415 1074.816 698.471 C
1078.919 692.063 1079.495 681.839 1080.000 674.423 C
1080.144 669.383 1080.144 664.127 1079.207 659.231 C
1078.127 656.783 1070.279 656.927 1068.048 657.000 C
1028.663 657.000 L
1022.255 657.144 1017.359 658.439 1012.607 662.903 C
1009.007 666.719 1005.695 670.463 1001.375 673.631 C
998.927 675.072 L
996.479 676.367 L
b
0.000 0.000 0.000 1.000 K
0 j
0 J
0.215 w
[]0 d
407.519 662.759 m
95.471 662.759 l
91.079 662.759 87.551 659.159 87.551 654.839 c
87.551 635.255 l
87.551 630.863 91.079 627.263 95.471 627.263 c
407.519 627.263 l
411.839 627.263 415.439 630.863 415.439 635.255 c
415.439 654.839 l
415.439 659.159 411.839 662.759 407.519 662.759 c
s
0.000 0.000 0.000 1.000 K
0 j
0 J
0.215 w
[]0 d
95.543 660.671 m
92.087 660.383 90.000 658.295 89.711 654.839 C
89.711 635.471 L
90.000 632.015 92.087 630.000 95.543 629.711 C
407.375 629.711 L
410.831 630.000 412.919 632.087 413.207 635.471 C
413.207 654.839 L
412.919 658.295 410.831 660.383 407.375 660.671 C
95.543 660.671 L
s
0.000 0.000 0.000 1.000 K
0 j
0 J
0.215 w
[]0 d
0.000 0.000 0.000 0.498 k
876.959 627.048 m
851.399 627.048 l
848.591 627.048 846.359 629.279 846.359 632.087 c
846.359 657.647 l
846.359 660.455 848.591 662.687 851.399 662.687 c
876.959 662.687 l
879.767 662.687 881.999 660.455 881.999 657.647 c
881.999 632.087 l
881.999 629.279 879.767 627.048 876.959 627.048 c
b
0.000 0.000 0.000 1.000 K
0 j
0 J
0.215 w
[]0 d
0.000 0.000 0.000 0.098 k
866.951 622.943 m
865.151 622.943 863.639 621.431 863.639 619.631 c
863.639 617.831 865.151 616.319 866.951 616.319 c
868.751 616.319 870.263 617.831 870.263 619.631 c
870.263 621.431 868.751 622.943 866.951 622.943 c
b
u
u
0.000 0.000 0.000 1.000 K
0 j
0 J
0.215 w
[]0 d
80.423 575.927 m
1104.480 575.927 L
1140.839 576.000 1181.807 572.543 1217.159 569.087 C
S
U
U
u
u
0.000 0.000 0.000 1.000 K
0 j
0 J
0.215 w
[]0 d
80.423 571.319 m
1104.480 571.319 L
1140.839 571.391 1181.807 567.935 1217.159 564.479 C
S
U
U
0.000 0.000 0.000 1.000 K
0 j
0 J
0.215 w
[]0 d
0.000 0.000 0.000 0.498 k
82.871 555.336 m
40.823 555.336 l
36.359 555.336 32.615 551.591 32.832 547.343 c
37.512 461.087 l
37.655 456.911 41.327 453.815 45.503 453.095 c
93.095 444.455 l
97.199 443.735 101.519 448.055 101.087 452.447 c
90.863 547.343 l
90.431 551.735 87.335 555.336 82.871 555.336 c
b
0.000 0.000 0.000 1.000 K
0 j
0 J
0.215 w
[]0 d
0.000 0.000 0.000 0.498 k
1194.119 457.271 m
1192.463 500.255 1179.000 546.623 1120.895 557.639 C
1282.103 557.639 L
1277.063 553.463 1274.903 547.991 1275.623 541.655 C
1292.471 542.231 1290.455 524.591 1277.063 525.240 C
1277.639 494.711 L
1289.447 495.359 1290.384 470.951 1279.943 469.871 C
1194.119 457.271 L
b
u
u
0.000 0.000 0.000 1.000 K
0 j
0 J
0.215 w
[]0 d
1272.959 541.151 m
1213.847 541.151 L
S
U
U
u
u
0.000 0.000 0.000 1.000 K
0 j
0 J
0.215 w
[]0 d
1272.959 524.303 m
1221.119 524.303 L
S
U
U
u
u
0.000 0.000 0.000 1.000 K
0 j
0 J
0.215 w
[]0 d
1272.959 508.823 m
1263.887 508.823 L
S
U
U
u
u
0.000 0.000 0.000 1.000 K
0 j
0 J
0.215 w
[]0 d
1272.959 494.783 m
1206.288 494.783 L
S
U
U
0.000 0.000 0.000 1.000 K
0 j
0 J
0.215 w
[]0 d
0.000 0.000 0.000 0.498 k
1017.791 446.903 m
1016.711 452.087 1016.135 457.487 1016.135 462.959 C
1016.135 506.519 1051.703 542.087 1095.407 542.087 C
1139.039 542.087 1174.607 506.519 1174.607 462.959 C
1174.607 457.487 1174.103 452.087 1173.023 446.903 C
1194.048 451.943 L
1260.791 467.279 L
1194.192 456.047 L
1192.391 505.511 1175.471 559.943 1093.031 559.943 C
1005.335 559.943 997.415 498.455 997.415 446.903 C
1017.791 446.903 L
b
0.000 0.000 0.000 1.000 K
0 j
0 J
0.215 w
[]0 d
0.000 0.000 0.000 0.498 k
183.887 446.903 m
182.807 452.087 182.231 457.487 182.231 462.959 C
182.231 506.519 217.799 542.087 261.359 542.087 C
305.063 542.087 340.631 506.519 340.631 462.959 C
340.631 457.487 340.127 452.087 338.975 446.903 C
340.919 446.903 L
354.743 447.623 L
354.815 456.047 L
353.087 505.511 330.551 548.855 260.927 548.855 C
182.951 548.855 166.607 498.455 170.423 446.903 C
183.887 446.903 L
b
0.000 0.000 0.000 0.000 K
0 j
0 J
0.215 w
[]0 d
0.000 0.000 0.000 1.000 k
1095.336 383.543 m
1051.775 383.543 1016.135 419.111 1016.135 462.815 c
1016.135 506.375 1051.775 542.015 1095.336 542.015 c
1139.039 542.015 1174.607 506.375 1174.607 462.815 c
1174.607 419.111 1139.039 383.543 1095.336 383.543 c
b
0.000 0.000 0.000 0.000 K
0 j
0 J
0.215 w
[]0 d
0.000 0.000 0.000 1.000 k
261.359 383.543 m
217.799 383.543 182.159 419.111 182.159 462.815 c
182.159 506.375 217.799 542.015 261.359 542.015 c
305.063 542.015 340.631 506.375 340.631 462.815 c
340.631 419.111 305.063 383.543 261.359 383.543 c
b
0.000 0.000 0.000 1.000 K
0 j
0 J
0.215 w
[]0 d
0.000 0.000 0.000 0.098 k
261.359 419.687 m
237.671 419.687 218.231 439.055 218.231 462.887 c
218.231 486.575 237.671 506.015 261.359 506.015 c
285.191 506.015 304.560 486.575 304.560 462.887 c
304.560 439.055 285.191 419.687 261.359 419.687 c
b
0.000 0.000 0.000 1.000 K
0 j
0 J
0.215 w
[]0 d
0.000 0.000 0.000 0.098 k
1095.336 419.687 m
1071.647 419.687 1052.207 439.055 1052.207 462.887 c
1052.207 486.575 1071.647 506.015 1095.336 506.015 c
1119.167 506.015 1138.535 486.575 1138.535 462.887 c
1138.535 439.055 1119.167 419.687 1095.336 419.687 c
b
0.000 0.000 0.000 1.000 K
0 j
0 J
0.215 w
[]0 d
0.000 0.000 0.000 0.400 k
261.359 427.031 m
241.631 427.031 225.575 443.087 225.575 462.815 c
225.575 482.543 241.631 498.599 261.359 498.599 c
281.087 498.599 297.144 482.543 297.144 462.815 c
297.144 443.087 281.087 427.031 261.359 427.031 c
b
0.000 0.000 0.000 1.000 K
0 j
0 J
0.215 w
[]0 d
0.000 0.000 0.000 0.400 k
1095.480 427.031 m
1075.751 427.031 1059.695 443.087 1059.695 462.815 c
1059.695 482.543 1075.751 498.599 1095.480 498.599 c
1115.207 498.599 1131.263 482.543 1131.263 462.815 c
1131.263 443.087 1115.207 427.031 1095.480 427.031 c
b
0.000 0.000 0.000 1.000 K
0 j
0 J
0.215 w
[]0 d
0.000 0.000 0.000 0.498 k
975.887 681.695 m
978.839 681.407 981.575 680.903 984.383 680.255 C
974.087 815.039 L
971.351 816.695 968.399 818.135 965.447 819.071 C
975.887 681.695 L
b
u
u
0.000 0.000 0.000 1.000 K
0 j
0 J
0.215 w
[]0 d
1154.951 689.471 m
1148.255 692.639 1132.343 679.247 1118.375 686.375 C
S
U
U
u
u
0.000 0.000 0.000 1.000 K
0 j
0 J
0.215 w
[]0 d
1141.199 685.439 m
1175.327 667.799 1241.135 638.639 1244.663 617.399 C
1254.096 617.039 1261.871 618.335 1265.327 616.463 C
S
U
U
0.000 0.000 0.000 1.000 K
0 j
0 J
0.215 w
[]0 d
0.000 0.000 0.000 0.498 k
1202.327 609.623 m
1206.144 591.839 L
1207.295 589.679 1209.384 587.591 1211.687 586.799 C
1231.271 586.799 1247.399 586.799 1265.255 586.799 C
1268.063 587.735 1270.439 589.463 1270.655 592.631 C
1267.055 610.271 L
1266.336 613.367 1264.679 615.168 1261.511 615.527 C
1243.799 615.527 1225.799 615.599 1208.087 615.599 C
1204.631 615.455 1201.751 613.079 1202.327 609.623 C
b
0.000 0.000 0.000 1.000 K
0 j
0 J
0.215 w
[]0 d
0.000 0.000 0.000 0.000 k
1261.295 613.223 m
1250.567 613.223 l
1248.623 613.223 1246.751 611.423 1247.039 609.695 c
1250.567 592.487 l
1250.855 590.759 1252.295 588.959 1254.096 588.959 c
1264.823 588.959 l
1266.623 588.959 1268.783 590.615 1268.351 592.487 c
1264.823 609.695 l
1264.463 611.639 1263.311 613.223 1261.295 613.223 c
b
0.000 0.000 0.000 1.000 K
0 j
0 J
0.215 w
[]0 d
0.000 0.000 0.000 0.298 k
1241.927 613.223 m
1208.231 613.223 l
1205.783 613.223 1203.983 612.431 1204.559 609.695 c
1208.231 592.487 l
1208.519 590.831 1210.103 588.959 1211.903 588.959 c
1245.599 588.959 l
1247.399 588.959 1249.703 590.615 1249.271 592.487 c
1245.599 609.695 l
1245.167 611.639 1243.943 613.223 1241.927 613.223 c
b
0.000 0.000 0.000 1.000 K
0 j
0 J
0.215 w
[]0 d
0.000 0.000 0.000 0.098 k
1241.927 613.223 m
1233.359 613.223 l
1230.839 613.223 1229.111 612.359 1229.687 609.695 c
1233.359 592.487 l
1233.647 590.903 1235.303 588.959 1237.031 588.959 c
1245.599 588.959 l
1247.327 588.959 1249.703 590.615 1249.271 592.487 c
1245.599 609.695 l
1245.167 611.639 1243.943 613.223 1241.927 613.223 c
b
0.000 0.000 0.000 1.000 K
0 j
0 J
0.215 w
[]0 d
0.000 0.000 0.000 0.600 k
73.943 662.399 m
77.039 662.039 79.055 660.311 79.199 657.072 C
79.199 626.327 79.199 602.711 79.199 575.063 C
78.839 572.039 77.111 570.096 73.943 569.735 C
48.527 569.735 L
44.567 570.168 43.128 572.759 43.128 575.927 c
43.271 657.072 L
43.415 660.311 45.431 662.039 48.527 662.399 C
73.943 662.399 L
b
u
u
0.000 0.000 0.000 1.000 K
0 j
0 J
0.215 w
[]0 d
711.935 939.815 m
711.935 469.295 L
S
U
U
u
u
0.000 0.000 0.000 1.000 K
0 j
0 J
0.215 w
[]0 d
828.071 939.815 m
828.071 469.295 L
S
U
U
u
u
0.000 0.000 0.000 1.000 K
0 j
0 J
0.215 w
[]0 d
1251.359 585.359 m
1254.384 559.007 L
S
U
U
u
u
0.000 0.000 0.000 1.000 K
0 j
0 J
0.215 w
[]0 d
164.879 466.631 m
106.559 466.631 L
S
U
U
u
u
0.000 0.000 0.000 1.000 K
0 j
0 J
0.215 w
[]0 d
164.879 457.919 m
106.559 457.919 L
S
U
U
u
u
0.000 0.000 0.000 1.000 K
0 j
0 J
0.215 w
[]0 d
994.175 459.071 m
355.247 459.071 L
S
U
U
u
u
0.000 0.000 0.000 1.000 K
0 j
0 J
0.215 w
[]0 d
199.583 837.647 m
917.567 837.647 L
997.775 835.343 1001.663 809.423 1101.096 686.735 C
1101.096 564.407 L
1036.151 563.975 996.263 544.175 995.111 467.207 C
353.231 468.359 L
S
U
U
u
u
0.000 0.000 0.000 1.000 K
0 j
0 J
0.215 w
[]0 d
88.703 926.783 m
828.647 926.783 L
S
U
U
u
u
0.000 0.000 0.000 1.000 K
0 j
0 J
0.215 w
[]0 d
88.703 920.519 m
426.383 920.519 L
S
U
U
u
u
0.000 0.000 0.000 1.000 K
0 j
0 J
0.215 w
[]0 d
712.943 920.519 m
828.647 920.519 L
S
U
U
0.000 0.000 0.000 1.000 K
0 j
0 J
0.215 w
[]0 d
0.000 0.000 0.000 0.298 k
74.087 660.168 m
48.095 660.168 l
46.367 660.168 44.927 658.727 44.927 656.927 c
44.927 627.695 l
44.927 625.895 46.367 624.455 48.095 624.455 c
74.087 624.455 l
75.887 624.455 77.327 625.895 77.327 627.695 c
77.327 656.927 l
77.327 658.727 75.887 660.168 74.087 660.168 c
b
0.000 0.000 0.000 1.000 K
0 j
0 J
0.215 w
[]0 d
0.000 0.000 0.000 0.200 k
73.871 621.287 m
48.671 621.287 l
46.943 621.287 45.503 619.775 45.503 618.048 c
45.503 609.983 l
45.503 608.255 46.943 606.743 48.671 606.743 c
73.871 606.743 l
75.527 606.743 76.967 608.183 76.967 609.983 c
76.967 618.048 l
76.967 619.847 75.599 621.287 73.871 621.287 c
b
0.000 0.000 0.000 1.000 K
0 j
0 J
0.215 w
[]0 d
0.000 0.000 0.000 0.000 k
73.871 603.791 m
48.671 603.791 l
46.943 603.791 45.503 602.279 45.503 600.551 c
45.503 592.487 l
45.503 590.759 46.943 589.247 48.671 589.247 c
73.871 589.247 l
75.527 589.247 76.967 590.687 76.967 592.487 c
76.967 600.551 l
76.967 602.351 75.599 603.791 73.871 603.791 c
b
0.000 0.000 0.000 1.000 K
0 j
0 J
0.215 w
[]0 d
0.000 0.000 0.000 0.298 k
73.871 586.511 m
48.671 586.511 l
46.943 586.511 45.503 585.000 45.503 583.271 c
45.503 575.207 l
45.503 573.479 46.943 571.967 48.671 571.967 c
73.871 571.967 l
75.527 571.967 76.967 573.407 76.967 575.207 c
76.967 583.271 l
76.967 585.072 75.599 586.511 73.871 586.511 c
b
0.000 0.000 0.000 1.000 K
0 j
0 J
0.215 w
[]0 d
693.791 836.279 m
445.535 836.279 l
441.143 836.279 437.543 832.679 437.543 828.359 c
437.543 808.775 l
437.543 804.383 441.143 800.783 445.535 800.783 c
693.791 800.783 l
698.111 800.783 701.711 804.383 701.711 808.775 c
701.711 828.359 l
701.711 832.679 698.111 836.279 693.791 836.279 c
s
0.000 0.000 0.000 1.000 K
0 j
0 J
0.215 w
[]0 d
810.935 836.279 m
729.143 836.279 l
724.751 836.279 721.151 832.679 721.151 828.359 c
721.151 808.775 l
721.151 804.383 724.751 800.783 729.143 800.783 c
810.935 800.783 l
815.255 800.783 818.855 804.383 818.855 808.775 c
818.855 828.359 l
818.855 832.679 815.255 836.279 810.935 836.279 c
s
0.000 0.000 0.000 1.000 K
0 j
0 J
0.215 w
[]0 d
445.607 833.975 m
442.151 833.687 440.063 831.599 439.775 828.143 C
439.775 808.775 L
440.063 805.319 442.151 803.303 445.607 803.015 C
693.647 803.015 L
697.103 803.303 699.119 805.391 699.407 808.775 C
699.407 828.143 L
699.119 831.599 697.103 833.687 693.647 833.975 C
445.607 833.975 L
s
0.000 0.000 0.000 1.000 K
0 j
0 J
0.215 w
[]0 d
729.287 833.975 m
725.831 833.687 723.743 831.599 723.455 828.143 C
723.455 808.775 L
723.743 805.319 725.831 803.303 729.287 803.015 C
810.791 803.015 L
814.247 803.303 816.263 805.391 816.551 808.775 C
816.551 828.143 L
816.263 831.599 814.247 833.687 810.791 833.975 C
729.287 833.975 L
s
0.000 0.000 0.000 1.000 K
0 j
0 J
0.215 w
[]0 d
407.519 836.279 m
95.471 836.279 l
91.079 836.279 87.551 832.679 87.551 828.359 c
87.551 808.775 l
87.551 804.383 91.079 800.783 95.471 800.783 c
407.519 800.783 l
411.839 800.783 415.439 804.383 415.439 808.775 c
415.439 828.359 l
415.439 832.679 411.839 836.279 407.519 836.279 c
s
0.000 0.000 0.000 1.000 K
0 j
0 J
0.215 w
[]0 d
95.543 833.975 m
92.087 833.687 90.000 831.599 89.711 828.143 C
89.711 808.775 L
90.000 805.319 92.087 803.303 95.543 803.015 C
407.375 803.015 L
410.831 803.303 412.919 805.391 413.207 808.775 C
413.207 828.143 L
412.919 831.599 410.831 833.687 407.375 833.975 C
95.543 833.975 L
s
0.000 0.000 0.000 1.000 K
0 j
0 J
0.215 w
[]0 d
0.000 0.000 0.000 1.000 k
865.439 631.655 m
865.151 631.727 L
864.935 631.727 864.791 632.015 864.791 632.015 C
864.791 632.087 L
864.719 632.375 L
864.719 657.431 L
864.791 657.791 L
864.791 657.791 865.079 658.151 865.079 658.151 C
865.151 658.151 L
865.439 658.223 L
876.527 658.223 L
876.887 658.151 L
876.887 658.151 877.247 657.863 877.247 657.863 C
877.247 657.791 L
877.247 657.431 L
877.247 632.375 L
877.247 632.087 L
877.247 631.943 876.959 631.799 876.959 631.727 C
868.607 631.727 873.935 631.655 865.439 631.655 C
b
0.000 0.000 0.000 1.000 K
0 j
0 J
0.215 w
[]0 d
0.000 0.000 0.000 0.498 k
867.743 633.887 m
867.743 655.919 L
875.087 655.919 L
875.087 633.959 L
867.671 633.959 875.159 633.887 867.743 633.887 C
b
0.000 0.000 0.000 0.898 K
0 j
0 J
0.215 w
[]0 d
0.000 0.000 0.000 0.498 k
1056.240 709.703 m
1065.240 709.703 l
1069.127 709.703 1072.295 706.319 1072.295 702.647 c
1072.295 661.031 l
1072.295 657.431 1068.839 653.975 1065.167 653.975 c
1056.023 653.975 l
1052.423 653.975 1048.967 657.144 1048.967 661.031 c
1049.183 702.647 l
1049.183 706.535 1052.351 709.703 1056.240 709.703 c
b
u
u
U
u
0.000 0.000 0.000 1.000 K
0 j
0 J
0.215 w
[]0 d
271.727 358.631 m
621.503 358.631 L
S
U
U
u
u
U
u
0.000 0.000 0.000 1.000 K
0 j
0 J
0.215 w
[]0 d
791.567 358.631 m
1084.031 358.631 L
S
U
U
u
u
U
u
0.000 0.000 0.000 1.000 K
0 j
0 J
0.215 w
[]0 d
260.927 341.351 m
260.927 376.847 L
S
U
U
u
u
U
u
0.000 0.000 0.000 1.000 K
0 j
0 J
0.215 w
[]0 d
1093.391 337.823 m
1093.391 376.847 L
S
U
U
0.000 0.000 0.000 1.000 k
1082.951 369.647 m
1092.743 359.351 L
1082.663 349.271 L
1082.951 369.647 L
f
0.000 0.000 0.000 1.000 k
271.151 370.295 m
261.072 360.215 L
271.151 350.135 L
271.151 370.295 L
f
0.000 0.000 0.000 1.000 K
0 j
0 J
0.215 w
[]0 d
0.000 0.000 0.000 0.000 k
1391.543 560.735 m
1624.895 560.807 L
1624.895 560.663 L
1847.807 560.663 L
1849.391 584.711 L
1846.223 591.192 L
1849.391 615.096 1848.743 639.287 1846.223 663.407 C
1820.231 861.551 L
1812.023 899.711 1805.903 942.983 1765.511 942.695 C
1619.783 942.695 L
1619.783 942.767 L
1473.911 942.767 L
1433.519 942.983 1427.399 899.783 1419.263 861.551 C
1393.199 663.407 L
1390.391 639.216 1390.391 615.024 1393.199 590.831 C
1389.527 583.991 L
1391.543 560.735 L
b
0.000 0.000 0.000 0.898 K
0 j
0 J
0.215 w
[]0 d
0.000 0.000 0.000 0.498 k
1850.327 709.919 m
1869.479 709.919 l
1873.439 709.919 1876.391 706.679 1876.607 702.863 c
1878.479 661.247 l
1878.695 657.431 1875.239 654.192 1871.423 654.192 c
1852.055 654.192 l
1848.239 654.192 1845.071 657.359 1844.999 661.247 c
1843.271 702.863 l
1843.127 706.751 1846.439 709.919 1850.327 709.919 c
b
0.000 0.000 0.000 0.898 K
0 j
0 J
0.215 w
[]0 d
0.000 0.000 0.000 0.498 k
1387.655 709.487 m
1368.503 709.487 l
1364.543 709.487 1361.591 706.247 1361.375 702.431 c
1359.503 660.815 l
1359.288 657.000 1362.743 653.759 1366.559 653.759 c
1385.927 653.759 l
1389.743 653.759 1392.911 656.927 1392.983 660.815 c
1394.711 702.431 l
1394.855 706.319 1391.543 709.487 1387.655 709.487 c
b
0.000 0.000 0.000 1.000 K
0 j
0 J
0.215 w
[]0 d
0.000 0.000 0.000 0.498 k
1785.743 445.463 m
1785.599 470.807 L
1781.279 471.671 1776.815 472.175 1772.135 472.031 C
1614.887 471.239 L
1614.815 471.239 L
1467.143 472.031 L
1461.311 472.247 1455.695 471.383 1450.583 470.087 C
1450.583 470.015 L
1451.519 470.231 1452.455 470.519 1453.463 470.663 C
1453.463 445.463 L
1785.743 445.463 L
b
0.000 0.000 0.000 1.000 K
0 j
0 J
0.215 w
[]0 d
0.000 0.000 0.000 0.000 k
1841.831 1290.240 m
1813.607 1290.240 L
1809.215 1290.240 1805.759 1286.567 1805.759 1282.391 C
1805.759 1195.199 L
1805.759 1193.111 1806.767 1191.096 1808.279 1189.655 C
1431.359 1189.655 L
1432.871 1191.096 1433.879 1193.111 1433.879 1195.271 C
1433.879 1282.319 L
1433.879 1286.495 1430.423 1290.167 1426.031 1290.167 C
1397.807 1290.167 L
1396.223 1290.167 1394.567 1289.735 1393.271 1288.799 C
1393.271 1289.087 1393.271 1289.375 1393.271 1289.663 C
1393.271 1400.615 L
1396.871 1465.127 1407.023 1530.863 1419.263 1598.687 C
1429.775 1636.991 1433.591 1680.191 1473.983 1679.903 C
1619.855 1679.903 L
1619.855 1679.903 L
1765.583 1679.903 L
1805.975 1680.191 1812.095 1636.919 1820.303 1598.687 C
1832.759 1532.591 1843.991 1465.271 1846.295 1400.615 C
1846.295 1289.591 L
1846.223 1289.375 1846.223 1289.159 1846.223 1288.943 C
1844.999 1289.735 1843.415 1290.240 1841.831 1290.240 C
b
u
u
0.000 0.000 0.000 0.000 k
130.967 1192.823 m
130.967 1192.391 L
131.039 1192.247 131.111 1192.103 131.183 1192.031 C
131.183 1192.247 131.183 1192.535 131.183 1192.823 C
130.967 1192.823 L
f
0.000 0.000 0.000 0.000 k
130.967 1405.727 m
130.967 1293.119 L
204.479 1293.119 L
149.831 1282.751 134.639 1241.279 131.615 1200.671 C
135.143 1246.535 154.655 1294.847 232.127 1295.351 C
319.608 1295.351 327.671 1234.367 327.743 1183.031 C
986.039 1183.031 L
985.031 1188.000 984.527 1193.111 984.527 1198.295 C
984.527 1241.927 1020.167 1277.567 1063.799 1277.567 C
1107.432 1277.567 1143.071 1241.927 1143.071 1198.295 C
1143.071 1193.111 1142.567 1188.000 1141.631 1183.031 C
1225.583 1183.031 L
1224.503 1184.327 1223.927 1186.055 1224.071 1187.927 C
1234.223 1282.751 L
1234.655 1287.215 1237.823 1290.815 1242.288 1290.815 C
1282.463 1290.815 L
1282.463 1293.192 L
1284.695 1381.751 1281.815 1471.895 1264.607 1562.399 C
1258.919 1593.071 L
1246.823 1645.271 L
1242.288 1663.847 1231.487 1678.031 1211.255 1678.031 C
508.319 1678.031 L
477.719 1678.319 447.191 1672.199 421.415 1652.255 C
362.519 1606.607 L
299.159 1550.159 242.279 1493.711 183.095 1432.871 C
164.663 1424.303 146.807 1414.799 130.967 1405.727 C
f
0.000 0.000 0.000 0.000 k
130.967 1293.119 m
130.967 1405.727 L
107.135 1392.048 87.623 1379.231 76.679 1371.455 C
63.071 1360.583 57.743 1350.359 55.583 1339.199 C
52.919 1325.375 50.687 1310.543 49.967 1294.559 C
49.895 1293.119 L
130.967 1293.119 L
f
0.000 0.000 0.000 0.000 k
130.967 1192.391 m
130.967 1192.823 L
130.751 1192.895 L
130.751 1192.679 130.823 1192.535 130.967 1192.391 C
f
U
u
0.000 0.000 0.000 1.000 K
0 j
0 J
0.215 w
[]0 d
131.615 1200.671 m
134.639 1241.279 149.831 1282.751 204.479 1293.119 C
49.895 1293.119 L
49.967 1294.559 L
50.687 1310.543 52.919 1325.375 55.583 1339.199 C
57.743 1350.359 63.071 1360.583 76.679 1371.455 C
94.967 1384.487 137.087 1411.487 183.095 1432.871 C
242.279 1493.711 299.159 1550.159 362.519 1606.607 C
421.415 1652.255 L
447.191 1672.199 477.719 1678.319 508.319 1678.031 C
1211.255 1678.031 L
1231.487 1678.031 1242.288 1663.847 1246.823 1645.271 C
1258.919 1593.071 L
1264.607 1562.399 L
1281.815 1471.895 1284.695 1381.751 1282.463 1293.192 C
1282.463 1290.815 L
1242.288 1290.815 L
1237.823 1290.815 1234.655 1287.215 1234.223 1282.751 C
1224.071 1187.927 L
1223.927 1186.055 1224.503 1184.327 1225.583 1183.031 C
1141.631 1183.031 L
1142.567 1188.000 1143.071 1193.111 1143.071 1198.295 C
1143.071 1241.927 1107.432 1277.567 1063.799 1277.567 C
1020.167 1277.567 984.527 1241.927 984.527 1198.295 C
984.527 1193.111 985.031 1188.000 986.039 1183.031 C
327.743 1183.031 L
327.671 1234.367 319.608 1295.351 232.127 1295.351 C
154.655 1294.847 135.143 1246.535 131.615 1200.671 C
s
0.000 0.000 0.000 1.000 K
0 j
0 J
0.215 w
[]0 d
131.183 1192.823 m
130.751 1192.895 L
130.823 1192.607 131.039 1192.319 131.183 1192.031 C
131.183 1192.247 131.183 1192.535 131.183 1192.823 C
s
U
U
0.000 0.000 0.000 1.000 K
0 j
0 J
0.215 w
[]0 d
0.000 0.000 0.000 0.200 k
183.095 1432.871 m
228.887 1479.887 273.311 1524.383 320.399 1568.159 C
328.967 1563.119 L
287.927 1519.775 248.111 1474.271 210.383 1425.599 C
203.903 1417.823 188.495 1431.791 183.095 1432.871 C
b
0.000 0.000 0.000 1.000 K
0 j
0 J
0.215 w
[]0 d
631.295 1398.239 m
879.551 1398.239 l
883.943 1398.239 887.543 1394.639 887.543 1390.319 c
887.543 1370.735 l
887.543 1366.343 883.943 1362.743 879.551 1362.743 c
631.295 1362.743 l
626.975 1362.743 623.375 1366.343 623.375 1370.735 c
623.375 1390.319 l
623.375 1394.639 626.975 1398.239 631.295 1398.239 c
s
0.000 0.000 0.000 1.000 K
0 j
0 J
0.215 w
[]0 d
514.151 1398.239 m
595.871 1398.239 l
600.264 1398.239 603.863 1394.639 603.863 1390.319 c
603.863 1370.735 l
603.863 1366.343 600.264 1362.743 595.871 1362.743 c
514.151 1362.743 l
509.831 1362.743 506.231 1366.343 506.231 1370.735 c
506.231 1390.319 l
506.231 1394.639 509.831 1398.239 514.151 1398.239 c
s
0.000 0.000 0.000 1.000 K
0 j
0 J
0.215 w
[]0 d
879.479 1396.151 m
882.935 1395.863 885.023 1393.775 885.311 1390.319 C
885.311 1370.951 L
885.023 1367.495 882.935 1365.479 879.479 1365.192 C
631.439 1365.192 L
627.983 1365.479 625.967 1367.567 625.679 1370.951 C
625.679 1390.319 L
625.967 1393.775 627.983 1395.863 631.439 1396.151 C
879.479 1396.151 L
s
0.000 0.000 0.000 1.000 K
0 j
0 J
0.215 w
[]0 d
595.799 1396.151 m
599.255 1395.863 601.343 1393.775 601.631 1390.319 C
601.631 1370.951 L
601.343 1367.495 599.255 1365.479 595.799 1365.192 C
514.295 1365.192 L
510.839 1365.479 508.823 1367.567 508.535 1370.951 C
508.535 1390.319 L
508.823 1393.775 510.839 1395.863 514.295 1396.151 C
595.799 1396.151 L
s
u
u
0.000 0.000 0.000 1.000 K
0 j
0 J
0.215 w
[]0 d
899.279 1202.831 m
899.279 1662.263 L
S
U
U
u
u
0.000 0.000 0.000 1.000 K
0 j
0 J
0.215 w
[]0 d
480.167 1202.831 m
480.167 1573.343 L
S
U
U
u
u
0.000 0.000 0.000 1.000 K
0 j
0 J
0.215 w
[]0 d
1245.743 1288.583 m
1248.480 1383.048 1246.751 1593.071 1220.399 1661.903 C
S
U
U
0.000 0.000 0.000 1.000 K
0 j
0 J
0.215 w
[]0 d
0.000 0.000 0.000 0.498 k
259.271 1387.871 m
296.351 1387.871 l
310.679 1387.871 315.575 1394.927 320.399 1400.255 c
329.687 1410.551 344.375 1412.495 357.335 1413.215 c
440.567 1418.255 l
450.575 1418.903 458.639 1426.463 458.783 1436.471 c
460.727 1544.903 l
460.943 1554.911 452.303 1563.335 442.511 1563.047 c
365.903 1560.455 l
356.255 1560.167 342.359 1551.239 335.735 1544.615 c
302.399 1511.495 273.239 1474.775 246.455 1436.471 c
240.263 1427.687 239.183 1402.127 241.415 1393.487 c
243.143 1386.935 253.943 1387.871 259.271 1387.871 c
b
0.000 0.000 0.000 1.000 K
0 j
0 J
0.215 w
[]0 d
0.000 0.000 0.000 0.200 k
328.607 1411.847 m
336.239 1415.159 343.871 1416.815 352.151 1417.463 C
357.191 1417.823 L
440.351 1422.935 L
448.343 1423.511 453.743 1428.695 454.319 1436.759 C
456.335 1544.903 L
456.047 1552.751 450.503 1558.295 442.655 1558.583 C
366.263 1555.919 L
356.687 1555.271 345.743 1547.927 338.975 1541.447 C
306.072 1508.543 277.055 1471.895 250.271 1433.951 C
246.167 1427.543 245.591 1417.319 245.087 1409.903 C
244.943 1404.863 244.943 1399.607 245.879 1394.711 C
246.959 1392.263 254.807 1392.407 257.039 1392.479 C
296.423 1392.479 L
302.831 1392.623 307.727 1393.919 312.479 1398.383 C
316.079 1402.199 319.391 1405.943 323.711 1409.111 C
326.159 1410.551 L
328.607 1411.847 L
b
0.000 0.000 0.000 1.000 K
0 j
0 J
0.215 w
[]0 d
917.567 1398.239 m
1229.615 1398.239 l
1234.007 1398.239 1237.535 1394.639 1237.535 1390.319 c
1237.535 1370.735 l
1237.535 1366.343 1234.007 1362.743 1229.615 1362.743 c
917.567 1362.743 l
913.247 1362.743 909.647 1366.343 909.647 1370.735 c
909.647 1390.319 l
909.647 1394.639 913.247 1398.239 917.567 1398.239 c
s
0.000 0.000 0.000 1.000 K
0 j
0 J
0.215 w
[]0 d
1629.863 1400.039 m
1794.887 1400.039 l
1799.279 1400.039 1802.807 1396.439 1802.807 1392.119 c
1802.807 1372.535 l
1802.807 1368.215 1799.207 1364.543 1794.887 1364.543 c
1629.863 1364.543 l
1625.543 1364.543 1621.943 1368.144 1621.943 1372.535 c
1621.943 1392.119 l
1621.943 1396.439 1625.471 1400.039 1629.863 1400.039 c
s
0.000 0.000 0.000 1.000 K
0 j
0 J
0.215 w
[]0 d
1609.703 1400.039 m
1444.679 1400.039 l
1440.287 1400.039 1436.759 1396.439 1436.759 1392.119 c
1436.759 1372.535 l
1436.759 1368.215 1440.359 1364.543 1444.679 1364.543 c
1609.703 1364.543 l
1614.023 1364.543 1617.623 1368.144 1617.623 1372.535 c
1617.623 1392.119 l
1617.623 1396.439 1614.095 1400.039 1609.703 1400.039 c
s
0.000 0.000 0.000 1.000 K
0 j
0 J
0.215 w
[]0 d
1229.543 1396.151 m
1233.000 1395.863 1235.087 1393.775 1235.375 1390.319 C
1235.375 1370.951 L
1235.087 1367.495 1233.000 1365.479 1229.543 1365.192 C
917.711 1365.192 L
914.255 1365.479 912.167 1367.567 911.879 1370.951 C
911.879 1390.319 L
912.167 1393.775 914.255 1395.863 917.711 1396.151 C
1229.543 1396.151 L
s
0.000 0.000 0.000 1.000 K
0 j
0 J
0.215 w
[]0 d
1794.743 1397.807 m
1798.199 1397.519 1800.287 1395.431 1800.575 1391.975 C
1800.575 1372.607 L
1800.287 1369.151 1798.199 1367.135 1794.743 1366.847 C
1629.935 1366.847 L
1626.479 1367.135 1624.463 1369.223 1624.175 1372.607 C
1624.175 1391.975 L
1624.463 1395.431 1626.479 1397.519 1629.935 1397.807 C
1794.743 1397.807 L
s
0.000 0.000 0.000 1.000 K
0 j
0 J
0.215 w
[]0 d
1444.823 1397.807 m
1441.367 1397.519 1439.279 1395.431 1438.991 1391.975 C
1438.991 1372.607 L
1439.279 1369.151 1441.367 1367.135 1444.823 1366.847 C
1609.631 1366.847 L
1613.087 1367.135 1615.103 1369.223 1615.391 1372.607 C
1615.391 1391.975 L
1615.103 1395.431 1613.087 1397.519 1609.631 1397.807 C
1444.823 1397.807 L
s
0.000 0.000 0.000 1.000 K
0 j
0 J
0.215 w
[]0 d
0.000 0.000 0.000 0.498 k
696.527 627.479 m
670.967 627.479 l
668.159 627.479 665.927 629.711 665.927 632.519 c
665.927 658.079 l
665.927 660.887 668.159 663.120 670.967 663.120 c
696.527 663.120 l
699.335 663.120 701.567 660.887 701.567 658.079 c
701.567 632.519 l
701.567 629.711 699.335 627.479 696.527 627.479 c
b
0.000 0.000 0.000 1.000 K
0 j
0 J
0.215 w
[]0 d
0.000 0.000 0.000 1.000 k
671.255 632.087 m
670.895 632.159 L
670.751 632.159 670.535 632.447 670.535 632.447 C
670.535 632.519 L
670.535 632.807 L
670.535 657.863 L
670.535 658.223 L
670.535 658.223 670.823 658.583 670.823 658.583 C
670.895 658.583 L
671.255 658.655 L
696.311 658.655 L
696.671 658.583 L
696.671 658.583 697.031 658.295 697.031 658.295 C
697.031 658.223 L
697.031 657.863 L
697.031 632.807 L
697.031 632.519 L
697.031 632.375 696.743 632.231 696.743 632.159 C
688.391 632.159 679.751 632.087 671.255 632.087 C
b
0.000 0.000 0.000 1.000 K
0 j
0 J
0.215 w
[]0 d
0.000 0.000 0.000 0.498 k
682.343 634.391 m
672.695 634.391 L
672.695 656.423 L
694.799 656.423 L
694.799 634.463 L
683.927 634.463 L
682.343 634.391 L
b
0.000 0.000 0.000 1.000 K
0 j
0 J
0.215 w
[]0 d
0.000 0.000 0.000 0.498 k
448.127 1362.527 m
473.687 1362.527 l
476.495 1362.527 478.727 1364.759 478.727 1367.567 c
478.727 1393.127 l
478.727 1395.935 476.495 1398.167 473.687 1398.167 c
448.127 1398.167 l
445.319 1398.167 443.087 1395.935 443.087 1393.127 c
443.087 1367.567 l
443.087 1364.759 445.319 1362.527 448.127 1362.527 c
b
0.000 0.000 0.000 1.000 K
0 j
0 J
0.215 w
[]0 d
0.000 0.000 0.000 0.498 k
1626.983 1364.111 m
1652.543 1364.111 l
1655.351 1364.111 1657.583 1366.343 1657.583 1369.151 c
1657.583 1394.711 l
1657.583 1397.519 1655.351 1399.751 1652.543 1399.751 c
1626.983 1399.751 l
1624.175 1399.751 1621.943 1397.519 1621.943 1394.711 c
1621.943 1369.151 l
1621.943 1366.343 1624.175 1364.111 1626.983 1364.111 c
b
0.000 0.000 0.000 1.000 K
0 j
0 J
0.215 w
[]0 d
0.000 0.000 0.000 0.098 k
458.135 1358.423 m
459.935 1358.423 461.447 1356.911 461.447 1355.111 c
461.447 1353.311 459.935 1351.799 458.135 1351.799 c
456.335 1351.799 454.823 1353.311 454.823 1355.111 c
454.823 1356.911 456.335 1358.423 458.135 1358.423 c
b
0.000 0.000 0.000 1.000 K
0 j
0 J
0.215 w
[]0 d
0.000 0.000 0.000 0.098 k
1637.279 1360.007 m
1639.079 1360.007 1640.591 1358.495 1640.591 1356.695 c
1640.591 1354.895 1639.079 1353.383 1637.279 1353.383 c
1635.479 1353.383 1633.967 1354.895 1633.967 1356.695 c
1633.967 1358.495 1635.479 1360.007 1637.279 1360.007 c
b
0.000 0.000 0.000 1.000 K
0 j
0 J
0.215 w
[]0 d
0.000 0.000 0.000 0.098 k
680.615 623.303 m
678.815 623.303 677.303 621.791 677.303 619.991 c
677.303 618.192 678.815 616.679 680.615 616.679 c
682.415 616.679 683.927 618.192 683.927 619.991 c
683.927 621.791 682.415 623.303 680.615 623.303 c
b
u
u
0.000 0.000 0.000 1.000 K
0 j
0 J
0.215 w
[]0 d
1244.663 1311.407 m
220.607 1311.407 L
184.247 1311.479 143.280 1308.023 107.927 1304.567 C
S
U
U
u
u
0.000 0.000 0.000 1.000 K
0 j
0 J
0.215 w
[]0 d
1244.663 1306.799 m
220.607 1306.799 L
184.247 1306.871 143.280 1303.415 107.927 1299.959 C
S
U
U
0.000 0.000 0.000 1.000 K
0 j
0 J
0.215 w
[]0 d
0.000 0.000 0.000 0.498 k
1242.215 1290.815 m
1284.263 1290.815 l
1288.727 1290.815 1292.471 1287.071 1292.255 1282.823 c
1287.575 1196.567 l
1287.431 1192.391 1283.759 1189.295 1279.583 1188.576 c
1231.991 1179.935 l
1227.887 1179.215 1223.567 1183.535 1224.000 1187.927 c
1234.223 1282.823 l
1234.655 1287.215 1237.751 1290.815 1242.215 1290.815 c
b
0.000 0.000 0.000 1.000 K
0 j
0 J
0.215 w
[]0 d
0.000 0.000 0.000 0.498 k
1397.591 1290.167 m
1425.887 1290.167 L
1430.207 1290.167 1433.735 1286.495 1433.735 1282.319 C
1433.735 1195.199 L
1433.735 1191.023 1430.063 1187.351 1425.887 1187.351 C
1408.679 1187.351 L
1404.647 1187.351 1401.263 1191.023 1400.831 1195.199 C
1395.719 1215.863 1390.535 1252.511 1389.743 1282.319 C
1389.311 1286.567 1393.271 1290.167 1397.591 1290.167 C
b
0.000 0.000 0.000 1.000 K
0 j
0 J
0.215 w
[]0 d
0.000 0.000 0.000 0.498 k
130.967 1192.751 m
132.623 1235.735 146.087 1282.103 204.191 1293.119 C
42.983 1293.119 L
48.023 1288.943 50.183 1283.471 49.463 1277.135 C
32.615 1277.711 34.631 1260.071 48.023 1260.719 C
47.447 1230.192 L
35.640 1230.839 34.704 1206.432 45.143 1205.351 C
130.967 1192.751 L
b
u
u
0.000 0.000 0.000 1.000 K
0 j
0 J
0.215 w
[]0 d
52.127 1276.631 m
111.239 1276.631 L
S
U
U
u
u
0.000 0.000 0.000 1.000 K
0 j
0 J
0.215 w
[]0 d
52.127 1259.783 m
103.967 1259.783 L
S
U
U
u
u
0.000 0.000 0.000 1.000 K
0 j
0 J
0.215 w
[]0 d
52.127 1244.303 m
61.199 1244.303 L
S
U
U
u
u
0.000 0.000 0.000 1.000 K
0 j
0 J
0.215 w
[]0 d
52.127 1230.263 m
118.799 1230.263 L
S
U
U
0.000 0.000 0.000 1.000 K
0 j
0 J
0.215 w
[]0 d
0.000 0.000 0.000 0.498 k
307.295 1182.384 m
308.375 1187.567 308.951 1192.967 308.951 1198.439 C
308.951 1242.000 273.383 1277.567 229.679 1277.567 C
186.047 1277.567 150.479 1242.000 150.479 1198.439 C
150.479 1192.967 150.983 1187.567 152.063 1182.384 C
131.039 1187.423 L
64.295 1202.759 L
130.895 1191.528 L
132.695 1240.991 149.615 1295.423 232.055 1295.423 C
319.751 1295.423 327.671 1233.935 327.671 1182.384 C
307.295 1182.384 L
b
0.000 0.000 0.000 1.000 K
0 j
0 J
0.215 w
[]0 d
0.000 0.000 0.000 0.498 k
1141.199 1182.384 m
1142.279 1187.567 1142.855 1192.967 1142.855 1198.439 C
1142.855 1242.000 1107.288 1277.567 1063.727 1277.567 C
1020.023 1277.567 984.455 1242.000 984.455 1198.439 C
984.455 1192.967 984.959 1187.567 986.111 1182.384 C
984.167 1182.384 L
970.343 1183.103 L
970.271 1191.528 L
971.999 1240.991 994.535 1284.336 1064.159 1284.336 C
1142.135 1284.336 1158.480 1233.935 1154.663 1182.384 C
1141.199 1182.384 L
b
0.000 0.000 0.000 0.000 K
0 j
0 J
0.215 w
[]0 d
0.000 0.000 0.000 1.000 k
229.751 1119.023 m
273.311 1119.023 308.951 1154.591 308.951 1198.295 c
308.951 1241.855 273.311 1277.495 229.751 1277.495 c
186.047 1277.495 150.479 1241.855 150.479 1198.295 c
150.479 1154.591 186.047 1119.023 229.751 1119.023 c
b
0.000 0.000 0.000 0.000 K
0 j
0 J
0.215 w
[]0 d
0.000 0.000 0.000 1.000 k
1063.727 1119.023 m
1107.288 1119.023 1142.927 1154.591 1142.927 1198.295 c
1142.927 1241.855 1107.288 1277.495 1063.727 1277.495 c
1020.023 1277.495 984.455 1241.855 984.455 1198.295 c
984.455 1154.591 1020.023 1119.023 1063.727 1119.023 c
b
0.000 0.000 0.000 1.000 K
0 j
0 J
0.215 w
[]0 d
0.000 0.000 0.000 0.098 k
1063.727 1155.167 m
1087.415 1155.167 1106.855 1174.535 1106.855 1198.367 c
1106.855 1222.055 1087.415 1241.495 1063.727 1241.495 c
1039.895 1241.495 1020.527 1222.055 1020.527 1198.367 c
1020.527 1174.535 1039.895 1155.167 1063.727 1155.167 c
b
0.000 0.000 0.000 1.000 K
0 j
0 J
0.215 w
[]0 d
0.000 0.000 0.000 0.098 k
229.751 1155.167 m
253.439 1155.167 272.879 1174.535 272.879 1198.367 c
272.879 1222.055 253.439 1241.495 229.751 1241.495 c
205.919 1241.495 186.551 1222.055 186.551 1198.367 c
186.551 1174.535 205.919 1155.167 229.751 1155.167 c
b
0.000 0.000 0.000 1.000 K
0 j
0 J
0.215 w
[]0 d
0.000 0.000 0.000 0.400 k
1063.727 1162.511 m
1083.455 1162.511 1099.511 1178.567 1099.511 1198.295 c
1099.511 1218.023 1083.455 1234.079 1063.727 1234.079 c
1044.000 1234.079 1027.943 1218.023 1027.943 1198.295 c
1027.943 1178.567 1044.000 1162.511 1063.727 1162.511 c
b
0.000 0.000 0.000 1.000 K
0 j
0 J
0.215 w
[]0 d
0.000 0.000 0.000 0.400 k
229.607 1162.511 m
249.335 1162.511 265.391 1178.567 265.391 1198.295 c
265.391 1218.023 249.335 1234.079 229.607 1234.079 c
209.879 1234.079 193.823 1218.023 193.823 1198.295 c
193.823 1178.567 209.879 1162.511 229.607 1162.511 c
b
0.000 0.000 0.000 1.000 K
0 j
0 J
0.215 w
[]0 d
0.000 0.000 0.000 0.498 k
349.199 1417.175 m
346.247 1416.887 343.512 1416.383 340.703 1415.735 C
351.000 1550.519 L
353.735 1552.175 356.687 1553.615 359.639 1554.551 C
349.199 1417.175 L
b
u
u
0.000 0.000 0.000 1.000 K
0 j
0 J
0.215 w
[]0 d
170.135 1424.951 m
176.831 1428.119 192.743 1414.727 206.711 1421.855 C
S
U
U
u
u
0.000 0.000 0.000 1.000 K
0 j
0 J
0.215 w
[]0 d
183.887 1420.919 m
149.759 1403.279 83.951 1374.119 80.423 1352.879 C
70.991 1352.519 63.215 1353.815 59.759 1351.943 C
S
U
U
0.000 0.000 0.000 1.000 K
0 j
0 J
0.215 w
[]0 d
163.367 1367.639 m
188.207 1367.639 l
192.167 1367.639 195.335 1364.471 195.335 1360.511 c
195.335 1340.927 l
195.335 1336.967 192.167 1333.799 188.207 1333.799 c
163.367 1333.799 l
159.407 1333.799 156.239 1336.967 156.239 1340.927 c
156.239 1360.511 l
156.239 1364.471 159.407 1367.639 163.367 1367.639 c
s
0.000 0.000 0.000 1.000 K
0 j
0 J
0.215 w
[]0 d
0.000 0.000 0.000 0.498 k
122.759 1345.103 m
118.943 1327.319 L
117.791 1325.159 115.703 1323.071 113.399 1322.279 C
93.815 1322.279 77.687 1322.279 59.831 1322.279 C
57.023 1323.215 54.647 1324.943 54.431 1328.111 C
58.031 1345.751 L
58.751 1348.847 60.407 1350.647 63.575 1351.007 C
81.287 1351.007 99.287 1351.079 116.999 1351.079 C
120.455 1350.935 123.335 1348.559 122.759 1345.103 C
b
0.000 0.000 0.000 1.000 K
0 j
0 J
0.215 w
[]0 d
0.000 0.000 0.000 0.000 k
63.791 1348.703 m
74.519 1348.703 l
76.463 1348.703 78.335 1346.903 78.047 1345.175 c
74.519 1327.967 l
74.231 1326.240 72.792 1324.439 70.991 1324.439 c
60.263 1324.439 l
58.463 1324.439 56.303 1326.096 56.735 1327.967 c
60.263 1345.175 l
60.623 1347.119 61.775 1348.703 63.791 1348.703 c
b
0.000 0.000 0.000 1.000 K
0 j
0 J
0.215 w
[]0 d
0.000 0.000 0.000 0.298 k
83.159 1348.703 m
116.855 1348.703 l
119.303 1348.703 121.103 1347.911 120.527 1345.175 c
116.855 1327.967 l
116.567 1326.311 114.983 1324.439 113.183 1324.439 c
79.487 1324.439 l
77.687 1324.439 75.384 1326.096 75.815 1327.967 c
79.487 1345.175 l
79.919 1347.119 81.143 1348.703 83.159 1348.703 c
b
0.000 0.000 0.000 1.000 K
0 j
0 J
0.215 w
[]0 d
0.000 0.000 0.000 0.098 k
83.159 1348.703 m
91.727 1348.703 l
94.247 1348.703 95.975 1347.839 95.399 1345.175 c
91.727 1327.967 l
91.439 1326.383 89.783 1324.439 88.055 1324.439 c
79.487 1324.439 l
77.759 1324.439 75.384 1326.096 75.815 1327.967 c
79.487 1345.175 l
79.919 1347.119 81.143 1348.703 83.159 1348.703 c
b
0.000 0.000 0.000 1.000 K
0 j
0 J
0.215 w
[]0 d
0.000 0.000 0.000 0.600 k
1840.247 1399.535 m
1843.343 1399.175 1845.359 1397.447 1845.503 1394.207 C
1845.503 1363.463 1845.503 1339.847 1845.503 1312.199 C
1845.143 1309.175 1843.415 1307.231 1840.247 1306.871 C
1814.831 1306.871 L
1810.871 1307.303 1809.431 1309.895 1809.431 1313.063 c
1809.575 1394.207 L
1809.719 1397.447 1811.735 1399.175 1814.831 1399.535 C
1840.247 1399.535 L
b
0.000 0.000 0.000 1.000 K
0 j
0 J
0.215 w
[]0 d
0.000 0.000 0.000 0.298 k
1814.903 1397.303 m
1840.103 1397.303 l
1841.831 1397.303 1843.271 1395.863 1843.271 1394.063 c
1843.271 1364.831 l
1843.271 1363.031 1841.831 1361.591 1840.103 1361.591 c
1814.903 1361.591 l
1813.175 1361.591 1811.807 1363.031 1811.807 1364.831 c
1811.807 1394.063 l
1811.807 1395.863 1813.175 1397.303 1814.903 1397.303 c
b
0.000 0.000 0.000 1.000 K
0 j
0 J
0.215 w
[]0 d
0.000 0.000 0.000 0.200 k
1815.047 1358.567 m
1840.247 1358.567 l
1841.975 1358.567 1843.415 1357.055 1843.415 1355.327 c
1843.415 1347.263 l
1843.415 1345.535 1841.975 1344.023 1840.247 1344.023 c
1815.047 1344.023 l
1813.391 1344.023 1811.951 1345.463 1811.951 1347.263 c
1811.951 1355.327 l
1811.951 1357.127 1813.319 1358.567 1815.047 1358.567 c
b
0.000 0.000 0.000 1.000 K
0 j
0 J
0.215 w
[]0 d
0.000 0.000 0.000 0.000 k
1815.047 1340.855 m
1840.247 1340.855 l
1841.975 1340.855 1843.415 1339.343 1843.415 1337.615 c
1843.415 1329.551 l
1843.415 1327.823 1841.975 1326.311 1840.247 1326.311 c
1815.047 1326.311 l
1813.391 1326.311 1811.951 1327.751 1811.951 1329.551 c
1811.951 1337.615 l
1811.951 1339.415 1813.319 1340.855 1815.047 1340.855 c
b
0.000 0.000 0.000 1.000 K
0 j
0 J
0.215 w
[]0 d
0.000 0.000 0.000 0.600 k
1399.319 1399.535 m
1396.223 1399.175 1394.207 1397.447 1394.063 1394.207 C
1394.063 1363.463 1394.063 1339.847 1394.063 1312.199 C
1394.423 1309.175 1396.151 1307.231 1399.319 1306.871 C
1424.735 1306.871 L
1428.695 1307.303 1430.135 1309.895 1430.135 1313.063 c
1429.991 1394.207 L
1429.847 1397.447 1427.831 1399.175 1424.735 1399.535 C
1399.319 1399.535 L
b
0.000 0.000 0.000 1.000 K
0 j
0 J
0.215 w
[]0 d
0.000 0.000 0.000 0.600 k
1251.144 1397.879 m
1248.048 1397.519 1246.031 1395.791 1245.887 1392.551 C
1245.887 1361.807 1245.887 1338.192 1245.887 1310.543 C
1246.247 1307.519 1247.975 1305.575 1251.144 1305.215 C
1276.559 1305.215 L
1280.519 1305.647 1281.959 1308.240 1281.959 1311.407 c
1281.815 1392.551 L
1281.671 1395.791 1279.655 1397.519 1276.559 1397.879 C
1251.144 1397.879 L
b
0.000 0.000 0.000 1.000 K
0 j
0 J
0.215 w
[]0 d
0.000 0.000 0.000 0.298 k
1815.047 1323.575 m
1840.247 1323.575 l
1841.975 1323.575 1843.415 1322.063 1843.415 1320.336 c
1843.415 1312.271 l
1843.415 1310.543 1841.975 1309.031 1840.247 1309.031 c
1815.047 1309.031 l
1813.391 1309.031 1811.951 1310.471 1811.951 1312.271 c
1811.951 1320.336 l
1811.951 1322.135 1813.319 1323.575 1815.047 1323.575 c
b
u
u
0.000 0.000 0.000 1.000 K
0 j
0 J
0.215 w
[]0 d
613.151 1675.295 m
613.151 1204.775 L
S
U
U
u
u
0.000 0.000 0.000 1.000 K
0 j
0 J
0.215 w
[]0 d
497.015 1675.295 m
497.015 1204.775 L
S
U
U
u
u
0.000 0.000 0.000 1.000 K
0 j
0 J
0.215 w
[]0 d
73.727 1320.839 m
70.703 1294.487 L
S
U
U
u
u
0.000 0.000 0.000 1.000 K
0 j
0 J
0.215 w
[]0 d
1160.207 1202.111 m
1218.528 1202.111 L
S
U
U
u
u
0.000 0.000 0.000 1.000 K
0 j
0 J
0.215 w
[]0 d
1160.207 1193.399 m
1218.528 1193.399 L
S
U
U
u
u
0.000 0.000 0.000 1.000 K
0 j
0 J
0.215 w
[]0 d
330.911 1194.551 m
969.839 1194.551 L
S
U
U
u
u
0.000 0.000 0.000 1.000 K
0 j
0 J
0.215 w
[]0 d
1125.503 1573.127 m
407.519 1573.127 L
327.311 1570.823 323.423 1544.903 223.991 1422.215 C
223.991 1299.887 L
288.935 1299.455 328.823 1279.655 329.975 1202.687 C
971.855 1203.839 L
S
U
U
u
u
0.000 0.000 0.000 1.000 K
0 j
0 J
0.215 w
[]0 d
1236.384 1662.263 m
496.439 1662.263 L
S
U
U
u
u
0.000 0.000 0.000 1.000 K
0 j
0 J
0.215 w
[]0 d
1236.384 1655.999 m
898.703 1655.999 L
S
U
U
u
u
0.000 0.000 0.000 1.000 K
0 j
0 J
0.215 w
[]0 d
612.144 1655.999 m
496.439 1655.999 L
S
U
U
u
u
0.000 0.000 0.000 1.000 K
0 j
0 J
0.215 w
[]0 d
1619.639 1194.767 m
1619.639 1664.063 L
S
U
U
0.000 0.000 0.000 1.000 K
0 j
0 J
0.215 w
[]0 d
0.000 0.000 0.000 1.000 k
1786.031 1189.439 m
1834.487 1189.439 L
1834.487 1120.463 L
1786.031 1120.463 L
1786.031 1189.439 L
b
0.000 0.000 0.000 1.000 K
0 j
0 J
0.215 w
[]0 d
0.000 0.000 0.000 1.000 k
1833.983 481.535 m
1831.967 475.847 1829.663 470.159 1827.071 464.615 C
1820.879 450.071 1805.903 465.407 1785.599 470.447 C
1786.031 389.735 L
1786.031 386.135 1789.703 383.183 1792.583 383.183 C
1827.935 383.183 L
1830.815 383.183 1834.487 386.855 1834.487 389.735 C
1833.983 481.535 L
b
0.000 0.000 0.000 1.000 K
0 j
0 J
0.215 w
[]0 d
0.000 0.000 0.000 1.000 k
1453.535 1189.439 m
1405.079 1189.439 L
1405.079 1120.463 L
1453.535 1120.463 L
1453.535 1189.439 L
b
0.000 0.000 0.000 1.000 K
0 j
0 J
0.215 w
[]0 d
0.000 0.000 0.000 1.000 k
1453.391 470.375 m
1433.231 465.191 1418.471 450.215 1412.351 464.687 C
1409.543 470.663 1407.096 476.783 1405.007 482.975 C
1405.007 390.023 L
1405.007 387.647 1408.031 383.183 1411.775 383.183 C
1446.623 383.183 L
1450.367 383.183 1453.391 386.279 1453.391 390.023 C
1453.391 470.375 L
b
u
u
0.000 0.000 0.000 1.000 K
0 j
0 J
0.215 w
[]0 d
1804.175 1312.991 m
1622.447 1312.991 L
S
U
U
u
u
0.000 0.000 0.000 1.000 K
0 j
0 J
0.215 w
[]0 d
1435.319 1312.991 m
1617.047 1312.991 L
S
U
U
u
u
0.000 0.000 0.000 1.000 K
0 j
0 J
0.215 w
[]0 d
1424.591 1608.839 m
1617.047 1608.839 L
S
U
U
u
u
0.000 0.000 0.000 1.000 K
0 j
0 J
0.215 w
[]0 d
1425.815 1604.231 m
1617.047 1604.231 L
S
U
U
u
u
0.000 0.000 0.000 1.000 K
0 j
0 J
0.215 w
[]0 d
1815.191 1608.047 m
1622.447 1608.047 L
S
U
U
u
u
0.000 0.000 0.000 1.000 K
0 j
0 J
0.215 w
[]0 d
1820.303 1603.295 m
1626.407 1603.295 L
S
U
U
u
u
0.000 0.000 0.000 1.000 K
0 j
0 J
0.215 w
[]0 d
1804.175 1236.959 m
1622.447 1236.959 L
S
U
U
u
u
0.000 0.000 0.000 1.000 K
0 j
0 J
0.215 w
[]0 d
1435.319 1236.959 m
1617.047 1236.959 L
S
U
U
u
u
0.000 0.000 0.000 1.000 K
0 j
0 J
0.215 w
[]0 d
1804.175 1208.591 m
1622.447 1208.591 L
S
U
U
u
u
0.000 0.000 0.000 1.000 K
0 j
0 J
0.215 w
[]0 d
1435.319 1208.591 m
1617.047 1208.591 L
S
U
U
u
u
0.000 0.000 0.000 1.000 K
0 j
0 J
0.215 w
[]0 d
1804.175 1307.951 m
1622.447 1307.951 L
S
U
U
u
u
0.000 0.000 0.000 1.000 K
0 j
0 J
0.215 w
[]0 d
1435.319 1307.951 m
1617.047 1307.951 L
S
U
U
u
u
0.000 0.000 0.000 1.000 K
0 j
0 J
0.215 w
[]0 d
1802.087 1469.015 m
1802.159 1191.384 L
S
U
U
u
u
0.000 0.000 0.000 1.000 K
0 j
0 J
0.215 w
[]0 d
1437.479 1469.015 m
1437.407 1191.384 L
S
U
U
u
u
0.000 0.000 0.000 1.000 K
0 j
0 J
0.215 w
[]0 d
1461.743 1666.007 m
1444.967 1610.639 1438.703 1557.647 1437.263 1502.351 C
S
U
U
u
u
0.000 0.000 0.000 1.000 K
0 j
0 J
0.215 w
[]0 d
1777.319 1666.007 m
1794.095 1610.639 1800.359 1557.647 1801.799 1502.351 C
S
U
U
0.000 0.000 0.000 1.000 K
0 j
0 J
0.215 w
[]0 d
1591.775 1574.927 m
1482.623 1574.927 l
1471.751 1574.927 1463.111 1565.639 1462.463 1554.767 c
1455.479 1440.215 l
1454.903 1429.343 1464.551 1420.055 1475.639 1420.055 c
1591.775 1420.055 l
1602.863 1420.055 1611.935 1429.127 1611.935 1440.215 c
1611.935 1554.767 l
1611.935 1565.855 1602.719 1574.927 1591.775 1574.927 c
s
0.000 0.000 0.000 1.000 K
0 j
0 J
0.215 w
[]0 d
1647.143 1574.927 m
1756.295 1574.927 l
1767.167 1574.927 1775.807 1565.639 1776.455 1554.767 c
1783.439 1440.215 l
1784.015 1429.343 1774.367 1420.055 1763.279 1420.055 c
1647.143 1420.055 l
1636.055 1420.055 1626.983 1429.127 1626.983 1440.215 c
1626.983 1554.767 l
1626.983 1565.855 1636.199 1574.927 1647.143 1574.927 c
s
0.000 0.000 0.000 1.000 K
0 j
0 J
0.215 w
[]0 d
1482.695 1570.319 m
1473.335 1569.743 1467.503 1563.911 1466.927 1554.623 C
1460.015 1441.439 L
1460.591 1432.151 1466.423 1426.247 1475.711 1425.671 C
1591.631 1425.671 L
1600.847 1426.247 1606.751 1432.151 1607.327 1441.439 C
1607.327 1554.623 L
1606.751 1563.911 1600.919 1569.743 1591.631 1570.319 C
1482.695 1570.319 L
s
0.000 0.000 0.000 1.000 K
0 j
0 J
0.215 w
[]0 d
1756.223 1570.319 m
1765.583 1569.743 1771.415 1563.911 1771.991 1554.623 C
1778.903 1441.439 L
1778.327 1432.151 1772.495 1426.247 1763.207 1425.671 C
1647.287 1425.671 L
1638.071 1426.247 1632.167 1432.151 1631.591 1441.439 C
1631.591 1554.623 L
1632.167 1563.911 1637.999 1569.743 1647.287 1570.319 C
1756.223 1570.319 L
s
0.000 0.000 0.000 1.000 K
0 j
0 J
0.215 w
[]0 d
0.000 0.000 0.000 0.498 k
1790.783 1501.415 m
1813.823 1501.415 l
1816.415 1501.415 1818.503 1499.327 1818.503 1496.663 c
1818.503 1475.783 l
1818.503 1473.119 1816.415 1471.031 1813.823 1471.031 c
1790.783 1471.031 l
1788.119 1471.031 1786.031 1473.119 1786.031 1475.783 c
1786.031 1496.663 l
1786.031 1499.327 1788.119 1501.415 1790.783 1501.415 c
b
0.000 0.000 0.000 1.000 K
0 j
0 J
0.215 w
[]0 d
0.000 0.000 0.000 0.498 k
1448.783 1501.415 m
1425.743 1501.415 l
1423.151 1501.415 1421.063 1499.327 1421.063 1496.663 c
1421.063 1475.783 l
1421.063 1473.119 1423.151 1471.031 1425.743 1471.031 c
1448.783 1471.031 l
1451.447 1471.031 1453.535 1473.119 1453.535 1475.783 c
1453.535 1496.663 l
1453.535 1499.327 1451.447 1501.415 1448.783 1501.415 c
b
0.000 0.000 0.000 1.000 K
0 j
0 J
0.215 w
[]0 d
0.000 0.000 0.000 0.400 k
1788.983 1490.615 m
1814.831 1490.615 L
1814.831 1480.967 L
1788.983 1480.967 L
1788.983 1490.615 L
b
0.000 0.000 0.000 1.000 K
0 j
0 J
0.215 w
[]0 d
0.000 0.000 0.000 0.400 k
1450.583 1490.615 m
1424.735 1490.615 L
1424.735 1480.967 L
1450.583 1480.967 L
1450.583 1490.615 L
b
0.000 0.000 0.000 1.000 K
0 j
0 J
0.215 w
[]0 d
0.000 0.000 0.000 1.000 k
1788.983 1497.311 m
1794.743 1497.311 L
1794.743 1493.279 L
1788.983 1493.279 L
1788.983 1497.311 L
b
0.000 0.000 0.000 1.000 K
0 j
0 J
0.215 w
[]0 d
0.000 0.000 0.000 1.000 k
1450.583 1497.311 m
1444.823 1497.311 L
1444.823 1493.279 L
1450.583 1493.279 L
1450.583 1497.311 L
b
0.000 0.000 0.000 1.000 K
0 j
0 J
0.215 w
[]0 d
0.000 0.000 0.000 1.000 k
1788.983 1477.727 m
1794.743 1477.727 L
1794.743 1473.695 L
1788.983 1473.695 L
1788.983 1477.727 L
b
0.000 0.000 0.000 1.000 K
0 j
0 J
0.215 w
[]0 d
0.000 0.000 0.000 1.000 k
1450.583 1477.727 m
1444.823 1477.727 L
1444.823 1473.695 L
1450.583 1473.695 L
1450.583 1477.727 L
b
0.000 0.000 0.000 1.000 K
0 j
0 J
0.215 w
[]0 d
0.000 0.000 0.000 1.000 k
1809.071 1497.311 m
1814.831 1497.311 L
1814.831 1493.279 L
1809.071 1493.279 L
1809.071 1497.311 L
b
0.000 0.000 0.000 1.000 K
0 j
0 J
0.215 w
[]0 d
0.000 0.000 0.000 1.000 k
1430.495 1497.311 m
1424.735 1497.311 L
1424.735 1493.279 L
1430.495 1493.279 L
1430.495 1497.311 L
b
0.000 0.000 0.000 1.000 K
0 j
0 J
0.215 w
[]0 d
0.000 0.000 0.000 1.000 k
1809.071 1477.727 m
1814.831 1477.727 L
1814.831 1473.695 L
1809.071 1473.695 L
1809.071 1477.727 L
b
0.000 0.000 0.000 1.000 K
0 j
0 J
0.215 w
[]0 d
0.000 0.000 0.000 1.000 k
1430.495 1477.727 m
1424.735 1477.727 L
1424.735 1473.695 L
1430.495 1473.695 L
1430.495 1477.727 L
b
0.000 0.000 0.000 1.000 K
0 j
0 J
0.215 w
[]0 d
0.000 0.000 0.000 0.498 k
1447.775 1288.079 m
1408.391 1285.919 L
1405.007 1285.919 1402.199 1283.039 1402.199 1279.727 C
1405.079 1281.096 1407.887 1281.023 1410.767 1279.799 C
1415.087 1282.751 1419.695 1282.679 1424.303 1279.799 C
1444.895 1279.799 L
1448.927 1279.583 1449.935 1270.367 1444.751 1270.655 C
1424.447 1270.079 L
1420.055 1266.983 1413.144 1267.055 1410.479 1269.432 C
1407.743 1268.063 1404.503 1268.207 1401.911 1269.432 C
1401.911 1266.119 1404.791 1263.527 1408.103 1263.527 C
1447.775 1260.863 L
1451.159 1260.863 1453.967 1263.599 1453.967 1266.983 C
1453.967 1281.887 L
1453.967 1285.343 1451.159 1288.079 1447.775 1288.079 C
b
0.000 0.000 0.000 1.000 K
0 j
0 J
0.215 w
[]0 d
0.000 0.000 0.000 1.000 k
1445.759 1285.991 m
1444.391 1285.991 1443.239 1285.127 1443.239 1283.975 c
1443.239 1282.895 1444.391 1282.031 1445.759 1282.031 c
1447.127 1282.031 1448.279 1282.895 1448.279 1283.975 c
1448.279 1285.127 1447.127 1285.991 1445.759 1285.991 c
b
0.000 0.000 0.000 1.000 K
0 j
0 J
0.215 w
[]0 d
0.000 0.000 0.000 1.000 k
1445.471 1268.063 m
1444.103 1268.063 1442.951 1267.199 1442.951 1266.048 c
1442.951 1264.967 1444.103 1264.103 1445.471 1264.103 c
1446.839 1264.103 1447.991 1264.967 1447.991 1266.048 c
1447.991 1267.199 1446.839 1268.063 1445.471 1268.063 c
b
0.000 0.000 0.000 0.898 K
0 j
0 J
0.215 w
[]0 d
0.000 0.000 0.000 0.498 k
1852.127 1446.623 m
1871.279 1446.623 l
1875.239 1446.623 1878.191 1443.383 1878.407 1439.567 c
1880.279 1397.951 l
1880.495 1394.135 1877.039 1390.895 1873.223 1390.895 c
1853.855 1390.895 l
1850.039 1390.895 1846.871 1394.063 1846.799 1397.951 c
1845.071 1439.567 l
1844.927 1443.455 1848.239 1446.623 1852.127 1446.623 c
b
0.000 0.000 0.000 0.898 K
0 j
0 J
0.215 w
[]0 d
0.000 0.000 0.000 0.498 k
1387.727 1446.551 m
1368.575 1446.551 l
1364.615 1446.551 1361.663 1443.311 1361.447 1439.495 c
1359.575 1397.879 l
1359.359 1394.063 1362.815 1390.823 1366.631 1390.823 c
1386.000 1390.823 l
1389.815 1390.823 1392.983 1393.991 1393.055 1397.879 c
1394.783 1439.495 l
1394.927 1443.383 1391.615 1446.551 1387.727 1446.551 c
b
0.000 0.000 0.000 1.000 K
0 j
0 J
0.215 w
[]0 d
0.000 0.000 0.000 0.498 k
1841.759 1290.167 m
1813.463 1290.167 L
1809.143 1290.167 1805.615 1286.495 1805.615 1282.319 C
1805.615 1195.199 L
1805.615 1191.023 1809.287 1187.351 1813.463 1187.351 C
1830.671 1187.351 L
1834.703 1187.351 1838.087 1191.023 1838.519 1195.199 C
1843.631 1215.863 1848.815 1252.511 1849.607 1282.319 C
1850.039 1286.567 1846.079 1290.167 1841.759 1290.167 C
b
0.000 0.000 0.000 1.000 K
0 j
0 J
0.215 w
[]0 d
0.000 0.000 0.000 0.498 k
1791.791 1288.079 m
1831.175 1285.919 L
1834.559 1285.919 1837.367 1283.039 1837.367 1279.727 C
1834.487 1281.096 1831.679 1281.023 1828.799 1279.799 C
1824.479 1282.751 1819.871 1282.679 1815.263 1279.799 C
1794.671 1279.799 L
1790.639 1279.583 1789.631 1270.367 1794.815 1270.655 C
1815.119 1270.079 L
1819.511 1266.983 1826.423 1267.055 1829.087 1269.432 C
1831.823 1268.063 1835.063 1268.207 1837.655 1269.432 C
1837.655 1266.119 1834.775 1263.527 1831.463 1263.527 C
1791.791 1260.863 L
1788.407 1260.863 1785.599 1263.599 1785.599 1266.983 C
1785.599 1281.887 L
1785.599 1285.343 1788.407 1288.079 1791.791 1288.079 C
b
0.000 0.000 0.000 1.000 K
0 j
0 J
0.215 w
[]0 d
0.000 0.000 0.000 0.298 k
1398.959 1397.303 m
1424.951 1397.303 l
1426.679 1397.303 1428.119 1395.863 1428.119 1394.063 c
1428.119 1364.831 l
1428.119 1363.031 1426.679 1361.591 1424.951 1361.591 c
1398.959 1361.591 l
1397.159 1361.591 1395.719 1363.031 1395.719 1364.831 c
1395.719 1394.063 l
1395.719 1395.863 1397.159 1397.303 1398.959 1397.303 c
b
0.000 0.000 0.000 1.000 K
0 j
0 J
0.215 w
[]0 d
0.000 0.000 0.000 0.298 k
1251.000 1395.647 m
1276.991 1395.647 l
1278.719 1395.647 1280.159 1394.207 1280.159 1392.407 c
1280.159 1363.175 l
1280.159 1361.375 1278.719 1359.935 1276.991 1359.935 c
1251.000 1359.935 l
1249.199 1359.935 1247.759 1361.375 1247.759 1363.175 c
1247.759 1392.407 l
1247.759 1394.207 1249.199 1395.647 1251.000 1395.647 c
b
0.000 0.000 0.000 1.000 K
0 j
0 J
0.215 w
[]0 d
0.000 0.000 0.000 0.200 k
1399.391 1358.567 m
1424.591 1358.567 l
1426.319 1358.567 1427.759 1357.055 1427.759 1355.327 c
1427.759 1347.263 l
1427.759 1345.535 1426.319 1344.023 1424.591 1344.023 c
1399.391 1344.023 l
1397.735 1344.023 1396.295 1345.463 1396.295 1347.263 c
1396.295 1355.327 l
1396.295 1357.127 1397.663 1358.567 1399.391 1358.567 c
b
0.000 0.000 0.000 1.000 K
0 j
0 J
0.215 w
[]0 d
0.000 0.000 0.000 0.200 k
1251.215 1356.767 m
1276.415 1356.767 l
1278.144 1356.767 1279.583 1355.255 1279.583 1353.527 c
1279.583 1345.463 l
1279.583 1343.735 1278.144 1342.223 1276.415 1342.223 c
1251.215 1342.223 l
1249.559 1342.223 1248.119 1343.663 1248.119 1345.463 c
1248.119 1353.527 l
1248.119 1355.327 1249.487 1356.767 1251.215 1356.767 c
b
0.000 0.000 0.000 1.000 K
0 j
0 J
0.215 w
[]0 d
0.000 0.000 0.000 0.000 k
1399.391 1340.855 m
1424.591 1340.855 l
1426.319 1340.855 1427.759 1339.343 1427.759 1337.615 c
1427.759 1329.551 l
1427.759 1327.823 1426.319 1326.311 1424.591 1326.311 c
1399.391 1326.311 l
1397.735 1326.311 1396.295 1327.751 1396.295 1329.551 c
1396.295 1337.615 l
1396.295 1339.415 1397.663 1340.855 1399.391 1340.855 c
b
0.000 0.000 0.000 1.000 K
0 j
0 J
0.215 w
[]0 d
0.000 0.000 0.000 0.000 k
1251.215 1339.271 m
1276.415 1339.271 l
1278.144 1339.271 1279.583 1337.759 1279.583 1336.031 c
1279.583 1327.967 l
1279.583 1326.240 1278.144 1324.727 1276.415 1324.727 c
1251.215 1324.727 l
1249.559 1324.727 1248.119 1326.167 1248.119 1327.967 c
1248.119 1336.031 l
1248.119 1337.831 1249.487 1339.271 1251.215 1339.271 c
b
0.000 0.000 0.000 1.000 K
0 j
0 J
0.215 w
[]0 d
0.000 0.000 0.000 0.298 k
1399.391 1323.575 m
1424.591 1323.575 l
1426.319 1323.575 1427.759 1322.063 1427.759 1320.336 c
1427.759 1312.271 l
1427.759 1310.543 1426.319 1309.031 1424.591 1309.031 c
1399.391 1309.031 l
1397.735 1309.031 1396.295 1310.471 1396.295 1312.271 c
1396.295 1320.336 l
1396.295 1322.135 1397.663 1323.575 1399.391 1323.575 c
b
0.000 0.000 0.000 1.000 K
0 j
0 J
0.215 w
[]0 d
0.000 0.000 0.000 0.298 k
1251.215 1321.991 m
1276.415 1321.991 l
1278.144 1321.991 1279.583 1320.479 1279.583 1318.751 c
1279.583 1310.687 l
1279.583 1308.959 1278.144 1307.447 1276.415 1307.447 c
1251.215 1307.447 l
1249.559 1307.447 1248.119 1308.887 1248.119 1310.687 c
1248.119 1318.751 l
1248.119 1320.551 1249.487 1321.991 1251.215 1321.991 c
b
0.000 0.000 0.000 1.000 K
0 j
0 J
0.215 w
[]0 d
0.000 0.000 0.000 0.498 k
1391.399 560.735 m
1624.895 560.807 L
1624.895 560.735 L
1847.951 560.663 L
1845.791 526.535 1840.751 493.703 1826.999 464.615 C
1819.583 446.975 1799.207 473.039 1772.135 471.887 C
1614.887 470.951 L
1614.887 471.023 L
1467.143 471.887 L
1440.143 473.039 1419.695 447.047 1412.351 464.615 C
1398.527 493.703 1393.559 526.607 1391.399 560.735 C
b
0.000 0.000 0.000 1.000 K
0 j
0 J
0.215 w
[]0 d
0.000 0.000 0.000 0.298 k
1460.663 465.479 m
1522.151 465.479 L
1522.151 454.895 L
1460.663 454.895 L
1460.663 465.479 L
b
0.000 0.000 0.000 1.000 K
0 j
0 J
0.215 w
[]0 d
0.000 0.000 0.000 0.298 k
1714.391 465.479 m
1775.879 465.479 L
1775.879 454.895 L
1714.391 454.895 L
1714.391 465.479 L
b
u
u
0.000 0.000 0.000 1.000 K
0 j
0 J
0.215 w
[]0 d
1522.439 542.879 m
1719.431 542.879 L
S
U
U
u
u
0.000 0.000 0.000 1.000 K
0 j
0 J
0.215 w
[]0 d
1425.023 526.751 m
1823.543 526.751 L
S
U
U
u
u
0.000 0.000 0.000 1.000 K
0 j
0 J
0.215 w
[]0 d
1425.743 511.775 m
1822.751 512.783 L
S
U
U
u
u
0.000 0.000 0.000 1.000 K
0 j
0 J
0.215 w
[]0 d
1425.023 495.647 m
1823.543 495.647 L
S
U
U
0.000 0.000 0.000 1.000 K
0 j
0 J
0.215 w
[]0 d
0.000 0.000 0.000 0.498 k
1823.543 687.743 m
1688.327 678.887 1553.039 679.463 1417.535 687.743 C
1435.679 821.879 L
1436.831 828.575 1443.167 833.759 1449.575 833.687 C
1792.583 833.687 L
1800.143 833.327 1804.391 829.223 1805.399 821.879 C
1823.543 687.743 L
b
0.000 0.000 0.000 1.000 K
0 j
0 J
0.215 w
[]0 d
0.000 0.000 0.000 0.200 k
1772.639 689.471 m
1717.847 687.024 1662.767 685.727 1608.047 685.943 C
1546.415 686.159 1484.279 688.463 1422.791 692.063 C
1440.215 821.159 L
1441.295 825.839 1445.039 828.935 1449.719 829.223 C
1792.583 829.223 L
1798.127 828.935 1799.855 826.343 1801.007 821.231 C
1818.431 691.991 L
1803.311 691.127 1787.831 690.191 1772.639 689.471 C
b
0.000 0.000 0.000 1.000 K
0 j
0 J
0.215 w
[]0 d
0.000 0.000 0.000 0.498 k
1469.015 942.191 m
1465.631 942.191 L
1451.519 834.335 L
1454.903 834.335 L
1469.015 942.191 L
b
0.000 0.000 0.000 1.000 K
0 j
0 J
0.215 w
[]0 d
0.000 0.000 0.000 0.498 k
1773.791 942.191 m
1777.175 942.191 L
1791.287 834.335 L
1787.903 834.335 L
1773.791 942.191 L
b
u
u
0.000 0.000 0.000 1.000 K
0 j
0 J
0.215 w
[]0 d
1419.695 846.575 m
1430.495 844.343 1434.311 837.935 1431.431 827.279 C
1412.711 682.775 L
1407.311 644.327 1402.847 601.271 1406.663 562.823 C
S
U
U
u
u
0.000 0.000 0.000 1.000 K
0 j
0 J
0.215 w
[]0 d
1820.159 846.575 m
1809.359 844.343 1805.543 837.935 1808.423 827.279 C
1827.143 682.775 L
1832.543 644.327 1837.007 601.271 1833.191 562.823 C
S
U
U
0.000 0.000 0.000 1.000 K
0 j
0 J
0.215 w
[]0 d
0.000 0.000 0.000 0.200 k
1418.039 829.079 m
1428.839 826.055 L
1410.839 685.583 L
1406.159 653.831 L
1396.007 663.983 L
1399.031 687.671 L
1418.039 829.079 L
b
0.000 0.000 0.000 1.000 K
0 j
0 J
0.215 w
[]0 d
0.000 0.000 0.000 0.200 k
1821.959 829.079 m
1811.159 826.055 L
1829.159 685.583 L
1840.967 687.671 L
1821.959 829.079 L
b
u
u
0.000 0.000 0.000 1.000 K
0 j
0 J
0.215 w
[]0 d
1394.783 591.048 m
1408.463 589.103 1419.263 585.647 1428.191 581.255 C
S
U
U
u
u
0.000 0.000 0.000 1.000 K
0 j
0 J
0.215 w
[]0 d
1845.071 591.048 m
1831.391 589.103 1820.591 585.647 1811.663 581.255 C
S
U
U
u
u
0.000 0.000 0.000 1.000 K
0 j
0 J
0.215 w
[]0 d
1394.783 584.351 m
1408.463 582.407 1419.263 578.951 1428.191 574.559 C
S
U
U
u
u
0.000 0.000 0.000 1.000 K
0 j
0 J
0.215 w
[]0 d
1845.071 584.351 m
1831.391 582.407 1820.591 578.951 1811.663 574.559 C
S
U
U
u
u
0.000 0.000 0.000 1.000 K
0 j
0 J
0.215 w
[]0 d
1843.631 662.039 m
1835.135 644.903 L
S
U
U
0.000 0.000 0.000 1.000 K
0 j
0 J
0.215 w
[]0 d
0.000 0.000 0.000 0.600 k
1417.247 611.279 m
1417.175 615.527 1419.479 617.831 1424.375 618.048 C
1504.511 618.048 L
1510.487 617.975 1514.735 616.031 1517.327 611.927 C
1526.183 589.103 L
1415.591 589.103 L
1417.247 611.279 L
b
0.000 0.000 0.000 1.000 K
0 j
0 J
0.215 w
[]0 d
0.000 0.000 0.000 0.600 k
1825.055 611.279 m
1825.127 615.527 1822.823 617.831 1817.927 618.048 C
1737.791 618.048 L
1731.815 617.975 1727.567 616.031 1724.975 611.927 C
1716.119 589.103 L
1826.711 589.103 L
1825.055 611.279 L
b
0.000 0.000 0.000 1.000 K
0 j
0 J
0.215 w
[]0 d
0.000 0.000 0.000 0.000 k
1451.951 615.815 m
1504.583 615.815 L
1509.263 615.599 1512.431 614.735 1515.311 610.919 C
1522.943 591.335 L
1452.023 591.335 L
1451.951 615.815 L
b
0.000 0.000 0.000 1.000 K
0 j
0 J
0.215 w
[]0 d
0.000 0.000 0.000 0.000 k
1790.423 615.815 m
1737.791 615.815 L
1733.111 615.599 1729.943 614.735 1727.063 610.919 C
1719.431 591.335 L
1790.351 591.335 L
1790.423 615.815 L
b
0.000 0.000 0.000 1.000 K
0 j
0 J
0.215 w
[]0 d
0.000 0.000 0.000 0.200 k
1420.127 614.015 m
1421.135 615.311 1422.863 615.671 1424.519 615.815 C
1449.215 615.815 L
1449.143 591.335 L
1418.039 591.335 L
1419.551 611.135 L
1419.551 612.216 1419.695 613.007 1420.127 614.015 C
b
0.000 0.000 0.000 1.000 K
0 j
0 J
0.215 w
[]0 d
0.000 0.000 0.000 0.200 k
1822.247 614.015 m
1821.239 615.311 1819.511 615.671 1817.855 615.815 C
1793.159 615.815 L
1793.231 591.335 L
1824.335 591.335 L
1822.823 611.135 L
1822.823 612.216 1822.679 613.007 1822.247 614.015 C
b
u
u
0.000 0.000 0.000 1.000 K
0 j
0 J
0.215 w
[]0 d
1417.607 621.216 m
1822.535 621.216 L
S
U
U
u
u
0.000 0.000 0.000 1.000 K
0 j
0 J
0.215 w
[]0 d
1436.759 683.423 m
1444.679 667.943 1450.223 648.647 1451.663 622.223 C
S
U
U
u
u
0.000 0.000 0.000 1.000 K
0 j
0 J
0.215 w
[]0 d
1805.615 683.423 m
1797.695 667.943 1792.151 648.647 1790.711 622.223 C
S
U
U
u
u
0.000 0.000 0.000 1.000 K
0 j
0 J
0.215 w
[]0 d
1450.799 587.663 m
1450.799 561.527 L
S
U
U
0.000 0.000 0.000 1.000 K
0 j
0 J
0.215 w
[]0 d
631.295 1571.759 m
879.551 1571.759 l
883.943 1571.759 887.543 1568.159 887.543 1563.839 c
887.543 1544.255 l
887.543 1539.863 883.943 1536.263 879.551 1536.263 c
631.295 1536.263 l
626.975 1536.263 623.375 1539.863 623.375 1544.255 c
623.375 1563.839 l
623.375 1568.159 626.975 1571.759 631.295 1571.759 c
s
0.000 0.000 0.000 1.000 K
0 j
0 J
0.215 w
[]0 d
514.151 1571.759 m
595.943 1571.759 l
600.335 1571.759 603.935 1568.159 603.935 1563.839 c
603.935 1544.255 l
603.935 1539.863 600.335 1536.263 595.943 1536.263 c
514.151 1536.263 l
509.831 1536.263 506.231 1539.863 506.231 1544.255 c
506.231 1563.839 l
506.231 1568.159 509.831 1571.759 514.151 1571.759 c
s
0.000 0.000 0.000 1.000 K
0 j
0 J
0.215 w
[]0 d
879.479 1569.455 m
882.935 1569.167 885.023 1567.079 885.311 1563.623 C
885.311 1544.255 L
885.023 1540.799 882.935 1538.783 879.479 1538.495 C
631.439 1538.495 L
627.983 1538.783 625.967 1540.871 625.679 1544.255 C
625.679 1563.623 L
625.967 1567.079 627.983 1569.167 631.439 1569.455 C
879.479 1569.455 L
s
0.000 0.000 0.000 1.000 K
0 j
0 J
0.215 w
[]0 d
595.799 1569.455 m
599.255 1569.167 601.343 1567.079 601.631 1563.623 C
601.631 1544.255 L
601.343 1540.799 599.255 1538.783 595.799 1538.495 C
514.295 1538.495 L
510.839 1538.783 508.823 1540.871 508.535 1544.255 C
508.535 1563.623 L
508.823 1567.079 510.839 1569.167 514.295 1569.455 C
595.799 1569.455 L
s
0.000 0.000 0.000 1.000 K
0 j
0 J
0.215 w
[]0 d
917.567 1571.759 m
1229.615 1571.759 l
1234.007 1571.759 1237.535 1568.159 1237.535 1563.839 c
1237.535 1544.255 l
1237.535 1539.863 1234.007 1536.263 1229.615 1536.263 c
917.567 1536.263 l
913.247 1536.263 909.647 1539.863 909.647 1544.255 c
909.647 1563.839 l
909.647 1568.159 913.247 1571.759 917.567 1571.759 c
s
0.000 0.000 0.000 1.000 K
0 j
0 J
0.215 w
[]0 d
1229.543 1569.455 m
1233.000 1569.167 1235.087 1567.079 1235.375 1563.623 C
1235.375 1544.255 L
1235.087 1540.799 1233.000 1538.783 1229.543 1538.495 C
917.711 1538.495 L
914.255 1538.783 912.167 1540.871 911.879 1544.255 C
911.879 1563.623 L
912.167 1567.079 914.255 1569.167 917.711 1569.455 C
1229.543 1569.455 L
s
0.000 0.000 0.000 1.000 K
0 j
0 J
0.215 w
[]0 d
0.000 0.000 0.000 1.000 k
459.647 1367.135 m
459.935 1367.207 L
460.151 1367.207 460.295 1367.495 460.295 1367.495 C
460.295 1367.567 L
460.367 1367.855 L
460.367 1392.911 L
460.295 1393.271 L
460.295 1393.271 460.007 1393.631 460.007 1393.631 C
459.935 1393.631 L
459.647 1393.703 L
448.559 1393.703 L
448.199 1393.631 L
448.199 1393.631 447.839 1393.343 447.839 1393.343 C
447.839 1393.271 L
447.839 1392.911 L
447.839 1367.855 L
447.839 1367.567 L
447.839 1367.423 448.127 1367.279 448.127 1367.207 C
456.479 1367.207 451.151 1367.135 459.647 1367.135 C
b
0.000 0.000 0.000 1.000 K
0 j
0 J
0.215 w
[]0 d
0.000 0.000 0.000 0.400 k
1638.647 1368.719 m
1638.935 1368.791 L
1639.151 1368.791 1639.295 1369.079 1639.295 1369.079 C
1639.295 1369.151 L
1639.367 1369.439 L
1639.367 1394.495 L
1639.295 1394.855 L
1639.295 1394.855 1639.007 1395.215 1639.007 1395.215 C
1638.935 1395.215 L
1638.647 1395.287 L
1627.559 1395.287 L
1627.199 1395.215 L
1627.199 1395.215 1626.839 1394.927 1626.839 1394.927 C
1626.839 1394.855 L
1626.839 1394.495 L
1626.839 1369.439 L
1626.839 1369.151 L
1626.839 1369.007 1627.127 1368.863 1627.127 1368.791 C
1635.479 1368.791 1630.151 1368.719 1638.647 1368.719 C
b
0.000 0.000 0.000 1.000 K
0 j
0 J
0.215 w
[]0 d
0.000 0.000 0.000 0.498 k
457.343 1369.367 m
457.343 1391.399 L
449.999 1391.399 L
449.999 1369.439 L
457.415 1369.439 449.927 1369.367 457.343 1369.367 C
b
0.000 0.000 0.000 1.000 K
0 j
0 J
0.215 w
[]0 d
0.000 0.000 0.000 0.298 k
1636.415 1371.023 m
1636.415 1393.055 L
1629.071 1393.055 L
1629.071 1371.096 L
1636.487 1371.096 1628.999 1371.023 1636.415 1371.023 C
b
0.000 0.000 0.000 1.000 K
0 j
0 J
0.215 w
[]0 d
0.000 0.000 0.000 0.400 k
407.159 652.823 m
160.631 652.823 l
158.111 652.823 156.167 650.879 156.167 648.359 c
156.167 640.583 l
156.167 638.063 158.111 636.120 160.631 636.120 c
407.159 636.120 l
409.679 636.120 411.623 638.063 411.623 640.583 c
411.623 648.359 l
411.623 650.879 409.679 652.823 407.159 652.823 c
b
0.000 0.000 0.000 1.000 K
0 j
0 J
0.215 w
[]0 d
0.000 0.000 0.000 1.000 k
407.159 652.823 m
160.559 652.823 l
158.111 652.823 156.167 650.807 156.167 648.359 c
156.167 648.072 l
156.167 645.623 158.183 643.607 160.559 643.607 c
407.159 643.607 l
409.607 643.607 411.623 645.551 411.623 648.072 c
411.623 648.359 l
411.623 650.879 409.607 652.823 407.159 652.823 c
b
0.000 0.000 0.000 1.000 K
0 j
0 J
0.215 w
[]0 d
0.000 0.000 0.000 0.200 k
1564.127 471.239 m
1681.559 471.239 L
1681.559 496.151 L
1564.127 496.151 L
1564.127 471.239 L
b
u
u
0.000 0.000 0.000 1.000 K
0 j
0 J
0.215 w
[]0 d
1524.239 558.144 m
1524.239 545.039 L
S
U
U
u
u
0.000 0.000 0.000 1.000 K
0 j
0 J
0.215 w
[]0 d
1428.911 526.967 m
1428.911 513.863 L
S
U
U
u
u
0.000 0.000 0.000 1.000 K
0 j
0 J
0.215 w
[]0 d
1428.911 511.271 m
1428.911 498.167 L
S
U
U
u
u
0.000 0.000 0.000 1.000 K
0 j
0 J
0.215 w
[]0 d
1444.391 526.967 m
1444.391 513.863 L
S
U
U
u
u
0.000 0.000 0.000 1.000 K
0 j
0 J
0.215 w
[]0 d
1444.391 511.271 m
1444.391 498.167 L
S
U
U
u
u
0.000 0.000 0.000 1.000 K
0 j
0 J
0.215 w
[]0 d
1460.015 526.967 m
1460.015 513.863 L
S
U
U
u
u
0.000 0.000 0.000 1.000 K
0 j
0 J
0.215 w
[]0 d
1460.015 511.271 m
1460.015 498.167 L
S
U
U
u
u
0.000 0.000 0.000 1.000 K
0 j
0 J
0.215 w
[]0 d
1475.495 526.967 m
1475.495 513.863 L
S
U
U
u
u
0.000 0.000 0.000 1.000 K
0 j
0 J
0.215 w
[]0 d
1475.495 511.271 m
1475.495 498.167 L
S
U
U
u
u
0.000 0.000 0.000 1.000 K
0 j
0 J
0.215 w
[]0 d
1491.119 526.967 m
1491.119 513.863 L
S
U
U
u
u
0.000 0.000 0.000 1.000 K
0 j
0 J
0.215 w
[]0 d
1491.119 511.271 m
1491.119 498.167 L
S
U
U
u
u
0.000 0.000 0.000 1.000 K
0 j
0 J
0.215 w
[]0 d
1506.599 526.967 m
1506.599 513.863 L
S
U
U
u
u
0.000 0.000 0.000 1.000 K
0 j
0 J
0.215 w
[]0 d
1506.599 511.271 m
1506.599 498.167 L
S
U
U
u
u
0.000 0.000 0.000 1.000 K
0 j
0 J
0.215 w
[]0 d
1522.223 526.967 m
1522.223 513.863 L
S
U
U
u
u
0.000 0.000 0.000 1.000 K
0 j
0 J
0.215 w
[]0 d
1522.223 511.271 m
1522.223 498.167 L
S
U
U
u
u
0.000 0.000 0.000 1.000 K
0 j
0 J
0.215 w
[]0 d
1537.703 526.967 m
1537.703 513.863 L
S
U
U
u
u
0.000 0.000 0.000 1.000 K
0 j
0 J
0.215 w
[]0 d
1537.703 511.271 m
1537.703 498.167 L
S
U
U
u
u
0.000 0.000 0.000 1.000 K
0 j
0 J
0.215 w
[]0 d
1553.327 526.967 m
1553.327 513.863 L
S
U
U
u
u
0.000 0.000 0.000 1.000 K
0 j
0 J
0.215 w
[]0 d
1553.327 511.271 m
1553.327 498.167 L
S
U
U
u
u
0.000 0.000 0.000 1.000 K
0 j
0 J
0.215 w
[]0 d
1568.807 526.967 m
1568.807 513.863 L
S
U
U
u
u
0.000 0.000 0.000 1.000 K
0 j
0 J
0.215 w
[]0 d
1568.807 511.271 m
1568.807 498.167 L
S
U
U
u
u
0.000 0.000 0.000 1.000 K
0 j
0 J
0.215 w
[]0 d
1584.431 526.967 m
1584.431 513.863 L
S
U
U
u
u
0.000 0.000 0.000 1.000 K
0 j
0 J
0.215 w
[]0 d
1584.431 511.271 m
1584.431 498.167 L
S
U
U
u
u
0.000 0.000 0.000 1.000 K
0 j
0 J
0.215 w
[]0 d
1599.911 526.967 m
1599.911 513.863 L
S
U
U
u
u
0.000 0.000 0.000 1.000 K
0 j
0 J
0.215 w
[]0 d
1599.911 511.271 m
1599.911 498.167 L
S
U
U
u
u
0.000 0.000 0.000 1.000 K
0 j
0 J
0.215 w
[]0 d
1615.535 526.967 m
1615.535 513.863 L
S
U
U
u
u
0.000 0.000 0.000 1.000 K
0 j
0 J
0.215 w
[]0 d
1615.535 511.271 m
1615.535 498.167 L
S
U
U
u
u
0.000 0.000 0.000 1.000 K
0 j
0 J
0.215 w
[]0 d
1631.015 526.967 m
1631.015 513.863 L
S
U
U
u
u
0.000 0.000 0.000 1.000 K
0 j
0 J
0.215 w
[]0 d
1631.015 511.271 m
1631.015 498.167 L
S
U
U
u
u
0.000 0.000 0.000 1.000 K
0 j
0 J
0.215 w
[]0 d
1646.639 526.967 m
1646.639 513.863 L
S
U
U
u
u
0.000 0.000 0.000 1.000 K
0 j
0 J
0.215 w
[]0 d
1646.639 511.271 m
1646.639 498.167 L
S
U
U
u
u
0.000 0.000 0.000 1.000 K
0 j
0 J
0.215 w
[]0 d
1662.119 526.967 m
1662.119 513.863 L
S
U
U
u
u
0.000 0.000 0.000 1.000 K
0 j
0 J
0.215 w
[]0 d
1662.119 511.271 m
1662.119 498.167 L
S
U
U
u
u
0.000 0.000 0.000 1.000 K
0 j
0 J
0.215 w
[]0 d
1677.743 526.967 m
1677.743 513.863 L
S
U
U
u
u
0.000 0.000 0.000 1.000 K
0 j
0 J
0.215 w
[]0 d
1677.743 511.271 m
1677.743 498.167 L
S
U
U
u
u
0.000 0.000 0.000 1.000 K
0 j
0 J
0.215 w
[]0 d
1693.223 526.967 m
1693.223 513.863 L
S
U
U
u
u
0.000 0.000 0.000 1.000 K
0 j
0 J
0.215 w
[]0 d
1693.223 511.271 m
1693.223 498.167 L
S
U
U
u
u
0.000 0.000 0.000 1.000 K
0 j
0 J
0.215 w
[]0 d
1708.847 526.967 m
1708.847 513.863 L
S
U
U
u
u
0.000 0.000 0.000 1.000 K
0 j
0 J
0.215 w
[]0 d
1708.847 511.271 m
1708.847 498.167 L
S
U
U
u
u
0.000 0.000 0.000 1.000 K
0 j
0 J
0.215 w
[]0 d
1724.327 526.967 m
1724.327 513.863 L
S
U
U
u
u
0.000 0.000 0.000 1.000 K
0 j
0 J
0.215 w
[]0 d
1724.327 511.271 m
1724.327 498.167 L
S
U
U
u
u
0.000 0.000 0.000 1.000 K
0 j
0 J
0.215 w
[]0 d
1739.951 526.967 m
1739.951 513.863 L
S
U
U
u
u
0.000 0.000 0.000 1.000 K
0 j
0 J
0.215 w
[]0 d
1739.951 511.271 m
1739.951 498.167 L
S
U
U
u
u
0.000 0.000 0.000 1.000 K
0 j
0 J
0.215 w
[]0 d
1755.431 526.967 m
1755.431 513.863 L
S
U
U
u
u
0.000 0.000 0.000 1.000 K
0 j
0 J
0.215 w
[]0 d
1755.431 511.271 m
1755.431 498.167 L
S
U
U
u
u
0.000 0.000 0.000 1.000 K
0 j
0 J
0.215 w
[]0 d
1771.055 526.967 m
1771.055 513.863 L
S
U
U
u
u
0.000 0.000 0.000 1.000 K
0 j
0 J
0.215 w
[]0 d
1771.055 511.271 m
1771.055 498.167 L
S
U
U
u
u
0.000 0.000 0.000 1.000 K
0 j
0 J
0.215 w
[]0 d
1786.535 526.967 m
1786.535 513.863 L
S
U
U
u
u
0.000 0.000 0.000 1.000 K
0 j
0 J
0.215 w
[]0 d
1786.535 511.271 m
1786.535 498.167 L
S
U
U
u
u
0.000 0.000 0.000 1.000 K
0 j
0 J
0.215 w
[]0 d
1802.159 526.967 m
1802.159 513.863 L
S
U
U
u
u
0.000 0.000 0.000 1.000 K
0 j
0 J
0.215 w
[]0 d
1802.159 511.271 m
1802.159 498.167 L
S
U
U
u
u
0.000 0.000 0.000 1.000 K
0 j
0 J
0.215 w
[]0 d
1817.639 526.967 m
1817.639 513.863 L
S
U
U
u
u
0.000 0.000 0.000 1.000 K
0 j
0 J
0.215 w
[]0 d
1817.639 511.271 m
1817.639 498.167 L
S
U
U
u
u
0.000 0.000 0.000 1.000 K
0 j
0 J
0.215 w
[]0 d
1540.367 558.144 m
1540.367 545.039 L
S
U
U
u
u
0.000 0.000 0.000 1.000 K
0 j
0 J
0.215 w
[]0 d
1556.351 558.144 m
1556.351 545.039 L
S
U
U
u
u
0.000 0.000 0.000 1.000 K
0 j
0 J
0.215 w
[]0 d
1572.407 558.144 m
1572.407 545.039 L
S
U
U
u
u
0.000 0.000 0.000 1.000 K
0 j
0 J
0.215 w
[]0 d
1588.535 558.144 m
1588.535 545.039 L
S
U
U
u
u
0.000 0.000 0.000 1.000 K
0 j
0 J
0.215 w
[]0 d
1604.663 558.144 m
1604.663 545.039 L
S
U
U
u
u
0.000 0.000 0.000 1.000 K
0 j
0 J
0.215 w
[]0 d
1620.647 558.144 m
1620.647 545.039 L
S
U
U
u
u
0.000 0.000 0.000 1.000 K
0 j
0 J
0.215 w
[]0 d
1636.703 558.144 m
1636.703 545.039 L
S
U
U
u
u
0.000 0.000 0.000 1.000 K
0 j
0 J
0.215 w
[]0 d
1652.831 558.144 m
1652.831 545.039 L
S
U
U
u
u
0.000 0.000 0.000 1.000 K
0 j
0 J
0.215 w
[]0 d
1668.959 558.144 m
1668.959 545.039 L
S
U
U
u
u
0.000 0.000 0.000 1.000 K
0 j
0 J
0.215 w
[]0 d
1684.943 558.144 m
1684.943 545.039 L
S
U
U
u
u
0.000 0.000 0.000 1.000 K
0 j
0 J
0.215 w
[]0 d
1700.999 558.144 m
1700.999 545.039 L
S
U
U
u
u
0.000 0.000 0.000 1.000 K
0 j
0 J
0.215 w
[]0 d
1717.127 558.144 m
1717.127 545.039 L
S
U
U
0.000 0.000 0.000 1.000 K
0 j
0 J
0.215 w
[]0 d
0.000 0.000 0.000 0.498 k
1449.431 1360.151 m
1608.839 1360.151 L
1608.839 1349.063 L
1449.431 1349.063 L
1449.431 1360.151 L
b
0.000 0.000 0.000 1.000 K
0 j
0 J
0.215 w
[]0 d
1459.799 1348.487 m
1598.255 1348.487 L
1598.255 1317.023 L
1459.799 1317.023 L
1459.799 1348.487 L
s
u
u
0.000 0.000 0.000 1.000 K
0 j
0 J
0.215 w
[]0 d
1449.935 1347.983 m
1458.000 1317.671 L
S
U
U
u
u
0.000 0.000 0.000 1.000 K
0 j
0 J
0.215 w
[]0 d
1608.263 1346.759 m
1600.703 1317.023 L
S
U
U
u
u
0.000 0.000 0.000 1.000 K
0 j
0 J
0.215 w
[]0 d
1442.879 1664.567 m
1796.111 1664.567 L
S
U
U
u
u
0.000 0.000 0.000 1.000 K
0 j
0 J
0.215 w
[]0 d
1442.879 1662.263 m
1796.111 1662.263 L
S
U
U
0.000 0.000 0.000 1.000 K
0 j
0 J
0.215 w
[]0 d
0.000 0.000 0.000 1.000 k
1793.663 1285.991 m
1795.031 1285.991 1796.183 1285.127 1796.183 1283.975 c
1796.183 1282.895 1795.031 1282.031 1793.663 1282.031 c
1792.295 1282.031 1791.143 1282.895 1791.143 1283.975 c
1791.143 1285.127 1792.295 1285.991 1793.663 1285.991 c
b
0.000 0.000 0.000 1.000 K
0 j
0 J
0.215 w
[]0 d
0.000 0.000 0.000 1.000 k
1794.023 1268.063 m
1795.391 1268.063 1796.543 1267.199 1796.543 1266.048 c
1796.543 1264.967 1795.391 1264.103 1794.023 1264.103 c
1792.655 1264.103 1791.503 1264.967 1791.503 1266.048 c
1791.503 1267.199 1792.655 1268.063 1794.023 1268.063 c
b
0.000 0.000 0.000 0.898 K
0 j
0 J
0.215 w
[]0 d
0.000 0.000 0.000 0.498 k
268.847 1445.183 m
259.847 1445.183 l
255.959 1445.183 252.791 1441.799 252.791 1438.127 c
252.791 1396.511 l
252.791 1392.911 256.247 1389.455 259.919 1389.455 c
269.063 1389.455 l
272.663 1389.455 276.120 1392.623 276.120 1396.511 c
275.903 1438.127 l
275.903 1442.015 272.735 1445.183 268.847 1445.183 c
b
0.000 0.000 0.000 1.000 k
735.911 356.327 m
735.911 357.335 736.127 358.847 736.775 359.711 c
737.495 360.647 738.503 361.079 739.583 361.079 c
741.599 361.079 742.247 360.000 742.247 358.199 c
742.247 349.631 L
743.687 349.631 L
743.687 356.327 l
743.687 357.335 743.831 358.847 744.479 359.711 c
745.199 360.647 746.207 361.079 747.287 361.079 c
749.303 361.079 749.951 360.000 749.951 358.199 c
749.951 349.631 L
751.391 349.631 L
751.391 357.479 l
751.391 360.000 750.887 362.375 747.503 362.375 c
745.703 362.375 744.263 361.583 743.471 360.000 C
742.967 361.295 742.103 362.375 739.799 362.375 c
738.215 362.375 736.703 361.583 735.983 360.215 C
735.911 360.215 L
735.911 362.015 L
734.471 362.015 L
734.471 349.631 L
735.911 349.631 L
735.911 356.327 l
f
0.000 0.000 0.000 1.000 k
715.967 356.327 m
715.967 357.335 716.183 358.847 716.831 359.711 c
717.551 360.647 718.559 361.079 719.639 361.079 c
721.655 361.079 722.303 360.000 722.303 358.199 c
722.303 349.631 L
723.743 349.631 L
723.743 356.327 l
723.743 357.335 723.887 358.847 724.535 359.711 c
725.255 360.647 726.263 361.079 727.343 361.079 c
729.359 361.079 730.007 360.000 730.007 358.199 c
730.007 349.631 L
731.447 349.631 L
731.447 357.479 l
731.447 360.000 730.943 362.375 727.559 362.375 c
725.759 362.375 724.319 361.583 723.527 360.000 C
723.024 361.295 722.159 362.375 719.855 362.375 c
718.271 362.375 716.759 361.583 716.039 360.215 C
715.967 360.215 L
715.967 362.015 L
714.527 362.015 L
714.527 349.631 L
715.967 349.631 L
715.967 356.327 l
f
0.000 0.000 0.000 1.000 k
699.695 366.551 m
694.799 366.551 693.935 362.231 693.935 357.983 c
693.935 353.303 695.015 349.199 699.695 349.199 c
704.303 349.199 705.383 353.303 705.383 357.767 c
705.383 361.727 704.663 366.551 699.695 366.551 c
f
0.000 0.000 0.000 1.000 k
686.375 366.551 m
681.479 366.551 680.615 362.231 680.615 357.983 c
680.615 353.303 681.695 349.199 686.375 349.199 c
690.983 349.199 692.063 353.303 692.063 357.767 c
692.063 361.727 691.343 366.551 686.375 366.551 c
f
0.000 0.000 0.000 1.000 k
658.367 357.767 m
661.319 357.983 663.695 357.119 663.767 354.383 c
663.911 352.439 662.039 350.567 659.591 350.567 c
657.072 350.567 655.415 351.935 655.415 354.527 C
653.831 354.527 L
654.192 350.567 655.991 349.199 659.879 349.199 c
663.335 349.343 665.279 351.647 665.279 354.455 c
665.279 355.967 664.775 357.839 662.327 358.631 C
663.983 359.279 664.703 360.647 664.703 362.375 c
664.703 365.183 662.543 366.551 659.879 366.551 c
658.511 366.551 657.144 366.335 656.063 365.399 c
654.911 364.319 654.407 363.095 654.407 361.583 C
655.991 361.583 L
655.991 363.743 657.431 365.255 659.591 365.255 c
661.535 365.255 663.191 364.319 663.191 362.231 c
663.191 359.711 661.175 358.991 658.367 359.063 C
658.367 357.767 L
f
0.000 0.000 0.000 0.000 k
703.871 357.983 m
703.871 354.527 703.295 350.567 699.695 350.567 c
696.455 350.567 695.447 353.447 695.447 357.767 c
695.447 361.512 696.239 365.255 699.623 365.255 c
703.223 365.255 703.871 361.583 703.871 357.983 c
f
0.000 0.000 0.000 0.000 k
690.551 357.983 m
690.551 354.527 689.975 350.567 686.375 350.567 c
683.135 350.567 682.127 353.447 682.127 357.767 c
682.127 361.512 682.919 365.255 686.303 365.255 c
689.903 365.255 690.551 361.583 690.551 357.983 c
f
0.000 0.000 0.000 1.000 k
667.511 364.751 m
676.439 364.751 L
673.199 360.791 670.031 354.455 669.743 349.559 C
671.399 349.559 L
671.615 352.871 673.415 359.423 678.239 364.823 C
678.239 366.263 L
667.511 366.263 L
667.511 364.751 L
f
0.000 0.000 0.000 1.000 K
0 j
0 J
0.215 w
[]0 d
0.000 0.000 0.000 1.000 k
1611.215 568.079 m
1525.751 568.079 L
1525.751 574.487 L
1611.215 574.487 L
1611.215 582.551 L
1525.751 582.551 L
1525.751 588.959 L
1715.831 588.959 L
1715.831 582.551 L
1630.367 582.551 L
1630.367 574.487 L
1715.831 574.487 L
1715.831 568.079 L
1630.367 568.079 L
1630.367 560.591 L
1611.215 560.591 L
1611.215 568.079 L
b
%%Trailer
_E end