%!PS-Adobe-2.0 EPSF-1.2
%%Creator: Adobe Illustrator exported from Corel Draw 3.0
%%Title:6
%%BoundingBox:-16 384 871 1019
%%CreationDate:(Unknown)
%%ColorUsage:
%%TemplateBox:-16 384 871 1019
%%EndComments
%%BeginProcSet:Adobe_Illustrator_1.1 0 0
% Version 1.0 3/27/1990 $nokeywords$
% Copyright (C) 1990,1991,1992
% Corel Corporation
% All Rights Reserved

/wPmsDict 150 dict def 
wPmsDict begin 

/$debug 25 string def 

/bd {bind def} bind def 
/ld {load def} bd 
/xd {exch def} bd 
/_ null def 

/$c 0 def 
/$m 0 def 
/$y 0 def 
/$k 0 def 
/$t 1 def 
/$n _ def 
/$o 0 def 
/$pf false def 

/$C 0 def 
/$M 0 def 
/$Y 0 def 
/$K 0 def 
/$T 1 def 
/$N _ def 
/$O 0 def 
/$PF false def 

/$h false def 

/$al 0 def 
/$tr 0 def 
/$le 0 def 
/$lx 0 def 
/$ly 0 def 

/$ctm matrix currentmatrix def 
/$ptm matrix def 

/$pn () def 
/$pm matrix def 
/$px 0 def 
/$py 0 def 
/$pxf 0 def 
/$pyf 0 def 
/$psx 10 def 
/$psy 0 def 

/$llx 0 def 
/$lly 0 def 
/$urx 0 def 
/$ury 0 def 


/$Bbllx 0 def 
/$Bblly 0 def 
/$Bburx 0 def 
/$Bbury 0 def 

/$tllx 0 def 
/$tlly 0 def 
/$turx 0 def 
/$tury 0 def 

/$pd [] def 
/$tx 0 def 
/$ty 0 def 

/$sv 0 def 
/@cp /closepath ld 
/@gs /gsave ld 
/@gr /grestore ld 
/@np /newpath ld 
/@sv {/$sv save def}bd 
/@rs {$sv restore}bd 

/@MN { 
2 copy le{pop}{exch pop}ifelse 
}bd 

/setcmykcolor where {pop} 
{ 
/setcmykcolor 
{ 
4 1 roll 
3 {3 index add 1 @MN 1 exch sub 3 1 roll} repeat 
setrgbcolor 
pop 
}bd 
}ifelse 

/@tc 
{ 
dup 1 ge 
{pop} 
{ 
4 { 
dup 
6 -1 roll 
mul 
exch 
}repeat 
pop 
}ifelse 
}bd 

/@scc 
{ 
$c $m $y $k $t @tc 
setcmykcolor 
true 
}bd 
/@SCC 
{ 
$C $M $Y $K $T @tc 
setcmykcolor 
true 
}bd 

/@sft 
{ 
(setfirsttile sft )print 
/$tx $tllx $pxf add dup $tllx gt {$pwid $psx add sub}if def 
/$ty $tury $pyf sub dup $tury lt {$phei $psy add add}if def 
(setfirsttile exit )print 
}bd 

/@stb 
{ 
pathbbox /$ury xd /$urx xd /$lly xd /$llx xd 
}bd 

/@ep 
{ 
{ 
cvx exec 
}forall 
}bd 

/@tp 
{ 

(tile pattern tp )print 
@sv 
/$in true def 
2 copy 
dup $lly le {/$in false def}if 
$phei sub $ury ge {/$in false def}if 
dup $urx ge {/$in false def}if 
$pwid add $llx le {/$in false def}if 
$in 
{ 
@np 
2 copy moveto 
$pwid 0 rlineto 
0 $phei neg rlineto 
$pwid neg 0 rlineto 
0 $phei rlineto 
clip @np 

$pn cvlit load aload pop 
7 -1 roll 
5 index sub 
7 -1 roll 
3 index sub 
translate 
@ep 
pop pop pop pop 
} 
{pop pop}ifelse 
@rs 
(tile pattern exit )print 
}bd 

/@th 
{ 
(tile horizontal th)print 
@sft 
0 1 $tly 1 sub 
{ 
dup $psx mul $tx add 
{ 
dup $llx gt {$pwid sub}{exit}ifelse 
}loop 
exch $phei mul $ty exch sub 

0 1 $tlx 1 sub 
{ 
$pwid mul 
3 copy 
3 -1 roll add exch 
@tp 
pop 
}for 
pop pop 
} for 
(tile horizontal exiting )print 
}bd 

/@tv 
{ 
(tile vertical tv)print 
@sft 
0 1 $tlx 1 sub 
{ 
dup $pwid mul $tx add 
exch $psy mul $ty exch sub 
{ 
dup $ury lt {$phei add}{exit}ifelse 
}loop 

0 1 $tly 1 sub 
{ 
$phei mul 
3 copy sub 
@tp 
pop 
}for 
pop pop 
} for 
(tile vertical exit )print 
}bd 

/@pf 
{ 
(pattern fill pf)print 
@gs 
$pm concat 
@stb 
@gs 1 setgray eofill @gr 
eoclip 
$Bburx $Bbury $pm itransform /$tury xd /$turx xd 
$Bbllx $Bblly $pm itransform /$tlly xd /$tllx xd 
/$wid $turx $tllx sub def 
/$hei $tury $tlly sub def 
$wid 0 gt $hei 0 gt and 
{ 
$pn cvlit load aload pop 
$pd xd 
3 -1 roll sub /$phei xd 
exch sub /$pwid xd 
/$tlx $wid $pwid div ceiling 1 add def 
/$tly $hei $phei div ceiling 1 add def 
$psx 0 eq 
{ 
@tv 
} 
{ 
@th 
}ifelse 
}if 

@gr 
@np 
(pattern fill exit)print 
}bd 

/@xp 
{ 
{ 
dup (text Character is:) print == 
usertime (time before is:)print == 
(0) dup 3 -1 roll 0 exch put 
@gs 
true charpath currentpoint 
$ctm setmatrix 
@pf 
@gr 
@np 
moveto $tr 0 rmoveto 
usertime (time after is:)print == 
}forall 
pop 
}bd 

/@sm 
{ 
/$ctm $ctm currentmatrix def 
}bd 

%--@lorg  move to line origin   length string @torg length string
/@lorg    % moves currentpoint to line origin according to current alignment
  {      
  $lx $ly moveto    
  /$ly $ly $le sub def      % - prepare for next line(tracking)
  $al 0 ne
    {dup      % ->len str len str
    stringwidth   % ->len str len dx dy
    exch 3 index  % ->len str dy len dx
    1 sub         % ->len str dy len dx (len-1)
    $tr mul add   % ->len str dy len dx+(len-1)*$tr
    neg
    exch neg      % ->len str -dx_total dy len
    $al 1 eq      % check for centered alignment
    {2 div exch 2 div exch} if  
    rmoveto} if
  }bd

/@ft 
{ 
$pf 
{@xp} 
{ 
@scc 
{$tr exch 0 exch ashow pop} 
{pop pop}ifelse 
}ifelse 
}bd 

/@st 
{ 
$PF 
{} 
{ 
@SCC 
{ 
{ 
(0) dup 3 -1 roll 0 exch put 
@gs 
true charpath currentpoint 
$ctm setmatrix $ptm concat 
stroke 
@gr 
moveto $tr 0 rmoveto 
}forall 
pop 
} 
{pop pop}ifelse 
}ifelse 
}bd 
/@pt 
{ 
dup length exch 
}bd 
/@te 
{ 
@pt 
@lorg 
@ft 
}bd 

/@tr 
{ 
@pt 
@lorg 
@st 
}bd 
/@ta 
{ 
@pt 
@lorg 
2 copy 
@gs @ft @gr 
/$lx 0 def 
/$ly 0 def 
@st 
}bd 















/g { 
1 exch sub /$k xd 
/$c 0 def /$m 0 def /$y 0 def /$t 1 def /$n _ def /$pf false def 
}bd 

/G { 
1 exch sub /$K xd 
/$C 0 def /$M 0 def /$Y 0 def /$T 1 def /$N _ def /$PF false def 
}bd 

/k { 
/$k xd /$y xd /$m xd /$c xd 
/$t 1 def /$n _ def /$pf false def 
}bd 

/K { 
/$K xd /$Y xd /$M xd /$C xd 
/$T 1 def /$N _ def /$PF false def 
}bd 

/x { 
/$t xd /$n xd 
/$k xd /$y xd /$m xd /$c xd /$pf false def 
}bd 

/X { 
/$T xd /$N xd 
/$K xd /$Y xd /$M xd /$C xd /$PF false def 
}bd 

/d /setdash ld 

/i { 
dup 0 ne {setflat} {pop} ifelse 
}bd 

/j /setlinejoin ld 

/J /setlinecap ld 

/M /setmiterlimit ld 

/w /setlinewidth ld 

/O { 
/$o xd 
}bd 

/R { 
/$O xd 
}bd 


/c /curveto ld 

/C /c ld 

/v { 
currentpoint
6 2 roll 
curveto 
}bd

/V /v ld 

/y { 
2 copy curveto 
}bd 

/Y /y ld 

/l /lineto ld 

/L /l ld 

/m /moveto ld 



/n /newpath ld 

/N /newpath ld 

/F { 
$pf 
{@pf} 
{ 
@scc 
{eofill}if 
}ifelse 
}bd 

/f { 
@cp F 
}bd 
/S { 
$PF 
{} 
{ 
@SCC 
{ 
@sm 
$ptm concat 
stroke 
$ctm setmatrix 
}if 
}ifelse 
}bd 
/s { 
@cp 
S 
}bd 

/B { 
@gs F @gr 
S 
}bd 
/b { 
@cp 
B 
}bd 

/W { 
oeclip 
@np 
}bd 

/p { 
/$pm xd 
7 {pop} repeat 
/$pyf xd /$pxf xd 
/$pn xd 
/$pf true def 
}bd 

/P { 
11 {pop} repeat 
}bd 

/@p { 
/$pm xd 
/$psy xd 
/$psx xd 
/$pyf xd /$pxf xd 
/$pn xd 
/$pf true def 
}bd 

/@b { 
/$Bbury xd /$Bburx xd 
/$Bblly xd /$Bbllx xd 
}bd 


/z { 
/$al xd 
/$tr xd 
/$le xd 
exch findfont exch scalefont setfont 
}bd 

/Z { 
dup type 0 type eq { /$bDir xd } if
findfont 
dup maxlength 1 add dict exch 



dup 
{1 index /FID ne 
{ 
3 index 
3 1 roll put 
} 
{pop pop}ifelse 
} forall 



pop 
dup dup /Encoding get 
256 array copy 
dup /$fe xd
/Encoding exch put 

dup /Fontname 3 index put 

}bd 

/e { 
@sm 
concat 
[ 
/t {@te}def 
}bd 

/r { 
@sm 
concat 
[ 
/t {@tr}def 
}bd 

/o { 
@sm 
concat 
[ 
/t {pop}def 
}bd 

/a { 
@sm 
concat 
[ 
/t {@ta}def 
}bd 

/@o{
@sm 
concat 
[ 
/t {@t@a}def 
}bd 

/I { 
@sm 
concat 
[ 
/t {pop}def 
}bd 

/t {@te}def 

/T { 
cleartomark 
/$lx 0 def 
/$ly 0 def 
$ctm setmatrix 
}bd 


/u {}bd 

/U {}bd 

/A {pop}bd 

/h { 
$h true def 
}bd 

/h { 
$h true def 
}bd 

/q /@gs ld 

/Q /@gr ld 



/E { 
5 array astore 
exch cvlit exch def 
}bd 

/` {}bd 

/~ {}bd 

/@ {}bd 

/& {}bd 

/CorelDrawRencodeVect [ 
16#80/grave 
16#81/circumflex 
16#82/tilde 
16#83/dotlessi 
16#84/florin 
16#85/quotedblleft 
16#86/quotedblright 
16#87/guilsinglleft 
16#88/guilsinglright 
16#89/fi 
16#8a/fl 
16#8b/dagger 
16#8c/daggerdbl 
16#8d/endash 
16#8e/periodcentered 
16#8f/breve 
16#90/quotedblbase 
16#91/ellipsis 
16#92/perthousand 
16#a1/exclamdown 
16#a2/cent 
16#a3/sterling 
16#a4/currency 
16#a5/yen 
16#a6/bar 
16#a7/section 
16#a8/dieresis 
16#a9/copyright 
16#aa/ordfeminine 
16#ab/guillemotleft 
16#ac/logicalnot 
16#ad/emdash 
16#ae/registered 
16#af/spac 
16#b0/ring 
16#b1/spac 
16#b2/spac 
16#b3/spac 
16#b4/acute 
16#b5/spac 
16#b6/paragraph 
16#b7/bullet 
16#b8/cedilla 
16#b9/spac 
16#ba/ordmasculine 
16#bb/guillemotright 
16#bc/spac 
16#bd/spac 
16#be/spac 
16#bf/questiondown 
16#c0/Agrave 
16#c1/Aacute 
16#c2/Acircumflex 
16#c3/Atilde 
16#c4/Adieresis 
16#c5/Aring 
16#c6/AE 
16#c7/Ccedilla 
16#c8/Egrave 
16#c9/Eacute 
16#ca/Ecircumflex 
16#cb/Edieresis 
16#cc/Igrave 
16#cd/Iacute 
16#ce/Icircumflex 
16#cf/Idieresis 
16#d0/spac 
16#d1/Ntilde 
16#d2/Ograve 
16#d3/Oacute 
16#d4/Ocircumflex 
16#d5/Otilde 
16#d6/Odieresis 
16#d7/OE 
16#d8/Oslash 
16#d9/Ugrave 
16#da/Uacute 
16#db/Ucircumflex 
16#dc/Udieresis 
16#dd/space 
16#de/spac 
16#df/germandbls 
16#e0/agrave 
16#e1/aacute 
16#e2/acircumflex 
16#e3/atilde 
16#e4/adieresis 
16#e5/aring 
16#e6/ae 
16#e7/ccedilla 
16#e8/egrave 
16#e9/eacute 
16#ea/ecircumflex 
16#eb/edieresis 
16#ec/igrave 
16#ed/iacute 
16#ee/icircumflex 
16#ef/idieresis 
16#f0/space 
16#f1/ntilde 
16#f2/ograve 
16#f3/oacute 
16#f4/ocircumflex 
16#f5/otilde 
16#f6/odieresis 
16#f7/oe 
16#f8/oslash 
16#f9/ugrave 
16#fa/uacute 
16#fb/ucircumflex 
16#fc/udieresis 
16#fd/spac 
16#fe/spac 
16#ff/ydieresis 
] def
%%EndProlog
%%BeginSetup
%%BeginEncoding:_Times-Bold Times-Bold
[
]/_Times-Bold/Times-Bold Z
%%EndEncoding
%%EndSetup
0.000 0.000 0.000 1.000 K
0 j
0 J
0.215 w
[]0 d
554.399 907.559 m
546.120 998.063 l
544.823 1012.679 534.887 1016.567 521.567 1016.711 c
464.255 1017.503 409.103 1017.935 351.431 1016.711 c
343.295 1016.567 341.207 1014.911 337.967 1010.447 c
334.223 1005.407 329.687 1004.831 316.295 1004.471 C
293.183 1004.687 L
264.527 1004.255 252.935 992.231 231.839 978.407 C
265.103 981.503 296.783 981.791 328.175 981.791 C
336.167 907.559 L
554.399 907.559 L
s
0.000 0.000 0.000 1.000 K
0 j
0 J
0.215 w
[]0 d
-5.903 569.735 m
2.375 660.239 l
3.671 674.855 13.607 678.743 26.927 678.887 c
84.239 679.679 139.319 680.111 196.991 678.887 c
205.127 678.743 207.215 677.087 210.455 672.623 c
214.271 667.583 218.807 667.007 232.127 666.647 C
255.311 666.863 L
283.967 666.431 295.560 654.407 316.584 640.583 C
283.319 643.679 251.639 643.967 220.319 643.967 C
212.255 569.735 L
-5.903 569.735 L
s
u
u
0.000 0.000 0.000 0.498 k
40.247 830.591 m
40.247 830.519 L
41.183 830.519 L
40.247 830.591 L
f
0.000 0.000 0.000 0.498 k
40.247 852.119 m
40.247 851.687 L
57.959 851.687 L
52.127 844.919 49.031 837.431 45.143 830.159 C
45.503 830.087 L
44.351 822.743 43.991 818.567 44.064 811.439 C
54.215 810.575 L
54.287 817.415 56.159 824.327 59.903 830.591 C
71.351 849.959 96.623 856.439 115.991 844.919 C
130.823 836.135 138.024 819.359 135.503 803.231 C
142.055 802.655 L
206.783 802.511 L
213.335 807.623 L
145.079 807.623 L
145.079 818.999 144.215 833.327 140.256 839.879 C
135.935 848.231 125.855 856.151 116.351 861.407 C
104.615 864.863 92.159 863.999 79.703 862.559 C
70.415 861.479 63.935 858.239 58.247 852.119 C
40.247 852.119 L
f
0.000 0.000 0.000 0.498 k
40.247 851.687 m
40.247 852.119 L
39.311 852.119 L
39.239 851.687 L
40.247 851.687 L
f
0.000 0.000 0.000 0.498 k
40.247 830.519 m
40.247 830.591 L
39.023 830.735 L
39.023 830.663 L
40.247 830.519 L
f
U
u
0.000 0.000 0.000 1.000 K
0 j
2 J
0.071 w
[]0 d
45.143 830.159 m
45.503 830.087 L
44.351 822.743 43.991 818.567 44.064 811.439 C
54.215 810.575 L
54.287 817.415 56.159 824.327 59.903 830.591 C
71.351 849.959 96.623 856.439 115.991 844.919 C
130.823 836.135 138.024 819.359 135.503 803.231 C
142.055 802.655 L
206.783 802.511 L
213.335 807.623 L
145.079 807.623 L
145.079 818.999 144.215 833.327 140.256 839.879 C
135.935 848.231 125.855 856.151 116.351 861.407 C
104.615 864.863 92.159 863.999 79.703 862.559 C
70.415 861.479 63.935 858.239 58.247 852.119 C
39.311 852.119 L
39.239 851.687 L
57.959 851.687 L
52.127 844.919 49.031 837.431 45.143 830.159 C
s
0.000 0.000 0.000 1.000 K
0 j
2 J
0.071 w
[]0 d
39.023 830.663 m
41.183 830.519 L
39.023 830.735 L
39.023 830.663 L
s
U
U
u
u
0.000 0.000 0.000 0.498 k
508.247 492.767 m
508.247 492.695 L
509.471 492.839 L
509.471 492.911 L
508.247 492.767 L
f
0.000 0.000 0.000 0.498 k
508.247 514.295 m
508.247 513.863 L
509.255 513.863 L
509.183 514.295 L
508.247 514.295 L
f
0.000 0.000 0.000 0.498 k
508.247 513.863 m
508.247 514.295 L
490.247 514.295 L
484.559 520.415 478.079 523.655 468.791 524.735 C
456.335 526.175 443.879 527.039 432.143 523.583 C
422.639 518.327 412.559 510.407 408.239 502.055 C
404.279 495.503 403.415 481.175 403.415 469.799 C
335.159 469.799 L
341.639 464.687 L
406.367 464.831 L
412.991 465.407 L
410.399 481.535 417.671 498.311 432.503 507.095 C
451.871 518.615 477.143 512.135 488.591 492.767 C
492.335 486.503 494.207 479.591 494.279 472.751 C
504.431 473.615 L
504.503 480.743 504.143 484.919 502.991 492.263 C
503.351 492.335 L
499.463 499.607 496.367 507.095 490.535 513.863 C
508.247 513.863 L
f
0.000 0.000 0.000 0.498 k
508.247 492.695 m
508.247 492.767 L
507.311 492.695 L
508.247 492.695 L
f
U
u
0.000 0.000 0.000 1.000 K
0 j
2 J
0.071 w
[]0 d
503.351 492.335 m
502.991 492.263 L
504.143 484.919 504.503 480.743 504.431 473.615 C
494.279 472.751 L
494.207 479.591 492.335 486.503 488.591 492.767 C
477.143 512.135 451.871 518.615 432.503 507.095 C
417.671 498.311 410.399 481.535 412.991 465.407 C
406.367 464.831 L
341.639 464.687 L
335.159 469.799 L
403.415 469.799 L
403.415 481.175 404.279 495.503 408.239 502.055 C
412.559 510.407 422.639 518.327 432.143 523.583 C
443.879 527.039 456.335 526.175 468.791 524.735 C
478.079 523.655 484.559 520.415 490.247 514.295 C
509.183 514.295 L
509.255 513.863 L
490.535 513.863 L
496.367 507.095 499.463 499.607 503.351 492.335 C
s
0.000 0.000 0.000 1.000 K
0 j
2 J
0.071 w
[]0 d
509.471 492.839 m
507.311 492.695 L
509.471 492.911 L
509.471 492.839 L
s
U
U
0.000 0.000 0.000 1.000 K
0 j
2 J
0.071 w
[]0 d
0.000 0.000 0.000 0.498 k
536.615 814.967 m
491.471 815.039 L
489.743 821.807 488.087 830.951 484.199 836.135 C
476.783 847.295 469.799 853.127 462.959 855.215 C
453.311 856.727 450.431 856.655 439.559 856.439 C
422.495 856.727 416.375 853.487 406.295 845.207 C
398.015 835.199 393.335 832.679 392.759 819.719 C
392.831 809.711 L
392.615 808.991 391.823 807.983 391.175 807.695 C
237.599 807.623 L
238.319 806.759 240.263 803.663 240.983 803.519 C
267.767 800.351 294.407 799.343 321.551 799.055 C
324.143 800.135 324.143 802.439 326.447 803.519 C
335.303 803.951 337.391 803.879 347.759 803.951 C
348.551 803.231 349.775 802.295 350.423 802.151 C
402.479 802.151 L
400.679 811.583 402.191 821.663 407.447 830.519 C
418.895 849.887 444.239 856.367 463.607 844.847 C
478.727 835.919 485.927 818.567 482.975 802.223 C
533.087 802.223 L
535.463 803.159 536.615 804.671 537.839 806.975 C
563.543 806.975 L
563.543 812.735 L
537.983 812.663 L
536.615 814.967 L
b
0.000 0.000 0.000 1.000 K
0 j
2 J
0.071 w
[]0 d
0.000 0.000 0.000 0.498 k
11.879 477.143 m
57.023 477.215 L
58.751 483.983 60.407 493.127 64.295 498.311 C
71.711 509.471 78.695 515.303 85.535 517.391 C
95.183 518.903 98.063 518.831 108.935 518.615 C
125.999 518.903 132.119 515.663 142.199 507.383 C
150.479 497.375 155.159 494.855 155.735 481.895 C
155.663 471.887 L
155.879 471.167 156.671 470.159 157.319 469.871 C
310.895 469.799 L
310.175 468.935 308.159 465.839 307.439 465.695 C
280.656 462.527 254.015 461.519 226.871 461.231 C
224.279 462.311 224.279 464.615 221.975 465.695 C
213.119 466.127 211.031 466.055 200.663 466.127 C
199.871 465.407 198.647 464.471 197.999 464.327 C
145.943 464.327 L
147.743 473.759 146.231 483.839 140.975 492.695 C
129.527 512.063 104.255 518.543 84.887 507.023 C
69.768 498.095 62.567 480.743 65.519 464.399 C
15.407 464.399 L
13.031 465.335 11.879 466.847 10.655 469.151 C
-15.047 469.151 L
-15.047 474.911 L
10.511 474.839 L
11.879 477.143 L
b
0.000 0.000 0.000 1.000 K
0 j
2 J
0.071 w
[]0 d
0.000 0.000 0.000 0.298 k
45.431 830.087 m
-12.887 835.127 L
-9.071 824.471 -7.487 820.151 0.143 810.719 C
43.991 808.559 L
43.919 817.559 44.135 821.735 45.431 830.087 C
b
0.000 0.000 0.000 1.000 K
0 j
2 J
0.071 w
[]0 d
0.000 0.000 0.000 0.298 k
503.063 492.263 m
561.383 497.303 L
557.567 486.647 555.983 482.327 548.351 472.895 C
504.503 470.735 L
504.575 479.735 504.359 483.911 503.063 492.263 C
b
u
u
0.000 0.000 0.000 1.000 K
0 j
2 J
0.071 w
[]0 d
-14.183 849.743 m
52.703 849.743 L
S
U
U
u
u
0.000 0.000 0.000 1.000 K
0 j
2 J
0.071 w
[]0 d
562.679 511.919 m
495.791 511.919 L
S
U
U
0.000 0.000 0.000 1.000 K
0 j
2 J
0.071 w
[]0 d
0.000 0.000 0.000 0.098 k
-7.703 852.191 m
-3.167 852.191 L
-0.863 860.255 0.431 866.951 4.607 877.031 C
3.815 877.247 3.239 877.607 2.159 877.823 C
-1.223 870.551 -5.399 861.623 -7.703 852.191 C
b
0.000 0.000 0.000 1.000 K
0 j
2 J
0.071 w
[]0 d
0.000 0.000 0.000 0.098 k
556.199 514.367 m
551.663 514.367 L
549.360 522.432 548.063 529.127 543.887 539.207 C
544.679 539.423 545.255 539.783 546.336 540.000 C
549.719 532.727 553.895 523.799 556.199 514.367 C
b
u
u
0.000 0.000 0.000 0.298 k
-3.023 832.823 m
-1.079 826.703 1.871 822.455 5.327 818.135 C
16.055 814.463 31.607 811.727 43.199 809.351 C
S
U
u
0.000 0.000 0.000 1.000 K
0 j
2 J
0.071 w
[]0 d
-3.023 832.823 m
-1.079 826.703 1.871 822.455 5.327 818.135 C
16.055 814.463 31.607 811.727 43.199 809.351 C
S
U
U
u
u
0.000 0.000 0.000 0.298 k
551.519 494.999 m
549.575 488.879 546.623 484.631 543.168 480.311 C
532.439 476.639 516.887 473.903 505.295 471.527 C
S
U
u
0.000 0.000 0.000 1.000 K
0 j
2 J
0.071 w
[]0 d
551.519 494.999 m
549.575 488.879 546.623 484.631 543.168 480.311 C
532.439 476.639 516.887 473.903 505.295 471.527 C
S
U
U
0.000 0.000 0.000 1.000 K
0 j
2 J
0.071 w
[]0 d
0.000 0.000 0.000 0.298 k
58.031 851.687 m
52.127 844.847 49.031 837.359 45.215 830.087 C
-13.247 835.271 L
-14.831 842.255 -16.199 852.191 -12.455 858.599 C
-6.263 858.599 L
-8.208 851.687 L
58.031 851.687 L
b
0.000 0.000 0.000 1.000 K
0 j
2 J
0.071 w
[]0 d
0.000 0.000 0.000 0.298 k
490.463 513.863 m
496.367 507.023 499.463 499.535 503.279 492.263 C
561.743 497.447 L
563.327 504.431 564.695 514.367 560.951 520.775 C
554.759 520.775 L
556.703 513.863 L
490.463 513.863 L
b
0.000 0.000 0.000 1.000 K
0 j
2 J
0.071 w
[]0 d
0.000 0.000 0.000 0.298 k
544.031 814.751 m
544.031 847.583 L
555.120 847.583 564.264 848.375 564.623 846.143 C
564.336 814.751 L
544.031 814.751 L
b
0.000 0.000 0.000 1.000 K
0 j
2 J
0.071 w
[]0 d
0.000 0.000 0.000 0.298 k
4.463 476.927 m
4.463 509.759 L
-6.623 509.759 -15.767 510.551 -16.128 508.319 C
-15.839 476.927 L
4.463 476.927 L
b
0.000 0.000 0.000 1.000 K
0 j
2 J
0.071 w
[]0 d
0.000 0.000 0.000 0.098 k
2.159 877.895 m
0.359 878.615 L
-6.119 870.911 -8.208 865.727 -11.375 858.815 C
-5.615 858.815 L
-3.383 865.439 -0.575 872.135 2.159 877.895 C
b
0.000 0.000 0.000 1.000 K
0 j
2 J
0.071 w
[]0 d
0.000 0.000 0.000 0.098 k
546.336 540.072 m
548.135 540.791 L
554.615 533.087 556.703 527.903 559.871 520.991 C
554.111 520.991 L
551.879 527.615 549.072 534.312 546.336 540.072 C
b
u
u
U
u
0.000 0.000 0.000 1.000 K
0 j
2 J
0.071 w
[]0 d
-7.487 852.767 m
-14.831 849.959 L
S
U
U
u
u
U
u
0.000 0.000 0.000 1.000 K
0 j
2 J
0.071 w
[]0 d
555.983 514.943 m
563.327 512.135 L
S
U
U
0.000 0.000 0.000 1.000 K
0 j
2 J
0.071 w
[]0 d
137.231 912.527 m
165.239 935.423 198.215 957.383 224.279 973.079 C
224.783 973.727 228.311 975.959 228.959 976.247 C
251.711 980.135 285.839 980.351 328.895 980.063 C
336.167 907.559 L
554.399 907.631 L
554.687 903.167 554.327 900.791 554.399 895.823 C
543.240 895.823 L
543.168 814.895 L
491.471 815.039 L
489.743 821.807 488.087 830.951 484.199 836.135 C
476.783 847.295 469.799 853.055 462.959 855.215 C
453.311 856.655 450.431 856.583 439.487 856.439 C
422.423 856.655 416.375 853.415 406.223 845.135 C
397.943 835.127 393.263 832.607 392.687 819.647 C
392.759 809.711 L
392.543 808.991 391.751 807.983 391.175 807.695 C
145.007 807.551 L
145.007 818.927 144.143 833.327 140.183 839.807 C
135.863 848.159 125.855 856.151 116.279 861.335 C
104.543 864.863 92.159 863.927 79.703 862.559 c
70.343 861.479 63.863 858.167 58.247 852.047 C
-2.879 852.047 L
0.071 863.927 1.295 868.391 5.111 877.391 C
3.815 878.111 2.520 878.327 0.575 878.903 c
0.431 878.975 0.719 878.975 0.575 878.975 C
1.655 880.271 1.583 880.919 3.167 882.143 C
43.775 895.031 64.367 899.783 109.223 908.063 C
116.135 909.791 121.463 910.295 126.359 913.967 C
137.231 912.527 L
s
0.000 0.000 0.000 1.000 K
0 j
2 J
0.071 w
[]0 d
411.191 574.703 m
383.255 597.599 350.207 619.559 324.143 635.255 C
323.711 635.903 320.183 638.135 319.536 638.423 C
296.783 642.311 262.656 642.527 219.599 642.239 C
212.327 569.735 L
-5.903 569.807 L
-6.191 565.343 -5.831 562.967 -5.903 558.000 C
5.255 558.000 L
5.327 477.071 L
57.023 477.215 L
58.751 483.983 60.407 493.127 64.295 498.311 C
71.711 509.471 78.695 515.231 85.535 517.391 C
95.183 518.831 98.063 518.759 108.935 518.615 C
125.999 518.831 132.119 515.591 142.199 507.311 C
150.479 497.303 155.159 494.783 155.735 481.823 C
155.663 471.887 L
155.879 471.167 156.671 470.159 157.319 469.871 C
403.415 469.727 L
403.415 481.103 404.279 495.503 408.239 501.983 C
412.559 510.335 422.639 518.327 432.143 523.511 C
443.879 527.039 456.335 526.103 468.791 524.735 c
478.151 523.655 484.631 520.343 490.247 514.223 C
551.375 514.223 L
548.423 526.103 547.199 530.567 543.384 539.567 C
544.679 540.288 545.975 540.503 547.919 541.079 c
548.063 541.151 547.775 541.151 547.919 541.151 C
546.839 542.447 546.911 543.096 545.327 544.319 C
504.719 557.207 484.127 561.959 439.271 570.240 C
432.287 571.967 426.959 572.471 422.135 576.144 C
411.191 574.703 L
s
u
u
0.000 0.000 0.000 1.000 K
0 j
2 J
0.071 w
[]0 d
543.168 907.415 m
543.168 896.111 L
S
U
U
u
u
0.000 0.000 0.000 1.000 K
0 j
2 J
0.071 w
[]0 d
5.327 569.591 m
5.327 558.288 L
S
U
U
u
u
0.000 0.000 0.000 1.000 K
0 j
2 J
0.071 w
[]0 d
392.543 817.199 m
299.591 817.199 L
166.679 817.343 L
155.447 855.287 159.911 871.487 168.047 908.063 C
158.256 909.287 L
S
U
U
u
u
0.000 0.000 0.000 1.000 K
0 j
2 J
0.071 w
[]0 d
155.879 479.375 m
248.831 479.375 L
381.815 479.519 L
393.047 517.463 388.583 533.663 380.447 570.240 C
390.167 571.463 L
S
U
U
u
u
0.000 0.000 0.000 1.000 K
0 j
2 J
0.071 w
[]0 d
494.207 816.335 m
543.096 816.335 L
S
U
U
u
u
0.000 0.000 0.000 1.000 K
0 j
2 J
0.071 w
[]0 d
54.287 478.511 m
5.399 478.511 L
S
U
U
u
u
0.000 0.000 0.000 1.000 K
0 j
2 J
0.071 w
[]0 d
547.631 815.327 m
544.967 817.847 L
547.631 846.215 L
564.048 846.215 L
S
U
U
u
u
0.000 0.000 0.000 1.000 K
0 j
2 J
0.071 w
[]0 d
0.863 477.503 m
3.527 480.023 L
0.863 508.391 L
-15.551 508.391 L
S
U
U
u
u
0.000 0.000 0.000 0.098 k
3.023 881.855 m
8.567 880.055 L
3.671 869.903 1.511 862.775 -1.439 851.975 C
S
U
u
0.000 0.000 0.000 1.000 K
0 j
2 J
0.071 w
[]0 d
3.023 881.855 m
8.567 880.055 L
3.671 869.903 1.511 862.775 -1.439 851.975 C
S
U
U
u
u
0.000 0.000 0.000 0.098 k
545.471 544.031 m
539.927 542.231 L
544.823 532.079 546.983 524.951 549.935 514.151 C
S
U
u
0.000 0.000 0.000 1.000 K
0 j
2 J
0.071 w
[]0 d
545.471 544.031 m
539.927 542.231 L
544.823 532.079 546.983 524.951 549.935 514.151 C
S
U
U
u
u
0.000 0.000 0.000 1.000 K
0 j
2 J
0.071 w
[]0 d
0.071 809.999 m
1.583 813.455 3.167 815.831 5.399 818.351 C
S
U
U
u
u
0.000 0.000 0.000 1.000 K
0 j
2 J
0.071 w
[]0 d
548.423 472.175 m
546.911 475.631 545.327 478.007 543.096 480.527 C
S
U
U
u
u
0.000 0.000 0.000 1.000 K
0 j
2 J
0.071 w
[]0 d
-6.191 848.159 m
-5.327 843.047 -5.111 841.679 -3.743 836.279 C
S
U
U
u
u
0.000 0.000 0.000 1.000 K
0 j
2 J
0.071 w
[]0 d
554.687 510.335 m
553.823 505.223 553.607 503.855 552.240 498.455 C
S
U
U
u
u
0.000 0.000 0.000 1.000 K
0 j
2 J
0.071 w
[]0 d
-6.263 833.543 m
-5.183 828.935 -3.383 825.839 -1.079 821.591 C
-0.143 819.647 -1.008 818.423 -4.319 815.471 C
S
U
U
u
u
0.000 0.000 0.000 1.000 K
0 j
2 J
0.071 w
[]0 d
554.759 495.719 m
553.679 491.111 551.879 488.015 549.575 483.767 C
548.639 481.823 549.503 480.599 552.815 477.647 C
S
U
U
0.000 0.000 0.000 1.000 K
0 j
2 J
0.071 w
[]0 d
0.000 0.000 0.000 0.098 k
140.615 874.799 m
149.327 874.799 L
149.327 878.255 L
140.615 878.255 L
140.615 874.799 L
b
0.000 0.000 0.000 1.000 K
0 j
2 J
0.071 w
[]0 d
0.000 0.000 0.000 0.098 k
407.807 536.975 m
399.095 536.975 L
399.095 540.431 L
407.807 540.431 L
407.807 536.975 L
b
u
u
0.000 0.000 0.000 1.000 K
0 j
2 J
0.071 w
[]0 d
122.687 866.735 m
216.287 868.535 274.536 870.263 534.096 872.063 C
S
U
U
u
u
0.000 0.000 0.000 1.000 K
0 j
2 J
0.071 w
[]0 d
425.735 528.911 m
332.207 530.711 273.887 532.439 14.399 534.240 C
S
U
U
u
u
0.000 0.000 0.000 0.098 k
533.951 886.103 m
534.815 886.175 535.535 885.599 535.535 884.735 C
535.535 873.215 L
535.319 872.783 534.815 872.063 533.879 872.207 C
S
U
u
0.000 0.000 0.000 1.000 K
0 j
2 J
0.071 w
[]0 d
533.951 886.103 m
534.815 886.175 535.535 885.599 535.535 884.735 C
535.535 873.215 L
535.319 872.783 534.815 872.063 533.879 872.207 C
S
U
U
u
u
0.000 0.000 0.000 0.098 k
14.543 548.279 m
13.679 548.351 12.959 547.775 12.959 546.911 C
12.959 535.391 L
13.175 534.959 13.679 534.240 14.615 534.384 C
S
U
u
0.000 0.000 0.000 1.000 K
0 j
2 J
0.071 w
[]0 d
14.543 548.279 m
13.679 548.351 12.959 547.775 12.959 546.911 C
12.959 535.391 L
13.175 534.959 13.679 534.240 14.615 534.384 C
S
U
U
0.000 0.000 0.000 1.000 K
0 j
2 J
0.071 w
[]0 d
0.000 0.000 0.000 0.098 k
258.767 877.607 m
278.135 877.895 l
278.495 877.895 278.783 878.183 278.783 878.615 c
278.783 881.783 l
278.783 882.215 278.351 882.503 277.991 882.503 c
258.623 882.215 l
258.192 882.215 257.975 881.927 257.975 881.495 c
257.975 878.327 l
257.975 877.895 258.335 877.607 258.767 877.607 c
b
0.000 0.000 0.000 1.000 K
0 j
2 J
0.071 w
[]0 d
0.000 0.000 0.000 0.098 k
289.656 539.783 m
270.287 540.072 l
269.927 540.072 269.639 540.360 269.639 540.791 c
269.639 543.959 l
269.639 544.391 270.072 544.679 270.431 544.679 c
289.799 544.391 l
290.231 544.391 290.447 544.103 290.447 543.671 c
290.447 540.503 l
290.447 540.072 290.087 539.783 289.656 539.783 c
b
0.000 0.000 0.000 1.000 K
0 j
2 J
0.071 w
[]0 d
0.000 0.000 0.000 0.098 k
275.831 877.823 m
260.783 877.679 L
260.927 875.375 L
262.367 873.863 L
274.319 874.151 L
275.903 875.591 L
275.831 877.823 L
b
0.000 0.000 0.000 1.000 K
0 j
2 J
0.071 w
[]0 d
0.000 0.000 0.000 0.098 k
272.591 540.000 m
287.711 539.855 L
287.567 537.551 L
286.127 536.039 L
274.103 536.327 L
272.519 537.767 L
272.591 540.000 L
b
u
u
0.000 0.000 0.000 1.000 K
0 j
2 J
0.071 w
[]0 d
6.047 862.919 m
58.967 864.719 L
S
U
U
u
u
0.000 0.000 0.000 1.000 K
0 j
2 J
0.071 w
[]0 d
542.447 525.096 m
489.527 526.895 L
S
U
U
u
u
0.000 0.000 0.000 1.000 K
0 j
2 J
0.071 w
[]0 d
10.511 874.007 m
86.039 880.991 212.903 886.175 534.096 886.175 C
S
U
U
u
u
0.000 0.000 0.000 1.000 K
0 j
2 J
0.071 w
[]0 d
537.983 536.183 m
462.455 543.168 335.591 548.351 14.399 548.351 C
S
U
U
u
u
0.000 0.000 0.000 1.000 K
0 j
2 J
0.071 w
[]0 d
8.783 880.055 m
56.303 889.919 75.167 894.527 120.167 901.511 C
135.431 904.103 141.407 904.247 157.536 909.215 C
S
U
U
u
u
0.000 0.000 0.000 1.000 K
0 j
2 J
0.071 w
[]0 d
539.711 542.231 m
492.191 552.096 473.327 556.703 428.327 563.687 C
412.991 566.279 407.015 566.423 390.887 571.391 C
S
U
U
u
u
0.000 0.000 0.000 1.000 K
0 j
2 J
0.071 w
[]0 d
169.199 908.423 m
187.343 927.071 211.751 948.599 230.759 962.639 C
238.031 967.607 241.847 968.831 250.055 968.831 C
272.879 970.199 282.455 970.055 313.343 970.127 C
308.375 941.975 300.815 913.247 295.415 884.807 C
293.471 861.047 295.775 842.039 298.295 818.423 C
167.471 818.207 L
155.087 854.207 162.359 878.543 169.127 908.423 C
S
U
U
u
u
0.000 0.000 0.000 1.000 K
0 j
2 J
0.071 w
[]0 d
379.223 570.599 m
361.079 589.247 336.671 610.775 317.663 624.815 C
310.391 629.783 306.575 631.007 298.367 631.007 C
275.543 632.375 266.039 632.231 235.079 632.303 C
240.119 604.151 247.607 575.423 253.007 546.983 C
255.023 523.223 252.719 504.215 250.127 480.599 C
381.023 480.383 L
393.335 516.384 386.135 540.719 379.367 570.599 C
S
U
U
0.000 0.000 0.000 1.000 K
0 j
2 J
0.071 w
[]0 d
0.000 0.000 0.000 0.498 k
190.871 901.799 m
181.295 901.367 178.847 902.231 181.655 911.375 C
182.447 915.119 184.463 917.279 186.911 920.519 C
188.639 922.103 191.159 924.191 192.671 925.559 C
192.815 925.703 190.655 901.655 190.871 901.799 C
b
0.000 0.000 0.000 1.000 K
0 j
2 J
0.071 w
[]0 d
0.000 0.000 0.000 0.498 k
357.551 563.975 m
367.199 563.543 369.575 564.407 366.839 573.551 C
365.975 577.295 364.031 579.455 361.512 582.695 C
359.783 584.279 357.335 586.367 355.823 587.735 C
355.607 587.879 357.767 563.831 357.551 563.975 C
b
0.000 0.000 0.000 1.000 K
0 j
2 J
0.071 w
[]0 d
0.000 0.000 0.000 0.498 k
192.815 925.775 m
204.983 936.935 212.831 943.847 233.063 960.335 C
241.559 965.807 244.151 964.943 251.351 965.447 C
273.024 966.743 280.799 966.743 305.063 966.671 C
291.455 901.655 L
190.943 901.727 L
192.815 925.775 L
b
0.000 0.000 0.000 1.000 K
0 j
2 J
0.071 w
[]0 d
0.000 0.000 0.000 0.498 k
355.679 587.951 m
343.512 599.111 335.591 606.024 315.431 622.511 C
306.935 627.983 304.271 627.120 297.072 627.623 C
275.399 628.919 267.623 628.919 243.431 628.847 C
256.967 563.831 L
357.479 563.903 L
355.679 587.951 L
b
0.000 0.000 0.000 1.000 K
0 j
2 J
0.071 w
[]0 d
0.000 0.000 0.000 0.200 k
213.839 940.607 m
220.103 946.007 226.655 951.335 232.919 956.591 C
236.591 959.543 240.335 961.559 244.943 962.207 C
253.295 962.855 261.863 963.143 270.144 963.575 C
280.584 963.791 291.096 963.863 301.536 963.863 C
289.151 904.535 L
194.039 904.607 L
195.551 924.407 L
197.999 926.783 200.807 929.159 203.255 931.463 C
206.639 934.487 210.311 937.655 213.839 940.607 C
b
0.000 0.000 0.000 1.000 K
0 j
2 J
0.071 w
[]0 d
0.000 0.000 0.000 0.200 k
334.655 602.783 m
328.391 608.183 321.839 613.511 315.503 618.767 C
311.903 621.719 308.159 623.735 303.479 624.383 C
295.199 625.031 286.632 625.319 278.351 625.751 C
267.911 625.967 257.399 626.039 246.959 626.039 C
259.271 566.711 L
354.455 566.783 L
352.871 586.583 L
350.495 588.959 347.615 591.335 345.167 593.639 C
341.783 596.663 338.111 599.831 334.655 602.783 C
b
u
u
0.000 0.000 0.000 1.000 K
0 j
2 J
0.071 w
[]0 d
320.615 970.631 m
313.703 902.807 L
310.967 898.919 308.807 898.487 300.527 898.487 C
178.343 898.343 L
171.935 898.127 176.039 910.799 179.063 913.391 C
181.512 915.695 184.319 918.359 186.479 920.303 C
S
U
U
u
u
0.000 0.000 0.000 1.000 K
0 j
2 J
0.071 w
[]0 d
227.807 632.807 m
234.791 564.983 L
237.455 561.096 239.687 560.663 247.895 560.663 C
370.151 560.519 L
376.559 560.303 372.383 572.975 369.359 575.567 C
366.983 577.871 364.103 580.535 361.943 582.479 C
S
U
U
u
u
0.000 0.000 0.000 1.000 K
0 j
2 J
0.071 w
[]0 d
291.311 901.511 m
303.120 901.151 304.415 902.375 305.639 908.279 C
315.791 970.271 L
S
U
U
u
u
0.000 0.000 0.000 1.000 K
0 j
2 J
0.071 w
[]0 d
257.111 563.687 m
245.303 563.327 244.007 564.551 242.855 570.455 C
232.703 632.447 L
S
U
U
0.000 0.000 0.000 1.000 K
0 j
2 J
0.071 w
[]0 d
0.000 0.000 0.000 0.098 k
543.240 895.463 m
554.687 895.463 L
554.687 886.175 L
543.240 886.175 L
543.240 895.463 L
b
0.000 0.000 0.000 1.000 K
0 j
2 J
0.071 w
[]0 d
0.000 0.000 0.000 0.098 k
5.255 557.639 m
-6.191 557.639 L
-6.191 548.351 L
5.255 548.351 L
5.255 557.639 L
b
0.000 0.000 0.000 1.000 K
0 j
2 J
0.071 w
[]0 d
0.000 0.000 0.000 0.098 k
543.312 886.031 m
554.759 886.031 L
554.759 876.743 L
543.312 876.743 L
543.312 886.031 L
b
0.000 0.000 0.000 1.000 K
0 j
2 J
0.071 w
[]0 d
0.000 0.000 0.000 0.098 k
5.183 548.207 m
-6.263 548.207 L
-6.263 538.919 L
5.183 538.919 L
5.183 548.207 L
b
0.000 0.000 0.000 1.000 K
0 j
2 J
0.071 w
[]0 d
0.000 0.000 0.000 0.098 k
543.312 876.599 m
554.759 876.599 L
554.759 867.311 L
543.312 867.311 L
543.312 876.599 L
b
0.000 0.000 0.000 1.000 K
0 j
2 J
0.071 w
[]0 d
0.000 0.000 0.000 0.098 k
5.183 538.775 m
-6.263 538.775 L
-6.263 529.487 L
5.183 529.487 L
5.183 538.775 L
b
0.000 0.000 0.000 1.000 K
0 j
2 J
0.071 w
[]0 d
0.000 0.000 0.000 0.098 k
543.312 867.311 m
554.759 867.311 L
554.759 858.023 L
543.312 858.023 L
543.312 867.311 L
b
0.000 0.000 0.000 1.000 K
0 j
2 J
0.071 w
[]0 d
0.000 0.000 0.000 0.098 k
5.183 529.487 m
-6.263 529.487 L
-6.263 520.199 L
5.183 520.199 L
5.183 529.487 L
b
0.000 0.000 0.000 1.000 K
0 j
2 J
0.071 w
[]0 d
0.000 0.000 0.000 0.098 k
543.312 857.951 m
554.759 857.951 L
554.759 848.663 L
543.312 848.663 L
543.312 857.951 L
b
0.000 0.000 0.000 1.000 K
0 j
2 J
0.071 w
[]0 d
0.000 0.000 0.000 0.098 k
5.183 520.127 m
-6.263 520.127 L
-6.263 510.839 L
5.183 510.839 L
5.183 520.127 L
b
u
u
0.000 0.000 0.000 1.000 K
0 j
2 J
0.071 w
[]0 d
493.487 818.927 m
491.831 825.623 490.319 831.527 488.447 835.487 C
483.119 845.135 477.647 850.535 468.287 857.087 C
455.327 861.695 424.871 860.327 417.311 856.655 C
405.287 850.319 392.039 837.215 389.159 823.319 C
S
U
U
u
u
0.000 0.000 0.000 1.000 K
0 j
2 J
0.071 w
[]0 d
55.007 481.103 m
56.663 487.799 58.175 493.703 60.047 497.663 C
65.375 507.311 70.847 512.711 80.207 519.264 C
93.167 523.871 123.551 522.503 131.183 518.831 C
143.135 512.495 156.383 499.391 159.263 485.495 C
S
U
U
u
u
0.000 0.000 0.000 1.000 K
0 j
2 J
0.071 w
[]0 d
55.007 853.271 m
60.479 861.047 69.768 864.071 79.415 865.511 C
87.047 866.663 103.463 868.103 116.567 865.079 C
126.071 862.559 140.543 846.863 143.063 841.103 C
145.367 834.335 147.455 827.855 148.463 817.343 C
S
U
U
u
u
0.000 0.000 0.000 1.000 K
0 j
2 J
0.071 w
[]0 d
493.487 515.447 m
488.015 523.223 478.727 526.247 469.079 527.687 C
461.447 528.839 445.031 530.279 431.855 527.255 C
422.423 524.735 407.879 509.039 405.431 503.279 C
403.055 496.511 401.039 490.031 399.959 479.519 C
S
U
U
u
u
0.000 0.000 0.000 1.000 K
0 j
2 J
0.071 w
[]0 d
157.103 827.207 m
378.575 826.919 L
S
U
U
u
u
0.000 0.000 0.000 1.000 K
0 j
2 J
0.071 w
[]0 d
391.319 489.383 m
169.847 489.095 L
S
U
U
0.000 0.000 0.000 1.000 K
0 j
2 J
0.071 w
[]0 d
0.000 0.000 0.000 0.098 k
312.335 913.679 m
311.975 906.911 L
328.031 906.911 L
327.815 913.823 L
312.335 913.679 L
b
0.000 0.000 0.000 1.000 K
0 j
2 J
0.071 w
[]0 d
0.000 0.000 0.000 0.098 k
236.087 575.855 m
236.447 569.087 L
220.391 569.087 L
220.607 576.000 L
236.087 575.855 L
b
u
u
0.000 0.000 0.000 1.000 K
0 j
2 J
0.071 w
[]0 d
149.111 817.343 m
166.895 817.343 L
S
U
U
u
u
0.000 0.000 0.000 1.000 K
0 j
2 J
0.071 w
[]0 d
399.311 479.519 m
381.527 479.519 L
S
U
U
0.000 0.000 0.000 1.000 K
0 j
2 J
0.071 w
[]0 d
329.759 970.343 m
329.471 973.367 L
303.048 973.367 275.111 973.151 247.607 971.999 C
239.903 971.783 232.631 972.359 226.511 967.319 C
202.895 948.095 180.791 929.735 158.471 909.647 C
168.551 908.207 L
188.495 927.503 209.951 946.727 232.055 963.503 C
237.959 967.535 240.263 967.751 247.607 968.687 C
265.103 969.839 300.887 970.055 329.759 970.343 C
s
0.000 0.000 0.000 1.000 K
0 j
2 J
0.071 w
[]0 d
218.735 632.519 m
218.951 635.543 L
245.375 635.543 273.383 635.327 300.887 634.175 C
308.591 633.959 315.863 634.535 321.983 629.495 C
345.527 610.271 367.703 591.911 389.951 571.823 C
379.871 570.383 L
360.000 589.679 338.543 608.903 316.439 625.679 C
310.536 629.711 308.231 629.927 300.887 630.863 C
283.319 632.015 247.535 632.231 218.735 632.519 C
s
u
u
0.000 0.000 0.000 1.000 K
0 j
2 J
0.071 w
[]0 d
164.879 909.071 m
190.439 931.895 215.063 953.207 229.031 964.223 c
234.287 968.327 236.519 968.903 242.063 970.055 C
271.727 971.423 301.463 971.711 329.975 971.423 C
S
U
U
u
u
0.000 0.000 0.000 1.000 K
0 j
2 J
0.071 w
[]0 d
383.543 571.247 m
358.055 594.072 333.431 615.383 319.463 626.399 c
314.207 630.503 311.975 631.079 306.431 632.231 C
276.695 633.599 247.031 633.887 218.447 633.599 C
S
U
U
0.000 0.000 0.000 1.000 K
0 j
2 J
0.071 w
[]0 d
0.000 0.000 0.000 1.000 k
59.831 830.519 m
71.280 849.887 96.551 856.367 115.919 844.847 c
135.287 833.399 141.695 808.127 130.247 788.759 c
118.727 769.391 93.527 763.055 74.159 774.503 c
54.791 786.023 48.311 811.151 59.831 830.519 c
b
0.000 0.000 0.000 1.000 K
0 j
2 J
0.071 w
[]0 d
0.000 0.000 0.000 1.000 k
488.663 492.695 m
477.215 512.063 451.943 518.543 432.503 507.023 c
413.135 495.575 406.727 470.303 418.175 450.935 c
429.695 431.567 454.967 425.231 474.335 436.679 c
493.703 448.199 500.183 473.327 488.663 492.695 c
b
0.000 0.000 0.000 1.000 K
0 j
2 J
0.071 w
[]0 d
0.000 0.000 0.000 1.000 k
407.447 830.519 m
418.895 849.887 444.239 856.367 463.607 844.847 c
482.975 833.399 489.383 808.127 477.935 788.759 c
466.415 769.391 441.143 763.055 421.775 774.503 c
402.407 786.023 395.927 811.151 407.447 830.519 c
b
0.000 0.000 0.000 1.000 K
0 j
2 J
0.071 w
[]0 d
0.000 0.000 0.000 1.000 k
140.975 492.695 m
129.527 512.063 104.255 518.543 84.887 507.023 c
65.519 495.575 59.111 470.303 70.559 450.935 c
82.079 431.567 107.279 425.231 126.647 436.679 c
146.015 448.199 152.495 473.327 140.975 492.695 c
b
0.000 0.000 0.000 1.000 K
0 j
2 J
0.071 w
[]0 d
0.000 0.000 0.000 0.498 k
224.351 973.007 m
227.951 969.911 L
220.247 962.927 172.439 924.551 157.751 909.359 C
137.304 912.527 L
165.239 935.423 198.215 957.383 224.279 973.079 C
224.279 973.079 224.279 973.079 224.279 973.079 C
224.351 973.007 L
b
0.000 0.000 0.000 1.000 K
0 j
2 J
0.071 w
[]0 d
0.000 0.000 0.000 0.498 k
324.143 635.183 m
320.543 632.087 L
328.247 625.103 376.055 586.727 390.743 571.535 C
411.119 574.703 L
383.183 597.599 350.207 619.559 324.143 635.255 C
324.143 635.255 324.143 635.255 324.143 635.255 C
324.143 635.183 L
b
0.000 0.000 0.000 1.000 K
0 j
2 J
0.071 w
[]0 d
0.000 0.000 0.000 0.200 k
221.111 971.135 m
221.615 970.415 222.191 969.839 222.695 969.335 C
201.023 951.983 179.135 933.479 158.903 914.543 C
157.247 912.887 L
156.743 912.383 L
140.399 915.047 L
166.536 936.143 196.559 956.231 221.111 971.135 C
b
0.000 0.000 0.000 1.000 K
0 j
2 J
0.071 w
[]0 d
0.000 0.000 0.000 0.200 k
327.383 633.311 m
326.807 632.591 326.303 632.015 325.799 631.511 C
347.471 614.159 369.359 595.655 389.591 576.719 C
391.247 575.063 L
391.751 574.559 L
408.095 577.223 L
381.959 598.319 351.863 618.407 327.383 633.311 C
b
0.000 0.000 0.000 1.000 K
0 j
0 J
0.071 w
[]0 d
0.000 0.000 0.000 0.400 k
442.583 836.063 m
428.183 836.063 416.303 824.255 416.303 809.711 c
416.303 795.239 428.183 783.359 442.583 783.359 c
457.199 783.359 469.007 795.239 469.007 809.711 c
469.007 824.255 457.199 836.063 442.583 836.063 c
b
0.000 0.000 0.000 1.000 K
0 j
0 J
0.071 w
[]0 d
0.000 0.000 0.000 0.400 k
105.839 498.239 m
120.311 498.239 132.119 486.431 132.119 471.887 c
132.119 457.415 120.311 445.535 105.839 445.535 c
91.295 445.535 79.487 457.415 79.487 471.887 c
79.487 486.431 91.295 498.239 105.839 498.239 c
b
0.000 0.000 0.000 1.000 K
0 j
0 J
0.071 w
[]0 d
0.000 0.000 0.000 0.000 k
442.583 834.839 m
428.831 834.839 417.527 823.535 417.527 809.711 c
417.527 795.887 428.831 784.511 442.583 784.511 c
456.551 784.511 467.855 795.887 467.855 809.711 c
467.855 823.535 456.551 834.839 442.583 834.839 c
b
0.000 0.000 0.000 1.000 K
0 j
0 J
0.071 w
[]0 d
0.000 0.000 0.000 0.000 k
105.839 497.015 m
119.591 497.015 130.967 485.711 130.967 471.887 c
130.967 458.063 119.591 446.687 105.839 446.687 c
91.943 446.687 80.640 458.063 80.640 471.887 c
80.640 485.711 91.943 497.015 105.839 497.015 c
b
0.000 0.000 0.000 1.000 K
0 j
0 J
0.071 w
[]0 d
0.000 0.000 0.000 0.200 k
442.583 831.023 m
430.991 831.023 421.415 821.447 421.415 809.711 c
421.415 797.975 430.991 788.471 442.583 788.471 c
454.391 788.471 463.967 797.975 463.967 809.711 c
463.967 821.447 454.391 831.023 442.583 831.023 c
b
0.000 0.000 0.000 1.000 K
0 j
0 J
0.071 w
[]0 d
0.000 0.000 0.000 0.200 k
105.839 493.199 m
117.503 493.199 127.079 483.623 127.079 471.887 c
127.079 460.151 117.503 450.647 105.839 450.647 c
94.103 450.647 84.527 460.151 84.527 471.887 c
84.527 483.623 94.103 493.199 105.839 493.199 c
b
0.000 0.000 0.000 1.000 K
0 j
0 J
0.071 w
[]0 d
0.000 0.000 0.000 0.498 k
459.719 820.439 m
458.783 821.663 457.919 822.959 456.839 823.967 C
455.039 821.447 451.799 818.495 451.799 815.255 C
452.519 810.071 454.391 809.135 458.927 807.551 C
460.079 807.263 461.591 806.759 462.455 806.471 C
463.463 811.367 462.167 816.119 459.719 820.439 C
b
0.000 0.000 0.000 1.000 K
0 j
0 J
0.071 w
[]0 d
0.000 0.000 0.000 0.498 k
88.775 482.615 m
89.711 483.839 90.575 485.135 91.655 486.143 C
93.455 483.623 96.695 480.671 96.695 477.431 C
95.975 472.247 94.103 471.311 89.567 469.727 C
88.415 469.439 86.903 468.935 86.039 468.647 C
85.031 473.543 86.327 478.295 88.775 482.615 C
b
0.000 0.000 0.000 1.000 K
0 j
0 J
0.071 w
[]0 d
0.000 0.000 0.000 0.498 k
452.447 803.087 m
449.999 802.871 447.047 800.711 446.111 798.551 C
445.391 795.815 445.751 792.719 445.751 789.911 C
452.015 790.847 457.919 795.023 460.655 800.639 C
457.991 801.575 455.327 802.871 452.447 803.087 C
b
0.000 0.000 0.000 1.000 K
0 j
0 J
0.071 w
[]0 d
0.000 0.000 0.000 0.498 k
96.047 465.263 m
98.495 465.047 101.447 462.887 102.383 460.727 C
103.103 457.991 102.743 454.895 102.743 452.087 C
96.479 453.023 90.575 457.199 87.839 462.815 C
90.503 463.751 93.167 465.047 96.047 465.263 C
b
0.000 0.000 0.000 1.000 K
0 j
0 J
0.071 w
[]0 d
0.000 0.000 0.000 0.498 k
439.343 798.551 m
438.335 800.711 435.311 802.871 432.935 803.087 C
430.199 802.871 427.319 801.575 424.727 800.711 C
427.607 795.023 433.367 790.775 439.631 789.911 C
439.631 792.719 439.991 795.815 439.343 798.551 C
b
0.000 0.000 0.000 1.000 K
0 j
0 J
0.071 w
[]0 d
0.000 0.000 0.000 0.498 k
109.151 460.727 m
110.087 462.887 113.183 465.047 115.487 465.263 C
118.295 465.047 121.103 463.751 123.695 462.887 C
120.887 457.199 115.055 452.951 108.791 452.087 C
108.791 454.895 108.503 457.991 109.151 460.727 C
b
0.000 0.000 0.000 1.000 K
0 j
0 J
0.071 w
[]0 d
0.000 0.000 0.000 0.498 k
432.719 811.871 m
433.943 815.903 433.439 817.775 430.703 820.943 C
429.911 821.951 429.191 822.959 428.471 823.895 C
424.583 819.431 422.639 814.967 422.639 809.063 C
422.711 808.271 422.783 807.263 422.927 806.471 C
426.167 807.623 430.415 807.911 432.359 811.223 C
432.719 811.871 L
b
0.000 0.000 0.000 1.000 K
0 j
0 J
0.071 w
[]0 d
0.000 0.000 0.000 0.498 k
115.775 474.047 m
114.479 478.079 115.055 479.951 117.719 483.119 C
118.511 484.127 119.231 485.135 120.023 486.071 C
123.911 481.607 125.855 477.143 125.855 471.239 C
125.783 470.447 125.639 469.439 125.567 468.647 C
122.327 469.799 118.079 470.087 116.135 473.399 C
115.775 474.047 L
b
0.000 0.000 0.000 1.000 K
0 j
0 J
0.071 w
[]0 d
0.000 0.000 0.000 0.498 k
447.047 821.159 m
448.775 822.959 450.575 825.623 451.871 827.567 C
450.647 828.791 445.895 829.583 444.239 829.727 C
440.567 830.015 436.751 829.151 433.511 827.567 C
434.879 825.623 436.535 822.959 438.263 821.159 C
440.207 819.359 444.887 819.503 447.047 821.159 C
b
0.000 0.000 0.000 1.000 K
0 j
0 J
0.071 w
[]0 d
0.000 0.000 0.000 0.498 k
101.447 483.335 m
99.719 485.135 97.919 487.799 96.623 489.743 C
97.847 490.967 102.599 491.759 104.255 491.903 C
107.855 492.191 111.671 491.327 114.911 489.743 C
113.543 487.799 111.959 485.135 110.231 483.335 C
108.215 481.535 103.607 481.679 101.447 483.335 C
b
0.000 0.000 0.000 1.000 K
0 j
0 J
0.071 w
[]0 d
0.000 0.000 0.000 0.098 k
442.655 818.279 m
447.479 818.279 451.223 814.463 451.223 809.711 c
451.223 804.959 447.479 801.143 442.655 801.143 c
437.903 801.143 434.159 804.959 434.159 809.711 c
434.159 814.463 437.903 818.279 442.655 818.279 c
b
0.000 0.000 0.000 1.000 K
0 j
0 J
0.071 w
[]0 d
0.000 0.000 0.000 0.098 k
105.767 480.455 m
101.015 480.455 97.271 476.639 97.271 471.887 c
97.271 467.135 101.015 463.319 105.767 463.319 c
110.519 463.319 114.263 467.135 114.263 471.887 c
114.263 476.639 110.519 480.455 105.767 480.455 c
b
0.000 0.000 0.000 1.000 K
0 j
0 J
0.071 w
[]0 d
0.000 0.000 0.000 0.098 k
442.655 817.415 m
447.047 817.415 450.431 813.959 450.431 809.711 c
450.431 805.463 447.047 802.007 442.655 802.007 c
438.407 802.007 434.951 805.463 434.951 809.711 c
434.951 813.959 438.407 817.415 442.655 817.415 c
b
0.000 0.000 0.000 1.000 K
0 j
0 J
0.071 w
[]0 d
0.000 0.000 0.000 0.098 k
105.767 479.591 m
101.447 479.591 98.063 476.135 98.063 471.887 c
98.063 467.639 101.447 464.183 105.767 464.183 c
110.087 464.183 113.471 467.639 113.471 471.887 c
113.471 476.135 110.087 479.591 105.767 479.591 c
b
0.000 0.000 0.000 1.000 K
0 j
0 J
0.071 w
[]0 d
0.000 0.000 0.000 0.400 k
94.967 836.135 m
80.567 836.135 68.687 824.255 68.687 809.711 c
68.687 795.239 80.567 783.359 94.967 783.359 c
109.511 783.359 121.391 795.239 121.391 809.711 c
121.391 824.255 109.511 836.135 94.967 836.135 c
b
0.000 0.000 0.000 1.000 K
0 j
0 J
0.071 w
[]0 d
0.000 0.000 0.000 0.400 k
453.527 498.311 m
467.927 498.311 479.807 486.431 479.807 471.887 c
479.807 457.415 467.927 445.535 453.527 445.535 c
438.911 445.535 427.103 457.415 427.103 471.887 c
427.103 486.431 438.911 498.311 453.527 498.311 c
b
0.000 0.000 0.000 1.000 K
0 j
0 J
0.071 w
[]0 d
0.000 0.000 0.000 0.000 k
94.967 834.839 m
81.215 834.839 69.911 823.607 69.911 809.711 c
69.911 795.887 81.215 784.583 94.967 784.583 c
108.863 784.583 120.239 795.887 120.239 809.711 c
120.239 823.607 108.863 834.839 94.967 834.839 c
b
0.000 0.000 0.000 1.000 K
0 j
0 J
0.071 w
[]0 d
0.000 0.000 0.000 0.000 k
453.527 497.015 m
467.279 497.015 478.583 485.783 478.583 471.887 c
478.583 458.063 467.279 446.759 453.527 446.759 c
439.559 446.759 428.255 458.063 428.255 471.887 c
428.255 485.783 439.559 497.015 453.527 497.015 c
b
0.000 0.000 0.000 1.000 K
0 j
0 J
0.071 w
[]0 d
0.000 0.000 0.000 0.200 k
94.967 831.023 m
83.375 831.023 73.799 821.447 73.799 809.711 c
73.799 798.047 83.375 788.471 94.967 788.471 c
106.703 788.471 116.351 798.047 116.351 809.711 c
116.351 821.447 106.703 831.023 94.967 831.023 c
b
0.000 0.000 0.000 1.000 K
0 j
0 J
0.071 w
[]0 d
0.000 0.000 0.000 0.200 k
453.527 493.199 m
465.119 493.199 474.695 483.623 474.695 471.887 c
474.695 460.223 465.119 450.647 453.527 450.647 c
441.719 450.647 432.143 460.223 432.143 471.887 c
432.143 483.623 441.719 493.199 453.527 493.199 c
b
0.000 0.000 0.000 1.000 K
0 j
0 J
0.071 w
[]0 d
0.000 0.000 0.000 0.498 k
112.103 820.439 m
111.167 821.663 110.231 822.959 109.223 824.039 C
107.351 821.519 104.183 818.567 104.183 815.327 C
104.903 810.071 106.703 809.135 111.311 807.623 C
112.391 807.335 113.903 806.831 114.839 806.471 C
115.775 811.439 114.479 816.119 112.103 820.439 C
b
0.000 0.000 0.000 1.000 K
0 j
0 J
0.071 w
[]0 d
0.000 0.000 0.000 0.498 k
436.391 482.615 m
437.327 483.839 438.191 485.135 439.271 486.215 C
441.071 483.695 444.311 480.743 444.311 477.503 C
443.591 472.247 441.719 471.311 437.183 469.799 C
436.031 469.511 434.519 469.007 433.655 468.647 C
432.647 473.615 433.943 478.295 436.391 482.615 C
b
0.000 0.000 0.000 1.000 K
0 j
0 J
0.071 w
[]0 d
0.000 0.000 0.000 0.498 k
104.759 803.087 m
102.383 802.871 99.431 800.783 98.423 798.551 C
97.775 795.887 98.063 792.719 98.063 789.911 C
104.327 790.919 110.231 795.095 113.039 800.639 C
110.375 801.575 107.639 802.871 104.759 803.087 C
b
0.000 0.000 0.000 1.000 K
0 j
0 J
0.071 w
[]0 d
0.000 0.000 0.000 0.498 k
443.663 465.263 m
446.111 465.047 449.063 462.959 450.071 460.727 C
450.719 458.063 450.431 454.895 450.431 452.087 C
444.167 453.095 438.191 457.271 435.455 462.815 C
438.119 463.751 440.783 465.047 443.663 465.263 C
b
0.000 0.000 0.000 1.000 K
0 j
0 J
0.071 w
[]0 d
0.000 0.000 0.000 0.498 k
91.727 798.551 m
90.719 800.783 87.695 802.871 85.319 803.087 C
82.583 802.871 79.703 801.575 77.111 800.783 C
79.991 795.095 85.751 790.847 92.015 789.911 C
92.015 792.719 92.375 795.887 91.727 798.551 C
b
0.000 0.000 0.000 1.000 K
0 j
0 J
0.071 w
[]0 d
0.000 0.000 0.000 0.498 k
456.767 460.727 m
457.775 462.959 460.799 465.047 463.175 465.263 C
465.911 465.047 468.791 463.751 471.383 462.959 C
468.503 457.271 462.743 453.023 456.479 452.087 C
456.479 454.895 456.119 458.063 456.767 460.727 C
b
0.000 0.000 0.000 1.000 K
0 j
0 J
0.071 w
[]0 d
0.000 0.000 0.000 0.498 k
85.103 811.871 m
86.327 815.975 85.823 817.775 83.087 821.015 C
82.295 821.951 81.575 822.959 80.855 823.895 C
76.967 819.503 75.024 814.967 75.024 809.063 C
75.095 808.271 75.167 807.335 75.311 806.471 C
78.551 807.695 82.799 807.983 84.743 811.295 C
85.103 811.871 L
b
0.000 0.000 0.000 1.000 K
0 j
0 J
0.071 w
[]0 d
0.000 0.000 0.000 0.498 k
463.391 474.047 m
462.167 478.151 462.671 479.951 465.407 483.191 C
466.199 484.127 466.919 485.135 467.639 486.071 C
471.527 481.679 473.471 477.143 473.471 471.239 C
473.399 470.447 473.327 469.511 473.183 468.647 C
469.943 469.871 465.695 470.159 463.751 473.471 C
463.391 474.047 L
b
0.000 0.000 0.000 1.000 K
0 j
0 J
0.071 w
[]0 d
0.000 0.000 0.000 0.498 k
99.359 821.231 m
101.087 822.959 102.887 825.623 104.255 827.567 C
103.031 828.791 98.279 829.655 96.551 829.799 C
92.951 830.087 89.135 829.223 85.895 827.567 C
87.263 825.623 88.919 822.959 90.647 821.231 C
92.591 819.431 97.199 819.575 99.359 821.231 C
b
0.000 0.000 0.000 1.000 K
0 j
0 J
0.071 w
[]0 d
0.000 0.000 0.000 0.498 k
449.135 483.407 m
447.407 485.135 445.607 487.799 444.239 489.743 C
445.463 490.967 450.215 491.831 451.943 491.975 C
455.543 492.263 459.359 491.399 462.599 489.743 C
461.231 487.799 459.575 485.135 457.847 483.407 C
455.903 481.607 451.295 481.751 449.135 483.407 C
b
0.000 0.000 0.000 1.000 K
0 j
0 J
0.071 w
[]0 d
0.000 0.000 0.000 0.098 k
95.039 818.279 m
99.863 818.279 103.607 814.463 103.607 809.711 c
103.607 805.031 99.863 801.215 95.039 801.215 c
90.287 801.215 86.543 805.031 86.543 809.711 c
86.543 814.463 90.287 818.279 95.039 818.279 c
b
0.000 0.000 0.000 1.000 K
0 j
0 J
0.071 w
[]0 d
0.000 0.000 0.000 0.098 k
453.455 480.455 m
448.631 480.455 444.887 476.639 444.887 471.887 c
444.887 467.207 448.631 463.391 453.455 463.391 c
458.207 463.391 461.951 467.207 461.951 471.887 c
461.951 476.639 458.207 480.455 453.455 480.455 c
b
0.000 0.000 0.000 1.000 K
0 j
0 J
0.071 w
[]0 d
0.000 0.000 0.000 0.098 k
95.039 817.487 m
99.359 817.487 102.815 814.031 102.815 809.711 c
102.815 805.463 99.359 802.007 95.039 802.007 c
90.791 802.007 87.335 805.463 87.335 809.711 c
87.335 814.031 90.791 817.487 95.039 817.487 c
b
0.000 0.000 0.000 1.000 K
0 j
0 J
0.071 w
[]0 d
0.000 0.000 0.000 0.098 k
453.455 479.663 m
449.135 479.663 445.679 476.207 445.679 471.887 c
445.679 467.639 449.135 464.183 453.455 464.183 c
457.703 464.183 461.159 467.639 461.159 471.887 c
461.159 476.207 457.703 479.663 453.455 479.663 c
b
0.000 0.000 0.000 1.000 K
0 j
2 J
0.071 w
[]0 d
0.000 0.000 0.000 0.498 k
640.943 824.111 m
830.591 824.111 L
830.591 802.871 L
640.943 802.871 L
640.943 824.111 L
b
0.000 0.000 0.000 1.000 K
0 j
2 J
0.071 w
[]0 d
849.455 908.279 m
849.455 908.279 L
845.711 942.119 838.943 969.623 827.351 998.927 C
821.375 1014.119 816.767 1018.007 801.359 1018.655 C
670.391 1018.655 L
650.735 1018.655 648.503 1011.383 643.679 998.927 C
632.591 969.911 626.471 939.887 621.000 909.287 C
619.415 904.031 617.759 896.759 616.463 891.503 C
616.391 889.631 618.192 888.839 618.048 887.039 C
615.527 873.647 616.103 859.895 619.775 846.791 C
643.895 819.935 L
827.279 820.151 L
850.895 846.647 L
854.495 859.751 855.071 873.503 852.551 886.895 C
852.407 888.695 854.207 889.487 854.135 891.359 C
852.551 897.839 851.399 902.879 849.455 908.279 C
s
u
u
0.000 0.000 0.000 1.000 K
0 j
2 J
0.071 w
[]0 d
643.895 830.303 m
643.895 851.327 L
622.439 851.327 L
620.279 869.975 621.287 889.775 623.879 908.063 C
846.431 908.063 L
848.879 889.415 850.103 869.831 847.871 851.183 C
826.703 851.183 L
826.775 830.303 L
S
U
U
u
u
0.000 0.000 0.000 1.000 K
0 j
2 J
0.071 w
[]0 d
853.847 891.071 m
851.759 890.927 850.895 889.559 850.895 888.263 C
850.895 875.087 L
850.967 874.583 854.063 874.079 853.487 874.007 C
S
U
U
0.000 0.000 0.000 1.000 K
0 j
2 J
0.071 w
[]0 d
0.000 0.000 0.000 0.298 k
847.583 850.103 m
827.207 850.103 L
827.207 820.007 L
845.495 820.007 L
850.535 844.991 L
851.183 846.863 850.535 849.959 847.583 850.103 C
b
u
u
0.000 0.000 0.000 0.098 k
616.535 890.855 m
618.623 890.711 619.703 889.703 619.703 888.407 C
619.703 875.231 L
619.703 874.727 617.615 873.791 617.111 874.151 C
S
U
u
0.000 0.000 0.000 1.000 K
0 j
2 J
0.071 w
[]0 d
616.535 890.855 m
618.623 890.711 619.703 889.703 619.703 888.407 C
619.703 875.231 L
619.703 874.727 617.615 873.791 617.111 874.151 C
S
U
U
0.000 0.000 0.000 1.000 K
0 j
2 J
0.071 w
[]0 d
0.000 0.000 0.000 0.298 k
623.015 850.247 m
643.463 850.247 L
643.463 820.295 L
625.247 820.295 L
620.063 845.135 L
619.487 847.007 620.063 850.103 623.015 850.247 C
b
0.000 0.000 0.000 1.000 K
0 j
2 J
0.071 w
[]0 d
643.823 830.303 m
826.775 830.303 L
826.775 819.935 L
643.823 819.935 L
643.823 830.303 L
s
0.000 0.000 0.000 1.000 K
0 j
2 J
0.071 w
[]0 d
0.000 0.000 0.000 0.098 k
624.024 889.991 m
643.175 889.991 L
643.175 880.559 L
624.024 880.559 L
624.024 889.991 L
b
0.000 0.000 0.000 1.000 K
0 j
2 J
0.071 w
[]0 d
0.000 0.000 0.000 0.098 k
827.063 889.847 m
846.215 889.847 L
846.215 880.415 L
827.063 880.415 L
827.063 889.847 L
b
0.000 0.000 0.000 1.000 K
0 j
2 J
0.071 w
[]0 d
0.000 0.000 0.000 0.098 k
624.024 899.495 m
643.175 899.495 L
643.175 890.063 L
624.024 890.063 L
624.024 899.495 L
b
0.000 0.000 0.000 1.000 K
0 j
2 J
0.071 w
[]0 d
0.000 0.000 0.000 0.098 k
827.063 899.351 m
846.215 899.351 L
846.215 889.919 L
827.063 889.919 L
827.063 899.351 L
b
0.000 0.000 0.000 1.000 K
0 j
2 J
0.071 w
[]0 d
0.000 0.000 0.000 0.098 k
624.024 880.559 m
643.175 880.559 L
643.175 871.127 L
624.024 871.127 L
624.024 880.559 L
b
0.000 0.000 0.000 1.000 K
0 j
2 J
0.071 w
[]0 d
0.000 0.000 0.000 0.098 k
827.063 880.415 m
846.215 880.415 L
846.215 870.983 L
827.063 870.983 L
827.063 880.415 L
b
0.000 0.000 0.000 1.000 K
0 j
2 J
0.071 w
[]0 d
0.000 0.000 0.000 0.098 k
624.024 871.055 m
643.175 871.055 L
643.175 861.623 L
624.024 861.623 L
624.024 871.055 L
b
0.000 0.000 0.000 1.000 K
0 j
2 J
0.071 w
[]0 d
0.000 0.000 0.000 0.098 k
827.063 870.911 m
846.215 870.911 L
846.215 861.479 L
827.063 861.479 L
827.063 870.911 L
b
0.000 0.000 0.000 1.000 K
0 j
2 J
0.071 w
[]0 d
0.000 0.000 0.000 0.098 k
624.024 861.551 m
643.175 861.551 L
643.175 852.119 L
624.024 852.119 L
624.024 861.551 L
b
0.000 0.000 0.000 1.000 K
0 j
2 J
0.071 w
[]0 d
0.000 0.000 0.000 0.098 k
827.063 861.479 m
846.215 861.479 L
846.215 852.047 L
827.063 852.047 L
827.063 861.479 L
b
u
u
0.000 0.000 0.000 1.000 K
0 j
2 J
0.071 w
[]0 d
824.759 822.023 m
644.327 822.023 L
S
U
U
0.000 0.000 0.000 1.000 K
0 j
2 J
0.071 w
[]0 d
645.407 908.279 m
823.895 908.279 L
823.895 832.679 L
645.407 832.679 L
645.407 908.279 L
s
u
u
0.000 0.000 0.000 1.000 K
0 j
2 J
0.071 w
[]0 d
644.399 831.527 m
825.047 831.527 L
S
U
U
u
u
0.000 0.000 0.000 1.000 K
0 j
2 J
0.071 w
[]0 d
645.551 851.111 m
824.039 851.111 L
S
U
U
0.000 0.000 0.000 1.000 K
0 j
2 J
0.071 w
[]0 d
654.120 897.695 m
816.047 897.695 l
818.423 897.695 820.295 896.111 820.295 894.023 c
820.295 859.103 l
820.295 857.015 818.423 855.359 816.047 855.359 c
654.120 855.359 l
651.743 855.359 649.871 857.015 649.871 859.103 c
649.871 894.023 l
649.871 896.111 651.743 897.695 654.120 897.695 c
s
u
u
0.000 0.000 0.000 1.000 K
0 j
2 J
0.071 w
[]0 d
649.799 877.823 m
650.015 881.207 651.383 882.287 656.783 882.431 C
816.767 882.431 L
819.719 882.359 819.935 880.919 819.935 877.967 C
S
U
U
0.000 0.000 0.000 1.000 K
0 j
2 J
0.071 w
[]0 d
725.471 893.807 m
743.975 893.807 l
744.479 893.807 744.839 893.519 744.839 893.015 c
744.839 889.775 l
744.839 889.343 744.479 888.983 743.975 888.983 c
725.471 888.983 l
724.967 888.983 724.679 889.343 724.679 889.775 c
724.679 893.015 l
724.679 893.519 724.967 893.807 725.471 893.807 c
s
0.000 0.000 0.000 1.000 K
0 j
2 J
0.071 w
[]0 d
742.895 888.983 m
726.839 888.983 L
727.991 886.175 L
741.815 886.103 L
742.895 888.983 L
s
0.000 0.000 0.000 1.000 K
0 j
2 J
0.071 w
[]0 d
764.207 882.431 m
708.119 882.431 L
709.919 878.183 L
762.407 878.183 L
764.207 882.431 L
s
0.000 0.000 0.000 1.000 K
0 j
2 J
0.071 w
[]0 d
703.511 872.999 m
769.967 872.999 l
771.407 872.999 772.559 871.919 772.559 870.479 c
772.559 862.127 l
772.559 860.687 771.407 859.535 769.967 859.535 c
703.511 859.535 l
702.072 859.535 700.991 860.687 700.991 862.127 c
700.991 870.479 l
700.991 871.919 702.072 872.999 703.511 872.999 c
s
u
u
0.000 0.000 0.000 1.000 K
0 j
2 J
0.071 w
[]0 d
645.551 908.207 m
647.783 945.359 656.423 982.727 665.783 1017.935 C
S
U
U
u
u
0.000 0.000 0.000 1.000 K
0 j
2 J
0.071 w
[]0 d
823.967 908.207 m
821.735 945.359 814.103 982.439 804.095 1018.223 C
S
U
U
0.000 0.000 0.000 1.000 K
0 j
2 J
0.071 w
[]0 d
0.000 0.000 0.000 0.498 k
686.375 1000.511 m
785.231 1000.367 l
789.911 1000.367 792.863 996.335 793.871 991.799 c
798.335 971.135 801.935 950.471 802.871 929.735 c
803.087 925.055 798.983 921.167 794.231 921.167 c
676.367 921.167 l
671.615 921.167 667.223 925.055 667.799 929.735 c
670.319 950.831 672.551 971.423 677.807 991.871 c
678.959 996.407 681.695 1000.511 686.375 1000.511 c
b
0.000 0.000 0.000 1.000 K
0 j
2 J
0.071 w
[]0 d
0.000 0.000 0.000 0.200 k
790.199 993.815 m
790.919 992.447 791.207 990.719 791.567 989.207 C
794.519 974.663 797.471 959.759 798.839 944.999 C
799.415 939.959 799.775 934.703 800.063 929.663 C
800.063 926.351 797.327 924.119 794.159 923.975 C
676.439 923.975 L
673.343 924.119 670.463 926.135 670.679 929.519 C
672.767 948.167 675.072 967.175 679.175 985.463 C
680.111 989.135 680.975 996.839 685.871 997.559 C
686.447 997.631 L
785.159 997.559 L
787.823 997.415 788.975 995.975 790.199 993.815 C
b
0.000 0.000 0.000 1.000 K
0 j
2 J
0.071 w
[]0 d
0.000 0.000 0.000 1.000 k
641.951 820.295 m
625.319 820.295 L
620.711 842.327 L
620.711 771.623 L
620.711 770.183 622.007 768.815 623.591 768.815 C
647.783 768.815 L
649.439 768.815 651.024 770.327 651.024 771.623 C
651.024 802.727 L
642.168 802.727 L
642.168 820.079 L
641.951 820.295 L
b
0.000 0.000 0.000 1.000 K
0 j
2 J
0.071 w
[]0 d
0.000 0.000 0.000 1.000 k
831.023 819.791 m
845.855 819.791 L
849.671 838.223 L
849.671 771.623 L
849.671 770.327 848.231 768.815 846.575 768.815 C
822.383 768.815 L
820.799 768.815 819.359 770.183 819.359 771.623 C
819.359 802.727 L
831.023 802.727 L
831.023 819.791 L
b
0.000 0.000 0.000 1.000 K
0 j
2 J
0.215 w
[]0 d
0.000 0.000 0.000 0.000 k
628.415 572.327 m
628.775 572.471 629.063 572.759 629.207 573.048 C
634.751 591.767 650.447 622.007 661.391 637.343 C
664.919 638.783 670.823 639.144 676.583 639.431 C
677.519 638.855 L
715.463 640.439 754.343 640.439 793.007 638.783 C
793.943 639.719 L
799.415 639.287 804.887 638.711 808.847 637.271 C
819.863 622.079 835.415 591.839 841.103 573.048 C
841.175 572.615 841.823 572.399 842.543 572.327 C
843.047 572.327 L
843.191 572.327 843.335 572.327 843.479 572.399 C
843.551 572.327 L
844.487 572.327 L
840.959 605.303 834.479 632.087 823.391 660.599 C
817.631 675.431 815.687 679.031 800.927 679.607 C
673.343 679.607 L
654.551 679.607 652.391 672.767 647.783 660.599 C
636.983 632.015 631.151 602.423 625.895 572.327 C
628.415 572.327 L
b
0.000 0.000 0.000 1.000 K
0 j
0 J
0.215 w
[]0 d
808.415 639.863 m
803.519 658.007 801.575 667.151 787.391 667.583 C
683.495 667.583 L
668.375 667.583 665.495 655.271 660.599 640.079 C
664.127 643.175 803.951 644.399 808.415 639.863 C
s
0.000 0.000 0.000 1.000 K
0 j
2 J
0.071 w
[]0 d
0.000 0.000 0.000 0.298 k
853.487 510.767 m
783.791 510.695 L
782.351 510.839 781.559 511.559 781.559 512.783 C
781.343 515.303 781.271 516.959 780.983 519.120 C
780.983 520.055 780.479 520.271 780.047 520.487 C
690.479 520.559 L
689.975 520.343 689.471 520.055 689.471 519.192 C
689.255 517.031 689.183 515.303 688.895 512.783 C
688.895 511.559 688.103 510.911 686.735 510.767 C
616.967 510.767 L
616.967 510.767 616.967 510.767 616.967 510.767 C
620.207 492.263 L
620.495 492.335 620.783 492.479 621.144 492.551 C
622.439 488.303 626.759 474.911 631.223 473.183 C
630.791 471.383 630.287 469.079 628.919 466.559 C
844.343 466.559 L
840.527 473.183 L
840.455 473.687 847.007 487.367 849.167 492.551 C
849.527 492.479 849.887 492.335 850.247 492.191 C
853.559 510.767 L
853.559 510.767 853.487 510.767 853.487 510.767 C
b
0.000 0.000 0.000 1.000 K
0 j
2 J
0.071 w
[]0 d
0.000 0.000 0.000 1.000 k
650.951 466.559 m
628.919 466.559 L
630.287 469.079 630.791 471.383 631.223 473.183 C
626.831 474.911 622.511 488.303 621.144 492.551 C
621.000 492.551 620.855 492.479 620.711 492.407 C
620.711 433.799 L
620.711 432.359 621.935 430.991 623.519 430.991 C
647.711 430.991 L
649.439 430.991 650.951 432.503 650.951 433.799 C
650.951 466.559 L
650.951 466.559 L
b
0.000 0.000 0.000 1.000 K
0 j
2 J
0.071 w
[]0 d
0.000 0.000 0.000 1.000 k
840.527 473.183 m
844.343 466.559 L
819.287 466.559 L
819.359 466.559 L
819.359 433.799 L
819.359 432.359 820.727 430.991 822.311 430.991 C
846.503 430.991 L
848.231 430.991 849.599 432.503 849.599 433.799 C
849.599 492.479 L
849.455 492.551 849.311 492.551 849.167 492.623 C
847.007 487.439 840.455 473.759 840.527 473.183 C
b
0.000 0.000 0.000 1.000 K
0 j
2 J
0.071 w
[]0 d
0.000 0.000 0.000 0.498 k
843.983 570.671 m
845.495 565.487 L
845.567 565.487 845.423 565.487 845.495 565.487 c
856.079 566.279 861.551 566.567 869.255 567.144 C
870.911 567.863 871.271 569.591 871.415 574.775 C
871.487 577.151 871.487 578.951 870.695 579.887 C
870.335 580.679 856.583 582.192 850.895 581.687 C
849.527 581.471 849.311 580.463 848.879 579.527 C
847.583 571.823 L
847.511 571.463 847.151 571.031 846.719 570.887 C
843.983 570.671 L
b
0.000 0.000 0.000 1.000 K
0 j
2 J
0.071 w
[]0 d
0.000 0.000 0.000 0.498 k
626.471 571.535 m
625.679 568.943 L
624.959 566.279 L
624.815 566.279 624.815 566.279 624.815 566.279 c
624.815 566.279 624.887 566.279 624.743 566.279 c
614.519 567.072 609.048 567.431 601.487 568.007 C
599.831 568.727 599.399 570.455 599.327 575.639 C
599.255 578.015 599.183 579.815 600.048 580.751 C
600.407 581.543 614.087 583.055 619.847 582.551 C
621.144 582.336 621.431 581.327 621.791 580.391 C
623.159 572.687 L
623.159 572.327 623.591 571.895 624.024 571.751 C
626.471 571.535 L
b
0.000 0.000 0.000 1.000 K
0 j
2 J
0.071 w
[]0 d
0.000 0.000 0.000 0.498 k
356.615 571.535 m
355.895 568.943 L
355.103 566.279 L
354.959 566.279 355.031 566.279 355.031 566.279 c
355.031 566.279 355.031 566.279 354.959 566.279 c
344.735 567.072 339.191 567.431 331.631 568.007 C
329.975 568.727 329.615 570.455 329.471 575.639 C
329.399 578.015 329.399 579.815 330.191 580.751 C
330.551 581.543 344.303 583.055 349.991 582.551 C
351.359 582.336 351.575 581.327 352.007 580.391 C
353.303 572.687 L
353.375 572.327 353.735 571.895 354.167 571.751 C
356.615 571.535 L
b
0.000 0.000 0.000 1.000 K
0 j
2 J
0.071 w
[]0 d
0.000 0.000 0.000 0.498 k
191.591 908.999 m
192.311 906.407 L
193.103 903.743 L
193.247 903.743 193.175 903.743 193.175 903.743 c
193.175 903.743 193.175 903.743 193.247 903.743 c
203.471 904.535 209.015 904.895 216.575 905.471 C
218.231 906.191 218.591 907.919 218.735 913.103 C
218.807 915.479 218.807 917.279 218.015 918.215 C
217.655 919.007 203.903 920.519 198.215 920.015 C
196.847 919.799 196.631 918.791 196.199 917.855 C
194.903 910.151 L
194.831 909.791 194.471 909.359 194.039 909.215 C
191.591 908.999 L
b
u
u
0.000 0.000 0.000 0.498 k
850.175 906.191 m
850.175 906.047 L
850.967 903.671 L
850.679 904.535 850.463 905.399 850.175 906.191 C
f
0.000 0.000 0.000 0.498 k
850.175 919.223 m
850.175 907.631 L
850.967 903.671 L
858.239 904.247 862.991 904.535 869.255 904.967 C
870.911 905.687 871.271 907.415 871.415 912.599 C
871.487 914.975 871.487 916.775 870.695 917.711 C
870.335 918.503 856.583 920.015 850.895 919.511 C
850.607 919.439 850.319 919.367 850.175 919.223 C
f
0.000 0.000 0.000 0.498 k
849.455 908.279 m
849.455 908.279 L
f
0.000 0.000 0.000 0.498 k
850.175 907.631 m
850.175 919.223 L
849.527 918.935 849.239 918.287 849.023 917.639 C
849.023 913.391 L
850.175 907.631 L
f
0.000 0.000 0.000 0.498 k
850.175 906.047 m
850.175 906.191 L
849.887 906.911 849.671 907.559 849.455 908.279 C
850.175 906.047 L
f
0.000 0.000 0.000 0.498 k
849.023 911.951 m
849.023 911.879 L
849.455 908.279 L
849.311 909.503 849.167 910.727 849.023 911.951 C
f
0.000 0.000 0.000 0.498 k
849.023 913.391 m
849.023 917.639 L
848.951 917.567 848.879 917.423 848.879 917.351 C
848.591 915.623 L
849.023 913.391 L
f
0.000 0.000 0.000 0.498 k
849.023 911.879 m
849.023 911.951 L
848.879 913.175 848.735 914.399 848.591 915.623 C
849.023 911.879 L
f
U
u
0.000 0.000 0.000 1.000 K
0 j
2 J
0.071 w
[]0 d
849.455 908.279 m
849.455 908.279 L
s
0.000 0.000 0.000 1.000 K
0 j
2 J
0.071 w
[]0 d
848.591 915.623 m
848.879 913.247 849.167 910.799 849.455 908.279 C
848.591 915.623 L
s
0.000 0.000 0.000 1.000 K
0 j
2 J
0.071 w
[]0 d
850.967 903.671 m
850.535 905.255 850.031 906.767 849.455 908.279 C
850.967 903.671 L
s
0.000 0.000 0.000 1.000 K
0 j
2 J
0.071 w
[]0 d
850.967 903.671 m
858.239 904.247 862.991 904.535 869.255 904.967 C
870.911 905.687 871.271 907.415 871.415 912.599 C
871.487 914.975 871.487 916.775 870.695 917.711 C
870.335 918.503 856.583 920.015 850.895 919.511 C
849.527 919.295 849.311 918.287 848.879 917.351 C
848.591 915.623 L
850.967 903.671 L
s
U
U
0.000 0.000 0.000 1.000 K
0 j
2 J
0.071 w
[]0 d
0.000 0.000 0.000 0.498 k
622.223 915.839 m
621.791 913.679 621.431 911.519 621.000 909.359 C
620.567 907.847 620.135 906.191 619.703 904.463 C
612.503 905.039 607.679 905.327 601.487 905.831 C
599.831 906.551 599.399 908.279 599.327 913.463 C
599.255 915.839 599.183 917.639 600.048 918.575 C
600.407 919.367 614.087 920.879 619.847 920.375 C
621.144 920.159 621.431 919.151 621.791 918.215 C
622.223 915.839 L
b
0.000 0.000 0.000 1.000 K
0 j
2 J
0.071 w
[]0 d
0.000 0.000 0.000 0.098 k
628.847 513.575 m
682.847 513.575 L
684.575 513.503 685.295 513.647 685.583 514.871 C
686.159 516.671 686.375 528.048 685.295 529.271 C
683.279 533.375 679.751 540.647 677.519 540.719 C
636.551 539.927 L
634.175 539.855 632.951 539.063 631.367 535.823 C
629.279 530.855 628.847 518.975 628.847 513.575 C
b
0.000 0.000 0.000 1.000 K
0 j
2 J
0.071 w
[]0 d
634.463 535.535 m
632.087 530.711 632.015 523.799 631.799 518.471 C
631.727 517.103 L
631.727 516.384 L
682.991 516.384 L
683.351 520.055 683.423 524.375 682.847 528.048 C
681.120 531.288 679.391 534.671 677.231 537.623 C
677.015 537.839 L
636.767 537.048 L
635.399 536.975 635.183 536.759 634.463 535.535 C
s
u
u
0.000 0.000 0.000 1.000 K
0 j
2 J
0.071 w
[]0 d
852.551 513.503 m
843.335 513.503 L
842.831 522.935 842.975 541.079 834.551 541.223 C
800.927 542.447 769.319 542.447 735.263 542.447 C
701.135 542.519 668.375 542.303 635.183 541.007 C
628.127 540.863 627.695 523.007 627.192 513.503 C
618.048 513.503 L
S
U
U
u
u
0.000 0.000 0.000 1.000 K
0 j
2 J
0.071 w
[]0 d
839.663 572.327 m
835.487 541.079 L
S
U
U
u
u
0.000 0.000 0.000 1.000 K
0 j
2 J
0.071 w
[]0 d
844.919 513.432 m
844.847 520.991 844.991 542.015 835.703 542.807 C
S
U
U
u
u
0.000 0.000 0.000 1.000 K
0 j
2 J
0.071 w
[]0 d
838.511 572.399 m
833.903 541.223 L
S
U
U
u
u
0.000 0.000 0.000 1.000 K
0 j
2 J
0.071 w
[]0 d
631.943 572.399 m
636.623 541.079 L
S
U
U
u
u
0.000 0.000 0.000 1.000 K
0 j
2 J
0.071 w
[]0 d
634.967 541.007 m
630.791 572.399 L
S
U
U
u
u
0.000 0.000 0.000 1.000 K
0 j
2 J
0.071 w
[]0 d
634.751 542.879 m
625.463 542.087 626.111 522.432 625.535 513.575 C
S
U
U
u
u
0.000 0.000 0.000 1.000 K
0 j
2 J
0.071 w
[]0 d
635.903 491.975 m
637.487 485.495 639.863 484.991 643.535 478.727 C
S
U
U
u
u
0.000 0.000 0.000 1.000 K
0 j
2 J
0.071 w
[]0 d
629.279 573.120 m
629.423 572.399 630.431 572.687 630.935 572.543 C
663.983 574.775 700.199 575.207 735.191 574.775 C
770.255 575.135 806.471 574.775 839.447 572.543 C
840.023 572.687 840.959 572.327 841.103 573.048 C
S
U
U
0.000 0.000 0.000 1.000 K
0 j
2 J
0.071 w
[]0 d
629.351 573.048 m
629.567 575.855 641.447 608.399 661.391 637.343 C
660.311 636.983 659.447 636.551 658.871 636.048 C
647.351 620.495 632.735 592.703 627.192 573.767 C
627.192 573.623 626.687 572.255 626.903 572.255 C
627.551 571.967 628.415 572.111 629.351 573.048 C
s
0.000 0.000 0.000 1.000 K
0 j
2 J
0.071 w
[]0 d
840.887 573.120 m
840.671 575.927 828.719 608.327 808.775 637.271 C
809.855 636.911 810.791 636.623 811.367 636.120 C
822.815 620.567 837.503 592.775 842.975 573.839 C
842.975 573.695 843.479 572.327 843.335 572.327 C
842.687 572.039 841.751 572.183 840.887 573.120 C
s
0.000 0.000 0.000 1.000 K
0 j
2 J
0.071 w
[]0 d
0.000 0.000 0.000 0.498 k
811.151 628.775 m
808.127 634.679 773.279 633.959 735.191 633.887 C
697.031 634.031 662.327 634.679 659.231 628.847 C
650.159 613.655 639.431 594.359 633.959 575.351 C
634.463 574.343 635.111 572.759 638.567 572.975 C
704.159 575.855 770.327 575.567 831.671 572.903 C
835.199 572.615 835.919 574.343 836.423 575.351 C
830.951 594.359 820.223 613.655 811.151 628.775 C
b
0.000 0.000 0.000 1.000 K
0 j
2 J
0.071 w
[]0 d
0.000 0.000 0.000 0.200 k
677.015 630.359 m
672.407 630.072 666.575 629.783 662.327 627.839 C
660.887 626.831 660.024 624.527 659.159 623.015 C
651.168 609.911 644.255 595.871 638.855 581.543 C
638.279 579.743 637.631 577.727 637.127 575.927 C
637.631 575.855 L
638.567 575.855 L
691.271 578.015 744.119 578.591 796.823 577.007 C
808.775 576.647 820.799 576.144 832.751 575.711 C
833.183 575.783 L
833.327 575.783 L
827.783 594.000 818.495 611.063 808.703 627.335 C
807.767 628.775 801.359 629.567 799.919 629.783 C
783.143 631.295 766.151 631.151 749.303 631.151 C
729.431 630.935 709.415 631.367 689.543 630.935 C
685.367 630.791 681.120 630.647 677.015 630.359 C
b
u
u
0.000 0.000 0.000 1.000 K
0 j
2 J
0.071 w
[]0 d
844.199 570.168 m
844.055 570.168 843.335 570.024 843.263 569.591 C
839.159 541.583 L
S
U
U
0.000 0.000 0.000 1.000 K
0 j
2 J
0.071 w
[]0 d
801.791 569.591 m
796.967 569.591 L
787.463 547.847 L
791.639 547.919 L
801.791 569.591 L
s
u
u
0.000 0.000 0.000 1.000 K
0 j
2 J
0.071 w
[]0 d
797.831 568.655 m
788.759 548.135 L
S
U
U
0.000 0.000 0.000 1.000 K
0 j
2 J
0.071 w
[]0 d
0.000 0.000 0.000 0.098 k
841.751 513.575 m
787.679 513.575 L
785.951 513.575 785.231 513.647 784.943 514.943 C
784.367 516.743 784.007 527.975 785.087 529.199 C
787.103 533.303 790.703 541.151 792.935 541.295 C
833.831 540.503 L
836.207 540.431 837.503 539.639 839.015 536.399 C
841.247 531.432 841.751 518.975 841.751 513.575 C
b
0.000 0.000 0.000 1.000 K
0 j
2 J
0.071 w
[]0 d
838.439 524.951 m
838.583 522.216 838.799 519.264 838.943 516.456 C
787.607 516.456 L
787.175 520.127 787.103 524.159 787.535 527.831 C
789.191 531.144 791.063 535.679 793.511 538.415 C
833.759 537.623 L
835.631 537.551 836.135 536.111 836.783 534.455 C
837.647 531.432 838.151 528.120 838.439 524.951 C
s
u
u
0.000 0.000 0.000 1.000 K
0 j
2 J
0.071 w
[]0 d
636.335 543.168 m
659.951 544.463 688.607 544.679 735.191 544.463 C
781.703 544.607 810.287 544.391 833.975 543.096 C
S
U
U
0.000 0.000 0.000 1.000 K
0 j
2 J
0.071 w
[]0 d
687.959 523.799 m
687.959 531.000 686.735 531.144 681.623 541.151 C
735.479 541.295 L
789.335 541.151 L
784.151 531.144 782.567 531.000 782.567 523.727 C
687.959 523.799 L
s
u
u
0.000 0.000 0.000 1.000 K
0 j
2 J
0.071 w
[]0 d
617.975 512.855 m
683.783 512.855 L
687.383 512.783 687.096 512.423 687.599 520.199 C
687.599 521.135 687.887 521.783 689.039 522.072 C
781.487 522.000 L
782.711 521.783 782.927 521.135 782.927 520.199 C
783.431 512.351 783.143 512.783 786.815 512.783 C
852.551 512.855 L
S
U
U
0.000 0.000 0.000 1.000 K
0 j
2 J
0.071 w
[]0 d
840.527 473.183 m
844.343 466.559 L
628.919 466.559 L
630.287 469.079 630.791 471.383 631.223 473.183 C
626.759 474.911 622.439 488.303 621.144 492.551 C
620.783 492.479 620.495 492.335 620.207 492.263 C
616.967 510.767 L
616.967 511.487 617.183 512.855 617.975 512.855 C
616.535 521.567 616.031 526.391 616.607 531.503 C
619.487 543.743 L
618.839 544.535 L
619.775 549.863 L
621.431 553.967 626.327 571.319 626.831 572.255 C
627.551 571.895 628.847 572.327 629.207 573.048 C
634.751 591.767 650.447 622.007 661.391 637.271 C
664.919 638.783 670.823 639.072 676.583 639.431 C
677.519 638.783 L
715.463 640.439 754.343 640.439 793.007 638.711 C
793.943 639.647 L
799.415 639.216 804.887 638.639 808.847 637.271 C
819.863 622.007 835.415 591.839 841.103 573.048 C
841.175 572.399 842.615 572.111 843.479 572.327 C
845.711 565.487 L
846.215 563.687 849.455 554.903 850.679 550.079 C
851.615 544.535 L
850.967 543.743 L
853.775 531.863 L
854.351 526.679 853.991 521.567 852.551 512.855 C
853.415 512.855 853.559 511.487 853.559 510.767 C
850.247 492.191 L
849.887 492.335 849.527 492.479 849.167 492.551 C
847.007 487.367 840.455 473.687 840.527 473.183 C
s
u
u
0.000 0.000 0.000 1.000 K
0 j
2 J
0.071 w
[]0 d
834.551 491.975 m
832.967 485.495 830.591 484.991 826.919 478.727 C
S
U
U
u
u
0.000 0.000 0.000 1.000 K
0 j
2 J
0.071 w
[]0 d
638.711 492.335 m
639.791 487.655 643.103 483.191 646.703 482.111 C
678.455 479.375 708.263 478.223 735.191 478.223 C
762.119 478.223 791.927 479.375 823.679 482.111 C
827.279 483.191 830.591 487.583 831.743 492.335 C
S
U
U
0.000 0.000 0.000 1.000 K
0 j
2 J
0.071 w
[]0 d
686.375 569.015 m
686.375 570.312 L
784.223 570.383 L
784.223 569.087 L
686.375 569.015 L
s
0.000 0.000 0.000 1.000 K
0 j
2 J
0.071 w
[]0 d
735.119 524.879 m
771.263 524.879 L
774.575 525.096 777.239 527.039 779.759 529.703 c
781.703 531.791 779.399 532.367 777.599 532.367 c
735.263 532.367 L
692.639 532.367 l
690.839 532.367 688.535 531.791 690.479 529.703 c
693.000 527.039 695.663 525.096 698.975 524.879 C
735.119 524.879 L
s
0.000 0.000 0.000 1.000 K
0 j
2 J
0.071 w
[]0 d
699.551 529.775 m
771.263 529.775 l
772.055 529.775 772.631 529.199 772.631 528.479 c
772.631 528.479 l
772.631 527.687 772.055 527.111 771.263 527.111 c
699.551 527.111 l
698.759 527.111 698.183 527.687 698.183 528.479 c
698.183 528.479 l
698.183 529.199 698.759 529.775 699.551 529.775 c
s
0.000 0.000 0.000 1.000 K
0 j
2 J
0.071 w
[]0 d
735.335 524.879 m
731.087 524.879 727.775 528.192 727.775 532.295 c
727.775 536.399 731.087 539.783 735.335 539.783 c
739.511 539.783 742.823 536.399 742.823 532.295 c
742.823 528.192 739.511 524.879 735.335 524.879 c
s
0.000 0.000 0.000 1.000 K
0 j
2 J
0.071 w
[]0 d
735.263 538.415 m
738.647 538.415 741.383 535.679 741.383 532.367 c
741.383 529.055 738.647 526.319 735.263 526.319 c
731.879 526.319 729.143 529.055 729.143 532.367 c
729.143 535.679 731.879 538.415 735.263 538.415 c
s
0.000 0.000 0.000 1.000 K
0 j
2 J
0.071 w
[]0 d
730.439 530.135 m
730.871 530.207 731.303 530.279 731.735 530.207 C
731.879 530.135 733.103 529.559 733.391 529.991 c
733.535 530.135 733.463 530.423 733.463 530.639 C
733.319 531.144 732.959 531.863 731.807 532.583 C
731.591 532.655 730.943 532.871 730.079 533.015 C
729.791 533.087 729.719 533.231 729.719 533.591 C
729.719 533.879 730.079 535.319 730.799 535.247 C
731.447 535.175 732.095 534.743 732.671 534.527 C
732.815 534.527 732.815 534.671 732.743 534.743 C
732.383 535.175 730.943 535.391 730.943 535.823 C
730.871 536.111 731.807 536.903 732.311 537.192 c
732.599 537.336 732.671 537.264 733.103 537.048 c
733.463 536.831 734.111 536.183 734.615 535.823 c
734.759 535.679 734.831 535.823 734.759 535.967 c
734.471 536.399 733.535 537.120 733.391 537.479 C
733.391 537.983 735.335 538.127 735.839 537.911 C
736.127 537.767 736.487 537.623 736.703 537.408 c
738.215 535.535 739.007 533.231 738.071 530.783 c
738.000 530.639 738.000 530.423 738.000 530.279 c
737.927 529.991 738.143 529.919 738.359 530.063 c
738.431 530.135 738.431 530.279 738.575 530.351 C
739.727 530.135 739.943 529.775 740.087 529.631 c
740.231 529.487 740.231 529.415 740.087 529.199 c
739.727 528.911 739.367 528.479 738.647 528.551 C
738.503 528.623 738.431 528.839 738.143 528.839 C
736.559 528.839 734.615 528.767 733.103 528.623 c
732.599 528.551 731.951 528.264 731.519 528.264 C
731.231 528.192 731.231 528.336 731.087 528.551 c
730.871 528.983 730.583 529.487 730.295 529.703 c
730.079 529.847 730.079 529.991 730.439 530.135 C
s
0.000 0.000 0.000 1.000 K
0 j
2 J
0.071 w
[]0 d
736.199 531.935 m
736.703 531.935 737.063 531.575 737.063 531.144 c
737.063 530.711 736.703 530.351 736.199 530.351 c
735.767 530.351 735.407 530.711 735.407 531.144 c
735.407 531.575 735.767 531.935 736.199 531.935 c
s
0.000 0.000 0.000 1.000 K
0 j
2 J
0.071 w
[]0 d
0.000 0.000 0.000 0.098 k
771.767 515.159 m
774.719 514.943 776.663 513.144 776.879 510.119 C
776.879 499.751 L
776.735 496.943 774.647 494.927 771.767 494.711 C
697.895 494.711 L
695.087 494.927 693.072 496.943 692.855 499.751 C
692.855 510.119 L
693.072 513.072 695.015 514.943 697.895 515.159 C
771.767 515.159 L
b
0.000 0.000 0.000 1.000 K
0 j
2 J
0.071 w
[]0 d
698.039 512.351 m
771.695 512.351 l
772.991 512.351 774.071 511.343 774.071 510.047 c
774.071 499.895 l
774.071 498.671 772.991 497.591 771.695 497.591 c
698.039 497.591 l
696.743 497.591 695.735 498.671 695.735 499.895 c
695.735 510.047 l
695.735 511.343 696.743 512.351 698.039 512.351 c
s
0.000 0.000 0.000 1.000 K
0 j
2 J
0.071 w
[]0 d
668.663 569.591 m
673.415 569.591 L
682.991 547.847 L
678.815 547.919 L
668.663 569.591 L
s
u
u
0.000 0.000 0.000 1.000 K
0 j
2 J
0.071 w
[]0 d
672.623 568.655 m
681.623 548.135 L
S
U
U
u
u
0.000 0.000 0.000 1.000 K
0 j
2 J
0.071 w
[]0 d
626.255 570.168 m
626.327 570.168 627.048 570.024 627.192 569.591 C
631.223 541.511 L
S
U
U
u
u
0.000 0.000 0.000 1.000 K
0 j
2 J
0.071 w
[]0 d
631.223 472.175 m
700.919 475.847 770.687 475.199 840.527 472.247 C
S
U
U
u
u
0.000 0.000 0.000 1.000 K
0 j
2 J
0.071 w
[]0 d
621.144 492.551 m
850.247 492.551 L
S
U
U
0.000 0.000 0.000 1.000 K
0 j
0 J
2.016 w
[]0 d
293.255 396.503 m
293.255 403.847 L
293.039 403.847 L
290.447 397.727 L
290.087 397.727 L
287.423 403.847 L
287.279 403.847 L
287.279 396.503 L
287.279 403.847 L
287.423 403.847 L
290.087 397.727 L
290.447 397.727 L
293.039 403.847 L
293.255 403.847 L
293.255 396.503 L
s
0.000 0.000 0.000 1.000 K
0 j
0 J
2.016 w
[]0 d
284.183 396.503 m
284.183 403.847 L
283.967 403.847 L
281.375 397.727 L
281.015 397.727 L
278.351 403.847 L
278.207 403.847 L
278.207 396.503 L
278.207 403.847 L
278.351 403.847 L
281.015 397.727 L
281.375 397.727 L
283.967 403.847 L
284.183 403.847 L
284.183 396.503 L
s
0.000 0.000 0.000 1.000 K
0 j
0 J
2.016 w
[]0 d
270.863 403.919 m
269.927 403.919 269.063 403.199 269.063 402.047 c
269.063 398.303 l
269.063 397.151 269.927 396.431 270.863 396.431 c
271.871 396.431 272.663 397.151 272.663 398.303 c
272.663 402.047 l
272.663 403.199 271.871 403.919 270.863 403.919 c
s
0.000 0.000 0.000 1.000 K
0 j
0 J
2.016 w
[]0 d
270.863 403.919 m
271.871 403.919 272.663 403.199 272.663 402.047 c
272.663 398.303 l
272.663 397.151 271.871 396.431 270.863 396.431 c
269.927 396.431 269.063 397.151 269.063 398.303 c
269.063 402.047 l
269.063 403.199 269.927 403.919 270.863 403.919 c
s
0.000 0.000 0.000 1.000 K
0 j
0 J
2.016 w
[]0 d
265.103 403.919 m
264.168 403.919 263.303 403.199 263.303 402.047 c
263.303 398.303 l
263.303 397.151 264.168 396.431 265.103 396.431 c
266.111 396.431 266.903 397.151 266.903 398.303 c
266.903 402.047 l
266.903 403.199 266.111 403.919 265.103 403.919 c
s
0.000 0.000 0.000 1.000 K
0 j
0 J
2.016 w
[]0 d
265.103 403.919 m
266.111 403.919 266.903 403.199 266.903 402.047 c
266.903 398.303 l
266.903 397.151 266.111 396.431 265.103 396.431 c
264.168 396.431 263.303 397.151 263.303 398.303 c
263.303 402.047 l
263.303 403.199 264.168 403.919 265.103 403.919 c
s
0.000 0.000 0.000 1.000 K
0 j
0 J
2.016 w
[]0 d
261.144 396.503 m
257.687 396.503 L
257.687 397.079 L
260.711 400.895 l
261.000 401.327 261.144 401.687 261.144 402.047 c
261.144 403.055 260.351 403.919 259.271 403.919 c
258.479 403.919 257.831 403.415 257.615 402.695 C
257.831 403.415 258.479 403.919 259.271 403.919 c
260.351 403.919 261.144 403.055 261.144 402.047 c
261.144 401.687 261.000 401.327 260.711 400.895 c
257.687 397.079 L
257.687 396.503 L
261.144 396.503 L
s
0.000 0.000 0.000 1.000 K
0 j
0 J
2.016 w
[]0 d
255.743 397.727 m
251.567 397.727 L
251.567 398.303 L
254.087 403.847 L
251.567 398.303 L
251.567 397.727 L
255.743 397.727 L
s
0.000 0.000 0.000 1.000 K
0 j
0 J
2.016 w
[]0 d
255.023 396.503 m
255.023 400.175 L
255.023 396.503 L
s
u
u
0.000 0.000 0.000 1.000 K
0 j
0 J
0.215 w
[]0 d
-16.703 386.639 m
-16.703 400.751 L
196.343 400.751 L
S
U
U
u
u
0.000 0.000 0.000 1.000 K
0 j
0 J
0.215 w
[]0 d
348.048 400.751 m
563.471 400.751 L
563.471 384.263 L
S
U
U
%%Trailer
_E end