%!PS-Adobe-2.0 EPSF-1.2
%%Creator: Adobe Illustrator exported from Corel Draw 3.0
%%Title:6
%%BoundingBox:-23 404 2053 1626
%%CreationDate:(Unknown)
%%ColorUsage:
%%TemplateBox:-23 404 2053 1626
%%EndComments
%%BeginProcSet:Adobe_Illustrator_1.1 0 0
% Version 1.0 3/27/1990 $nokeywords$
% Copyright (C) 1990,1991,1992
% Corel Corporation
% All Rights Reserved

/wPmsDict 150 dict def 
wPmsDict begin 

/$debug 25 string def 

/bd {bind def} bind def 
/ld {load def} bd 
/xd {exch def} bd 
/_ null def 

/$c 0 def 
/$m 0 def 
/$y 0 def 
/$k 0 def 
/$t 1 def 
/$n _ def 
/$o 0 def 
/$pf false def 

/$C 0 def 
/$M 0 def 
/$Y 0 def 
/$K 0 def 
/$T 1 def 
/$N _ def 
/$O 0 def 
/$PF false def 

/$h false def 

/$al 0 def 
/$tr 0 def 
/$le 0 def 
/$lx 0 def 
/$ly 0 def 

/$ctm matrix currentmatrix def 
/$ptm matrix def 

/$pn () def 
/$pm matrix def 
/$px 0 def 
/$py 0 def 
/$pxf 0 def 
/$pyf 0 def 
/$psx 10 def 
/$psy 0 def 

/$llx 0 def 
/$lly 0 def 
/$urx 0 def 
/$ury 0 def 


/$Bbllx 0 def 
/$Bblly 0 def 
/$Bburx 0 def 
/$Bbury 0 def 

/$tllx 0 def 
/$tlly 0 def 
/$turx 0 def 
/$tury 0 def 

/$pd [] def 
/$tx 0 def 
/$ty 0 def 

/$sv 0 def 
/@cp /closepath ld 
/@gs /gsave ld 
/@gr /grestore ld 
/@np /newpath ld 
/@sv {/$sv save def}bd 
/@rs {$sv restore}bd 

/@MN { 
2 copy le{pop}{exch pop}ifelse 
}bd 

/setcmykcolor where {pop} 
{ 
/setcmykcolor 
{ 
4 1 roll 
3 {3 index add 1 @MN 1 exch sub 3 1 roll} repeat 
setrgbcolor 
pop 
}bd 
}ifelse 

/@tc 
{ 
dup 1 ge 
{pop} 
{ 
4 { 
dup 
6 -1 roll 
mul 
exch 
}repeat 
pop 
}ifelse 
}bd 

/@scc 
{ 
$c $m $y $k $t @tc 
setcmykcolor 
true 
}bd 
/@SCC 
{ 
$C $M $Y $K $T @tc 
setcmykcolor 
true 
}bd 

/@sft 
{ 
(setfirsttile sft )print 
/$tx $tllx $pxf add dup $tllx gt {$pwid $psx add sub}if def 
/$ty $tury $pyf sub dup $tury lt {$phei $psy add add}if def 
(setfirsttile exit )print 
}bd 

/@stb 
{ 
pathbbox /$ury xd /$urx xd /$lly xd /$llx xd 
}bd 

/@ep 
{ 
{ 
cvx exec 
}forall 
}bd 

/@tp 
{ 

(tile pattern tp )print 
@sv 
/$in true def 
2 copy 
dup $lly le {/$in false def}if 
$phei sub $ury ge {/$in false def}if 
dup $urx ge {/$in false def}if 
$pwid add $llx le {/$in false def}if 
$in 
{ 
@np 
2 copy moveto 
$pwid 0 rlineto 
0 $phei neg rlineto 
$pwid neg 0 rlineto 
0 $phei rlineto 
clip @np 

$pn cvlit load aload pop 
7 -1 roll 
5 index sub 
7 -1 roll 
3 index sub 
translate 
@ep 
pop pop pop pop 
} 
{pop pop}ifelse 
@rs 
(tile pattern exit )print 
}bd 

/@th 
{ 
(tile horizontal th)print 
@sft 
0 1 $tly 1 sub 
{ 
dup $psx mul $tx add 
{ 
dup $llx gt {$pwid sub}{exit}ifelse 
}loop 
exch $phei mul $ty exch sub 

0 1 $tlx 1 sub 
{ 
$pwid mul 
3 copy 
3 -1 roll add exch 
@tp 
pop 
}for 
pop pop 
} for 
(tile horizontal exiting )print 
}bd 

/@tv 
{ 
(tile vertical tv)print 
@sft 
0 1 $tlx 1 sub 
{ 
dup $pwid mul $tx add 
exch $psy mul $ty exch sub 
{ 
dup $ury lt {$phei add}{exit}ifelse 
}loop 

0 1 $tly 1 sub 
{ 
$phei mul 
3 copy sub 
@tp 
pop 
}for 
pop pop 
} for 
(tile vertical exit )print 
}bd 

/@pf 
{ 
(pattern fill pf)print 
@gs 
$pm concat 
@stb 
@gs 1 setgray eofill @gr 
eoclip 
$Bburx $Bbury $pm itransform /$tury xd /$turx xd 
$Bbllx $Bblly $pm itransform /$tlly xd /$tllx xd 
/$wid $turx $tllx sub def 
/$hei $tury $tlly sub def 
$wid 0 gt $hei 0 gt and 
{ 
$pn cvlit load aload pop 
$pd xd 
3 -1 roll sub /$phei xd 
exch sub /$pwid xd 
/$tlx $wid $pwid div ceiling 1 add def 
/$tly $hei $phei div ceiling 1 add def 
$psx 0 eq 
{ 
@tv 
} 
{ 
@th 
}ifelse 
}if 

@gr 
@np 
(pattern fill exit)print 
}bd 

/@xp 
{ 
{ 
dup (text Character is:) print == 
usertime (time before is:)print == 
(0) dup 3 -1 roll 0 exch put 
@gs 
true charpath currentpoint 
$ctm setmatrix 
@pf 
@gr 
@np 
moveto $tr 0 rmoveto 
usertime (time after is:)print == 
}forall 
pop 
}bd 

/@sm 
{ 
/$ctm $ctm currentmatrix def 
}bd 

%--@lorg  move to line origin   length string @torg length string
/@lorg    % moves currentpoint to line origin according to current alignment
  {      
  $lx $ly moveto    
  /$ly $ly $le sub def      % - prepare for next line(tracking)
  $al 0 ne
    {dup      % ->len str len str
    stringwidth   % ->len str len dx dy
    exch 3 index  % ->len str dy len dx
    1 sub         % ->len str dy len dx (len-1)
    $tr mul add   % ->len str dy len dx+(len-1)*$tr
    neg
    exch neg      % ->len str -dx_total dy len
    $al 1 eq      % check for centered alignment
    {2 div exch 2 div exch} if  
    rmoveto} if
  }bd

/@ft 
{ 
$pf 
{@xp} 
{ 
@scc 
{$tr exch 0 exch ashow pop} 
{pop pop}ifelse 
}ifelse 
}bd 

/@st 
{ 
$PF 
{} 
{ 
@SCC 
{ 
{ 
(0) dup 3 -1 roll 0 exch put 
@gs 
true charpath currentpoint 
$ctm setmatrix $ptm concat 
stroke 
@gr 
moveto $tr 0 rmoveto 
}forall 
pop 
} 
{pop pop}ifelse 
}ifelse 
}bd 
/@pt 
{ 
dup length exch 
}bd 
/@te 
{ 
@pt 
@lorg 
@ft 
}bd 

/@tr 
{ 
@pt 
@lorg 
@st 
}bd 
/@ta 
{ 
@pt 
@lorg 
2 copy 
@gs @ft @gr 
/$lx 0 def 
/$ly 0 def 
@st 
}bd 















/g { 
1 exch sub /$k xd 
/$c 0 def /$m 0 def /$y 0 def /$t 1 def /$n _ def /$pf false def 
}bd 

/G { 
1 exch sub /$K xd 
/$C 0 def /$M 0 def /$Y 0 def /$T 1 def /$N _ def /$PF false def 
}bd 

/k { 
/$k xd /$y xd /$m xd /$c xd 
/$t 1 def /$n _ def /$pf false def 
}bd 

/K { 
/$K xd /$Y xd /$M xd /$C xd 
/$T 1 def /$N _ def /$PF false def 
}bd 

/x { 
/$t xd /$n xd 
/$k xd /$y xd /$m xd /$c xd /$pf false def 
}bd 

/X { 
/$T xd /$N xd 
/$K xd /$Y xd /$M xd /$C xd /$PF false def 
}bd 

/d /setdash ld 

/i { 
dup 0 ne {setflat} {pop} ifelse 
}bd 

/j /setlinejoin ld 

/J /setlinecap ld 

/M /setmiterlimit ld 

/w /setlinewidth ld 

/O { 
/$o xd 
}bd 

/R { 
/$O xd 
}bd 


/c /curveto ld 

/C /c ld 

/v { 
currentpoint
6 2 roll 
curveto 
}bd

/V /v ld 

/y { 
2 copy curveto 
}bd 

/Y /y ld 

/l /lineto ld 

/L /l ld 

/m /moveto ld 



/n /newpath ld 

/N /newpath ld 

/F { 
$pf 
{@pf} 
{ 
@scc 
{eofill}if 
}ifelse 
}bd 

/f { 
@cp F 
}bd 
/S { 
$PF 
{} 
{ 
@SCC 
{ 
@sm 
$ptm concat 
stroke 
$ctm setmatrix 
}if 
}ifelse 
}bd 
/s { 
@cp 
S 
}bd 

/B { 
@gs F @gr 
S 
}bd 
/b { 
@cp 
B 
}bd 

/W { 
oeclip 
@np 
}bd 

/p { 
/$pm xd 
7 {pop} repeat 
/$pyf xd /$pxf xd 
/$pn xd 
/$pf true def 
}bd 

/P { 
11 {pop} repeat 
}bd 

/@p { 
/$pm xd 
/$psy xd 
/$psx xd 
/$pyf xd /$pxf xd 
/$pn xd 
/$pf true def 
}bd 

/@b { 
/$Bbury xd /$Bburx xd 
/$Bblly xd /$Bbllx xd 
}bd 


/z { 
/$al xd 
/$tr xd 
/$le xd 
exch findfont exch scalefont setfont 
}bd 

/Z { 
dup type 0 type eq { /$bDir xd } if
findfont 
dup maxlength 1 add dict exch 



dup 
{1 index /FID ne 
{ 
3 index 
3 1 roll put 
} 
{pop pop}ifelse 
} forall 



pop 
dup dup /Encoding get 
256 array copy 
dup /$fe xd
/Encoding exch put 

dup /Fontname 3 index put 

}bd 

/e { 
@sm 
concat 
[ 
/t {@te}def 
}bd 

/r { 
@sm 
concat 
[ 
/t {@tr}def 
}bd 

/o { 
@sm 
concat 
[ 
/t {pop}def 
}bd 

/a { 
@sm 
concat 
[ 
/t {@ta}def 
}bd 

/@o{
@sm 
concat 
[ 
/t {@t@a}def 
}bd 

/I { 
@sm 
concat 
[ 
/t {pop}def 
}bd 

/t {@te}def 

/T { 
cleartomark 
/$lx 0 def 
/$ly 0 def 
$ctm setmatrix 
}bd 


/u {}bd 

/U {}bd 

/A {pop}bd 

/h { 
$h true def 
}bd 

/h { 
$h true def 
}bd 

/q /@gs ld 

/Q /@gr ld 



/E { 
5 array astore 
exch cvlit exch def 
}bd 

/` {}bd 

/~ {}bd 

/@ {}bd 

/& {}bd 

/CorelDrawRencodeVect [ 
16#80/grave 
16#81/circumflex 
16#82/tilde 
16#83/dotlessi 
16#84/florin 
16#85/quotedblleft 
16#86/quotedblright 
16#87/guilsinglleft 
16#88/guilsinglright 
16#89/fi 
16#8a/fl 
16#8b/dagger 
16#8c/daggerdbl 
16#8d/endash 
16#8e/periodcentered 
16#8f/breve 
16#90/quotedblbase 
16#91/ellipsis 
16#92/perthousand 
16#a1/exclamdown 
16#a2/cent 
16#a3/sterling 
16#a4/currency 
16#a5/yen 
16#a6/bar 
16#a7/section 
16#a8/dieresis 
16#a9/copyright 
16#aa/ordfeminine 
16#ab/guillemotleft 
16#ac/logicalnot 
16#ad/emdash 
16#ae/registered 
16#af/spac 
16#b0/ring 
16#b1/spac 
16#b2/spac 
16#b3/spac 
16#b4/acute 
16#b5/spac 
16#b6/paragraph 
16#b7/bullet 
16#b8/cedilla 
16#b9/spac 
16#ba/ordmasculine 
16#bb/guillemotright 
16#bc/spac 
16#bd/spac 
16#be/spac 
16#bf/questiondown 
16#c0/Agrave 
16#c1/Aacute 
16#c2/Acircumflex 
16#c3/Atilde 
16#c4/Adieresis 
16#c5/Aring 
16#c6/AE 
16#c7/Ccedilla 
16#c8/Egrave 
16#c9/Eacute 
16#ca/Ecircumflex 
16#cb/Edieresis 
16#cc/Igrave 
16#cd/Iacute 
16#ce/Icircumflex 
16#cf/Idieresis 
16#d0/spac 
16#d1/Ntilde 
16#d2/Ograve 
16#d3/Oacute 
16#d4/Ocircumflex 
16#d5/Otilde 
16#d6/Odieresis 
16#d7/OE 
16#d8/Oslash 
16#d9/Ugrave 
16#da/Uacute 
16#db/Ucircumflex 
16#dc/Udieresis 
16#dd/space 
16#de/spac 
16#df/germandbls 
16#e0/agrave 
16#e1/aacute 
16#e2/acircumflex 
16#e3/atilde 
16#e4/adieresis 
16#e5/aring 
16#e6/ae 
16#e7/ccedilla 
16#e8/egrave 
16#e9/eacute 
16#ea/ecircumflex 
16#eb/edieresis 
16#ec/igrave 
16#ed/iacute 
16#ee/icircumflex 
16#ef/idieresis 
16#f0/space 
16#f1/ntilde 
16#f2/ograve 
16#f3/oacute 
16#f4/ocircumflex 
16#f5/otilde 
16#f6/odieresis 
16#f7/oe 
16#f8/oslash 
16#f9/ugrave 
16#fa/uacute 
16#fb/ucircumflex 
16#fc/udieresis 
16#fd/spac 
16#fe/spac 
16#ff/ydieresis 
] def
%%EndProlog
%%BeginSetup
%%BeginEncoding:_Times-Bold Times-Bold
[
]/_Times-Bold/Times-Bold Z
%%EndEncoding
%%EndSetup
0.000 0.000 0.000 1.000 K
0 j
0 J
0.071 w
[]0 d
0.000 0.000 0.000 1.000 k
433.727 1179.215 m
475.631 1179.215 509.903 1213.415 509.903 1255.391 c
509.903 1297.295 475.631 1331.567 433.727 1331.567 c
391.751 1331.567 357.551 1297.295 357.551 1255.391 c
357.551 1213.415 391.751 1179.215 433.727 1179.215 c
b
0.000 0.000 0.000 1.000 K
0 j
0 J
0.071 w
[]0 d
0.000 0.000 0.000 1.000 k
1253.087 1178.639 m
1295.207 1178.639 1329.551 1212.983 1329.551 1255.103 c
1329.551 1297.223 1295.207 1331.567 1253.087 1331.567 c
1210.895 1331.567 1176.624 1297.223 1176.624 1255.103 c
1176.624 1212.983 1210.895 1178.639 1253.087 1178.639 c
b
0.000 0.000 0.000 1.000 K
0 j
0 J
0.071 w
[]0 d
0.000 0.000 0.000 1.000 k
314.207 471.167 m
272.087 471.167 237.743 505.511 237.743 547.631 c
237.743 589.751 272.087 624.096 314.207 624.096 c
356.399 624.096 390.671 589.751 390.671 547.631 c
390.671 505.511 356.399 471.167 314.207 471.167 c
b
0.000 0.000 0.000 1.000 K
0 j
0 J
0.071 w
[]0 d
1578.959 1274.399 m
1577.015 1240.127 L
1576.799 1237.463 1575.287 1235.735 1572.623 1234.511 C
1545.623 1224.503 L
1542.671 1223.567 1538.783 1222.127 1533.671 1222.559 C
1342.367 1221.839 L
1333.871 1221.407 1334.087 1225.295 1334.087 1229.399 c
1334.087 1256.687 l
1334.087 1291.463 1308.311 1333.799 1256.255 1335.311 c
1209.528 1336.463 1188.791 1306.079 1182.743 1295.639 c
1172.735 1277.855 1172.231 1267.127 1170.791 1231.127 c
1170.791 1226.015 1170.288 1222.127 1164.959 1221.839 C
529.991 1221.839 L
519.479 1221.839 516.599 1222.343 516.599 1231.343 C
516.599 1258.343 l
516.599 1299.959 478.871 1337.975 436.031 1337.975 c
435.527 1337.975 436.031 1337.975 436.031 1337.975 c
391.751 1337.975 352.295 1303.415 352.295 1258.631 c
352.295 1229.399 L
353.015 1223.351 350.855 1222.127 342.287 1221.839 C
186.335 1221.839 L
-5.471 1252.007 L
-5.471 1283.903 L
-18.143 1283.903 L
-18.143 1398.311 L
9.144 1581.119 L
13.463 1596.887 L
32.975 1612.511 60.695 1611.503 88.487 1614.167 C
1437.048 1614.167 L
1482.119 1612.007 1519.055 1605.959 1551.239 1596.671 C
1555.847 1586.447 L
1581.623 1404.647 L
1580.687 1361.087 1583.855 1316.303 1578.959 1274.399 C
s
0.000 0.000 0.000 1.000 K
0 j
0 J
0.071 w
[]0 d
-12.095 566.351 m
-10.151 532.079 L
-9.935 529.415 -8.423 527.687 -5.759 526.463 C
21.239 516.456 L
24.191 515.519 30.743 513.072 35.855 513.575 C
223.271 512.855 L
231.767 512.351 232.775 517.247 232.775 521.351 c
232.775 548.639 l
232.775 583.415 258.335 625.751 310.608 627.263 c
357.335 628.703 378.071 598.247 384.119 587.591 c
394.343 569.807 394.631 559.295 396.071 523.079 c
396.287 517.967 396.575 514.079 401.903 513.791 C
1036.871 513.791 L
1047.384 513.791 1050.263 514.295 1050.263 523.295 C
1050.263 550.295 l
1050.263 597.311 1089.215 629.639 1135.007 629.639 c
1135.727 629.639 1134.720 629.639 1135.007 629.639 c
1177.055 629.639 1214.567 591.479 1214.567 550.583 c
1214.567 521.351 L
1213.847 515.303 1216.007 514.079 1224.575 513.791 C
1380.527 513.791 L
1572.335 543.959 L
1572.623 571.463 L
1585.223 571.463 L
1585.007 690.263 L
1557.719 873.071 L
1553.399 888.839 L
1533.887 904.463 1506.167 903.455 1478.375 906.119 C
129.816 906.119 L
84.743 903.959 47.807 897.911 15.623 888.623 C
11.016 878.399 L
-14.759 696.599 L
-13.823 653.039 -16.991 608.255 -12.095 566.351 C
s
0.000 0.000 0.000 1.000 K
0 j
0 J
0.071 w
[]0 d
0.000 0.000 0.000 0.498 k
-20.375 1282.895 m
-8.855 1282.895 l
-7.415 1282.895 -6.407 1282.031 -6.407 1280.591 c
-6.407 1253.087 l
-6.407 1251.503 -7.415 1250.639 -8.855 1250.639 c
-20.375 1250.639 l
-21.815 1250.639 -22.679 1251.503 -22.679 1253.087 c
-22.679 1280.591 l
-22.679 1282.031 -21.815 1282.895 -20.375 1282.895 c
b
0.000 0.000 0.000 1.000 K
0 j
0 J
0.071 w
[]0 d
0.000 0.000 0.000 0.498 k
1586.951 570.096 m
1575.431 570.096 l
1573.991 570.096 1572.983 569.375 1572.983 568.079 c
1572.983 544.319 l
1572.983 543.024 1573.991 542.159 1575.431 542.159 c
1586.951 542.159 l
1588.391 542.159 1589.399 543.024 1589.399 544.319 c
1589.399 568.079 l
1589.399 569.375 1588.391 570.096 1586.951 570.096 c
b
0.000 0.000 0.000 1.000 K
0 j
0 J
0.071 w
[]0 d
64.727 1338.623 m
190.295 1338.623 l
191.303 1338.623 191.735 1338.192 191.735 1337.183 c
191.735 1259.567 l
191.735 1258.559 191.303 1258.127 190.295 1258.127 c
64.727 1258.127 l
63.719 1258.127 63.287 1258.559 63.287 1259.567 c
63.287 1337.183 l
63.287 1338.192 63.719 1338.623 64.727 1338.623 c
s
0.000 0.000 0.000 1.000 K
0 j
0 J
0.071 w
[]0 d
1501.847 630.431 m
1376.279 630.431 l
1375.271 630.431 1374.839 630.000 1374.839 628.991 c
1374.839 551.375 l
1374.839 550.367 1375.271 549.935 1376.279 549.935 c
1501.847 549.935 l
1502.855 549.935 1503.431 550.367 1503.431 551.375 c
1503.431 628.991 l
1503.431 630.000 1502.855 630.431 1501.847 630.431 c
s
0.000 0.000 0.000 1.000 K
0 j
0 J
0.071 w
[]0 d
124.631 1270.655 m
131.111 1270.655 L
131.111 1264.175 L
124.631 1264.175 L
124.631 1270.655 L
s
0.000 0.000 0.000 1.000 K
0 j
0 J
0.071 w
[]0 d
1442.231 562.607 m
1435.607 562.607 L
1435.607 556.127 L
1442.231 556.127 L
1442.231 562.607 L
s
0.000 0.000 0.000 1.000 K
0 j
0 J
0.071 w
[]0 d
2.087 1448.207 m
39.815 1448.207 l
43.703 1448.207 44.711 1446.048 44.711 1443.311 c
44.711 1411.703 l
44.711 1409.039 42.551 1406.807 39.815 1406.807 c
-3.239 1406.807 l
-5.687 1406.807 -9.359 1404.144 -8.135 1411.703 c
-2.735 1443.311 L
-1.799 1446.479 -0.575 1448.207 2.087 1448.207 c
s
0.000 0.000 0.000 1.000 K
0 j
0 J
0.071 w
[]0 d
1559.447 739.583 m
1521.719 739.583 l
1519.271 739.583 1516.823 737.423 1516.823 734.687 c
1516.823 703.079 l
1516.823 700.415 1518.983 698.183 1521.719 698.183 c
1564.775 698.183 l
1567.223 698.183 1569.887 700.631 1569.671 703.079 c
1564.271 734.687 l
1564.055 737.135 1561.823 739.583 1559.447 739.583 c
s
0.000 0.000 0.000 1.000 K
0 j
0 J
0.071 w
[]0 d
0.000 0.000 0.000 0.298 k
90.215 1622.519 m
90.431 1625.183 91.655 1625.183 94.319 1625.183 C
105.335 1625.183 143.280 1625.183 154.223 1625.183 C
159.335 1625.471 160.055 1622.735 160.055 1621.295 C
160.055 1614.239 L
90.215 1614.239 L
90.215 1622.519 L
b
0.000 0.000 0.000 1.000 K
0 j
0 J
0.071 w
[]0 d
0.000 0.000 0.000 0.298 k
1476.503 913.463 m
1476.287 916.127 1475.063 916.127 1472.399 916.127 C
1461.383 916.127 1423.439 916.127 1412.495 916.127 C
1407.383 916.415 1406.663 913.679 1406.663 912.239 C
1406.663 905.183 L
1476.503 905.183 L
1476.503 913.463 L
b
0.000 0.000 0.000 1.000 K
0 j
0 J
0.071 w
[]0 d
0.000 0.000 0.000 0.298 k
285.911 1626.479 m
338.471 1626.479 l
340.919 1626.479 342.647 1624.895 342.647 1622.447 c
342.647 1619.279 l
342.647 1616.831 340.919 1615.103 338.471 1615.103 c
285.911 1615.103 l
283.463 1615.103 281.879 1616.831 281.879 1619.279 c
281.879 1622.447 l
281.879 1624.895 283.463 1626.479 285.911 1626.479 c
b
0.000 0.000 0.000 1.000 K
0 j
0 J
0.071 w
[]0 d
0.000 0.000 0.000 0.298 k
1280.807 917.279 m
1228.247 917.279 l
1225.799 917.279 1224.071 915.695 1224.071 913.247 c
1224.071 910.079 l
1224.071 907.631 1225.799 905.903 1228.247 905.903 c
1280.807 905.903 l
1283.255 905.903 1284.983 907.631 1284.983 910.079 c
1284.983 913.247 l
1284.983 915.695 1283.255 917.279 1280.807 917.279 c
b
0.000 0.000 0.000 1.000 K
0 j
0 J
0.071 w
[]0 d
0.000 0.000 0.000 0.298 k
654.551 1625.471 m
707.111 1625.471 l
709.559 1625.471 711.287 1623.887 711.287 1621.439 c
711.287 1618.271 l
711.287 1615.823 709.559 1614.095 707.111 1614.095 c
654.551 1614.095 l
652.103 1614.095 650.519 1615.823 650.519 1618.271 c
650.519 1621.439 l
650.519 1623.887 652.103 1625.471 654.551 1625.471 c
b
0.000 0.000 0.000 1.000 K
0 j
0 J
0.071 w
[]0 d
0.000 0.000 0.000 0.298 k
911.735 916.559 m
859.175 916.559 l
856.727 916.559 854.999 914.975 854.999 912.527 c
854.999 909.359 l
854.999 906.911 856.727 905.183 859.175 905.183 c
911.735 905.183 l
914.183 905.183 915.911 906.911 915.911 909.359 c
915.911 912.527 l
915.911 914.975 914.183 916.559 911.735 916.559 c
b
0.000 0.000 0.000 1.000 K
0 j
0 J
0.071 w
[]0 d
0.000 0.000 0.000 0.298 k
1053.720 1625.327 m
1106.279 1625.327 l
1108.727 1625.327 1110.455 1623.743 1110.455 1621.295 c
1110.455 1618.127 l
1110.455 1615.679 1108.727 1613.951 1106.279 1613.951 c
1053.720 1613.951 l
1051.271 1613.951 1049.687 1615.679 1049.687 1618.127 c
1049.687 1621.295 l
1049.687 1623.743 1051.271 1625.327 1053.720 1625.327 c
b
0.000 0.000 0.000 1.000 K
0 j
0 J
0.071 w
[]0 d
0.000 0.000 0.000 0.298 k
513.000 916.415 m
460.439 916.415 l
457.991 916.415 456.263 914.831 456.263 912.383 c
456.263 909.215 l
456.263 906.767 457.991 905.039 460.439 905.039 c
513.000 905.039 l
515.447 905.039 517.175 906.767 517.175 909.215 c
517.175 912.383 l
517.175 914.831 515.447 916.415 513.000 916.415 c
b
u
u
0.000 0.000 0.000 1.000 K
0 j
0 J
0.071 w
[]0 d
24.479 1588.751 m
1554.767 1588.751 L
S
0.000 0.000 0.000 1.000 K
0 j
0 J
0.071 w
[]0 d
1557.287 1586.807 m
11.879 1586.807 L
S
U
U
u
u
0.000 0.000 0.000 1.000 K
0 j
0 J
0.071 w
[]0 d
1542.095 879.695 m
11.807 879.695 L
S
0.000 0.000 0.000 1.000 K
0 j
0 J
0.071 w
[]0 d
9.287 877.751 m
1554.695 877.751 L
S
U
U
0.000 0.000 0.000 1.000 K
0 j
0 J
0.071 w
[]0 d
215.927 1560.383 m
314.279 1560.383 l
316.295 1560.383 317.591 1559.231 317.591 1557.359 c
317.591 1228.031 l
317.591 1226.015 316.295 1224.863 314.279 1224.863 c
215.927 1224.863 l
213.911 1224.863 212.759 1226.015 212.759 1228.031 c
212.759 1557.359 l
212.759 1559.231 213.911 1560.383 215.927 1560.383 c
s
u
u
0.000 0.000 0.000 0.498 k
-15.911 1402.847 m
213.263 1402.847 L
S
0.000 0.000 0.000 0.498 k
-15.191 1406.951 m
213.263 1406.951 L
S
U
u
0.000 0.000 0.000 1.000 K
0 j
0 J
0.071 w
[]0 d
-15.911 1402.847 m
213.263 1402.847 L
S
0.000 0.000 0.000 1.000 K
0 j
0 J
0.071 w
[]0 d
-15.191 1406.951 m
213.263 1406.951 L
S
U
U
u
u
0.000 0.000 0.000 0.498 k
317.735 1406.951 m
852.407 1406.951 L
1390.391 1406.951 L
1390.391 1402.847 L
317.735 1402.847 L
S
U
u
0.000 0.000 0.000 1.000 K
0 j
0 J
0.071 w
[]0 d
317.735 1406.951 m
852.407 1406.951 L
1390.391 1406.951 L
1390.391 1402.847 L
317.735 1402.847 L
S
U
U
u
u
0.000 0.000 0.000 1.000 K
0 j
0 J
0.071 w
[]0 d
1581.191 698.327 m
784.799 698.327 L
-16.631 698.327 L
-16.631 694.223 L
1581.191 694.223 L
S
U
U
0.000 0.000 0.000 1.000 K
0 j
0 J
0.071 w
[]0 d
62.999 1343.951 m
191.735 1343.951 L
191.735 1338.623 L
62.999 1338.623 L
62.999 1343.951 L
s
0.000 0.000 0.000 1.000 K
0 j
0 J
0.071 w
[]0 d
0.000 0.000 0.000 0.498 k
317.735 1343.663 m
1391.255 1343.663 L
1391.255 1338.335 L
317.735 1338.335 L
317.735 1343.663 L
b
0.000 0.000 0.000 1.000 K
0 j
0 J
0.071 w
[]0 d
0.000 0.000 0.000 0.498 k
1504.151 635.903 m
175.175 635.903 L
175.175 630.575 L
1504.151 630.575 L
1504.151 635.903 L
b
0.000 0.000 0.000 1.000 K
0 j
0 J
0.071 w
[]0 d
586.583 1337.615 m
829.367 1337.615 l
831.239 1337.615 832.535 1336.463 832.535 1334.447 c
832.535 1225.151 l
832.535 1223.135 831.239 1221.839 829.367 1221.839 c
586.583 1221.839 l
584.711 1221.839 583.559 1223.135 583.559 1225.151 c
583.559 1334.447 l
583.559 1336.463 584.711 1337.615 586.583 1337.615 c
s
0.000 0.000 0.000 1.000 K
0 j
0 J
0.071 w
[]0 d
979.847 629.135 m
737.063 629.135 l
735.191 629.135 733.895 627.983 733.895 625.967 c
733.895 516.671 l
733.895 514.655 735.191 513.360 737.063 513.360 c
979.847 513.360 l
981.719 513.360 983.015 514.655 983.015 516.671 c
983.015 625.967 l
983.015 627.983 981.719 629.135 979.847 629.135 c
s
0.000 0.000 0.000 1.000 K
0 j
0 J
0.071 w
[]0 d
841.175 1337.471 m
1083.959 1337.471 l
1085.831 1337.471 1087.127 1336.319 1087.127 1334.303 c
1087.127 1225.295 l
1087.127 1223.423 1085.831 1222.127 1083.959 1222.127 c
841.175 1222.127 l
839.303 1222.127 838.151 1223.423 838.151 1225.295 c
838.151 1334.303 l
838.151 1336.319 839.303 1337.471 841.175 1337.471 c
s
0.000 0.000 0.000 1.000 K
0 j
0 J
0.071 w
[]0 d
725.111 628.847 m
482.327 628.847 l
480.455 628.847 479.159 627.695 479.159 625.679 c
479.159 516.671 l
479.159 514.799 480.455 513.503 482.327 513.503 c
725.111 513.503 l
726.983 513.503 728.279 514.799 728.279 516.671 c
728.279 625.679 l
728.279 627.695 726.983 628.847 725.111 628.847 c
s
u
u
0.000 0.000 0.000 1.000 K
0 j
0 J
0.071 w
[]0 d
1157.831 1338.479 m
1157.831 1221.911 L
S
U
U
u
u
0.000 0.000 0.000 1.000 K
0 j
0 J
0.071 w
[]0 d
408.743 630.287 m
408.743 513.719 L
S
U
U
0.000 0.000 0.000 1.000 K
0 j
0 J
0.071 w
[]0 d
1111.607 1295.855 m
1135.223 1295.855 l
1137.240 1295.855 1138.679 1294.415 1138.679 1292.543 c
1138.679 1279.871 l
1138.679 1277.855 1137.240 1276.415 1135.223 1276.415 c
1111.607 1276.415 l
1109.735 1276.415 1108.295 1277.855 1108.295 1279.871 c
1108.295 1292.543 l
1108.295 1294.415 1109.735 1295.855 1111.607 1295.855 c
s
0.000 0.000 0.000 1.000 K
0 j
0 J
0.071 w
[]0 d
0.000 0.000 0.000 0.298 k
1340.711 1368.719 m
1363.319 1368.719 l
1365.048 1368.719 1366.055 1367.855 1366.055 1366.127 c
1366.055 1356.911 l
1366.055 1355.183 1365.048 1354.175 1363.319 1354.175 c
1340.711 1354.175 l
1338.983 1354.175 1338.119 1355.183 1338.119 1356.911 c
1338.119 1366.127 l
1338.119 1367.855 1338.983 1368.719 1340.711 1368.719 c
b
0.000 0.000 0.000 1.000 K
0 j
0 J
0.071 w
[]0 d
0.000 0.000 0.000 0.098 k
225.719 660.671 m
203.111 660.671 l
201.383 660.671 200.375 659.807 200.375 658.079 c
200.375 648.863 l
200.375 647.135 201.383 646.127 203.111 646.127 c
225.719 646.127 l
227.447 646.127 228.455 647.135 228.455 648.863 c
228.455 658.079 l
228.455 659.807 227.447 660.671 225.719 660.671 c
b
0.000 0.000 0.000 1.000 K
0 j
0 J
0.071 w
[]0 d
0.000 0.000 0.000 0.498 k
1537.271 1270.655 m
1586.663 1270.655 l
1588.391 1270.655 1589.399 1269.791 1589.399 1268.063 c
1589.399 1247.903 l
1589.399 1246.175 1588.391 1245.167 1586.663 1245.167 c
1537.271 1245.167 l
1535.543 1245.167 1534.679 1246.175 1534.679 1247.903 c
1534.679 1268.063 l
1534.679 1269.791 1535.543 1270.655 1537.271 1270.655 c
b
0.000 0.000 0.000 1.000 K
0 j
0 J
0.071 w
[]0 d
0.000 0.000 0.000 0.498 k
29.447 562.607 m
-19.943 562.607 l
-21.671 562.607 -22.679 561.743 -22.679 560.015 c
-22.679 539.855 l
-22.679 538.127 -21.671 537.120 -19.943 537.120 c
29.447 537.120 l
31.175 537.120 32.183 538.127 32.183 539.855 c
32.183 560.015 l
32.183 561.743 31.175 562.607 29.447 562.607 c
b
0.000 0.000 0.000 1.000 K
0 j
0 J
0.071 w
[]0 d
1393.415 1560.383 m
1452.311 1560.383 l
1453.319 1560.383 1454.039 1559.663 1454.039 1558.367 c
1454.039 1225.583 l
1454.039 1224.288 1453.319 1223.567 1452.311 1223.567 c
1393.415 1223.567 l
1392.407 1223.567 1391.831 1224.288 1391.831 1225.583 c
1391.831 1558.367 l
1391.831 1559.663 1392.407 1560.383 1393.415 1560.383 c
s
0.000 0.000 0.000 1.000 K
0 j
0 J
0.071 w
[]0 d
1456.487 1560.095 m
1516.247 1560.095 l
1517.111 1560.095 1517.543 1559.663 1517.543 1558.655 c
1517.543 1224.863 l
1517.543 1223.855 1517.111 1223.279 1516.247 1223.279 c
1456.487 1223.279 l
1455.623 1223.279 1455.335 1223.855 1455.335 1224.863 c
1455.335 1558.655 l
1455.335 1559.663 1455.623 1560.095 1456.487 1560.095 c
s
0.000 0.000 0.000 1.000 K
0 j
0 J
0.071 w
[]0 d
0.000 0.000 0.000 0.498 k
1112.183 1572.911 m
1323.431 1572.911 l
1331.639 1572.911 1338.263 1566.431 1338.263 1558.079 c
1338.263 1450.367 l
1338.263 1442.015 1331.639 1435.535 1323.431 1435.535 c
1112.183 1435.535 l
1103.831 1435.535 1097.351 1442.015 1097.351 1450.367 c
1097.351 1558.079 l
1097.351 1566.431 1103.831 1572.911 1112.183 1572.911 c
b
0.000 0.000 0.000 1.000 K
0 j
0 J
0.071 w
[]0 d
0.000 0.000 0.000 0.498 k
862.919 1572.911 m
1074.167 1572.911 l
1082.375 1572.911 1089.000 1566.431 1089.000 1558.079 c
1089.000 1450.367 l
1089.000 1442.015 1082.375 1435.535 1074.167 1435.535 c
862.919 1435.535 l
854.567 1435.535 848.087 1442.015 848.087 1450.367 c
848.087 1558.079 l
848.087 1566.431 854.567 1572.911 862.919 1572.911 c
b
0.000 0.000 0.000 1.000 K
0 j
0 J
0.071 w
[]0 d
0.000 0.000 0.000 0.498 k
608.615 1572.911 m
819.863 1572.911 l
828.071 1572.911 834.695 1566.431 834.695 1558.079 c
834.695 1450.367 l
834.695 1442.015 828.071 1435.535 819.863 1435.535 c
608.615 1435.535 l
600.264 1435.535 593.783 1442.015 593.783 1450.367 c
593.783 1558.079 l
593.783 1566.431 600.264 1572.911 608.615 1572.911 c
b
0.000 0.000 0.000 1.000 K
0 j
0 J
0.071 w
[]0 d
0.000 0.000 0.000 0.498 k
354.743 1572.911 m
565.991 1572.911 l
574.199 1572.911 580.823 1566.431 580.823 1558.079 c
580.823 1450.367 l
580.823 1442.015 574.199 1435.535 565.991 1435.535 c
354.743 1435.535 l
346.391 1435.535 339.911 1442.015 339.911 1450.367 c
339.911 1558.079 l
339.911 1566.431 346.391 1572.911 354.743 1572.911 c
b
0.000 0.000 0.000 1.000 K
0 j
0 J
0.071 w
[]0 d
0.000 0.000 0.000 0.498 k
101.591 1572.767 m
174.599 1572.767 l
181.943 1572.767 187.559 1567.295 187.559 1559.951 c
187.559 1448.927 l
187.559 1441.583 181.943 1436.111 174.599 1436.111 c
101.591 1436.111 l
94.247 1436.111 88.775 1441.583 88.775 1448.927 c
88.775 1559.951 l
88.775 1567.295 94.247 1572.767 101.591 1572.767 c
b
0.000 0.000 0.000 1.000 K
0 j
0 J
0.071 w
[]0 d
0.000 0.000 0.000 0.498 k
228.887 1544.543 m
301.751 1544.543 l
304.343 1544.543 306.503 1542.095 306.503 1539.071 c
306.503 1414.367 l
306.503 1411.343 304.343 1408.751 301.751 1408.751 c
228.887 1408.751 l
226.295 1408.751 224.135 1411.343 224.135 1414.367 c
224.135 1539.071 l
224.135 1542.095 226.295 1544.543 228.887 1544.543 c
b
0.000 0.000 0.000 1.000 K
0 j
0 J
0.071 w
[]0 d
0.000 0.000 0.000 0.498 k
1402.199 1400.543 m
1443.671 1400.543 l
1446.695 1400.543 1449.143 1397.807 1449.143 1394.207 c
1449.143 1278.288 l
1449.143 1274.687 1446.695 1271.807 1443.671 1271.807 c
1402.199 1271.807 l
1399.175 1271.807 1396.871 1274.687 1396.871 1278.288 c
1396.871 1394.207 l
1396.871 1397.807 1399.175 1400.543 1402.199 1400.543 c
b
0.000 0.000 0.000 1.000 K
0 j
0 J
0.071 w
[]0 d
0.000 0.000 0.000 0.498 k
1465.127 1400.543 m
1508.039 1400.543 l
1510.775 1400.543 1512.791 1398.239 1512.791 1394.927 c
1512.791 1277.423 l
1512.791 1274.111 1510.775 1271.807 1508.039 1271.807 c
1465.127 1271.807 l
1462.391 1271.807 1460.519 1274.111 1460.519 1277.423 c
1460.519 1394.927 l
1460.519 1398.239 1462.391 1400.543 1465.127 1400.543 c
b
0.000 0.000 0.000 1.000 K
0 j
0 J
0.071 w
[]0 d
0.000 0.000 0.000 0.498 k
1465.127 1553.327 m
1508.039 1553.327 l
1510.775 1553.327 1512.791 1550.879 1512.791 1547.279 c
1512.791 1418.687 l
1512.791 1414.943 1510.775 1412.495 1508.039 1412.495 c
1465.127 1412.495 l
1462.391 1412.495 1460.519 1414.943 1460.519 1418.687 c
1460.519 1547.279 l
1460.519 1550.879 1462.391 1553.327 1465.127 1553.327 c
b
0.000 0.000 0.000 1.000 K
0 j
0 J
0.071 w
[]0 d
0.000 0.000 0.000 0.498 k
1402.199 1553.327 m
1443.671 1553.327 l
1446.695 1553.327 1449.143 1550.303 1449.143 1546.415 c
1449.143 1419.407 l
1449.143 1415.519 1446.695 1412.495 1443.671 1412.495 c
1402.199 1412.495 l
1399.175 1412.495 1396.871 1415.519 1396.871 1419.407 c
1396.871 1546.415 l
1396.871 1550.303 1399.175 1553.327 1402.199 1553.327 c
b
0.000 0.000 0.000 1.000 K
0 j
0 J
0.071 w
[]0 d
0.000 0.000 0.000 0.200 k
1326.959 1569.599 m
1332.431 1567.583 1335.167 1563.767 1335.455 1558.007 C
1335.455 1450.439 L
1335.096 1443.311 1330.487 1438.703 1323.359 1438.343 C
1112.255 1438.343 L
1105.127 1438.703 1100.519 1443.311 1100.159 1450.439 C
1100.159 1558.007 L
1100.519 1565.135 1105.127 1569.743 1112.255 1570.103 C
1323.359 1570.103 L
1324.367 1570.103 1325.951 1569.815 1326.959 1569.599 C
b
0.000 0.000 0.000 1.000 K
0 j
0 J
0.071 w
[]0 d
0.000 0.000 0.000 0.200 k
1077.695 1569.599 m
1083.167 1567.583 1085.903 1563.767 1086.192 1558.007 C
1086.192 1450.439 L
1085.831 1443.311 1081.223 1438.703 1074.096 1438.343 C
862.991 1438.343 L
855.791 1438.703 851.255 1443.311 850.895 1450.439 C
850.895 1558.007 L
851.255 1565.135 855.863 1569.743 862.991 1570.103 C
1074.096 1570.103 L
1075.103 1570.103 1076.687 1569.815 1077.695 1569.599 C
b
0.000 0.000 0.000 1.000 K
0 j
0 J
0.071 w
[]0 d
0.000 0.000 0.000 0.200 k
823.391 1569.599 m
828.863 1567.583 831.599 1563.767 831.887 1558.007 C
831.887 1450.439 L
831.527 1443.311 826.919 1438.703 819.791 1438.343 C
608.687 1438.343 L
601.487 1438.703 596.951 1443.311 596.591 1450.439 C
596.591 1558.007 L
596.951 1565.135 601.559 1569.743 608.687 1570.103 C
819.791 1570.103 L
820.799 1570.103 822.383 1569.815 823.391 1569.599 C
b
0.000 0.000 0.000 1.000 K
0 j
0 J
0.071 w
[]0 d
0.000 0.000 0.000 0.200 k
569.519 1569.599 m
574.991 1567.583 577.727 1563.767 578.015 1558.007 C
578.015 1450.439 L
577.655 1443.311 573.048 1438.703 565.919 1438.343 C
354.815 1438.343 L
347.615 1438.703 343.079 1443.311 342.719 1450.439 C
342.719 1558.007 L
343.079 1565.135 347.687 1569.743 354.815 1570.103 C
565.919 1570.103 L
566.927 1570.103 568.511 1569.815 569.519 1569.599 C
b
0.000 0.000 0.000 1.000 K
0 j
0 J
0.071 w
[]0 d
0.000 0.000 0.000 0.200 k
178.775 1569.167 m
182.879 1567.151 184.535 1564.343 184.751 1559.879 C
184.751 1449.000 L
184.391 1442.879 180.863 1439.279 174.527 1438.919 C
101.663 1438.919 L
95.543 1439.279 91.943 1442.879 91.583 1449.000 C
91.583 1559.879 L
91.943 1565.999 95.543 1569.599 101.663 1569.959 C
174.527 1569.959 L
176.039 1569.887 177.335 1569.599 178.775 1569.167 C
b
0.000 0.000 0.000 1.000 K
0 j
0 J
0.071 w
[]0 d
0.000 0.000 0.000 0.200 k
302.399 1541.519 m
303.479 1541.015 303.623 1540.151 303.695 1538.999 C
303.695 1414.439 L
303.623 1413.071 303.048 1411.775 301.536 1411.559 C
229.103 1411.559 L
227.591 1411.775 227.015 1413.071 226.943 1414.439 C
226.943 1538.999 L
227.087 1540.583 227.447 1541.519 229.103 1541.735 C
301.536 1541.735 L
302.039 1541.663 L
302.399 1541.519 L
b
0.000 0.000 0.000 1.000 K
0 j
0 J
0.071 w
[]0 d
0.000 0.000 0.000 0.200 k
1443.455 1397.735 m
1445.615 1397.519 1446.048 1396.079 1446.335 1394.063 C
1446.335 1278.432 L
1446.048 1276.487 1445.615 1274.831 1443.455 1274.615 C
1402.415 1274.615 L
1400.543 1274.759 1399.823 1276.559 1399.679 1278.359 C
1399.679 1394.135 L
1399.823 1396.007 1400.399 1397.519 1402.415 1397.735 C
1443.455 1397.735 L
b
0.000 0.000 0.000 1.000 K
0 j
0 J
0.071 w
[]0 d
0.000 0.000 0.000 0.200 k
1509.983 1394.855 m
1509.983 1277.495 L
1509.911 1276.055 1509.551 1275.192 1508.327 1274.615 C
1464.839 1274.615 L
1463.615 1275.192 1463.399 1276.271 1463.327 1277.495 C
1463.327 1394.855 L
1463.399 1396.367 1463.615 1397.159 1464.839 1397.735 C
1508.327 1397.735 L
1509.551 1397.159 1509.911 1396.367 1509.983 1394.855 C
b
0.000 0.000 0.000 1.000 K
0 j
0 J
0.071 w
[]0 d
0.000 0.000 0.000 0.200 k
1508.975 1550.159 m
1509.695 1549.439 1509.911 1548.143 1509.983 1547.207 C
1509.983 1418.759 L
1509.911 1417.175 1509.479 1415.447 1507.823 1415.303 C
1465.343 1415.303 L
1463.615 1415.519 1463.399 1417.031 1463.327 1418.759 C
1463.327 1547.207 L
1463.399 1549.007 1463.471 1550.303 1465.343 1550.519 C
1507.823 1550.519 L
1508.255 1550.519 1508.687 1550.375 1508.975 1550.159 C
b
0.000 0.000 0.000 1.000 K
0 j
0 J
0.071 w
[]0 d
0.000 0.000 0.000 0.200 k
1443.455 1550.519 m
1445.687 1550.303 1446.119 1548.287 1446.335 1546.271 C
1446.335 1419.551 L
1446.119 1417.607 1445.687 1415.519 1443.455 1415.303 C
1402.415 1415.303 L
1400.327 1415.519 1399.751 1417.679 1399.679 1419.479 C
1399.679 1546.343 L
1399.751 1548.215 1400.327 1550.303 1402.415 1550.519 C
1443.455 1550.519 L
b
0.000 0.000 0.000 1.000 K
0 j
0 J
0.071 w
[]0 d
0.000 0.000 0.000 0.498 k
1523.735 1572.767 m
1546.847 1572.767 L
1568.735 1412.135 L
1523.735 1412.135 L
1523.735 1572.767 L
b
0.000 0.000 0.000 1.000 K
0 j
0 J
0.071 w
[]0 d
0.000 0.000 0.000 0.200 k
1544.471 1569.959 m
1565.567 1414.871 L
1526.543 1414.871 L
1526.543 1569.959 L
1544.471 1569.959 L
b
0.000 0.000 0.000 1.000 K
0 j
0 J
0.071 w
[]0 d
0.000 0.000 0.000 0.498 k
42.983 863.567 m
19.871 863.567 L
-2.016 702.935 L
42.983 702.935 L
42.983 863.567 L
b
0.000 0.000 0.000 1.000 K
0 j
0 J
0.071 w
[]0 d
0.000 0.000 0.000 0.200 k
22.247 860.759 m
1.151 705.671 L
40.175 705.671 L
40.175 860.759 L
22.247 860.759 L
b
0.000 0.000 0.000 1.000 K
0 j
0 J
0.071 w
[]0 d
1518.695 1407.023 m
1581.263 1407.023 L
1581.263 1402.919 L
1518.695 1402.919 L
1518.695 1407.023 L
s
0.000 0.000 0.000 1.000 K
0 j
0 J
0.071 w
[]0 d
0.000 0.000 0.000 0.498 k
1547.639 1572.767 m
1558.295 1572.767 L
1580.615 1412.207 L
1569.959 1412.207 L
1547.639 1572.767 L
b
0.000 0.000 0.000 1.000 K
0 j
0 J
0.071 w
[]0 d
0.000 0.000 0.000 0.498 k
19.511 863.567 m
8.711 863.567 L
-13.463 703.007 L
-2.663 703.007 L
19.511 863.567 L
b
0.000 0.000 0.000 1.000 K
0 j
0 J
0.071 w
[]0 d
705.095 1233.647 m
712.583 1233.647 L
712.583 1227.599 L
705.095 1227.599 L
705.095 1233.647 L
s
0.000 0.000 0.000 1.000 K
0 j
0 J
0.071 w
[]0 d
861.335 525.455 m
853.703 525.455 L
853.703 519.408 L
861.335 519.408 L
861.335 525.455 L
s
0.000 0.000 0.000 1.000 K
0 j
0 J
0.071 w
[]0 d
962.567 1232.063 m
970.055 1232.063 L
970.055 1226.015 L
962.567 1226.015 L
962.567 1232.063 L
s
0.000 0.000 0.000 1.000 K
0 j
0 J
0.071 w
[]0 d
604.151 523.439 m
596.519 523.439 L
596.519 517.391 L
604.151 517.391 L
604.151 523.439 L
s
0.000 0.000 0.000 1.000 K
0 j
0 J
0.071 w
[]0 d
55.223 693.647 m
176.759 693.647 L
176.759 610.703 L
55.223 610.703 L
55.223 693.647 L
s
0.000 0.000 0.000 1.000 K
0 j
0 J
0.071 w
[]0 d
55.223 607.391 m
176.759 607.391 L
176.759 518.111 L
55.223 518.111 L
55.223 607.391 L
s
0.000 0.000 0.000 1.000 K
0 j
0 J
0.071 w
[]0 d
111.527 624.096 m
117.863 624.096 L
117.863 615.599 L
111.527 615.599 L
111.527 624.096 L
s
0.000 0.000 0.000 1.000 K
0 j
0 J
0.071 w
[]0 d
111.959 531.360 m
118.295 531.360 L
118.295 522.863 L
111.959 522.863 L
111.959 531.360 L
s
0.000 0.000 0.000 1.000 K
0 j
0 J
0.071 w
[]0 d
0.000 0.000 0.000 0.498 k
1468.871 864.143 m
1257.623 864.143 l
1249.415 864.143 1242.791 857.663 1242.791 849.311 c
1242.791 741.599 l
1242.791 733.247 1249.415 726.767 1257.623 726.767 c
1468.871 726.767 l
1477.223 726.767 1483.847 733.247 1483.847 741.599 c
1483.847 849.311 l
1483.847 857.663 1477.223 864.143 1468.871 864.143 c
b
0.000 0.000 0.000 1.000 K
0 j
0 J
0.071 w
[]0 d
0.000 0.000 0.000 0.498 k
1212.119 863.711 m
1000.871 863.711 l
992.663 863.711 986.039 857.231 986.039 848.879 c
986.039 741.167 l
986.039 732.815 992.663 726.335 1000.871 726.335 c
1212.119 726.335 l
1220.471 726.335 1227.096 732.815 1227.096 741.167 c
1227.096 848.879 l
1227.096 857.231 1220.471 863.711 1212.119 863.711 c
b
0.000 0.000 0.000 1.000 K
0 j
0 J
0.071 w
[]0 d
0.000 0.000 0.000 0.498 k
957.959 863.711 m
746.711 863.711 l
738.503 863.711 731.879 857.231 731.879 848.879 c
731.879 741.167 l
731.879 732.815 738.503 726.335 746.711 726.335 c
957.959 726.335 l
966.311 726.335 972.935 732.815 972.935 741.167 c
972.935 848.879 l
972.935 857.231 966.311 863.711 957.959 863.711 c
b
0.000 0.000 0.000 1.000 K
0 j
0 J
0.071 w
[]0 d
0.000 0.000 0.000 0.498 k
703.079 863.711 m
491.831 863.711 l
483.623 863.711 476.999 857.231 476.999 848.879 c
476.999 741.167 l
476.999 732.815 483.623 726.335 491.831 726.335 c
703.079 726.335 l
711.431 726.335 718.055 732.815 718.055 741.167 c
718.055 848.879 l
718.055 857.231 711.431 863.711 703.079 863.711 c
b
0.000 0.000 0.000 1.000 K
0 j
0 J
0.071 w
[]0 d
0.000 0.000 0.000 0.498 k
454.247 863.711 m
242.999 863.711 l
234.791 863.711 228.167 857.231 228.167 848.879 c
228.167 741.167 l
228.167 732.815 234.791 726.335 242.999 726.335 c
454.247 726.335 l
462.599 726.335 469.223 732.815 469.223 741.167 c
469.223 848.879 l
469.223 857.231 462.599 863.711 454.247 863.711 c
b
0.000 0.000 0.000 1.000 K
0 j
0 J
0.071 w
[]0 d
0.000 0.000 0.000 0.498 k
67.896 864.143 m
162.792 864.143 l
170.567 864.143 176.615 858.095 176.615 850.319 c
176.615 740.303 l
176.615 732.527 170.567 726.479 162.792 726.479 c
67.896 726.479 l
60.119 726.479 54.071 732.527 54.071 740.303 c
54.071 850.319 l
54.071 858.095 60.119 864.143 67.896 864.143 c
b
0.000 0.000 0.000 1.000 K
0 j
0 J
0.071 w
[]0 d
0.000 0.000 0.000 0.200 k
1256.399 861.263 m
1249.847 860.543 1245.887 855.647 1245.599 849.239 C
1245.599 741.671 L
1245.959 734.543 1250.567 729.935 1257.695 729.575 C
1468.799 729.575 L
1476.000 729.935 1480.679 734.543 1481.039 741.671 C
1481.039 849.239 L
1480.679 856.439 1476.071 860.975 1468.799 861.335 C
1257.695 861.335 L
1256.399 861.263 L
b
0.000 0.000 0.000 1.000 K
0 j
0 J
0.071 w
[]0 d
0.000 0.000 0.000 0.200 k
999.647 860.831 m
993.095 860.111 989.135 855.215 988.847 848.807 C
988.847 741.239 L
989.207 734.111 993.815 729.503 1000.943 729.143 C
1212.048 729.143 L
1219.247 729.503 1223.927 734.111 1224.288 741.239 C
1224.288 848.807 L
1223.927 856.007 1219.319 860.543 1212.048 860.903 C
1000.943 860.903 L
999.647 860.831 L
b
0.000 0.000 0.000 1.000 K
0 j
0 J
0.071 w
[]0 d
0.000 0.000 0.000 0.200 k
745.487 860.831 m
738.935 860.111 734.975 855.215 734.687 848.807 C
734.687 741.239 L
735.047 734.111 739.655 729.503 746.783 729.143 C
957.887 729.143 L
965.087 729.503 969.767 734.111 970.127 741.239 C
970.127 848.807 L
969.767 856.007 965.159 860.543 957.887 860.903 C
746.783 860.903 L
745.487 860.831 L
b
0.000 0.000 0.000 1.000 K
0 j
0 J
0.071 w
[]0 d
0.000 0.000 0.000 0.200 k
490.607 860.831 m
484.055 860.111 480.095 855.215 479.807 848.807 C
479.807 741.239 L
480.167 734.111 484.775 729.503 491.903 729.143 C
703.007 729.143 L
710.207 729.503 714.887 734.111 715.247 741.239 C
715.247 848.807 L
714.887 856.007 710.279 860.543 703.007 860.903 C
491.903 860.903 L
490.607 860.831 L
b
0.000 0.000 0.000 1.000 K
0 j
0 J
0.071 w
[]0 d
0.000 0.000 0.000 0.200 k
241.775 860.831 m
235.223 860.111 231.263 855.215 230.975 848.807 C
230.975 741.239 L
231.335 734.111 235.943 729.503 243.071 729.143 C
454.175 729.143 L
461.375 729.503 466.055 734.111 466.415 741.239 C
466.415 848.807 L
466.055 856.007 461.447 860.543 454.175 860.903 C
243.071 860.903 L
241.775 860.831 L
b
0.000 0.000 0.000 1.000 K
0 j
0 J
0.071 w
[]0 d
0.000 0.000 0.000 0.200 k
66.743 861.263 m
60.623 860.543 57.167 856.079 56.879 850.247 C
56.879 740.375 L
57.239 733.823 61.415 729.647 67.967 729.287 C
162.719 729.287 L
169.271 729.647 173.447 733.823 173.807 740.375 C
173.807 850.247 L
173.447 856.943 169.343 860.975 162.719 861.335 C
67.967 861.335 L
66.743 861.263 L
b
u
u
U
u
0.000 0.000 0.000 1.000 K
0 j
0 J
0.071 w
[]0 d
54.071 743.327 m
176.759 743.327 L
S
U
U
u
u
U
u
0.000 0.000 0.000 1.000 K
0 j
0 J
0.071 w
[]0 d
115.559 743.327 m
115.559 864.071 L
S
U
U
0.000 0.000 0.000 1.000 K
0 j
0 J
0.071 w
[]0 d
0.000 0.000 0.000 0.000 k
434.375 1210.103 m
459.359 1210.103 479.735 1230.480 479.735 1255.463 c
479.735 1280.375 459.359 1300.751 434.375 1300.751 c
409.463 1300.751 389.087 1280.375 389.087 1255.463 c
389.087 1230.480 409.463 1210.103 434.375 1210.103 c
b
0.000 0.000 0.000 1.000 K
0 j
0 J
0.071 w
[]0 d
0.000 0.000 0.000 0.000 k
434.375 1211.327 m
458.711 1211.327 478.439 1231.127 478.439 1255.463 c
478.439 1279.799 458.711 1299.527 434.375 1299.527 c
410.039 1299.527 390.311 1279.799 390.311 1255.463 c
390.311 1231.127 410.039 1211.327 434.375 1211.327 c
b
0.000 0.000 0.000 1.000 K
0 j
0 J
0.071 w
[]0 d
0.000 0.000 0.000 0.000 k
434.087 1222.847 m
452.231 1222.847 466.919 1237.535 466.919 1255.679 c
466.919 1273.751 452.231 1288.439 434.087 1288.439 c
415.943 1288.439 401.255 1273.751 401.255 1255.679 c
401.255 1237.535 415.943 1222.847 434.087 1222.847 c
b
0.000 0.000 0.000 1.000 K
0 j
0 J
0.071 w
[]0 d
0.000 0.000 0.000 0.000 k
433.655 1285.775 m
435.527 1285.775 437.039 1284.336 437.039 1282.463 c
437.039 1280.519 435.527 1279.079 433.655 1279.079 c
431.711 1279.079 430.271 1280.519 430.271 1282.463 c
430.271 1284.336 431.711 1285.775 433.655 1285.775 c
b
0.000 0.000 0.000 1.000 K
0 j
0 J
0.071 w
[]0 d
0.000 0.000 0.000 0.000 k
434.015 1225.439 m
432.071 1225.439 430.631 1226.951 430.631 1228.823 c
430.631 1230.767 432.071 1232.207 434.015 1232.207 c
435.959 1232.207 437.399 1230.767 437.399 1228.823 c
437.399 1226.951 435.959 1225.439 434.015 1225.439 c
b
0.000 0.000 0.000 1.000 K
0 j
0 J
0.071 w
[]0 d
0.000 0.000 0.000 0.000 k
408.599 1267.847 m
410.471 1267.847 411.983 1266.336 411.983 1264.391 c
411.983 1262.591 410.471 1261.079 408.599 1261.079 c
406.727 1261.079 405.215 1262.591 405.215 1264.391 c
405.215 1266.336 406.727 1267.847 408.599 1267.847 c
b
0.000 0.000 0.000 1.000 K
0 j
0 J
0.071 w
[]0 d
0.000 0.000 0.000 0.000 k
458.999 1243.511 m
457.127 1243.511 455.615 1245.023 455.615 1246.895 c
455.615 1248.767 457.127 1250.279 458.999 1250.279 c
460.871 1250.279 462.383 1248.767 462.383 1246.895 c
462.383 1245.023 460.871 1243.511 458.999 1243.511 c
b
0.000 0.000 0.000 1.000 K
0 j
0 J
0.071 w
[]0 d
0.000 0.000 0.000 0.000 k
408.887 1249.703 m
410.759 1249.703 412.271 1248.192 412.271 1246.391 c
412.271 1244.447 410.759 1242.935 408.887 1242.935 c
407.015 1242.935 405.503 1244.447 405.503 1246.391 c
405.503 1248.192 407.015 1249.703 408.887 1249.703 c
b
0.000 0.000 0.000 1.000 K
0 j
0 J
0.071 w
[]0 d
0.000 0.000 0.000 0.000 k
458.639 1261.583 m
456.767 1261.583 455.255 1263.096 455.255 1264.967 c
455.255 1266.839 456.767 1268.351 458.639 1268.351 c
460.511 1268.351 462.023 1266.839 462.023 1264.967 c
462.023 1263.096 460.511 1261.583 458.639 1261.583 c
b
0.000 0.000 0.000 1.000 K
0 j
0 J
0.071 w
[]0 d
0.000 0.000 0.000 0.000 k
417.671 1280.015 m
419.543 1280.015 420.983 1278.575 420.983 1276.703 c
420.983 1274.759 419.543 1273.319 417.671 1273.319 c
415.727 1273.319 414.287 1274.759 414.287 1276.703 c
414.287 1278.575 415.727 1280.015 417.671 1280.015 c
b
0.000 0.000 0.000 1.000 K
0 j
0 J
0.071 w
[]0 d
0.000 0.000 0.000 0.000 k
449.855 1231.199 m
447.983 1231.199 446.471 1232.783 446.471 1234.655 c
446.471 1236.528 447.983 1238.039 449.855 1238.039 c
451.727 1238.039 453.311 1236.528 453.311 1234.655 c
453.311 1232.783 451.727 1231.199 449.855 1231.199 c
b
0.000 0.000 0.000 1.000 K
0 j
0 J
0.071 w
[]0 d
0.000 0.000 0.000 0.000 k
418.103 1238.039 m
419.975 1238.039 421.415 1236.528 421.415 1234.727 c
421.415 1232.783 419.975 1231.271 418.103 1231.271 c
416.159 1231.271 414.719 1232.783 414.719 1234.727 c
414.719 1236.528 416.159 1238.039 418.103 1238.039 c
b
0.000 0.000 0.000 1.000 K
0 j
0 J
0.071 w
[]0 d
0.000 0.000 0.000 0.000 k
449.423 1273.319 m
447.551 1273.319 446.039 1274.759 446.039 1276.703 c
446.039 1278.575 447.551 1280.015 449.423 1280.015 c
451.295 1280.015 452.807 1278.575 452.807 1276.703 c
452.807 1274.759 451.295 1273.319 449.423 1273.319 c
b
0.000 0.000 0.000 1.000 K
0 j
0 J
0.071 w
[]0 d
0.000 0.000 0.000 0.000 k
434.015 1237.247 m
444.095 1237.247 452.303 1245.527 452.303 1255.607 c
452.303 1265.687 444.095 1273.967 434.015 1273.967 c
423.935 1273.967 415.655 1265.687 415.655 1255.607 c
415.655 1245.527 423.935 1237.247 434.015 1237.247 c
b
0.000 0.000 0.000 1.000 K
0 j
0 J
0.071 w
[]0 d
0.000 0.000 0.000 0.000 k
433.871 1239.983 m
442.583 1239.983 449.495 1247.039 449.495 1255.607 c
449.495 1264.175 442.583 1271.231 433.871 1271.231 c
425.303 1271.231 418.247 1264.175 418.247 1255.607 c
418.247 1247.039 425.303 1239.983 433.871 1239.983 c
b
0.000 0.000 0.000 1.000 K
0 j
0 J
0.071 w
[]0 d
0.000 0.000 0.000 1.000 k
1132.847 471.167 m
1090.943 471.167 1056.672 505.367 1056.672 547.343 c
1056.672 589.247 1090.943 623.519 1132.847 623.519 c
1174.823 623.519 1209.023 589.247 1209.023 547.343 c
1209.023 505.367 1174.823 471.167 1132.847 471.167 c
b
0.000 0.000 0.000 1.000 K
0 j
0 J
0.071 w
[]0 d
0.000 0.000 0.000 0.000 k
1132.199 502.055 m
1107.215 502.055 1086.839 522.432 1086.839 547.415 c
1086.839 572.327 1107.215 592.703 1132.199 592.703 c
1157.111 592.703 1177.487 572.327 1177.487 547.415 c
1177.487 522.432 1157.111 502.055 1132.199 502.055 c
b
0.000 0.000 0.000 1.000 K
0 j
0 J
0.071 w
[]0 d
0.000 0.000 0.000 0.000 k
1132.199 503.279 m
1107.863 503.279 1088.135 523.079 1088.135 547.415 c
1088.135 571.751 1107.863 591.479 1132.199 591.479 c
1156.535 591.479 1176.263 571.751 1176.263 547.415 c
1176.263 523.079 1156.535 503.279 1132.199 503.279 c
b
0.000 0.000 0.000 1.000 K
0 j
0 J
0.071 w
[]0 d
0.000 0.000 0.000 0.000 k
1132.487 514.799 m
1114.343 514.799 1099.655 529.487 1099.655 547.631 c
1099.655 565.703 1114.343 580.391 1132.487 580.391 c
1150.631 580.391 1165.319 565.703 1165.319 547.631 c
1165.319 529.487 1150.631 514.799 1132.487 514.799 c
b
0.000 0.000 0.000 1.000 K
0 j
0 J
0.071 w
[]0 d
0.000 0.000 0.000 0.000 k
1132.919 577.727 m
1131.048 577.727 1129.535 576.288 1129.535 574.415 c
1129.535 572.471 1131.048 571.031 1132.919 571.031 c
1134.863 571.031 1136.303 572.471 1136.303 574.415 c
1136.303 576.288 1134.863 577.727 1132.919 577.727 c
b
0.000 0.000 0.000 1.000 K
0 j
0 J
0.071 w
[]0 d
0.000 0.000 0.000 0.000 k
1132.559 517.391 m
1134.503 517.391 1135.943 518.903 1135.943 520.775 c
1135.943 522.719 1134.503 524.159 1132.559 524.159 c
1130.615 524.159 1129.175 522.719 1129.175 520.775 c
1129.175 518.903 1130.615 517.391 1132.559 517.391 c
b
0.000 0.000 0.000 1.000 K
0 j
0 J
0.071 w
[]0 d
0.000 0.000 0.000 0.000 k
1157.975 559.799 m
1156.103 559.799 1154.591 558.288 1154.591 556.343 c
1154.591 554.543 1156.103 553.031 1157.975 553.031 c
1159.847 553.031 1161.359 554.543 1161.359 556.343 c
1161.359 558.288 1159.847 559.799 1157.975 559.799 c
b
0.000 0.000 0.000 1.000 K
0 j
0 J
0.071 w
[]0 d
0.000 0.000 0.000 0.000 k
1107.576 535.463 m
1109.447 535.463 1110.959 536.975 1110.959 538.847 c
1110.959 540.719 1109.447 542.231 1107.576 542.231 c
1105.703 542.231 1104.192 540.719 1104.192 538.847 c
1104.192 536.975 1105.703 535.463 1107.576 535.463 c
b
0.000 0.000 0.000 1.000 K
0 j
0 J
0.071 w
[]0 d
0.000 0.000 0.000 0.000 k
1157.687 541.655 m
1155.815 541.655 1154.303 540.144 1154.303 538.343 c
1154.303 536.399 1155.815 534.887 1157.687 534.887 c
1159.559 534.887 1161.071 536.399 1161.071 538.343 c
1161.071 540.144 1159.559 541.655 1157.687 541.655 c
b
0.000 0.000 0.000 1.000 K
0 j
0 J
0.071 w
[]0 d
0.000 0.000 0.000 0.000 k
1107.935 553.535 m
1109.807 553.535 1111.319 555.048 1111.319 556.919 c
1111.319 558.791 1109.807 560.303 1107.935 560.303 c
1106.063 560.303 1104.551 558.791 1104.551 556.919 c
1104.551 555.048 1106.063 553.535 1107.935 553.535 c
b
0.000 0.000 0.000 1.000 K
0 j
0 J
0.071 w
[]0 d
0.000 0.000 0.000 0.000 k
1148.903 571.967 m
1147.031 571.967 1145.591 570.527 1145.591 568.655 c
1145.591 566.711 1147.031 565.271 1148.903 565.271 c
1150.847 565.271 1152.288 566.711 1152.288 568.655 c
1152.288 570.527 1150.847 571.967 1148.903 571.967 c
b
0.000 0.000 0.000 1.000 K
0 j
0 J
0.071 w
[]0 d
0.000 0.000 0.000 0.000 k
1116.720 523.151 m
1118.591 523.151 1120.103 524.735 1120.103 526.607 c
1120.103 528.479 1118.591 529.991 1116.720 529.991 c
1114.847 529.991 1113.263 528.479 1113.263 526.607 c
1113.263 524.735 1114.847 523.151 1116.720 523.151 c
b
0.000 0.000 0.000 1.000 K
0 j
0 J
0.071 w
[]0 d
0.000 0.000 0.000 0.000 k
1148.471 529.991 m
1146.599 529.991 1145.159 528.479 1145.159 526.679 c
1145.159 524.735 1146.599 523.223 1148.471 523.223 c
1150.415 523.223 1151.855 524.735 1151.855 526.679 c
1151.855 528.479 1150.415 529.991 1148.471 529.991 c
b
0.000 0.000 0.000 1.000 K
0 j
0 J
0.071 w
[]0 d
0.000 0.000 0.000 0.000 k
1117.151 565.271 m
1119.023 565.271 1120.535 566.711 1120.535 568.655 c
1120.535 570.527 1119.023 571.967 1117.151 571.967 c
1115.279 571.967 1113.768 570.527 1113.768 568.655 c
1113.768 566.711 1115.279 565.271 1117.151 565.271 c
b
0.000 0.000 0.000 1.000 K
0 j
0 J
0.071 w
[]0 d
0.000 0.000 0.000 0.000 k
1132.559 529.199 m
1122.480 529.199 1114.271 537.479 1114.271 547.559 c
1114.271 557.639 1122.480 565.919 1132.559 565.919 c
1142.639 565.919 1150.919 557.639 1150.919 547.559 c
1150.919 537.479 1142.639 529.199 1132.559 529.199 c
b
0.000 0.000 0.000 1.000 K
0 j
0 J
0.071 w
[]0 d
0.000 0.000 0.000 0.000 k
1132.703 531.935 m
1123.991 531.935 1117.079 538.991 1117.079 547.559 c
1117.079 556.127 1123.991 563.183 1132.703 563.183 c
1141.271 563.183 1148.327 556.127 1148.327 547.559 c
1148.327 538.991 1141.271 531.935 1132.703 531.935 c
b
0.000 0.000 0.000 1.000 K
0 j
0 J
0.071 w
[]0 d
0.000 0.000 0.000 0.000 k
1253.087 1209.528 m
1278.144 1209.528 1298.591 1229.975 1298.591 1255.103 c
1298.591 1280.231 1278.144 1300.679 1253.087 1300.679 c
1227.959 1300.679 1207.511 1280.231 1207.511 1255.103 c
1207.511 1229.975 1227.959 1209.528 1253.087 1209.528 c
b
0.000 0.000 0.000 1.000 K
0 j
0 J
0.071 w
[]0 d
0.000 0.000 0.000 0.000 k
314.207 502.055 m
289.151 502.055 268.704 522.503 268.704 547.631 c
268.704 572.759 289.151 593.207 314.207 593.207 c
339.335 593.207 359.783 572.759 359.783 547.631 c
359.783 522.503 339.335 502.055 314.207 502.055 c
b
0.000 0.000 0.000 1.000 K
0 j
0 J
0.071 w
[]0 d
0.000 0.000 0.000 0.000 k
1253.087 1211.543 m
1277.063 1211.543 1296.575 1231.055 1296.575 1255.103 c
1296.575 1279.151 1277.063 1298.663 1253.087 1298.663 c
1229.039 1298.663 1209.528 1279.151 1209.528 1255.103 c
1209.528 1231.055 1229.039 1211.543 1253.087 1211.543 c
b
0.000 0.000 0.000 1.000 K
0 j
0 J
0.071 w
[]0 d
0.000 0.000 0.000 0.000 k
314.207 504.071 m
290.231 504.071 270.719 523.583 270.719 547.631 c
270.719 571.679 290.231 591.192 314.207 591.192 c
338.255 591.192 357.767 571.679 357.767 547.631 c
357.767 523.583 338.255 504.071 314.207 504.071 c
b
0.000 0.000 0.000 1.000 K
0 j
0 J
0.071 w
[]0 d
0.000 0.000 0.000 0.000 k
1253.087 1223.495 m
1270.511 1223.495 1284.695 1237.679 1284.695 1255.103 c
1284.695 1272.599 1270.511 1286.783 1253.087 1286.783 c
1235.663 1286.783 1221.480 1272.599 1221.480 1255.103 c
1221.480 1237.679 1235.663 1223.495 1253.087 1223.495 c
b
0.000 0.000 0.000 1.000 K
0 j
0 J
0.071 w
[]0 d
0.000 0.000 0.000 0.000 k
314.207 516.024 m
296.783 516.024 282.599 530.207 282.599 547.631 c
282.599 565.127 296.783 579.312 314.207 579.312 c
331.631 579.312 345.815 565.127 345.815 547.631 c
345.815 530.207 331.631 516.024 314.207 516.024 c
b
0.000 0.000 0.000 1.000 K
0 j
0 J
0.071 w
[]0 d
0.000 0.000 0.000 0.000 k
1253.519 1297.007 m
1255.895 1297.007 1257.767 1295.135 1257.767 1292.759 c
1257.767 1290.384 1255.895 1288.511 1253.519 1288.511 c
1251.071 1288.511 1249.199 1290.384 1249.199 1292.759 c
1249.199 1295.135 1251.071 1297.007 1253.519 1297.007 c
b
0.000 0.000 0.000 1.000 K
0 j
0 J
0.071 w
[]0 d
0.000 0.000 0.000 0.000 k
313.775 589.535 m
311.399 589.535 309.527 587.663 309.527 585.288 c
309.527 582.911 311.399 581.039 313.775 581.039 c
316.223 581.039 318.096 582.911 318.096 585.288 c
318.096 587.663 316.223 589.535 313.775 589.535 c
b
0.000 0.000 0.000 1.000 K
0 j
0 J
0.071 w
[]0 d
0.000 0.000 0.000 0.000 k
1228.679 1289.303 m
1230.623 1290.671 1233.215 1290.311 1234.655 1288.367 c
1236.023 1286.423 1235.663 1283.759 1233.719 1282.391 c
1231.775 1280.951 1229.111 1281.384 1227.743 1283.327 c
1226.303 1285.271 1226.735 1287.863 1228.679 1289.303 c
b
0.000 0.000 0.000 1.000 K
0 j
0 J
0.071 w
[]0 d
0.000 0.000 0.000 0.000 k
338.615 581.831 m
336.671 583.199 334.079 582.839 332.639 580.895 c
331.271 578.951 331.631 576.288 333.575 574.919 c
335.519 573.479 338.183 573.911 339.551 575.855 c
340.991 577.799 340.560 580.391 338.615 581.831 c
b
0.000 0.000 0.000 1.000 K
0 j
0 J
0.071 w
[]0 d
0.000 0.000 0.000 0.000 k
1212.983 1242.432 m
1212.192 1244.735 1213.415 1247.111 1215.719 1247.831 c
1217.951 1248.623 1220.327 1247.399 1221.119 1245.096 c
1221.839 1242.863 1220.615 1240.487 1218.384 1239.695 c
1216.079 1238.975 1213.703 1240.199 1212.983 1242.432 c
b
0.000 0.000 0.000 1.000 K
0 j
0 J
0.071 w
[]0 d
0.000 0.000 0.000 0.000 k
354.311 534.959 m
355.103 537.264 353.879 539.639 351.575 540.360 c
349.343 541.151 346.967 539.927 346.175 537.623 c
345.455 535.391 346.679 533.015 348.911 532.223 c
351.215 531.503 353.591 532.727 354.311 534.959 c
b
0.000 0.000 0.000 1.000 K
0 j
0 J
0.071 w
[]0 d
0.000 0.000 0.000 0.000 k
1228.031 1221.336 m
1226.087 1222.703 1225.655 1225.367 1227.096 1227.311 c
1228.463 1229.255 1231.127 1229.687 1233.071 1228.247 c
1235.015 1226.879 1235.375 1224.215 1234.007 1222.271 c
1232.639 1220.327 1229.975 1219.895 1228.031 1221.336 c
b
0.000 0.000 0.000 1.000 K
0 j
0 J
0.071 w
[]0 d
0.000 0.000 0.000 0.000 k
339.263 513.863 m
341.207 515.231 341.639 517.895 340.199 519.839 c
338.831 521.783 336.167 522.216 334.223 520.775 c
332.279 519.408 331.919 516.743 333.287 514.799 c
334.655 512.855 337.319 512.423 339.263 513.863 c
b
0.000 0.000 0.000 1.000 K
0 j
0 J
0.071 w
[]0 d
0.000 0.000 0.000 0.000 k
1252.655 1213.055 m
1250.279 1213.055 1248.336 1214.927 1248.336 1217.375 c
1248.336 1219.751 1250.279 1221.623 1252.655 1221.623 c
1255.031 1221.623 1256.903 1219.751 1256.903 1217.375 c
1256.903 1214.927 1255.031 1213.055 1252.655 1213.055 c
b
0.000 0.000 0.000 1.000 K
0 j
0 J
0.071 w
[]0 d
0.000 0.000 0.000 0.000 k
314.639 505.583 m
317.015 505.583 318.959 507.455 318.959 509.903 c
318.959 512.279 317.015 514.151 314.639 514.151 c
312.263 514.151 310.391 512.279 310.391 509.903 c
310.391 507.455 312.263 505.583 314.639 505.583 c
b
0.000 0.000 0.000 1.000 K
0 j
0 J
0.071 w
[]0 d
0.000 0.000 0.000 0.000 k
1277.423 1220.903 m
1275.479 1219.463 1272.815 1219.895 1271.447 1221.839 c
1270.007 1223.711 1270.439 1226.375 1272.384 1227.815 c
1274.327 1229.183 1276.919 1228.751 1278.359 1226.879 c
1279.727 1224.935 1279.367 1222.271 1277.423 1220.903 c
b
0.000 0.000 0.000 1.000 K
0 j
0 J
0.071 w
[]0 d
0.000 0.000 0.000 0.000 k
289.871 513.432 m
291.815 511.991 294.479 512.423 295.847 514.367 c
297.287 516.240 296.855 518.903 294.911 520.343 c
292.967 521.711 290.375 521.279 288.935 519.408 c
287.567 517.463 287.927 514.799 289.871 513.432 c
b
0.000 0.000 0.000 1.000 K
0 j
0 J
0.071 w
[]0 d
0.000 0.000 0.000 0.000 k
1292.831 1241.711 m
1292.111 1239.480 1289.735 1238.255 1287.431 1238.975 c
1285.199 1239.695 1283.975 1242.071 1284.695 1244.375 c
1285.415 1246.607 1287.863 1247.831 1290.096 1247.111 c
1292.399 1246.391 1293.551 1244.015 1292.831 1241.711 c
b
0.000 0.000 0.000 1.000 K
0 j
0 J
0.071 w
[]0 d
0.000 0.000 0.000 0.000 k
274.463 534.240 m
275.183 532.007 277.560 530.783 279.863 531.503 c
282.096 532.223 283.319 534.599 282.599 536.903 c
281.879 539.135 279.431 540.360 277.199 539.639 c
274.895 538.919 273.743 536.543 274.463 534.240 c
b
0.000 0.000 0.000 1.000 K
0 j
0 J
0.071 w
[]0 d
0.000 0.000 0.000 0.000 k
1293.119 1267.703 m
1293.839 1265.399 1292.615 1263.023 1290.384 1262.303 c
1288.079 1261.583 1285.703 1262.807 1284.983 1265.039 c
1284.263 1267.343 1285.487 1269.719 1287.719 1270.439 c
1290.023 1271.159 1292.399 1269.935 1293.119 1267.703 c
b
0.000 0.000 0.000 1.000 K
0 j
0 J
0.071 w
[]0 d
0.000 0.000 0.000 0.000 k
274.175 560.231 m
273.455 557.927 274.680 555.551 276.911 554.831 c
279.215 554.111 281.591 555.336 282.311 557.567 c
283.031 559.871 281.807 562.247 279.575 562.967 c
277.271 563.687 274.895 562.463 274.175 560.231 c
b
0.000 0.000 0.000 1.000 K
0 j
0 J
0.071 w
[]0 d
0.000 0.000 0.000 0.000 k
1278.071 1288.871 m
1279.943 1287.503 1280.375 1284.839 1279.007 1282.895 c
1277.567 1280.951 1274.975 1280.591 1273.031 1281.959 c
1271.087 1283.399 1270.655 1285.991 1272.096 1287.935 c
1273.463 1289.879 1276.127 1290.311 1278.071 1288.871 c
b
0.000 0.000 0.000 1.000 K
0 j
0 J
0.071 w
[]0 d
0.000 0.000 0.000 0.000 k
289.223 581.399 m
287.351 580.031 286.919 577.367 288.287 575.423 c
289.727 573.479 292.319 573.120 294.263 574.487 c
296.207 575.927 296.639 578.519 295.199 580.463 c
293.831 582.407 291.168 582.839 289.223 581.399 c
b
0.000 0.000 0.000 1.000 K
0 j
0 J
0.071 w
[]0 d
0.000 0.000 0.000 0.000 k
1213.199 1268.495 m
1213.919 1270.799 1216.295 1272.023 1218.599 1271.231 c
1220.831 1270.511 1222.055 1268.135 1221.336 1265.831 c
1220.615 1263.599 1218.167 1262.375 1215.935 1263.096 c
1213.631 1263.815 1212.407 1266.263 1213.199 1268.495 c
b
0.000 0.000 0.000 1.000 K
0 j
0 J
0.071 w
[]0 d
0.000 0.000 0.000 0.000 k
354.095 561.024 m
353.375 563.327 351.000 564.551 348.695 563.759 c
346.463 563.039 345.239 560.663 345.959 558.360 c
346.679 556.127 349.127 554.903 351.359 555.623 c
353.663 556.343 354.887 558.791 354.095 561.024 c
b
0.000 0.000 0.000 1.000 K
0 j
0 J
0.071 w
[]0 d
0.000 0.000 0.000 0.000 k
1252.871 1284.192 m
1254.743 1284.192 1256.183 1282.751 1256.183 1280.951 c
1256.183 1279.079 1254.743 1277.639 1252.871 1277.639 c
1251.071 1277.639 1249.631 1279.079 1249.631 1280.951 c
1249.631 1282.751 1251.071 1284.192 1252.871 1284.192 c
b
0.000 0.000 0.000 1.000 K
0 j
0 J
0.071 w
[]0 d
0.000 0.000 0.000 0.000 k
314.423 576.719 m
312.551 576.719 311.111 575.279 311.111 573.479 c
311.111 571.607 312.551 570.168 314.423 570.168 c
316.223 570.168 317.663 571.607 317.663 573.479 c
317.663 575.279 316.223 576.719 314.423 576.719 c
b
0.000 0.000 0.000 1.000 K
0 j
0 J
0.071 w
[]0 d
0.000 0.000 0.000 0.000 k
1253.303 1226.015 m
1251.432 1226.015 1249.991 1227.455 1249.991 1229.327 c
1249.991 1231.127 1251.432 1232.567 1253.303 1232.567 c
1255.103 1232.567 1256.543 1231.127 1256.543 1229.327 c
1256.543 1227.455 1255.103 1226.015 1253.303 1226.015 c
b
0.000 0.000 0.000 1.000 K
0 j
0 J
0.071 w
[]0 d
0.000 0.000 0.000 0.000 k
313.991 518.543 m
315.863 518.543 317.303 519.983 317.303 521.855 c
317.303 523.655 315.863 525.096 313.991 525.096 c
312.191 525.096 310.751 523.655 310.751 521.855 c
310.751 519.983 312.191 518.543 313.991 518.543 c
b
0.000 0.000 0.000 1.000 K
0 j
0 J
0.071 w
[]0 d
0.000 0.000 0.000 0.000 k
1228.751 1266.839 m
1230.551 1266.839 1231.991 1265.399 1231.991 1263.599 c
1231.991 1261.799 1230.551 1260.359 1228.751 1260.359 c
1226.951 1260.359 1225.511 1261.799 1225.511 1263.599 c
1225.511 1265.399 1226.951 1266.839 1228.751 1266.839 c
b
0.000 0.000 0.000 1.000 K
0 j
0 J
0.071 w
[]0 d
0.000 0.000 0.000 0.000 k
338.543 559.367 m
336.743 559.367 335.303 557.927 335.303 556.127 c
335.303 554.327 336.743 552.887 338.543 552.887 c
340.343 552.887 341.783 554.327 341.783 556.127 c
341.783 557.927 340.343 559.367 338.543 559.367 c
b
0.000 0.000 0.000 1.000 K
0 j
0 J
0.071 w
[]0 d
0.000 0.000 0.000 0.000 k
1277.351 1243.439 m
1275.551 1243.439 1274.111 1244.879 1274.111 1246.751 c
1274.111 1248.551 1275.551 1249.991 1277.351 1249.991 c
1279.151 1249.991 1280.591 1248.551 1280.591 1246.751 c
1280.591 1244.879 1279.151 1243.439 1277.351 1243.439 c
b
0.000 0.000 0.000 1.000 K
0 j
0 J
0.071 w
[]0 d
0.000 0.000 0.000 0.000 k
289.943 535.967 m
291.743 535.967 293.183 537.408 293.183 539.279 c
293.183 541.079 291.743 542.519 289.943 542.519 c
288.144 542.519 286.703 541.079 286.703 539.279 c
286.703 537.408 288.144 535.967 289.943 535.967 c
b
0.000 0.000 0.000 1.000 K
0 j
0 J
0.071 w
[]0 d
0.000 0.000 0.000 0.000 k
1229.039 1249.487 m
1230.839 1249.487 1232.279 1248.048 1232.279 1246.247 c
1232.279 1244.375 1230.839 1242.935 1229.039 1242.935 c
1227.167 1242.935 1225.727 1244.375 1225.727 1246.247 c
1225.727 1248.048 1227.167 1249.487 1229.039 1249.487 c
b
0.000 0.000 0.000 1.000 K
0 j
0 J
0.071 w
[]0 d
0.000 0.000 0.000 0.000 k
338.255 542.015 m
336.455 542.015 335.015 540.575 335.015 538.775 c
335.015 536.903 336.455 535.463 338.255 535.463 c
340.127 535.463 341.567 536.903 341.567 538.775 c
341.567 540.575 340.127 542.015 338.255 542.015 c
b
0.000 0.000 0.000 1.000 K
0 j
0 J
0.071 w
[]0 d
0.000 0.000 0.000 0.000 k
1276.991 1260.935 m
1275.192 1260.935 1273.751 1262.375 1273.751 1264.175 c
1273.751 1265.975 1275.192 1267.415 1276.991 1267.415 c
1278.791 1267.415 1280.231 1265.975 1280.231 1264.175 c
1280.231 1262.375 1278.791 1260.935 1276.991 1260.935 c
b
0.000 0.000 0.000 1.000 K
0 j
0 J
0.071 w
[]0 d
0.000 0.000 0.000 0.000 k
290.303 553.463 m
292.103 553.463 293.543 554.903 293.543 556.703 c
293.543 558.503 292.103 559.943 290.303 559.943 c
288.503 559.943 287.063 558.503 287.063 556.703 c
287.063 554.903 288.503 553.463 290.303 553.463 c
b
0.000 0.000 0.000 1.000 K
0 j
0 J
0.071 w
[]0 d
0.000 0.000 0.000 0.000 k
1237.535 1278.647 m
1239.336 1278.647 1240.775 1277.207 1240.775 1275.407 c
1240.775 1273.607 1239.336 1272.167 1237.535 1272.167 c
1235.663 1272.167 1234.223 1273.607 1234.223 1275.407 c
1234.223 1277.207 1235.663 1278.647 1237.535 1278.647 c
b
0.000 0.000 0.000 1.000 K
0 j
0 J
0.071 w
[]0 d
0.000 0.000 0.000 0.000 k
329.759 571.175 m
327.959 571.175 326.519 569.735 326.519 567.935 c
326.519 566.135 327.959 564.695 329.759 564.695 c
331.631 564.695 333.072 566.135 333.072 567.935 c
333.072 569.735 331.631 571.175 329.759 571.175 c
b
0.000 0.000 0.000 1.000 K
0 j
0 J
0.071 w
[]0 d
0.000 0.000 0.000 0.000 k
1268.495 1231.631 m
1266.695 1231.631 1265.255 1233.071 1265.255 1234.943 c
1265.255 1236.743 1266.695 1238.183 1268.495 1238.183 c
1270.295 1238.183 1271.735 1236.743 1271.735 1234.943 c
1271.735 1233.071 1270.295 1231.631 1268.495 1231.631 c
b
0.000 0.000 0.000 1.000 K
0 j
0 J
0.071 w
[]0 d
0.000 0.000 0.000 0.000 k
298.799 524.159 m
300.599 524.159 302.039 525.599 302.039 527.471 c
302.039 529.271 300.599 530.711 298.799 530.711 c
297.000 530.711 295.560 529.271 295.560 527.471 c
295.560 525.599 297.000 524.159 298.799 524.159 c
b
0.000 0.000 0.000 1.000 K
0 j
0 J
0.071 w
[]0 d
0.000 0.000 0.000 0.000 k
1237.967 1238.183 m
1239.767 1238.183 1241.207 1236.743 1241.207 1234.943 c
1241.207 1233.071 1239.767 1231.631 1237.967 1231.631 c
1236.167 1231.631 1234.727 1233.071 1234.727 1234.943 c
1234.727 1236.743 1236.167 1238.183 1237.967 1238.183 c
b
0.000 0.000 0.000 1.000 K
0 j
0 J
0.071 w
[]0 d
0.000 0.000 0.000 0.000 k
329.327 530.711 m
327.527 530.711 326.087 529.271 326.087 527.471 c
326.087 525.599 327.527 524.159 329.327 524.159 c
331.127 524.159 332.567 525.599 332.567 527.471 c
332.567 529.271 331.127 530.711 329.327 530.711 c
b
0.000 0.000 0.000 1.000 K
0 j
0 J
0.071 w
[]0 d
0.000 0.000 0.000 0.000 k
1268.135 1272.167 m
1266.336 1272.167 1264.895 1273.607 1264.895 1275.407 c
1264.895 1277.207 1266.336 1278.647 1268.135 1278.647 c
1269.935 1278.647 1271.375 1277.207 1271.375 1275.407 c
1271.375 1273.607 1269.935 1272.167 1268.135 1272.167 c
b
0.000 0.000 0.000 1.000 K
0 j
0 J
0.071 w
[]0 d
0.000 0.000 0.000 0.000 k
299.159 564.695 m
300.959 564.695 302.399 566.135 302.399 567.935 c
302.399 569.735 300.959 571.175 299.159 571.175 c
297.359 571.175 295.919 569.735 295.919 567.935 c
295.919 566.135 297.359 564.695 299.159 564.695 c
b
0.000 0.000 0.000 1.000 K
0 j
0 J
0.071 w
[]0 d
0.000 0.000 0.000 0.000 k
1253.087 1235.159 m
1264.103 1235.159 1273.031 1244.087 1273.031 1255.103 c
1273.031 1266.119 1264.103 1275.119 1253.087 1275.119 c
1242.071 1275.119 1233.071 1266.119 1233.071 1255.103 c
1233.071 1244.087 1242.071 1235.159 1253.087 1235.159 c
b
0.000 0.000 0.000 1.000 K
0 j
0 J
0.071 w
[]0 d
0.000 0.000 0.000 0.000 k
314.207 527.687 m
303.191 527.687 294.263 536.615 294.263 547.631 c
294.263 558.647 303.191 567.647 314.207 567.647 c
325.223 567.647 334.223 558.647 334.223 547.631 c
334.223 536.615 325.223 527.687 314.207 527.687 c
b
0.000 0.000 0.000 1.000 K
0 j
0 J
0.071 w
[]0 d
0.000 0.000 0.000 0.000 k
1253.087 1243.583 m
1259.423 1243.583 1264.607 1248.767 1264.607 1255.103 c
1264.607 1261.439 1259.423 1266.623 1253.087 1266.623 c
1246.679 1266.623 1241.567 1261.439 1241.567 1255.103 c
1241.567 1248.767 1246.679 1243.583 1253.087 1243.583 c
b
0.000 0.000 0.000 1.000 K
0 j
0 J
0.071 w
[]0 d
0.000 0.000 0.000 0.000 k
314.207 536.111 m
307.871 536.111 302.687 541.295 302.687 547.631 c
302.687 553.967 307.871 559.151 314.207 559.151 c
320.615 559.151 325.727 553.967 325.727 547.631 c
325.727 541.295 320.615 536.111 314.207 536.111 c
b
0.000 0.000 0.000 1.000 K
0 j
0 J
0.071 w
[]0 d
0.000 0.000 0.000 0.498 k
507.167 1235.087 m
508.967 1241.567 509.903 1248.407 509.903 1255.463 C
509.903 1297.367 475.631 1331.639 433.727 1331.639 C
391.823 1331.639 357.551 1297.367 357.551 1255.463 C
357.551 1247.687 358.775 1240.127 361.007 1233.000 C
352.295 1229.471 L
352.295 1258.703 L
352.295 1303.487 391.751 1338.048 436.103 1338.048 C
436.103 1338.048 435.527 1338.048 436.103 1338.048 C
478.871 1338.048 516.599 1300.031 516.599 1258.415 C
516.599 1231.343 L
507.167 1235.087 L
b
0.000 0.000 0.000 1.000 K
0 j
0 J
0.071 w
[]0 d
0.000 0.000 0.000 0.498 k
1325.879 1231.703 m
1328.327 1239.119 1329.551 1246.967 1329.551 1255.175 C
1329.551 1297.223 1295.279 1331.639 1253.087 1331.639 C
1210.895 1331.639 1176.624 1297.223 1176.624 1255.175 C
1176.624 1247.903 1177.703 1240.775 1179.647 1234.079 C
1170.791 1231.199 L
1172.231 1267.199 1172.807 1277.855 1182.743 1295.711 C
1188.791 1306.079 1209.528 1336.463 1256.327 1335.311 C
1308.311 1333.871 1334.087 1291.535 1334.087 1256.687 C
1334.087 1229.471 L
1325.879 1231.703 L
b
0.000 0.000 0.000 1.000 K
0 j
0 J
0.071 w
[]0 d
0.000 0.000 0.000 0.098 k
1688.687 1335.815 m
1709.279 1335.815 l
1709.999 1335.815 1710.575 1335.383 1710.575 1334.519 c
1710.575 1293.048 l
1710.575 1292.327 1709.999 1291.751 1709.279 1291.751 c
1688.687 1291.751 l
1687.823 1291.751 1687.391 1292.327 1687.391 1293.048 c
1687.391 1334.519 l
1687.391 1335.383 1687.823 1335.815 1688.687 1335.815 c
b
0.000 0.000 0.000 1.000 K
0 j
0 J
0.071 w
[]0 d
0.000 0.000 0.000 0.098 k
1987.343 1335.815 m
2007.935 1335.815 l
2008.655 1335.815 2009.231 1335.383 2009.231 1334.519 c
2009.231 1293.048 l
2009.231 1292.327 2008.655 1291.751 2007.935 1291.751 c
1987.343 1291.751 l
1986.479 1291.751 1986.047 1292.327 1986.047 1293.048 c
1986.047 1334.519 l
1986.047 1335.383 1986.479 1335.815 1987.343 1335.815 c
b
0.000 0.000 0.000 1.000 K
0 j
0 J
0.071 w
[]0 d
2028.383 1236.240 m
2024.639 1223.207 L
1667.807 1223.207 L
1665.935 1237.751 L
1660.607 1283.039 1663.415 1333.583 1663.415 1385.135 C
1665.719 1443.239 1671.551 1517.039 1675.727 1575.287 C
1680.047 1581.911 L
1717.631 1596.815 1770.047 1604.951 1804.751 1608.119 C
1830.455 1610.567 1866.671 1610.567 1897.271 1607.543 C
1938.527 1603.799 1980.287 1598.327 2015.711 1581.911 C
2018.015 1574.351 L
2025.719 1507.391 2030.111 1446.263 2032.919 1381.535 C
2031.047 1337.399 2034.215 1291.175 2028.383 1236.240 C
s
u
u
0.000 0.000 0.000 1.000 K
0 j
0 J
0.071 w
[]0 d
1669.175 1398.167 m
1669.031 1361.231 1669.535 1310.831 1676.951 1274.399 C
S
U
U
u
u
0.000 0.000 0.000 1.000 K
0 j
0 J
0.071 w
[]0 d
2015.999 1275.551 m
2024.639 1309.751 2023.847 1362.383 2023.559 1400.111 C
S
U
U
u
u
U
u
0.000 0.000 0.000 1.000 K
0 j
0 J
0.071 w
[]0 d
1695.743 1326.023 m
1704.815 1326.240 L
S
U
U
u
u
U
u
0.000 0.000 0.000 1.000 K
0 j
0 J
0.071 w
[]0 d
1994.111 1326.023 m
2003.183 1326.240 L
S
U
U
u
u
0.000 0.000 0.000 1.000 K
0 j
0 J
0.071 w
[]0 d
2022.911 1403.351 m
2022.407 1442.735 2015.783 1527.119 2010.311 1568.951 c
2009.303 1577.015 2005.199 1577.303 2001.023 1578.311 c
1963.079 1587.455 1930.823 1593.359 1851.191 1593.863 C
1780.919 1595.087 1747.799 1589.975 1692.215 1577.807 c
1692.071 1577.807 1682.207 1577.735 1681.559 1567.151 c
1678.463 1518.983 1672.343 1448.207 1669.967 1403.639 C
S
U
U
u
u
0.000 0.000 0.000 0.298 k
1678.175 658.583 m
1678.535 676.079 L
2007.863 676.151 L
2007.647 658.871 L
S
U
u
0.000 0.000 0.000 1.000 K
0 j
0 J
0.071 w
[]0 d
1678.175 658.583 m
1678.535 676.079 L
2007.863 676.151 L
2007.647 658.871 L
S
U
U
0.000 0.000 0.000 1.000 K
0 j
0 J
0.071 w
[]0 d
2014.919 862.991 m
2007.719 874.871 L
2003.111 888.335 1940.111 897.623 1909.223 902.231 C
1862.855 905.615 1805.975 905.759 1758.095 899.855 C
1732.535 897.263 1691.423 893.951 1677.311 874.079 C
1670.471 863.207 L
1661.975 690.983 L
1661.975 675.215 L
1665.143 560.807 L
2021.327 560.807 L
2024.063 674.135 L
2024.063 686.879 L
2014.919 862.991 L
s
u
u
U
u
0.000 0.000 0.000 1.000 K
0 j
0 J
0.071 w
[]0 d
1906.703 901.871 m
1912.247 901.943 L
S
U
U
0.000 0.000 0.000 1.000 K
0 j
0 J
0.071 w
[]0 d
1662.479 696.096 m
2022.551 696.096 L
2022.551 691.919 L
1662.479 691.919 L
1662.479 696.096 L
s
0.000 0.000 0.000 1.000 K
0 j
0 J
0.071 w
[]0 d
0.000 0.000 0.000 0.498 k
1664.783 559.151 m
2023.919 559.151 l
2025.791 559.151 2027.087 557.711 2027.087 555.551 c
2027.087 537.695 l
2027.087 535.535 2025.791 534.096 2023.919 534.096 c
1664.783 534.096 l
1662.911 534.096 1661.759 535.535 1661.759 537.695 c
1661.759 555.551 l
1661.759 557.711 1662.911 559.151 1664.783 559.151 c
b
0.000 0.000 0.000 1.000 K
0 j
0 J
0.071 w
[]0 d
1663.343 532.511 m
1667.591 510.767 L
1680.263 515.519 1693.367 518.327 1723.175 517.967 C
1965.815 517.967 L
1992.671 517.967 2006.135 516.743 2018.231 510.767 C
2023.415 532.511 L
1663.343 532.511 L
s
u
u
0.000 0.000 0.000 1.000 K
0 j
0 J
0.071 w
[]0 d
1678.823 624.599 m
1680.839 561.815 L
S
U
U
0.000 0.000 0.000 1.000 K
0 j
0 J
0.071 w
[]0 d
0.000 0.000 0.000 0.298 k
1688.399 602.063 m
1998.719 602.063 l
2001.743 602.063 2004.191 599.759 2004.191 596.735 c
2004.191 573.983 l
2004.191 570.959 2001.743 568.655 1998.719 568.655 c
1688.399 568.655 l
1685.519 568.655 1683.071 570.959 1683.071 573.983 c
1683.071 596.735 l
1683.071 599.759 1685.519 602.063 1688.399 602.063 c
b
0.000 0.000 0.000 1.000 K
0 j
0 J
0.071 w
[]0 d
0.000 0.000 0.000 0.298 k
2001.311 597.240 m
2001.383 596.519 L
2001.383 574.199 L
2001.239 572.471 2000.519 571.607 1998.647 571.463 C
1688.471 571.463 L
1686.815 571.607 1686.023 572.543 1685.879 574.199 C
1685.879 596.519 L
1686.023 598.175 1686.815 599.111 1688.471 599.255 C
1998.647 599.255 L
2000.087 599.111 2000.951 598.679 2001.311 597.240 C
b
u
u
U
u
0.000 0.000 0.000 1.000 K
0 j
0 J
0.071 w
[]0 d
1679.471 604.223 m
2006.135 604.223 L
S
U
U
u
u
0.000 0.000 0.000 1.000 K
0 j
0 J
0.071 w
[]0 d
1738.799 604.223 m
1738.799 562.463 L
S
U
U
u
u
0.000 0.000 0.000 1.000 K
0 j
0 J
0.071 w
[]0 d
1946.015 604.223 m
1946.015 562.463 L
S
U
U
0.000 0.000 0.000 1.000 K
0 j
0 J
0.071 w
[]0 d
0.000 0.000 0.000 0.298 k
1678.751 659.231 m
2007.791 659.231 L
2007.791 624.815 L
1678.751 624.815 L
1678.751 659.231 L
b
u
u
0.000 0.000 0.000 1.000 K
0 j
0 J
0.071 w
[]0 d
2007.791 624.959 m
2006.495 562.175 L
S
U
U
0.000 0.000 0.000 1.000 K
0 j
0 J
0.071 w
[]0 d
0.000 0.000 0.000 0.298 k
1684.655 655.919 m
1692.287 655.919 l
1693.295 655.919 1694.015 655.199 1694.015 654.192 c
1694.015 630.000 l
1694.015 628.991 1693.295 628.127 1692.287 628.127 c
1684.655 628.127 l
1683.647 628.127 1682.927 628.991 1682.927 630.000 c
1682.927 654.192 l
1682.927 655.199 1683.647 655.919 1684.655 655.919 c
b
0.000 0.000 0.000 1.000 K
0 j
0 J
0.071 w
[]0 d
0.000 0.000 0.000 0.298 k
1994.399 655.487 m
2002.031 655.487 l
2003.039 655.487 2003.759 654.767 2003.759 653.759 c
2003.759 629.567 l
2003.759 628.559 2003.039 627.695 2002.031 627.695 c
1994.399 627.695 l
1993.391 627.695 1992.671 628.559 1992.671 629.567 c
1992.671 653.759 l
1992.671 654.767 1993.391 655.487 1994.399 655.487 c
b
0.000 0.000 0.000 1.000 K
0 j
0 J
0.071 w
[]0 d
0.000 0.000 0.000 0.498 k
1699.055 655.919 m
1879.199 655.919 l
1880.495 655.919 1881.503 655.055 1881.503 653.759 c
1881.503 630.431 l
1881.503 629.135 1880.495 628.127 1879.199 628.127 c
1699.055 628.127 l
1697.759 628.127 1696.895 629.135 1696.895 630.431 c
1696.895 653.759 l
1696.895 655.055 1697.759 655.919 1699.055 655.919 c
b
0.000 0.000 0.000 1.000 K
0 j
0 J
0.071 w
[]0 d
0.000 0.000 0.000 0.498 k
1664.999 701.423 m
1677.887 701.423 L
1678.247 861.695 L
1673.063 855.503 L
1664.999 701.423 L
b
0.000 0.000 0.000 1.000 K
0 j
0 J
0.071 w
[]0 d
0.000 0.000 0.000 0.200 k
1667.879 704.231 m
1675.079 704.231 L
1675.295 844.055 L
1667.879 704.231 L
b
0.000 0.000 0.000 1.000 K
0 j
0 J
0.071 w
[]0 d
0.000 0.000 0.000 0.498 k
2019.311 701.567 m
2006.423 701.567 L
2006.423 862.343 L
2011.607 856.151 L
2019.311 701.567 L
b
0.000 0.000 0.000 1.000 K
0 j
0 J
0.071 w
[]0 d
0.000 0.000 0.000 0.200 k
2016.359 704.375 m
2009.303 704.375 L
2009.303 844.559 L
2016.359 704.375 L
b
u
u
0.000 0.000 0.000 1.000 K
0 j
0 J
0.071 w
[]0 d
1677.887 874.943 m
2007.215 874.943 L
S
U
U
0.000 0.000 0.000 1.000 K
0 j
0 J
0.071 w
[]0 d
0.000 0.000 0.000 0.498 k
1683.791 861.551 m
2000.015 861.551 l
2001.455 861.551 2002.463 860.687 2002.463 859.391 c
2002.463 703.439 l
2002.463 702.143 2001.455 701.135 2000.015 701.135 c
1683.791 701.135 l
1682.351 701.135 1681.343 702.143 1681.343 703.439 c
1681.343 859.391 l
1681.343 860.687 1682.351 861.551 1683.791 861.551 c
b
0.000 0.000 0.000 1.000 K
0 j
0 J
0.071 w
[]0 d
0.000 0.000 0.000 0.200 k
1999.655 858.743 m
1999.655 703.943 L
1684.151 703.943 L
1684.151 858.743 L
1999.655 858.743 L
b
u
u
0.000 0.000 0.000 1.000 K
0 j
0 J
0.071 w
[]0 d
1676.159 872.495 m
2009.519 872.495 L
S
U
U
0.000 0.000 0.000 1.000 K
0 j
0 J
0.071 w
[]0 d
0.000 0.000 0.000 0.298 k
1816.127 915.839 m
1872.143 915.839 l
1874.015 915.839 1875.311 914.687 1875.311 912.815 c
1875.311 908.063 l
1875.311 906.191 1874.015 904.895 1872.143 904.895 c
1816.127 904.895 l
1814.255 904.895 1813.103 906.191 1813.103 908.063 c
1813.103 912.815 l
1813.103 914.687 1814.255 915.839 1816.127 915.839 c
b
0.000 0.000 0.000 1.000 K
0 j
0 J
0.071 w
[]0 d
0.000 0.000 0.000 0.498 k
2040.191 765.719 m
2028.743 765.719 L
2027.015 765.719 2025.863 764.567 2025.863 762.839 C
2025.863 710.423 L
2025.863 708.695 2027.015 707.399 2028.743 707.399 C
2039.903 707.399 L
2039.327 704.591 2037.527 702.575 2033.855 702.575 C
2023.199 702.575 L
2023.343 700.991 L
2035.583 700.991 L
2039.255 701.351 2041.487 703.943 2041.919 707.399 C
2044.439 707.399 L
2046.023 707.399 2047.319 708.695 2047.319 710.423 C
2047.319 762.839 L
2047.319 764.567 2046.023 765.719 2044.439 765.719 C
2042.063 765.719 L
2042.063 767.231 L
2042.351 770.975 2039.471 772.415 2036.447 772.271 C
2019.311 772.271 L
2019.311 772.271 L
2019.455 770.399 L
2034.863 770.399 L
2038.607 770.399 2040.191 770.399 2040.191 766.367 C
2040.191 765.719 L
b
0.000 0.000 0.000 1.000 K
0 j
0 J
0.071 w
[]0 d
0.000 0.000 0.000 0.498 k
1647.935 1482.191 m
1659.239 1482.191 L
1660.967 1482.191 1662.263 1481.039 1662.263 1479.311 C
1662.263 1426.895 L
1662.263 1425.167 1660.967 1423.871 1659.239 1423.871 C
1648.079 1423.871 L
1648.583 1420.775 1650.311 1418.615 1654.271 1418.615 C
1664.927 1418.615 L
1664.783 1417.031 L
1652.543 1417.031 L
1648.655 1417.391 1646.351 1420.199 1646.063 1423.871 C
1643.543 1423.871 L
1641.959 1423.871 1640.663 1425.167 1640.663 1426.895 C
1640.663 1479.311 L
1640.663 1481.039 1641.959 1482.191 1643.543 1482.191 C
1646.063 1482.191 L
1646.063 1483.271 L
1645.775 1487.015 1648.655 1488.455 1651.679 1488.311 C
1668.815 1488.311 L
1668.671 1486.439 L
1653.263 1486.439 L
1649.519 1486.439 1647.935 1486.439 1647.935 1482.407 C
1647.935 1482.191 L
b
0.000 0.000 0.000 1.000 K
0 j
0 J
0.071 w
[]0 d
0.000 0.000 0.000 0.498 k
1647.791 819.287 m
1659.239 819.287 L
1660.967 819.287 1662.263 818.135 1662.263 816.407 C
1662.263 763.991 L
1662.263 762.263 1660.967 760.967 1659.239 760.967 C
1648.007 760.967 L
1648.583 758.159 1650.383 756.143 1654.127 756.143 C
1664.783 756.143 L
1664.639 754.559 L
1652.399 754.559 L
1648.655 754.919 1646.423 757.511 1645.991 760.967 C
1643.543 760.967 L
1641.959 760.967 1640.663 762.263 1640.663 763.991 C
1640.663 816.407 L
1640.663 818.135 1641.959 819.287 1643.543 819.287 C
1645.919 819.287 L
1645.919 820.799 L
1645.631 824.543 1648.511 825.983 1651.535 825.839 C
1668.671 825.839 L
1668.527 823.967 L
1653.119 823.967 L
1649.375 823.967 1647.791 823.967 1647.791 819.935 C
1647.791 819.287 L
b
0.000 0.000 0.000 1.000 K
0 j
0 J
0.071 w
[]0 d
0.000 0.000 0.000 0.498 k
2044.079 1544.255 m
2034.503 1544.255 L
2032.775 1544.255 2031.623 1543.103 2031.623 1541.375 C
2031.623 1488.959 L
2031.623 1487.231 2032.775 1485.935 2034.503 1485.935 C
2043.791 1485.935 L
2043.143 1483.127 2041.271 1481.111 2037.599 1481.111 C
2026.943 1481.111 L
2027.087 1479.671 L
2039.471 1479.671 L
2043.071 1479.887 2045.231 1482.479 2045.663 1485.935 C
2050.199 1485.935 L
2051.783 1485.935 2053.079 1487.231 2053.079 1488.959 C
2053.079 1541.375 L
2053.079 1543.103 2051.783 1544.255 2050.199 1544.255 C
2045.807 1544.255 L
2045.807 1545.911 L
2046.095 1549.511 2043.359 1551.095 2040.191 1550.807 C
2020.895 1550.663 L
2020.319 1550.663 L
2020.463 1548.791 L
2038.751 1548.935 L
2042.351 1548.935 2044.079 1548.935 2044.079 1544.903 C
2044.079 1544.255 L
b
0.000 0.000 0.000 1.000 K
0 j
0 J
0.071 w
[]0 d
0.000 0.000 0.000 0.098 k
1704.239 572.687 m
1697.183 572.687 1691.567 578.447 1691.567 585.359 c
1691.567 592.127 1697.183 598.031 1704.239 598.031 c
1711.439 598.031 1716.911 592.127 1716.911 585.359 c
1716.911 578.447 1711.439 572.687 1704.239 572.687 c
b
0.000 0.000 0.000 1.000 K
0 j
0 J
0.071 w
[]0 d
0.000 0.000 0.000 0.098 k
1983.599 572.111 m
1976.543 572.111 1970.927 577.871 1970.927 584.783 c
1970.927 591.551 1976.543 597.455 1983.599 597.455 c
1990.799 597.455 1996.271 591.551 1996.271 584.783 c
1996.271 577.871 1990.799 572.111 1983.599 572.111 c
b
0.000 0.000 0.000 1.000 K
0 j
0 J
0.071 w
[]0 d
0.000 0.000 0.000 0.498 k
1677.743 1272.887 m
2016.143 1272.887 l
2017.727 1272.887 2018.879 1271.303 2018.879 1268.855 c
2018.879 1249.991 l
2018.879 1247.687 2017.727 1245.959 2016.143 1245.959 c
1677.743 1245.959 l
1676.015 1245.959 1675.007 1247.687 1675.007 1249.991 c
1675.007 1268.855 l
1675.007 1271.303 1676.015 1272.887 1677.743 1272.887 c
b
u
u
0.000 0.000 0.000 1.000 K
0 j
0 J
0.071 w
[]0 d
1675.151 1245.240 m
1668.599 1224.144 L
S
U
U
u
u
0.000 0.000 0.000 1.000 K
0 j
0 J
0.071 w
[]0 d
2018.879 1246.967 m
2024.135 1224.359 L
S
U
U
0.000 0.000 0.000 1.000 K
0 j
0 J
0.071 w
[]0 d
0.000 0.000 0.000 0.098 k
1689.407 1335.240 m
1708.703 1335.240 l
1709.423 1335.240 1709.855 1334.951 1709.855 1334.231 c
1709.855 1327.031 l
1709.855 1326.311 1709.423 1325.879 1708.703 1325.879 c
1689.407 1325.879 l
1688.687 1325.879 1688.399 1326.311 1688.399 1327.031 c
1688.399 1334.231 l
1688.399 1334.951 1688.687 1335.240 1689.407 1335.240 c
b
0.000 0.000 0.000 1.000 K
0 j
0 J
0.071 w
[]0 d
0.000 0.000 0.000 0.098 k
1987.919 1335.240 m
2007.215 1335.240 l
2007.935 1335.240 2008.367 1334.951 2008.367 1334.231 c
2008.367 1327.031 l
2008.367 1326.311 2007.935 1325.879 2007.215 1325.879 c
1987.919 1325.879 l
1987.199 1325.879 1986.911 1326.311 1986.911 1327.031 c
1986.911 1334.231 l
1986.911 1334.951 1987.199 1335.240 1987.919 1335.240 c
b
0.000 0.000 0.000 1.000 K
0 j
0 J
0.071 w
[]0 d
0.000 0.000 0.000 0.098 k
1689.407 1324.151 m
1708.703 1324.151 l
1709.423 1324.151 1709.855 1323.863 1709.855 1323.144 c
1709.855 1315.943 l
1709.855 1315.223 1709.423 1314.791 1708.703 1314.791 c
1689.407 1314.791 l
1688.687 1314.791 1688.399 1315.223 1688.399 1315.943 c
1688.399 1323.144 l
1688.399 1323.863 1688.687 1324.151 1689.407 1324.151 c
b
0.000 0.000 0.000 1.000 K
0 j
0 J
0.071 w
[]0 d
0.000 0.000 0.000 0.098 k
1987.919 1324.151 m
2007.215 1324.151 l
2007.935 1324.151 2008.367 1323.863 2008.367 1323.144 c
2008.367 1315.943 l
2008.367 1315.223 2007.935 1314.791 2007.215 1314.791 c
1987.919 1314.791 l
1987.199 1314.791 1986.911 1315.223 1986.911 1315.943 c
1986.911 1323.144 l
1986.911 1323.863 1987.199 1324.151 1987.919 1324.151 c
b
0.000 0.000 0.000 1.000 K
0 j
0 J
0.071 w
[]0 d
0.000 0.000 0.000 0.000 k
1689.407 1313.063 m
1708.703 1313.063 l
1709.423 1313.063 1709.855 1312.775 1709.855 1312.055 c
1709.855 1304.855 l
1709.855 1304.135 1709.423 1303.703 1708.703 1303.703 c
1689.407 1303.703 l
1688.687 1303.703 1688.399 1304.135 1688.399 1304.855 c
1688.399 1312.055 l
1688.399 1312.775 1688.687 1313.063 1689.407 1313.063 c
b
0.000 0.000 0.000 1.000 K
0 j
0 J
0.071 w
[]0 d
0.000 0.000 0.000 0.000 k
1987.919 1313.063 m
2007.215 1313.063 l
2007.935 1313.063 2008.367 1312.775 2008.367 1312.055 c
2008.367 1304.855 l
2008.367 1304.135 2007.935 1303.703 2007.215 1303.703 c
1987.919 1303.703 l
1987.199 1303.703 1986.911 1304.135 1986.911 1304.855 c
1986.911 1312.055 l
1986.911 1312.775 1987.199 1313.063 1987.919 1313.063 c
b
0.000 0.000 0.000 1.000 K
0 j
0 J
0.071 w
[]0 d
0.000 0.000 0.000 0.098 k
1689.407 1302.119 m
1708.703 1302.119 l
1709.423 1302.119 1709.855 1301.831 1709.855 1301.111 c
1709.855 1293.911 l
1709.855 1293.192 1709.423 1292.759 1708.703 1292.759 c
1689.407 1292.759 l
1688.687 1292.759 1688.399 1293.192 1688.399 1293.911 c
1688.399 1301.111 l
1688.399 1301.831 1688.687 1302.119 1689.407 1302.119 c
b
0.000 0.000 0.000 1.000 K
0 j
0 J
0.071 w
[]0 d
0.000 0.000 0.000 0.098 k
1987.919 1302.119 m
2007.215 1302.119 l
2007.935 1302.119 2008.367 1301.831 2008.367 1301.111 c
2008.367 1293.911 l
2008.367 1293.192 2007.935 1292.759 2007.215 1292.759 c
1987.919 1292.759 l
1987.199 1292.759 1986.911 1293.192 1986.911 1293.911 c
1986.911 1301.111 l
1986.911 1301.831 1987.199 1302.119 1987.919 1302.119 c
b
0.000 0.000 0.000 1.000 K
0 j
0 J
0.071 w
[]0 d
0.000 0.000 0.000 0.098 k
1698.767 1277.207 m
1701.647 1277.207 1704.095 1279.655 1704.095 1282.391 c
1704.095 1285.271 1701.647 1287.719 1698.767 1287.719 c
1696.031 1287.719 1693.583 1285.271 1693.583 1282.391 c
1693.583 1279.655 1696.031 1277.207 1698.767 1277.207 c
b
0.000 0.000 0.000 1.000 K
0 j
0 J
0.071 w
[]0 d
0.000 0.000 0.000 0.098 k
1997.567 1277.207 m
2000.447 1277.207 2002.895 1279.655 2002.895 1282.391 c
2002.895 1285.271 2000.447 1287.719 1997.567 1287.719 c
1994.831 1287.719 1992.383 1285.271 1992.383 1282.391 c
1992.383 1279.655 1994.831 1277.207 1997.567 1277.207 c
b
0.000 0.000 0.000 1.000 K
0 j
0 J
0.071 w
[]0 d
1734.479 1375.415 m
1962.287 1375.415 l
1964.303 1375.415 1966.031 1373.831 1966.031 1371.815 c
1966.031 1276.775 l
1966.031 1274.759 1964.303 1273.175 1962.287 1273.175 c
1734.479 1273.175 l
1732.319 1273.175 1730.735 1274.759 1730.735 1276.775 c
1730.735 1371.815 l
1730.735 1373.831 1732.319 1375.415 1734.479 1375.415 c
s
0.000 0.000 0.000 1.000 K
0 j
0 J
0.071 w
[]0 d
0.000 0.000 0.000 0.498 k
1703.519 1248.551 m
1708.415 1248.551 1712.591 1252.583 1712.591 1257.480 c
1712.591 1262.375 1708.415 1266.551 1703.519 1266.551 c
1698.623 1266.551 1694.591 1262.375 1694.591 1257.480 c
1694.591 1252.583 1698.623 1248.551 1703.519 1248.551 c
b
0.000 0.000 0.000 1.000 K
0 j
0 J
0.071 w
[]0 d
1820.447 1331.063 m
1874.735 1331.063 l
1876.319 1331.063 1877.759 1329.767 1877.759 1328.183 c
1877.759 1302.695 l
1877.759 1300.967 1876.319 1299.671 1874.735 1299.671 c
1820.447 1299.671 l
1818.863 1299.671 1817.567 1300.967 1817.567 1302.695 c
1817.567 1328.183 l
1817.567 1329.767 1818.863 1331.063 1820.447 1331.063 c
s
u
u
0.000 0.000 0.000 1.000 K
0 j
0 J
0.071 w
[]0 d
1817.567 1301.831 m
1821.311 1327.679 L
1822.823 1331.423 1823.255 1331.063 1826.783 1331.423 C
S
U
U
u
u
0.000 0.000 0.000 1.000 K
0 j
0 J
0.071 w
[]0 d
1877.327 1301.399 m
1873.583 1327.247 L
1872.071 1330.991 1871.639 1330.631 1868.111 1330.991 C
S
U
U
u
u
0.000 0.000 0.000 1.000 K
0 j
0 J
0.071 w
[]0 d
1877.759 1327.463 m
1877.759 1332.935 L
1877.759 1335.959 1875.311 1336.535 1873.007 1336.535 C
1822.319 1336.535 L
1820.015 1336.535 1817.567 1335.959 1817.567 1332.935 C
1817.567 1327.463 L
S
U
U
0.000 0.000 0.000 1.000 K
0 j
0 J
0.071 w
[]0 d
0.000 0.000 0.000 0.498 k
1699.055 1574.279 m
1790.207 1593.935 1918.727 1590.479 1997.351 1574.279 c
2000.807 1573.559 2003.615 1571.471 2003.615 1568.087 c
2009.447 1452.599 l
2009.447 1449.359 2006.639 1446.335 2003.255 1446.335 c
1693.223 1446.335 l
1689.839 1446.335 1686.959 1449.359 1686.959 1452.599 c
1692.863 1568.087 l
1692.863 1571.471 1695.671 1573.559 1699.055 1574.279 c
b
0.000 0.000 0.000 1.000 K
0 j
0 J
0.071 w
[]0 d
0.000 0.000 0.000 0.200 k
1726.055 1576.367 m
1751.615 1580.111 1777.031 1582.631 1802.879 1583.927 C
1816.055 1584.431 1829.591 1584.863 1842.839 1584.935 C
1894.175 1584.935 1946.447 1581.551 1996.775 1571.543 C
1998.791 1570.967 2000.591 1570.247 2000.807 1567.871 C
2006.711 1452.671 L
2006.495 1450.655 2004.983 1449.359 2003.039 1449.215 C
1693.295 1449.215 L
1691.423 1449.359 1689.911 1450.799 1689.767 1452.671 C
1695.671 1567.871 L
1695.815 1569.815 1696.967 1570.607 1698.695 1571.255 C
1707.335 1573.703 1717.199 1574.999 1726.055 1576.367 C
b
0.000 0.000 0.000 1.000 K
0 j
0 J
0.071 w
[]0 d
1700.927 1422.359 m
1949.903 1422.359 l
1951.055 1422.359 1951.775 1421.639 1951.775 1420.487 c
1951.775 1414.727 l
1951.775 1413.575 1951.055 1412.855 1949.903 1412.855 c
1700.927 1412.855 l
1699.775 1412.855 1699.055 1413.575 1699.055 1414.727 c
1699.055 1420.487 l
1699.055 1421.639 1699.775 1422.359 1700.927 1422.359 c
s
0.000 0.000 0.000 1.000 K
0 j
0 J
0.071 w
[]0 d
1970.063 1432.007 m
1993.823 1432.007 l
1995.551 1432.007 1996.703 1431.000 1996.703 1429.271 c
1996.703 1415.303 l
1996.703 1413.575 1995.551 1412.423 1993.823 1412.423 c
1970.063 1412.423 l
1968.335 1412.423 1967.327 1413.575 1967.327 1415.303 c
1967.327 1429.271 l
1967.327 1431.000 1968.335 1432.007 1970.063 1432.007 c
s
u
u
0.000 0.000 0.000 1.000 K
0 j
0 J
0.071 w
[]0 d
1686.527 1453.175 m
1686.527 1404.000 L
S
U
U
u
u
0.000 0.000 0.000 1.000 K
0 j
0 J
0.071 w
[]0 d
2009.519 1453.175 m
2009.519 1403.495 L
S
U
U
u
u
0.000 0.000 0.000 1.000 K
0 j
0 J
0.071 w
[]0 d
1663.919 1399.319 m
2031.695 1399.319 L
S
U
U
u
u
0.000 0.000 0.000 1.000 K
0 j
0 J
0.071 w
[]0 d
1664.063 1403.783 m
2031.479 1403.783 L
S
U
U
0.000 0.000 0.000 1.000 K
0 j
0 J
0.071 w
[]0 d
0.000 0.000 0.000 0.298 k
1804.391 1608.479 m
1805.471 1617.119 L
1806.263 1620.143 1808.351 1620.359 1810.223 1620.575 c
1832.111 1624.319 1862.855 1624.103 1885.103 1620.719 c
1887.551 1620.359 1890.431 1620.575 1890.575 1616.759 C
1892.087 1608.479 L
1863.071 1610.567 1834.775 1611.287 1804.391 1608.479 C
b
0.000 0.000 0.000 1.000 K
0 j
0 J
0.071 w
[]0 d
0.000 0.000 0.000 0.498 k
1888.271 637.919 m
1987.055 637.919 L
1987.055 628.703 L
1888.271 628.703 L
1888.271 637.919 L
b
0.000 0.000 0.000 1.000 K
0 j
0 J
0.071 w
[]0 d
0.000 0.000 0.000 1.000 k
1680.479 514.727 m
1690.415 517.031 1702.871 518.327 1723.103 517.967 C
1731.599 517.967 L
1731.599 480.023 L
1731.599 475.127 1726.919 470.447 1722.023 470.447 C
1690.055 470.447 L
1685.159 470.447 1680.479 474.695 1680.479 480.023 C
1680.479 514.727 L
b
0.000 0.000 0.000 1.000 K
0 j
0 J
0.071 w
[]0 d
0.000 0.000 0.000 1.000 k
2004.551 515.375 m
1994.615 517.679 1982.159 518.327 1961.927 517.967 C
1953.431 517.967 L
1953.431 480.023 L
1953.431 475.127 1958.111 470.447 1963.007 470.447 C
1994.975 470.447 L
1999.871 470.447 2004.551 474.695 2004.551 480.023 C
2004.551 515.375 L
b
0.000 0.000 0.000 1.000 K
0 j
0 J
0.071 w
[]0 d
0.000 0.000 0.000 1.000 k
1671.983 1223.279 m
1707.983 1223.279 L
1707.983 1186.559 L
1707.983 1182.311 1704.311 1178.639 1700.063 1178.639 C
1679.903 1178.639 L
1675.655 1178.639 1671.983 1182.167 1671.983 1186.559 C
1671.983 1223.279 L
b
0.000 0.000 0.000 1.000 K
0 j
0 J
0.071 w
[]0 d
0.000 0.000 0.000 1.000 k
1945.079 1223.279 m
1981.079 1223.279 L
1981.079 1186.559 L
1981.079 1182.311 1977.407 1178.639 1973.159 1178.639 C
1952.999 1178.639 L
1948.751 1178.639 1945.079 1182.167 1945.079 1186.559 C
1945.079 1223.279 L
b
0.000 0.000 0.000 1.000 K
0 j
0 J
0.071 w
[]0 d
0.000 0.000 0.000 1.000 k
1710.575 1223.279 m
1746.575 1223.279 L
1746.575 1186.559 L
1746.575 1182.311 1742.903 1178.639 1738.655 1178.639 C
1718.495 1178.639 L
1714.247 1178.639 1710.575 1182.167 1710.575 1186.559 C
1710.575 1223.279 L
b
0.000 0.000 0.000 1.000 K
0 j
0 J
0.071 w
[]0 d
0.000 0.000 0.000 1.000 k
1983.671 1223.279 m
2019.671 1223.279 L
2019.671 1186.559 L
2019.671 1182.311 2015.999 1178.639 2011.751 1178.639 C
1991.591 1178.639 L
1987.343 1178.639 1983.671 1182.167 1983.671 1186.559 C
1983.671 1223.279 L
b
u
u
U
u
0.000 0.000 0.000 1.000 K
0 j
0 J
0.071 w
[]0 d
339.911 1535.039 m
581.111 1535.039 L
S
U
U
u
u
U
u
0.000 0.000 0.000 1.000 K
0 j
0 J
0.071 w
[]0 d
848.087 1535.039 m
1089.288 1535.039 L
S
U
U
u
u
U
u
0.000 0.000 0.000 1.000 K
0 j
0 J
0.071 w
[]0 d
399.239 1572.767 m
399.239 1535.255 L
S
U
U
u
u
U
u
0.000 0.000 0.000 1.000 K
0 j
0 J
0.071 w
[]0 d
907.559 1572.767 m
907.559 1535.255 L
S
U
U
u
u
U
u
0.000 0.000 0.000 1.000 K
0 j
0 J
0.071 w
[]0 d
521.639 1572.767 m
521.639 1535.255 L
S
U
U
u
u
U
u
0.000 0.000 0.000 1.000 K
0 j
0 J
0.071 w
[]0 d
1030.103 1572.767 m
1030.103 1535.255 L
S
U
U
0.000 0.000 0.000 1.000 K
0 j
0 J
0.071 w
[]0 d
0.000 0.000 0.000 0.200 k
1580.183 1415.015 m
1572.407 1415.015 L
1550.807 1569.959 L
1558.223 1569.959 L
1580.183 1415.015 L
b
0.000 0.000 0.000 1.000 K
0 j
0 J
0.071 w
[]0 d
0.000 0.000 0.000 0.498 k
241.199 524.807 m
238.967 532.079 237.743 539.783 237.743 547.703 C
237.743 589.751 272.015 624.168 314.207 624.168 C
356.399 624.168 390.671 589.751 390.671 547.703 C
390.671 541.439 389.879 535.319 388.439 529.487 C
396.071 523.151 L
394.631 559.295 394.343 569.807 384.119 587.663 C
378.071 598.319 357.335 628.703 310.536 627.263 C
258.263 625.823 232.775 583.487 232.775 548.639 C
232.775 521.423 L
241.199 524.807 L
b
0.000 0.000 0.000 1.000 K
0 j
0 J
0.071 w
[]0 d
0.000 0.000 0.000 0.498 k
1059.336 527.183 m
1057.535 533.663 1056.599 540.431 1056.599 547.415 C
1056.599 589.319 1090.871 623.591 1132.775 623.591 C
1174.823 623.591 1208.951 589.319 1208.951 547.415 C
1208.951 540.000 1207.871 532.799 1205.855 526.031 C
1214.495 521.423 L
1214.495 550.655 L
1214.495 591.551 1177.055 629.711 1135.007 629.711 C
1134.720 629.711 1135.727 629.711 1135.007 629.711 C
1089.215 629.711 1050.192 597.311 1050.192 550.367 C
1050.192 523.295 L
1059.336 527.183 L
b
u
u
U
u
0.000 0.000 0.000 1.000 K
0 j
0 J
0.071 w
[]0 d
972.791 826.271 m
732.311 826.271 L
S
U
U
u
u
U
u
0.000 0.000 0.000 1.000 K
0 j
0 J
0.071 w
[]0 d
1483.559 826.415 m
1243.079 826.415 L
S
U
U
u
u
U
u
0.000 0.000 0.000 1.000 K
0 j
0 J
0.071 w
[]0 d
469.223 826.559 m
228.023 826.559 L
S
U
U
u
u
U
u
0.000 0.000 0.000 1.000 K
0 j
0 J
0.071 w
[]0 d
914.039 863.567 m
914.039 826.055 L
S
U
U
u
u
U
u
0.000 0.000 0.000 1.000 K
0 j
0 J
0.071 w
[]0 d
1425.096 863.711 m
1425.096 826.199 L
S
U
U
u
u
U
u
0.000 0.000 0.000 1.000 K
0 j
0 J
0.071 w
[]0 d
409.895 864.143 m
409.895 826.631 L
S
U
U
u
u
U
u
0.000 0.000 0.000 1.000 K
0 j
0 J
0.071 w
[]0 d
791.495 863.567 m
791.495 826.055 L
S
U
U
u
u
U
u
0.000 0.000 0.000 1.000 K
0 j
0 J
0.071 w
[]0 d
1302.551 863.711 m
1302.551 826.199 L
S
U
U
u
u
U
u
0.000 0.000 0.000 1.000 K
0 j
0 J
0.071 w
[]0 d
287.351 864.143 m
287.351 826.631 L
S
U
U
0.000 0.000 0.000 1.000 K
0 j
0 J
0.071 w
[]0 d
0.000 0.000 0.000 0.200 k
-13.391 705.815 m
-5.111 705.815 L
16.199 860.759 L
8.567 860.759 L
-13.391 705.815 L
b
0.000 0.000 0.000 1.000 K
0 j
0 J
2.016 w
[]0 d
859.679 428.903 m
859.679 433.799 l
859.679 435.959 859.391 436.679 858.743 437.543 c
858.239 438.191 857.303 438.767 856.007 438.767 c
854.711 438.767 853.847 438.191 853.343 437.543 c
852.695 436.679 852.407 435.959 852.407 433.799 c
852.407 428.903 L
852.407 433.799 l
852.407 435.959 852.119 436.679 851.471 437.543 c
850.967 438.191 850.103 438.767 848.807 438.767 c
847.439 438.767 846.575 438.191 846.071 437.543 c
845.423 436.679 845.135 435.959 845.135 433.799 c
845.135 428.903 L
845.135 438.623 L
845.135 428.903 L
845.135 433.799 l
845.135 435.959 845.423 436.679 846.071 437.543 c
846.575 438.191 847.439 438.767 848.807 438.767 c
850.103 438.767 850.967 438.191 851.471 437.543 c
852.119 436.679 852.407 435.959 852.407 433.799 c
852.407 428.903 L
852.407 433.799 l
852.407 435.959 852.695 436.679 853.343 437.543 c
853.847 438.191 854.711 438.767 856.007 438.767 c
857.303 438.767 858.239 438.191 858.743 437.543 c
859.391 436.679 859.679 435.959 859.679 433.799 c
859.679 428.903 L
s
0.000 0.000 0.000 1.000 K
0 j
0 J
2.016 w
[]0 d
839.231 428.903 m
839.231 433.799 l
839.231 435.959 838.943 436.679 838.295 437.543 c
837.791 438.191 836.855 438.767 835.559 438.767 c
834.263 438.767 833.399 438.191 832.895 437.543 c
832.247 436.679 831.959 435.959 831.959 433.799 c
831.959 428.903 L
831.959 433.799 l
831.959 435.959 831.671 436.679 831.023 437.543 c
830.519 438.191 829.655 438.767 828.359 438.767 c
826.991 438.767 826.127 438.191 825.623 437.543 c
824.975 436.679 824.687 435.959 824.687 433.799 c
824.687 428.903 L
824.687 438.623 L
824.687 428.903 L
824.687 433.799 l
824.687 435.959 824.975 436.679 825.623 437.543 c
826.127 438.191 826.991 438.767 828.359 438.767 c
829.655 438.767 830.519 438.191 831.023 437.543 c
831.671 436.679 831.959 435.959 831.959 433.799 c
831.959 428.903 L
831.959 433.799 l
831.959 435.959 832.247 436.679 832.895 437.543 c
833.399 438.191 834.263 438.767 835.559 438.767 c
836.855 438.767 837.791 438.191 838.295 437.543 c
838.943 436.679 839.231 435.959 839.231 433.799 c
839.231 428.903 L
s
0.000 0.000 0.000 1.000 K
0 j
0 J
2.016 w
[]0 d
810.215 443.663 m
808.271 443.663 806.615 442.295 806.615 439.919 c
806.615 432.503 l
806.615 430.127 808.271 428.759 810.215 428.759 c
812.231 428.759 813.815 430.127 813.815 432.503 c
813.815 439.919 l
813.815 442.295 812.231 443.663 810.215 443.663 c
s
0.000 0.000 0.000 1.000 K
0 j
0 J
2.016 w
[]0 d
810.215 443.663 m
812.231 443.663 813.815 442.295 813.815 439.919 c
813.815 432.503 l
813.815 430.127 812.231 428.759 810.215 428.759 c
808.271 428.759 806.615 430.127 806.615 432.503 c
806.615 439.919 l
806.615 442.295 808.271 443.663 810.215 443.663 c
s
0.000 0.000 0.000 1.000 K
0 j
0 J
2.016 w
[]0 d
798.695 443.663 m
796.751 443.663 795.095 442.295 795.095 439.919 c
795.095 432.503 l
795.095 430.127 796.751 428.759 798.695 428.759 c
800.711 428.759 802.295 430.127 802.295 432.503 c
802.295 439.919 l
802.295 442.295 800.711 443.663 798.695 443.663 c
s
0.000 0.000 0.000 1.000 K
0 j
0 J
2.016 w
[]0 d
798.695 443.663 m
800.711 443.663 802.295 442.295 802.295 439.919 c
802.295 432.503 l
802.295 430.127 800.711 428.759 798.695 428.759 c
796.751 428.759 795.095 430.127 795.095 432.503 c
795.095 439.919 l
795.095 442.295 796.751 443.663 798.695 443.663 c
s
0.000 0.000 0.000 1.000 K
0 j
0 J
2.016 w
[]0 d
791.423 431.351 m
783.071 431.351 L
783.071 432.503 L
788.183 443.519 L
783.071 432.503 L
783.071 431.351 L
791.423 431.351 L
s
0.000 0.000 0.000 1.000 K
0 j
0 J
2.016 w
[]0 d
790.055 428.903 m
790.055 436.247 L
790.055 428.903 L
s
0.000 0.000 0.000 1.000 K
0 j
0 J
2.016 w
[]0 d
774.431 442.583 m
775.727 443.519 L
776.879 443.519 L
776.879 428.903 L
776.879 443.519 L
775.727 443.519 L
774.431 442.583 L
s
0.000 0.000 0.000 1.000 K
0 j
0 J
2.016 w
[]0 d
764.999 442.583 m
766.295 443.519 L
767.447 443.519 L
767.447 428.903 L
767.447 443.519 L
766.295 443.519 L
764.999 442.583 L
s
u
u
0.000 0.000 0.000 1.000 K
0 j
0 J
0.215 w
[]0 d
-24.335 408.743 m
-24.335 436.967 L
650.015 436.967 L
S
U
U
u
u
0.000 0.000 0.000 1.000 K
0 j
0 J
0.215 w
[]0 d
944.999 436.967 m
1591.199 436.967 L
1591.199 403.991 L
S
U
U
%%Trailer
_E end