%!PS-Adobe-2.0 EPSF-1.2
%%Creator: Adobe Illustrator exported from Corel Draw 3.0
%%Title:6
%%BoundingBox:-9 621 964 1172
%%CreationDate:(Unknown)
%%ColorUsage:
%%TemplateBox:-9 621 964 1172
%%EndComments
%%BeginProcSet:Adobe_Illustrator_1.1 0 0
% Version 1.0 3/27/1990 $nokeywords$
% Copyright (C) 1990,1991,1992
% Corel Corporation
% All Rights Reserved

/wPmsDict 150 dict def 
wPmsDict begin 

/$debug 25 string def 

/bd {bind def} bind def 
/ld {load def} bd 
/xd {exch def} bd 
/_ null def 

/$c 0 def 
/$m 0 def 
/$y 0 def 
/$k 0 def 
/$t 1 def 
/$n _ def 
/$o 0 def 
/$pf false def 

/$C 0 def 
/$M 0 def 
/$Y 0 def 
/$K 0 def 
/$T 1 def 
/$N _ def 
/$O 0 def 
/$PF false def 

/$h false def 

/$al 0 def 
/$tr 0 def 
/$le 0 def 
/$lx 0 def 
/$ly 0 def 

/$ctm matrix currentmatrix def 
/$ptm matrix def 

/$pn () def 
/$pm matrix def 
/$px 0 def 
/$py 0 def 
/$pxf 0 def 
/$pyf 0 def 
/$psx 10 def 
/$psy 0 def 

/$llx 0 def 
/$lly 0 def 
/$urx 0 def 
/$ury 0 def 


/$Bbllx 0 def 
/$Bblly 0 def 
/$Bburx 0 def 
/$Bbury 0 def 

/$tllx 0 def 
/$tlly 0 def 
/$turx 0 def 
/$tury 0 def 

/$pd [] def 
/$tx 0 def 
/$ty 0 def 

/$sv 0 def 
/@cp /closepath ld 
/@gs /gsave ld 
/@gr /grestore ld 
/@np /newpath ld 
/@sv {/$sv save def}bd 
/@rs {$sv restore}bd 

/@MN { 
2 copy le{pop}{exch pop}ifelse 
}bd 

/setcmykcolor where {pop} 
{ 
/setcmykcolor 
{ 
4 1 roll 
3 {3 index add 1 @MN 1 exch sub 3 1 roll} repeat 
setrgbcolor 
pop 
}bd 
}ifelse 

/@tc 
{ 
dup 1 ge 
{pop} 
{ 
4 { 
dup 
6 -1 roll 
mul 
exch 
}repeat 
pop 
}ifelse 
}bd 

/@scc 
{ 
$c $m $y $k $t @tc 
setcmykcolor 
true 
}bd 
/@SCC 
{ 
$C $M $Y $K $T @tc 
setcmykcolor 
true 
}bd 

/@sft 
{ 
(setfirsttile sft )print 
/$tx $tllx $pxf add dup $tllx gt {$pwid $psx add sub}if def 
/$ty $tury $pyf sub dup $tury lt {$phei $psy add add}if def 
(setfirsttile exit )print 
}bd 

/@stb 
{ 
pathbbox /$ury xd /$urx xd /$lly xd /$llx xd 
}bd 

/@ep 
{ 
{ 
cvx exec 
}forall 
}bd 

/@tp 
{ 

(tile pattern tp )print 
@sv 
/$in true def 
2 copy 
dup $lly le {/$in false def}if 
$phei sub $ury ge {/$in false def}if 
dup $urx ge {/$in false def}if 
$pwid add $llx le {/$in false def}if 
$in 
{ 
@np 
2 copy moveto 
$pwid 0 rlineto 
0 $phei neg rlineto 
$pwid neg 0 rlineto 
0 $phei rlineto 
clip @np 

$pn cvlit load aload pop 
7 -1 roll 
5 index sub 
7 -1 roll 
3 index sub 
translate 
@ep 
pop pop pop pop 
} 
{pop pop}ifelse 
@rs 
(tile pattern exit )print 
}bd 

/@th 
{ 
(tile horizontal th)print 
@sft 
0 1 $tly 1 sub 
{ 
dup $psx mul $tx add 
{ 
dup $llx gt {$pwid sub}{exit}ifelse 
}loop 
exch $phei mul $ty exch sub 

0 1 $tlx 1 sub 
{ 
$pwid mul 
3 copy 
3 -1 roll add exch 
@tp 
pop 
}for 
pop pop 
} for 
(tile horizontal exiting )print 
}bd 

/@tv 
{ 
(tile vertical tv)print 
@sft 
0 1 $tlx 1 sub 
{ 
dup $pwid mul $tx add 
exch $psy mul $ty exch sub 
{ 
dup $ury lt {$phei add}{exit}ifelse 
}loop 

0 1 $tly 1 sub 
{ 
$phei mul 
3 copy sub 
@tp 
pop 
}for 
pop pop 
} for 
(tile vertical exit )print 
}bd 

/@pf 
{ 
(pattern fill pf)print 
@gs 
$pm concat 
@stb 
@gs 1 setgray eofill @gr 
eoclip 
$Bburx $Bbury $pm itransform /$tury xd /$turx xd 
$Bbllx $Bblly $pm itransform /$tlly xd /$tllx xd 
/$wid $turx $tllx sub def 
/$hei $tury $tlly sub def 
$wid 0 gt $hei 0 gt and 
{ 
$pn cvlit load aload pop 
$pd xd 
3 -1 roll sub /$phei xd 
exch sub /$pwid xd 
/$tlx $wid $pwid div ceiling 1 add def 
/$tly $hei $phei div ceiling 1 add def 
$psx 0 eq 
{ 
@tv 
} 
{ 
@th 
}ifelse 
}if 

@gr 
@np 
(pattern fill exit)print 
}bd 

/@xp 
{ 
{ 
dup (text Character is:) print == 
usertime (time before is:)print == 
(0) dup 3 -1 roll 0 exch put 
@gs 
true charpath currentpoint 
$ctm setmatrix 
@pf 
@gr 
@np 
moveto $tr 0 rmoveto 
usertime (time after is:)print == 
}forall 
pop 
}bd 

/@sm 
{ 
/$ctm $ctm currentmatrix def 
}bd 

%--@lorg  move to line origin   length string @torg length string
/@lorg    % moves currentpoint to line origin according to current alignment
  {      
  $lx $ly moveto    
  /$ly $ly $le sub def      % - prepare for next line(tracking)
  $al 0 ne
    {dup      % ->len str len str
    stringwidth   % ->len str len dx dy
    exch 3 index  % ->len str dy len dx
    1 sub         % ->len str dy len dx (len-1)
    $tr mul add   % ->len str dy len dx+(len-1)*$tr
    neg
    exch neg      % ->len str -dx_total dy len
    $al 1 eq      % check for centered alignment
    {2 div exch 2 div exch} if  
    rmoveto} if
  }bd

/@ft 
{ 
$pf 
{@xp} 
{ 
@scc 
{$tr exch 0 exch ashow pop} 
{pop pop}ifelse 
}ifelse 
}bd 

/@st 
{ 
$PF 
{} 
{ 
@SCC 
{ 
{ 
(0) dup 3 -1 roll 0 exch put 
@gs 
true charpath currentpoint 
$ctm setmatrix $ptm concat 
stroke 
@gr 
moveto $tr 0 rmoveto 
}forall 
pop 
} 
{pop pop}ifelse 
}ifelse 
}bd 
/@pt 
{ 
dup length exch 
}bd 
/@te 
{ 
@pt 
@lorg 
@ft 
}bd 

/@tr 
{ 
@pt 
@lorg 
@st 
}bd 
/@ta 
{ 
@pt 
@lorg 
2 copy 
@gs @ft @gr 
/$lx 0 def 
/$ly 0 def 
@st 
}bd 















/g { 
1 exch sub /$k xd 
/$c 0 def /$m 0 def /$y 0 def /$t 1 def /$n _ def /$pf false def 
}bd 

/G { 
1 exch sub /$K xd 
/$C 0 def /$M 0 def /$Y 0 def /$T 1 def /$N _ def /$PF false def 
}bd 

/k { 
/$k xd /$y xd /$m xd /$c xd 
/$t 1 def /$n _ def /$pf false def 
}bd 

/K { 
/$K xd /$Y xd /$M xd /$C xd 
/$T 1 def /$N _ def /$PF false def 
}bd 

/x { 
/$t xd /$n xd 
/$k xd /$y xd /$m xd /$c xd /$pf false def 
}bd 

/X { 
/$T xd /$N xd 
/$K xd /$Y xd /$M xd /$C xd /$PF false def 
}bd 

/d /setdash ld 

/i { 
dup 0 ne {setflat} {pop} ifelse 
}bd 

/j /setlinejoin ld 

/J /setlinecap ld 

/M /setmiterlimit ld 

/w /setlinewidth ld 

/O { 
/$o xd 
}bd 

/R { 
/$O xd 
}bd 


/c /curveto ld 

/C /c ld 

/v { 
currentpoint
6 2 roll 
curveto 
}bd

/V /v ld 

/y { 
2 copy curveto 
}bd 

/Y /y ld 

/l /lineto ld 

/L /l ld 

/m /moveto ld 



/n /newpath ld 

/N /newpath ld 

/F { 
$pf 
{@pf} 
{ 
@scc 
{eofill}if 
}ifelse 
}bd 

/f { 
@cp F 
}bd 
/S { 
$PF 
{} 
{ 
@SCC 
{ 
@sm 
$ptm concat 
stroke 
$ctm setmatrix 
}if 
}ifelse 
}bd 
/s { 
@cp 
S 
}bd 

/B { 
@gs F @gr 
S 
}bd 
/b { 
@cp 
B 
}bd 

/W { 
oeclip 
@np 
}bd 

/p { 
/$pm xd 
7 {pop} repeat 
/$pyf xd /$pxf xd 
/$pn xd 
/$pf true def 
}bd 

/P { 
11 {pop} repeat 
}bd 

/@p { 
/$pm xd 
/$psy xd 
/$psx xd 
/$pyf xd /$pxf xd 
/$pn xd 
/$pf true def 
}bd 

/@b { 
/$Bbury xd /$Bburx xd 
/$Bblly xd /$Bbllx xd 
}bd 


/z { 
/$al xd 
/$tr xd 
/$le xd 
exch findfont exch scalefont setfont 
}bd 

/Z { 
dup type 0 type eq { /$bDir xd } if
findfont 
dup maxlength 1 add dict exch 



dup 
{1 index /FID ne 
{ 
3 index 
3 1 roll put 
} 
{pop pop}ifelse 
} forall 



pop 
dup dup /Encoding get 
256 array copy 
dup /$fe xd
/Encoding exch put 

dup /Fontname 3 index put 

}bd 

/e { 
@sm 
concat 
[ 
/t {@te}def 
}bd 

/r { 
@sm 
concat 
[ 
/t {@tr}def 
}bd 

/o { 
@sm 
concat 
[ 
/t {pop}def 
}bd 

/a { 
@sm 
concat 
[ 
/t {@ta}def 
}bd 

/@o{
@sm 
concat 
[ 
/t {@t@a}def 
}bd 

/I { 
@sm 
concat 
[ 
/t {pop}def 
}bd 

/t {@te}def 

/T { 
cleartomark 
/$lx 0 def 
/$ly 0 def 
$ctm setmatrix 
}bd 


/u {}bd 

/U {}bd 

/A {pop}bd 

/h { 
$h true def 
}bd 

/h { 
$h true def 
}bd 

/q /@gs ld 

/Q /@gr ld 



/E { 
5 array astore 
exch cvlit exch def 
}bd 

/` {}bd 

/~ {}bd 

/@ {}bd 

/& {}bd 

/CorelDrawRencodeVect [ 
16#80/grave 
16#81/circumflex 
16#82/tilde 
16#83/dotlessi 
16#84/florin 
16#85/quotedblleft 
16#86/quotedblright 
16#87/guilsinglleft 
16#88/guilsinglright 
16#89/fi 
16#8a/fl 
16#8b/dagger 
16#8c/daggerdbl 
16#8d/endash 
16#8e/periodcentered 
16#8f/breve 
16#90/quotedblbase 
16#91/ellipsis 
16#92/perthousand 
16#a1/exclamdown 
16#a2/cent 
16#a3/sterling 
16#a4/currency 
16#a5/yen 
16#a6/bar 
16#a7/section 
16#a8/dieresis 
16#a9/copyright 
16#aa/ordfeminine 
16#ab/guillemotleft 
16#ac/logicalnot 
16#ad/emdash 
16#ae/registered 
16#af/spac 
16#b0/ring 
16#b1/spac 
16#b2/spac 
16#b3/spac 
16#b4/acute 
16#b5/spac 
16#b6/paragraph 
16#b7/bullet 
16#b8/cedilla 
16#b9/spac 
16#ba/ordmasculine 
16#bb/guillemotright 
16#bc/spac 
16#bd/spac 
16#be/spac 
16#bf/questiondown 
16#c0/Agrave 
16#c1/Aacute 
16#c2/Acircumflex 
16#c3/Atilde 
16#c4/Adieresis 
16#c5/Aring 
16#c6/AE 
16#c7/Ccedilla 
16#c8/Egrave 
16#c9/Eacute 
16#ca/Ecircumflex 
16#cb/Edieresis 
16#cc/Igrave 
16#cd/Iacute 
16#ce/Icircumflex 
16#cf/Idieresis 
16#d0/spac 
16#d1/Ntilde 
16#d2/Ograve 
16#d3/Oacute 
16#d4/Ocircumflex 
16#d5/Otilde 
16#d6/Odieresis 
16#d7/OE 
16#d8/Oslash 
16#d9/Ugrave 
16#da/Uacute 
16#db/Ucircumflex 
16#dc/Udieresis 
16#dd/space 
16#de/spac 
16#df/germandbls 
16#e0/agrave 
16#e1/aacute 
16#e2/acircumflex 
16#e3/atilde 
16#e4/adieresis 
16#e5/aring 
16#e6/ae 
16#e7/ccedilla 
16#e8/egrave 
16#e9/eacute 
16#ea/ecircumflex 
16#eb/edieresis 
16#ec/igrave 
16#ed/iacute 
16#ee/icircumflex 
16#ef/idieresis 
16#f0/space 
16#f1/ntilde 
16#f2/ograve 
16#f3/oacute 
16#f4/ocircumflex 
16#f5/otilde 
16#f6/odieresis 
16#f7/oe 
16#f8/oslash 
16#f9/ugrave 
16#fa/uacute 
16#fb/ucircumflex 
16#fc/udieresis 
16#fd/spac 
16#fe/spac 
16#ff/ydieresis 
] def
%%EndProlog
%%BeginSetup
%%BeginEncoding:_Times-Bold Times-Bold
[
]/_Times-Bold/Times-Bold Z
%%EndEncoding
%%EndSetup
0.000 0.000 0.000 1.000 K
0 j
0 J
0.287 w
[]0 d
0.000 0.000 0.000 0.498 k
41.975 999.215 m
41.975 998.711 41.975 998.279 41.975 997.847 C
41.975 970.559 64.079 948.455 91.367 948.455 C
118.583 948.455 140.831 970.559 140.831 997.847 C
140.831 998.279 140.831 998.711 140.831 999.071 C
147.527 999.719 L
147.527 1006.991 147.455 1008.503 146.591 1021.463 c
145.799 1034.495 134.063 1054.151 112.031 1056.096 c
90.000 1057.967 93.743 1057.967 72.071 1056.096 c
50.471 1054.223 38.519 1034.567 37.512 1021.463 c
36.431 1008.359 36.287 1006.559 36.287 999.143 C
41.975 999.215 L
b
0.000 0.000 0.000 1.000 K
0 j
0 J
0.287 w
[]0 d
0.000 0.000 0.000 0.498 k
623.447 709.847 m
623.447 709.343 623.447 708.911 623.447 708.479 C
623.447 681.263 601.343 659.087 574.055 659.087 C
546.839 659.087 524.591 681.263 524.591 708.479 C
524.591 708.911 524.591 709.343 524.591 709.775 C
517.895 710.423 L
517.895 717.623 517.967 719.135 518.831 732.167 c
519.623 745.127 531.360 764.855 553.391 766.727 c
575.423 768.671 571.679 768.599 593.351 766.727 c
614.951 764.855 626.903 745.271 627.911 732.167 c
628.991 719.063 629.135 717.263 629.135 709.847 C
623.447 709.847 L
b
0.000 0.000 0.000 1.000 K
0 j
0 J
0.863 w
[]0 d
0.000 0.000 0.000 0.000 k
562.967 1006.055 m
667.511 1013.903 l
671.615 1014.191 674.495 1020.023 674.495 1024.199 c
674.495 1034.783 L
674.279 1089.503 L
674.279 1094.903 670.607 1101.240 666.000 1102.535 C
415.727 1102.391 L
415.727 1010.303 L
411.335 1010.303 L
411.335 1102.535 L
412.271 1122.624 412.271 1148.975 403.991 1170.576 C
261.359 1170.576 L
251.351 1169.711 243.647 1169.423 234.143 1168.127 C
227.015 1167.119 218.159 1164.311 212.111 1160.063 C
187.559 1145.087 164.087 1127.663 141.623 1109.447 C
136.512 1106.135 127.655 1104.624 115.559 1102.751 C
79.199 1098.359 43.128 1092.743 14.831 1086.983 C
7.559 1084.895 3.743 1077.551 0.647 1070.711 C
0.143 1061.135 -0.863 1046.375 -0.215 1038.672 C
19.871 1038.528 L
19.871 1014.479 L
11.447 1015.127 L
10.799 1011.383 L
33.551 999.503 L
36.287 999.143 L
36.287 1006.559 36.359 1008.287 37.512 1021.463 c
38.591 1034.639 50.399 1054.151 72.071 1056.096 c
93.743 1057.967 90.000 1057.967 112.031 1056.096 c
134.063 1054.151 145.727 1034.567 146.591 1021.463 c
147.455 1008.431 147.527 1006.991 147.527 999.719 C
451.871 999.431 L
451.871 1006.559 452.087 1008.431 453.095 1021.463 c
454.103 1034.567 466.055 1054.223 487.727 1056.096 c
509.327 1057.967 505.583 1057.967 527.615 1056.096 c
549.647 1054.151 561.455 1034.423 562.247 1021.463 c
562.967 1008.503 563.183 1013.183 562.967 1006.055 C
b
0.000 0.000 0.000 1.000 K
0 j
0 J
0.863 w
[]0 d
0.000 0.000 0.000 0.000 k
102.455 716.687 m
-2.087 724.535 l
-6.191 724.823 -9.071 730.727 -9.071 734.831 c
-9.071 745.415 L
-8.855 800.207 L
-8.855 805.607 -5.183 811.943 -0.575 813.167 C
249.623 813.095 L
249.623 720.935 L
254.015 720.935 L
254.015 813.167 L
253.079 833.255 253.079 859.679 261.431 881.207 C
403.991 881.207 L
414.071 880.415 421.775 880.055 431.207 878.759 C
438.407 877.751 447.263 875.015 453.239 870.695 C
477.791 855.719 501.335 838.295 523.799 820.151 C
528.911 816.767 537.767 815.255 549.863 813.455 C
586.223 809.063 622.295 803.375 650.591 797.615 C
657.863 795.599 661.679 788.183 664.775 781.415 C
665.279 771.839 666.287 757.079 665.639 749.375 C
645.551 749.231 L
645.551 725.111 L
653.975 725.831 L
654.623 722.015 L
631.871 710.135 L
629.135 709.847 L
629.135 717.263 629.063 718.991 627.911 732.167 c
626.831 745.271 615.024 764.855 593.351 766.727 c
571.679 768.671 575.423 768.671 553.391 766.727 c
531.360 764.855 519.695 745.199 518.831 732.167 c
517.967 719.135 517.895 717.623 517.895 710.423 C
213.479 710.135 L
213.479 717.263 213.335 719.063 212.327 732.167 c
211.319 745.199 199.367 764.855 177.695 766.727 c
156.095 768.599 159.839 768.671 137.807 766.727 c
115.775 764.855 103.967 745.127 103.175 732.167 c
102.455 719.207 102.239 723.815 102.455 716.687 C
b
0.000 0.000 0.000 1.000 K
0 j
0 J
0.287 w
[]0 d
0.000 0.000 0.000 0.498 k
459.935 999.935 m
459.935 999.503 459.863 998.711 459.863 997.847 C
459.863 970.559 482.039 948.455 509.327 948.455 C
536.543 948.455 558.791 970.559 558.791 997.847 C
558.791 1000.511 558.575 1003.175 558.144 1005.767 C
562.967 1006.055 L
563.183 1013.183 562.967 1008.503 562.247 1021.463 c
561.455 1034.495 549.647 1054.151 527.615 1056.096 c
505.583 1057.967 509.327 1057.967 487.727 1056.096 c
466.055 1054.223 454.103 1034.567 453.095 1021.463 c
452.087 1008.431 451.871 1006.559 451.871 999.431 C
459.935 999.935 L
b
0.000 0.000 0.000 1.000 K
0 j
0 J
0.287 w
[]0 d
0.000 0.000 0.000 0.498 k
205.415 710.567 m
205.487 710.207 205.487 709.343 205.487 708.479 C
205.487 681.263 183.383 659.087 156.095 659.087 C
128.879 659.087 106.631 681.263 106.631 708.479 C
106.631 711.215 106.847 713.807 107.279 716.399 C
102.455 716.687 L
102.239 723.815 102.455 719.207 103.175 732.167 c
103.967 745.127 115.775 764.855 137.807 766.727 c
159.839 768.671 156.095 768.599 177.695 766.727 c
199.367 764.855 211.319 745.199 212.327 732.167 c
213.335 719.063 213.479 717.263 213.479 710.135 C
205.415 710.567 L
b
0.000 0.000 0.000 1.000 K
0 j
0 J
0.287 w
[]0 d
205.271 782.279 m
186.407 782.279 l
185.615 782.279 185.039 781.703 185.039 780.911 c
185.039 767.951 l
185.039 767.087 185.831 767.015 186.407 766.583 C
189.575 765.431 194.111 764.135 196.055 761.831 C
205.271 761.831 l
206.135 761.831 206.639 762.479 206.639 763.199 c
206.639 780.911 l
206.639 781.631 206.135 782.279 205.271 782.279 c
s
0.000 0.000 0.000 1.000 K
0 j
0 J
0.287 w
[]0 d
0.000 0.000 0.000 0.498 k
187.703 769.247 m
188.639 769.247 189.431 770.111 189.431 771.191 c
189.431 772.199 188.639 773.063 187.703 773.063 c
186.695 773.063 185.903 772.199 185.903 771.191 c
185.903 770.111 186.695 769.247 187.703 769.247 c
b
0.000 0.000 0.000 1.000 K
0 j
0 J
0.287 w
[]0 d
327.743 1161.935 m
327.743 1010.591 L
160.919 1010.231 L
159.768 1099.223 L
159.768 1101.311 159.768 1101.887 160.631 1103.399 C
177.551 1120.679 203.831 1141.631 223.055 1153.655 C
229.103 1158.624 237.743 1161.000 245.015 1161.719 C
327.743 1161.935 L
s
0.000 0.000 0.000 1.000 K
0 j
0 J
0.287 w
[]0 d
337.607 872.639 m
337.607 721.223 L
504.503 720.935 L
505.655 809.927 L
505.655 811.943 505.655 812.519 504.791 814.031 C
487.871 831.311 461.591 852.335 442.295 864.287 C
436.319 869.255 427.679 871.703 420.407 872.351 C
337.607 872.639 L
s
0.000 0.000 0.000 1.000 K
0 j
0 J
0.287 w
[]0 d
0.000 0.000 0.000 0.200 k
224.783 1157.471 m
197.999 1142.351 175.175 1121.975 153.071 1103.399 C
142.560 1109.087 L
165.959 1127.375 187.055 1146.743 212.903 1161.288 C
224.783 1157.471 L
b
0.000 0.000 0.000 1.000 K
0 j
0 J
0.287 w
[]0 d
0.000 0.000 0.000 0.200 k
440.639 868.175 m
467.351 853.055 490.247 832.679 512.351 814.103 C
522.863 819.719 L
499.463 838.079 478.295 857.447 452.519 871.919 C
440.639 868.175 L
b
0.000 0.000 0.000 1.000 K
0 j
0 J
0.287 w
[]0 d
0.000 0.000 0.000 0.498 k
254.951 1157.399 m
314.783 1157.399 L
318.455 1157.399 318.815 1156.247 318.959 1150.631 C
318.959 1104.048 L
318.815 1094.687 312.120 1094.687 308.663 1094.687 C
165.743 1094.471 L
161.567 1096.703 163.799 1100.591 167.256 1104.048 C
181.871 1118.807 201.815 1132.991 219.455 1145.303 C
225.719 1149.480 231.695 1153.295 239.327 1155.096 C
244.943 1156.823 249.407 1157.039 254.951 1157.399 C
b
0.000 0.000 0.000 1.000 K
0 j
0 J
0.287 w
[]0 d
0.000 0.000 0.000 0.498 k
410.399 868.103 m
350.567 868.103 L
346.895 868.103 346.536 866.951 346.463 861.263 C
346.463 814.679 L
346.536 805.391 353.231 805.391 356.687 805.391 C
499.679 805.175 L
503.855 807.335 501.623 811.223 498.167 814.679 C
483.479 829.439 463.535 843.623 445.895 856.007 C
439.703 860.111 433.727 863.927 426.095 865.799 C
420.479 867.527 415.943 867.743 410.399 868.103 C
b
0.000 0.000 0.000 1.000 K
0 j
0 J
0.287 w
[]0 d
0.000 0.000 0.000 0.200 k
315.935 1100.159 m
314.279 1096.487 311.327 1096.127 307.655 1096.127 C
192.815 1095.983 L
192.887 1123.703 L
194.903 1125.215 196.919 1126.799 198.935 1128.311 C
208.727 1135.439 218.663 1143.071 229.103 1149.192 C
236.447 1153.007 244.511 1155.528 252.791 1155.815 C
253.799 1155.887 L
255.743 1156.031 L
313.703 1156.031 L
316.512 1155.815 316.295 1155.240 316.439 1152.432 C
316.512 1150.559 L
316.512 1104.048 L
316.439 1102.751 316.295 1101.455 315.935 1100.159 C
b
0.000 0.000 0.000 1.000 K
0 j
0 J
0.287 w
[]0 d
0.000 0.000 0.000 0.200 k
349.487 810.863 m
351.071 807.191 354.024 806.759 357.695 806.759 C
472.535 806.615 L
472.463 834.335 L
470.447 835.919 468.431 837.503 466.487 839.015 C
456.695 846.143 446.687 853.703 436.319 859.895 C
428.975 863.639 420.911 866.159 412.631 866.447 C
411.623 866.519 L
409.679 866.663 L
351.647 866.663 L
348.911 866.519 349.127 865.871 348.911 863.135 C
348.839 861.263 L
348.839 814.751 L
348.911 813.383 349.127 812.087 349.487 810.863 C
b
0.000 0.000 0.000 1.000 K
0 j
0 J
0.287 w
[]0 d
0.000 0.000 0.000 0.498 k
-0.143 1066.967 m
-0.719 1058.615 L
-1.008 1051.991 -0.935 1045.367 -0.719 1038.816 C
13.103 1038.816 L
16.847 1039.319 19.727 1041.624 20.231 1045.511 C
20.231 1060.559 L
19.943 1064.015 17.711 1066.391 14.255 1066.967 C
-0.143 1066.967 L
b
0.000 0.000 0.000 1.000 K
0 j
0 J
0.287 w
[]0 d
0.000 0.000 0.000 0.498 k
665.567 777.671 m
666.144 769.247 L
666.431 762.695 666.359 756.071 666.144 749.447 C
652.319 749.447 L
648.575 750.023 645.695 752.327 645.192 756.143 C
645.192 771.191 L
645.479 774.719 647.711 777.023 651.168 777.671 C
665.567 777.671 L
b
0.000 0.000 0.000 1.000 K
0 j
0 J
0.287 w
[]0 d
0.000 0.000 0.000 0.098 k
13.175 1063.439 m
0.287 1063.439 L
-0.143 1058.687 -0.504 1047.384 -0.143 1042.343 C
12.095 1042.343 l
13.463 1042.343 15.263 1043.783 15.263 1045.151 c
15.263 1060.991 l
15.263 1062.000 14.183 1063.439 13.175 1063.439 c
b
0.000 0.000 0.000 1.000 K
0 j
0 J
0.287 w
[]0 d
0.000 0.000 0.000 0.098 k
652.247 774.071 m
665.135 774.071 L
665.567 769.319 665.927 758.015 665.567 753.047 C
653.327 753.047 l
651.959 753.047 650.159 754.487 650.159 755.783 c
650.159 771.695 l
650.159 772.703 651.239 774.071 652.247 774.071 c
b
u
u
0.000 0.000 0.000 1.000 K
0 j
0 J
0.287 w
[]0 d
156.311 1100.879 m
110.447 1096.559 66.311 1091.375 21.239 1083.528 C
12.599 1085.903 L
21.239 1083.528 L
17.352 1079.855 14.183 1075.535 12.095 1070.927 C
S
U
U
u
u
0.000 0.000 0.000 1.000 K
0 j
0 J
0.287 w
[]0 d
509.111 811.583 m
554.975 807.191 599.111 802.007 644.183 794.231 C
652.823 796.535 L
644.183 794.231 L
648.072 790.487 651.239 786.239 653.327 781.631 C
S
U
U
u
u
0.000 0.000 0.000 1.000 K
0 j
0 J
0.287 w
[]0 d
15.695 1066.967 m
661.463 1066.823 L
S
0.000 0.000 0.000 1.000 K
0 j
0 J
0.287 w
[]0 d
661.535 1062.720 m
19.871 1062.647 L
S
U
U
u
u
0.000 0.000 0.000 1.000 K
0 j
0 J
0.287 w
[]0 d
649.727 777.671 m
3.959 777.527 L
S
0.000 0.000 0.000 1.000 K
0 j
0 J
0.287 w
[]0 d
3.887 773.351 m
645.551 773.279 L
S
U
U
u
u
0.000 0.000 0.000 1.000 K
0 j
0 J
0.287 w
[]0 d
151.991 999.863 m
381.815 999.863 L
S
U
U
u
u
0.000 0.000 0.000 1.000 K
0 j
0 J
0.287 w
[]0 d
513.432 710.567 m
283.536 710.567 L
S
U
U
0.000 0.000 0.000 1.000 K
0 j
0 J
0.287 w
[]0 d
314.711 1049.615 m
316.367 1049.615 317.735 1050.983 317.735 1052.711 c
317.735 1054.439 316.367 1055.807 314.711 1055.807 c
312.911 1055.807 311.543 1054.439 311.543 1052.711 c
311.543 1050.983 312.911 1049.615 314.711 1049.615 c
s
0.000 0.000 0.000 1.000 K
0 j
0 J
0.287 w
[]0 d
350.711 760.247 m
348.983 760.247 347.615 761.615 347.615 763.415 c
347.615 765.071 348.983 766.439 350.711 766.439 c
352.439 766.439 353.807 765.071 353.807 763.415 c
353.807 761.615 352.439 760.247 350.711 760.247 c
s
0.000 0.000 0.000 1.000 K
0 j
0 J
0.287 w
[]0 d
0.000 0.000 0.000 0.498 k
191.735 1119.455 m
183.311 1119.455 L
181.512 1118.951 180.215 1117.583 180.215 1115.351 C
180.215 1098.288 L
180.215 1096.487 181.151 1095.407 183.311 1095.407 C
191.735 1095.407 L
191.735 1119.455 L
b
0.000 0.000 0.000 1.000 K
0 j
0 J
0.287 w
[]0 d
0.000 0.000 0.000 0.498 k
473.687 830.087 m
482.039 830.087 L
483.839 829.583 485.207 828.287 485.207 826.055 C
485.207 808.991 L
485.207 807.119 484.199 806.039 482.039 806.039 C
473.687 806.039 L
473.687 830.087 L
b
0.000 0.000 0.000 1.000 K
0 j
0 J
0.287 w
[]0 d
0.000 0.000 0.000 0.498 k
191.735 1119.455 m
187.991 1119.455 L
187.991 1095.407 L
191.735 1095.407 L
191.735 1119.455 L
b
0.000 0.000 0.000 1.000 K
0 j
0 J
0.287 w
[]0 d
0.000 0.000 0.000 0.498 k
473.687 830.087 m
477.359 830.087 L
477.359 806.039 L
473.687 806.039 L
473.687 830.087 L
b
u
u
0.000 0.000 0.000 1.000 K
0 j
0 J
0.287 w
[]0 d
312.335 1010.879 m
453.167 1010.879 L
S
U
U
u
u
0.000 0.000 0.000 1.000 K
0 j
0 J
0.287 w
[]0 d
353.015 721.511 m
212.183 721.511 L
S
U
U
0.000 0.000 0.000 1.000 K
0 j
0 J
0.287 w
[]0 d
0.000 0.000 0.000 0.498 k
147.527 999.863 m
451.583 999.863 L
451.583 991.943 L
156.167 991.943 L
151.055 991.799 148.463 992.879 147.527 999.863 C
b
0.000 0.000 0.000 1.000 K
0 j
0 J
0.287 w
[]0 d
0.000 0.000 0.000 0.498 k
517.895 710.495 m
213.767 710.495 L
213.767 702.647 L
509.255 702.647 L
514.367 702.431 516.959 703.511 517.895 710.495 C
b
0.000 0.000 0.000 1.000 K
0 j
0 J
0.287 w
[]0 d
0.000 0.000 0.000 0.498 k
0.287 1038.672 m
19.655 1038.672 L
19.655 1015.055 L
-3.311 1016.567 L
-7.559 1016.207 -8.855 1027.151 -9.071 1034.783 C
-8.855 1037.519 -3.671 1038.599 0.287 1038.672 C
b
0.000 0.000 0.000 1.000 K
0 j
0 J
0.287 w
[]0 d
0.000 0.000 0.000 0.498 k
665.135 749.375 m
645.767 749.375 L
645.767 725.687 L
668.735 727.199 L
672.983 726.839 674.279 737.855 674.495 745.415 C
674.279 748.223 669.096 749.231 665.135 749.375 C
b
u
u
0.000 0.000 0.000 1.000 K
0 j
0 J
0.287 w
[]0 d
563.759 1018.367 m
670.607 1026.288 L
S
U
U
u
u
0.000 0.000 0.000 1.000 K
0 j
0 J
0.287 w
[]0 d
101.663 729.000 m
-5.183 736.991 L
S
U
U
0.000 0.000 0.000 1.000 K
0 j
0 J
0.287 w
[]0 d
0.000 0.000 0.000 0.200 k
138.024 1069.055 m
145.007 1069.055 l
145.727 1069.055 146.231 1069.559 146.231 1070.279 c
146.231 1074.743 l
146.231 1075.463 145.727 1075.967 145.007 1075.967 c
138.024 1075.967 l
137.304 1075.967 136.799 1075.463 136.799 1074.743 c
136.799 1070.279 l
136.799 1069.559 137.304 1069.055 138.024 1069.055 c
b
0.000 0.000 0.000 1.000 K
0 j
0 J
0.287 w
[]0 d
0.000 0.000 0.000 0.200 k
527.399 779.759 m
520.415 779.759 l
519.695 779.759 519.192 780.263 519.192 780.983 c
519.192 785.447 l
519.192 786.167 519.695 786.671 520.415 786.671 c
527.399 786.671 l
528.120 786.671 528.623 786.167 528.623 785.447 c
528.623 780.983 l
528.623 780.263 528.120 779.759 527.399 779.759 c
b
0.000 0.000 0.000 1.000 K
0 j
0 J
0.287 w
[]0 d
0.000 0.000 0.000 1.000 k
91.367 948.383 m
118.511 948.383 140.759 970.559 140.759 997.847 c
140.759 1024.991 118.511 1047.240 91.367 1047.240 c
64.079 1047.240 41.903 1024.991 41.903 997.847 c
41.903 970.559 64.079 948.383 91.367 948.383 c
b
0.000 0.000 0.000 1.000 K
0 j
0 J
0.287 w
[]0 d
0.000 0.000 0.000 1.000 k
574.055 659.015 m
546.911 659.015 524.663 681.263 524.663 708.479 c
524.663 735.695 546.911 757.943 574.055 757.943 c
601.343 757.943 623.519 735.695 623.519 708.479 c
623.519 681.263 601.343 659.015 574.055 659.015 c
b
0.000 0.000 0.000 0.000 k
91.367 968.039 m
107.711 968.039 121.103 981.431 121.103 997.847 c
121.103 1014.191 107.711 1027.583 91.367 1027.583 c
74.951 1027.583 61.559 1014.191 61.559 997.847 c
61.559 981.431 74.951 968.039 91.367 968.039 c
f
0.000 0.000 0.000 0.000 k
574.055 678.743 m
557.711 678.743 544.319 692.135 544.319 708.551 c
544.319 724.823 557.711 738.287 574.055 738.287 c
590.471 738.287 603.863 724.823 603.863 708.551 c
603.863 692.135 590.471 678.743 574.055 678.743 c
f
0.000 0.000 0.000 1.000 k
91.295 988.487 m
96.479 988.487 100.655 992.663 100.655 997.775 c
100.655 1002.959 96.479 1007.135 91.295 1007.135 c
86.183 1007.135 82.007 1002.959 82.007 997.775 c
82.007 992.663 86.183 988.487 91.295 988.487 c
f
0.000 0.000 0.000 1.000 k
574.127 699.119 m
568.943 699.119 564.767 703.295 564.767 708.479 c
564.767 713.591 568.943 717.767 574.127 717.767 c
579.240 717.767 583.415 713.591 583.415 708.479 c
583.415 703.295 579.240 699.119 574.127 699.119 c
f
0.000 0.000 0.000 1.000 k
91.295 988.487 m
96.479 988.487 100.655 992.663 100.655 997.775 c
100.655 1002.959 96.479 1007.135 91.295 1007.135 c
86.183 1007.135 82.007 1002.959 82.007 997.775 c
82.007 992.663 86.183 988.487 91.295 988.487 c
f
0.000 0.000 0.000 1.000 k
574.127 699.119 m
568.943 699.119 564.767 703.295 564.767 708.479 c
564.767 713.591 568.943 717.767 574.127 717.767 c
579.240 717.767 583.415 713.591 583.415 708.479 c
583.415 703.295 579.240 699.119 574.127 699.119 c
f
0.000 0.000 0.000 1.000 k
90.143 1013.687 m
90.431 1013.687 90.863 1013.687 91.295 1013.687 c
91.583 1013.687 92.015 1013.687 92.303 1013.687 c
92.735 1013.759 93.671 1014.839 94.031 1015.775 c
94.319 1016.423 94.679 1017.215 94.895 1018.007 c
94.967 1018.727 95.183 1019.591 95.183 1020.311 c
95.255 1021.175 94.463 1022.543 93.527 1022.831 c
92.735 1023.047 92.015 1023.119 91.295 1023.119 c
90.431 1023.119 89.711 1023.047 89.063 1022.831 c
88.055 1022.543 87.263 1021.175 87.263 1020.311 c
87.263 1019.591 87.623 1018.727 87.839 1018.007 c
87.911 1017.215 88.199 1016.495 88.559 1015.775 c
88.847 1014.911 89.711 1013.759 90.143 1013.687 c
f
0.000 0.000 0.000 1.000 k
575.279 724.319 m
574.991 724.319 574.559 724.319 574.127 724.319 c
573.839 724.319 573.407 724.319 573.120 724.319 c
572.687 724.463 571.751 725.471 571.391 726.407 c
571.103 727.055 570.743 727.919 570.527 728.639 c
570.455 729.359 570.240 730.223 570.240 730.943 c
570.168 731.807 570.959 733.175 571.895 733.463 c
572.687 733.679 573.407 733.823 574.127 733.823 c
574.991 733.823 575.711 733.679 576.359 733.463 c
577.367 733.175 578.159 731.807 578.159 730.943 c
578.159 730.223 577.799 729.359 577.583 728.639 c
577.511 727.919 577.223 727.199 576.863 726.407 c
576.575 725.615 575.711 724.463 575.279 724.319 c
f
0.000 0.000 0.000 1.000 k
92.375 982.079 m
92.015 982.079 91.727 982.223 91.295 982.223 c
90.863 982.223 90.575 982.223 90.143 982.079 c
89.711 982.007 88.847 981.071 88.559 980.063 c
88.271 979.487 87.839 978.623 87.695 977.759 c
87.623 977.183 87.335 976.319 87.335 975.599 c
87.335 974.735 88.055 973.223 89.063 973.007 c
89.711 972.863 90.575 972.647 91.295 972.647 c
92.015 972.647 92.807 972.863 93.527 973.007 c
94.463 973.223 95.327 974.735 95.183 975.599 c
95.183 976.319 94.895 977.039 94.751 977.759 c
94.679 978.551 94.391 979.343 94.031 980.063 c
93.743 980.927 92.807 982.007 92.375 982.079 c
f
0.000 0.000 0.000 1.000 k
573.048 692.783 m
573.407 692.783 573.695 692.855 574.127 692.855 c
574.559 692.855 574.847 692.855 575.279 692.783 c
575.711 692.639 576.575 691.703 576.863 690.767 c
577.151 690.120 577.583 689.255 577.727 688.463 c
577.799 687.815 578.087 686.951 578.087 686.231 c
578.087 685.367 577.367 683.927 576.359 683.711 c
575.711 683.495 574.847 683.279 574.127 683.279 c
573.407 683.279 572.615 683.495 571.895 683.711 c
570.959 683.927 570.096 685.367 570.240 686.231 c
570.240 686.951 570.527 687.743 570.671 688.463 c
570.743 689.183 571.031 690.048 571.391 690.767 c
571.679 691.631 572.615 692.639 573.048 692.783 c
f
0.000 0.000 0.000 1.000 k
79.199 1008.359 m
79.415 1008.575 79.775 1008.791 80.063 1009.079 c
80.351 1009.367 80.567 1009.583 80.927 1009.943 c
81.143 1010.231 80.927 1011.599 80.567 1012.535 c
80.279 1013.255 79.919 1014.047 79.559 1014.623 c
79.128 1015.271 78.695 1016.063 78.191 1016.567 c
77.543 1017.287 76.031 1017.575 75.095 1017.071 c
74.447 1016.855 73.871 1016.351 73.295 1015.847 c
72.792 1015.199 72.359 1014.623 72.071 1014.047 c
71.495 1013.111 71.855 1011.599 72.575 1010.951 c
73.079 1010.447 73.943 1010.159 74.447 1009.727 c
75.239 1009.295 75.815 1008.863 76.607 1008.575 c
77.543 1008.359 78.911 1008.143 79.199 1008.359 c
f
0.000 0.000 0.000 1.000 k
586.223 718.991 m
586.007 719.207 585.647 719.423 585.359 719.711 c
585.072 720.071 584.855 720.287 584.495 720.575 c
584.279 720.935 584.495 722.303 584.855 723.239 c
585.144 723.959 585.503 724.679 585.863 725.327 c
586.295 725.975 586.727 726.695 587.231 727.199 c
587.879 727.991 589.391 728.279 590.327 727.775 c
590.975 727.559 591.551 726.983 592.127 726.479 c
592.631 725.831 593.063 725.327 593.351 724.679 c
593.927 723.743 593.567 722.303 592.847 721.655 c
592.343 721.079 591.479 720.791 590.975 720.359 c
590.183 719.927 589.607 719.567 588.815 719.207 c
587.879 718.991 586.511 718.775 586.223 718.991 c
f
0.000 0.000 0.000 1.000 k
103.103 987.623 m
102.887 987.407 102.599 987.047 102.383 986.759 c
102.167 986.543 101.879 986.327 101.519 986.039 c
101.303 985.607 101.447 984.311 101.879 983.375 c
102.167 982.655 102.383 981.935 102.887 981.215 c
103.319 980.639 103.751 979.919 104.255 979.415 c
104.831 978.623 106.415 978.263 107.351 978.767 c
107.855 979.055 108.575 979.631 109.007 980.135 c
109.655 980.639 110.087 981.287 110.375 981.791 c
110.879 982.727 110.519 984.311 109.727 984.887 c
109.223 985.391 108.503 985.823 107.855 986.255 c
107.351 986.687 106.487 987.047 105.767 987.263 c
104.903 987.623 103.535 987.839 103.103 987.623 c
f
0.000 0.000 0.000 1.000 k
562.319 698.255 m
562.535 698.039 562.823 697.751 563.039 697.463 c
563.255 697.247 563.543 697.031 563.903 696.671 c
564.120 696.239 563.975 695.015 563.543 694.079 c
563.255 693.359 563.039 692.567 562.535 691.847 c
562.103 691.343 561.671 690.551 561.168 690.048 c
560.591 689.327 559.007 688.895 558.072 689.399 c
557.567 689.759 556.847 690.263 556.415 690.767 c
555.767 691.343 555.336 691.991 555.048 692.495 c
554.543 693.431 554.903 695.015 555.695 695.519 c
556.199 696.096 556.919 696.455 557.567 696.887 c
558.072 697.319 558.935 697.751 559.655 697.967 c
560.519 698.255 561.887 698.471 562.319 698.255 c
f
0.000 0.000 0.000 1.000 k
75.455 996.839 m
75.455 997.199 75.455 997.487 75.455 997.919 c
75.455 998.351 75.455 998.639 75.455 999.071 c
75.384 999.503 74.303 1000.367 73.367 1000.727 c
72.719 1000.943 71.927 1001.375 71.135 1001.519 c
70.559 1001.735 69.551 1001.879 68.831 1001.879 c
67.967 1001.879 66.599 1001.159 66.311 1000.151 c
66.095 999.503 66.024 998.639 66.024 997.919 c
66.024 997.199 66.095 996.407 66.311 995.831 c
66.599 994.751 67.967 993.887 68.831 994.031 c
69.551 994.031 70.415 994.319 71.135 994.463 c
71.927 994.535 72.647 994.823 73.367 995.183 c
74.303 995.471 75.384 996.407 75.455 996.839 c
f
0.000 0.000 0.000 1.000 k
589.967 707.543 m
589.967 707.831 589.967 708.191 589.967 708.551 c
589.967 708.983 589.967 709.343 589.967 709.703 c
590.039 710.135 591.120 711.000 592.055 711.431 c
592.703 711.647 593.495 712.079 594.288 712.151 c
594.863 712.367 595.871 712.583 596.591 712.583 c
597.455 712.583 598.823 711.863 599.111 710.783 c
599.327 710.135 599.399 709.343 599.399 708.551 c
599.399 707.831 599.327 707.111 599.111 706.463 c
598.823 705.455 597.455 704.591 596.591 704.663 c
595.871 704.663 595.007 705.024 594.288 705.095 c
593.495 705.239 592.775 705.527 592.055 705.815 c
591.120 706.175 590.039 707.111 589.967 707.543 c
f
0.000 0.000 0.000 1.000 k
106.991 998.999 m
106.991 998.711 106.919 998.279 106.919 997.847 c
106.919 997.559 106.919 997.127 106.991 996.839 c
107.135 996.407 108.071 995.471 109.007 995.111 c
109.727 994.823 110.519 994.463 111.311 994.247 c
111.959 994.175 112.823 993.959 113.543 993.959 c
114.479 993.887 115.847 994.679 116.063 995.759 c
116.351 996.407 116.495 997.127 116.495 997.847 c
116.495 998.711 116.351 999.431 116.063 1000.079 c
115.847 1001.087 114.479 1001.879 113.543 1001.879 c
112.823 1001.879 112.031 1001.519 111.311 1001.447 c
110.591 1001.231 109.727 1000.943 109.007 1000.727 c
108.143 1000.295 107.135 999.431 106.991 998.999 c
f
0.000 0.000 0.000 1.000 k
558.431 709.703 m
558.431 709.343 558.503 708.983 558.503 708.551 c
558.503 708.191 558.503 707.759 558.431 707.471 c
558.288 707.039 557.351 706.103 556.415 705.815 c
555.695 705.455 554.903 705.167 554.111 704.951 c
553.463 704.807 552.599 704.663 551.879 704.663 c
550.943 704.519 549.575 705.383 549.360 706.391 c
549.072 707.039 548.927 707.759 548.927 708.551 c
548.927 709.343 549.072 710.135 549.360 710.711 c
549.575 711.791 550.943 712.511 551.879 712.511 c
552.599 712.511 553.391 712.223 554.111 712.079 c
554.831 711.863 555.695 711.575 556.415 711.359 c
557.279 710.927 558.288 710.135 558.431 709.703 c
f
0.000 0.000 0.000 1.000 k
80.783 986.039 m
80.567 986.111 80.351 986.543 80.135 986.759 c
79.847 987.047 79.631 987.263 79.199 987.479 c
78.983 987.839 77.543 987.695 76.679 987.263 c
75.959 987.047 75.239 986.759 74.519 986.327 c
73.943 985.823 73.223 985.391 72.719 984.887 c
71.927 984.311 71.640 982.727 72.143 981.791 c
72.359 981.287 72.935 980.639 73.439 980.135 c
74.087 979.487 74.591 979.055 75.239 978.767 c
76.175 978.263 77.615 978.623 78.263 979.415 c
78.695 979.919 79.128 980.639 79.559 981.287 c
79.991 981.935 80.279 982.727 80.567 983.375 c
80.927 984.239 81.143 985.607 80.783 986.039 c
f
0.000 0.000 0.000 1.000 k
584.639 696.671 m
584.855 696.815 585.072 697.247 585.288 697.391 c
585.575 697.751 585.791 697.967 586.223 698.183 c
586.439 698.471 587.879 698.399 588.743 697.967 c
589.463 697.751 590.183 697.391 590.903 697.031 c
591.479 696.455 592.199 696.024 592.703 695.519 c
593.495 695.015 593.783 693.431 593.279 692.495 c
593.063 691.919 592.487 691.343 591.983 690.767 c
591.335 690.191 590.831 689.759 590.183 689.399 c
589.247 688.895 587.807 689.327 587.159 690.048 c
586.727 690.551 586.295 691.343 585.863 691.919 c
585.431 692.567 585.144 693.431 584.855 694.079 c
584.495 694.871 584.279 696.239 584.639 696.671 c
f
0.000 0.000 0.000 1.000 k
101.663 1009.943 m
101.879 1009.727 102.167 1009.367 102.383 1009.079 c
102.599 1008.863 102.887 1008.575 103.103 1008.359 c
103.535 1008.143 104.903 1008.215 105.839 1008.575 c
106.487 1009.007 107.351 1009.223 107.927 1009.727 c
108.575 1009.943 109.367 1010.447 109.871 1010.951 c
110.519 1011.527 110.879 1013.111 110.375 1014.047 c
110.159 1014.695 109.655 1015.271 109.151 1015.847 c
108.575 1016.351 107.927 1016.855 107.351 1017.071 c
106.415 1017.647 104.831 1017.215 104.255 1016.567 c
103.823 1016.063 103.319 1015.271 103.031 1014.695 c
102.599 1014.047 102.167 1013.327 101.951 1012.535 c
101.519 1011.743 101.447 1010.231 101.663 1009.943 c
f
0.000 0.000 0.000 1.000 k
563.759 720.575 m
563.543 720.359 563.255 720.071 563.039 719.783 c
562.823 719.567 562.535 719.207 562.319 718.991 c
561.887 718.775 560.519 718.919 559.583 719.207 c
558.935 719.639 558.072 719.855 557.495 720.359 c
556.847 720.575 556.055 721.151 555.551 721.655 c
554.903 722.159 554.543 723.743 555.048 724.679 c
555.264 725.327 555.767 725.975 556.271 726.479 c
556.847 726.983 557.495 727.559 558.072 727.775 c
559.007 728.279 560.591 727.847 561.168 727.199 c
561.599 726.695 562.103 725.975 562.391 725.327 c
562.823 724.679 563.255 723.959 563.471 723.239 c
563.903 722.375 563.975 720.935 563.759 720.575 c
f
0.000 0.000 0.000 1.000 k
84.239 1004.183 m
84.887 1004.183 85.391 1004.687 85.391 1005.263 c
85.391 1005.911 84.887 1006.415 84.239 1006.415 c
83.663 1006.415 83.159 1005.911 83.159 1005.263 c
83.159 1004.687 83.663 1004.183 84.239 1004.183 c
f
0.000 0.000 0.000 1.000 k
581.183 714.815 m
580.535 714.815 580.031 715.319 580.031 715.967 c
580.031 716.543 580.535 717.048 581.183 717.048 c
581.759 717.048 582.264 716.543 582.264 715.967 c
582.264 715.319 581.759 714.815 581.183 714.815 c
f
0.000 0.000 0.000 1.000 k
98.495 989.279 m
99.071 989.279 99.575 989.783 99.575 990.431 c
99.575 991.007 99.071 991.511 98.495 991.511 c
97.847 991.511 97.343 991.007 97.343 990.431 c
97.343 989.783 97.847 989.279 98.495 989.279 c
f
0.000 0.000 0.000 1.000 k
566.927 699.983 m
566.351 699.983 565.847 700.487 565.847 701.063 c
565.847 701.711 566.351 702.215 566.927 702.215 c
567.575 702.215 568.079 701.711 568.079 701.063 c
568.079 700.487 567.575 699.983 566.927 699.983 c
f
0.000 0.000 0.000 1.000 k
91.943 1007.351 m
92.375 1006.847 93.023 1006.775 93.527 1007.135 c
94.031 1007.567 94.103 1008.215 93.743 1008.719 c
93.311 1009.223 92.663 1009.295 92.159 1008.935 c
91.655 1008.503 91.583 1007.855 91.943 1007.351 c
f
0.000 0.000 0.000 1.000 k
573.479 718.055 m
573.048 717.551 572.399 717.479 571.895 717.839 c
571.391 718.199 571.319 718.919 571.679 719.423 c
572.111 719.855 572.759 720.000 573.264 719.567 c
573.767 719.207 573.839 718.487 573.479 718.055 c
f
0.000 0.000 0.000 1.000 k
88.919 986.975 m
89.351 986.471 90.000 986.399 90.503 986.759 c
91.007 987.119 91.079 987.839 90.719 988.343 c
90.287 988.775 89.639 988.919 89.135 988.487 c
88.631 988.127 88.559 987.407 88.919 986.975 c
f
0.000 0.000 0.000 1.000 k
576.503 697.607 m
576.072 697.103 575.423 697.031 574.919 697.391 c
574.415 697.823 574.343 698.471 574.703 698.975 c
575.135 699.479 575.783 699.551 576.288 699.191 c
576.791 698.759 576.863 698.111 576.503 697.607 c
f
0.000 0.000 0.000 1.000 k
99.575 1002.671 m
99.359 1002.095 99.719 1001.447 100.295 1001.303 c
100.871 1001.087 101.519 1001.375 101.663 1001.951 c
101.879 1002.527 101.591 1003.175 101.015 1003.391 c
100.439 1003.607 99.791 1003.247 99.575 1002.671 c
f
0.000 0.000 0.000 1.000 k
565.847 713.375 m
566.063 712.799 565.703 712.151 565.127 711.935 c
564.551 711.719 563.903 712.007 563.759 712.655 c
563.543 713.231 563.831 713.807 564.407 714.024 c
564.983 714.239 565.631 713.951 565.847 713.375 c
f
0.000 0.000 0.000 1.000 k
81.000 994.031 m
80.783 993.455 81.071 992.807 81.647 992.591 c
82.223 992.375 82.871 992.663 83.087 993.311 c
83.303 993.887 82.943 994.463 82.367 994.679 c
81.791 994.895 81.215 994.607 81.000 994.031 c
f
0.000 0.000 0.000 1.000 k
584.423 704.663 m
584.639 704.087 584.351 703.439 583.775 703.295 c
583.199 703.079 582.551 703.367 582.336 703.943 c
582.120 704.519 582.479 705.167 583.055 705.383 c
583.631 705.599 584.207 705.239 584.423 704.663 c
f
0.000 0.000 0.000 0.000 k
91.223 992.663 m
94.103 992.663 96.335 994.895 96.335 997.703 c
96.335 1000.583 94.103 1002.815 91.223 1002.815 c
88.415 1002.815 86.183 1000.583 86.183 997.703 c
86.183 994.895 88.415 992.663 91.223 992.663 c
f
0.000 0.000 0.000 0.000 k
574.199 703.295 m
571.319 703.295 569.087 705.599 569.087 708.407 c
569.087 711.215 571.319 713.519 574.199 713.519 c
577.007 713.519 579.240 711.215 579.240 708.407 c
579.240 705.599 577.007 703.295 574.199 703.295 c
f
0.000 0.000 0.000 1.000 k
91.295 993.887 m
93.455 993.887 95.183 995.615 95.183 997.775 c
95.183 999.935 93.455 1001.663 91.295 1001.663 c
89.135 1001.663 87.407 999.935 87.407 997.775 c
87.407 995.615 89.135 993.887 91.295 993.887 c
f
0.000 0.000 0.000 1.000 k
574.127 704.591 m
571.967 704.591 570.240 706.319 570.240 708.479 c
570.240 710.639 571.967 712.367 574.127 712.367 c
576.288 712.367 578.015 710.639 578.015 708.479 c
578.015 706.319 576.288 704.591 574.127 704.591 c
f
0.000 0.000 0.000 1.000 K
0 j
0 J
0.287 w
[]0 d
0.000 0.000 0.000 1.000 k
509.327 948.383 m
536.471 948.383 558.719 970.559 558.719 997.847 c
558.719 1024.991 536.471 1047.240 509.327 1047.240 c
482.039 1047.240 459.791 1024.991 459.791 997.847 c
459.791 970.559 482.039 948.383 509.327 948.383 c
b
0.000 0.000 0.000 1.000 K
0 j
0 J
0.287 w
[]0 d
0.000 0.000 0.000 1.000 k
156.095 659.015 m
128.951 659.015 106.703 681.263 106.703 708.479 c
106.703 735.695 128.951 757.943 156.095 757.943 c
183.383 757.943 205.559 735.695 205.559 708.479 c
205.559 681.263 183.383 659.015 156.095 659.015 c
b
0.000 0.000 0.000 0.000 k
509.327 968.039 m
525.671 968.039 539.063 981.431 539.063 997.847 c
539.063 1014.191 525.671 1027.583 509.327 1027.583 c
492.911 1027.583 479.519 1014.191 479.519 997.847 c
479.519 981.431 492.911 968.039 509.327 968.039 c
f
0.000 0.000 0.000 0.000 k
156.095 678.743 m
139.751 678.743 126.359 692.135 126.359 708.551 c
126.359 724.823 139.751 738.287 156.095 738.287 c
172.512 738.287 185.903 724.823 185.903 708.551 c
185.903 692.135 172.512 678.743 156.095 678.743 c
f
0.000 0.000 0.000 1.000 k
509.327 988.487 m
514.511 988.487 518.687 992.663 518.687 997.775 c
518.687 1002.959 514.511 1007.135 509.327 1007.135 c
504.215 1007.135 500.039 1002.959 500.039 997.775 c
500.039 992.663 504.215 988.487 509.327 988.487 c
f
0.000 0.000 0.000 1.000 k
156.095 699.119 m
150.911 699.119 146.735 703.295 146.735 708.479 c
146.735 713.591 150.911 717.767 156.095 717.767 c
161.207 717.767 165.383 713.591 165.383 708.479 c
165.383 703.295 161.207 699.119 156.095 699.119 c
f
0.000 0.000 0.000 1.000 k
509.327 988.487 m
514.511 988.487 518.687 992.663 518.687 997.775 c
518.687 1002.959 514.511 1007.135 509.327 1007.135 c
504.215 1007.135 500.039 1002.959 500.039 997.775 c
500.039 992.663 504.215 988.487 509.327 988.487 c
f
0.000 0.000 0.000 1.000 k
156.095 699.119 m
150.911 699.119 146.735 703.295 146.735 708.479 c
146.735 713.591 150.911 717.767 156.095 717.767 c
161.207 717.767 165.383 713.591 165.383 708.479 c
165.383 703.295 161.207 699.119 156.095 699.119 c
f
0.000 0.000 0.000 1.000 k
508.319 1013.687 m
508.607 1013.687 509.039 1013.687 509.471 1013.687 c
509.759 1013.687 510.191 1013.687 510.479 1013.687 c
510.911 1013.759 511.847 1014.839 512.207 1015.775 c
512.495 1016.423 512.855 1017.215 513.072 1018.007 c
513.144 1018.727 513.360 1019.591 513.360 1020.311 c
513.432 1021.175 512.639 1022.543 511.703 1022.831 c
510.911 1023.047 510.191 1023.119 509.471 1023.119 c
508.607 1023.119 507.887 1023.047 507.239 1022.831 c
506.231 1022.543 505.439 1021.175 505.439 1020.311 c
505.439 1019.591 505.799 1018.727 506.015 1018.007 c
506.087 1017.215 506.375 1016.495 506.735 1015.775 c
507.023 1014.911 507.887 1013.759 508.319 1013.687 c
f
0.000 0.000 0.000 1.000 k
157.103 724.319 m
156.815 724.319 156.383 724.319 155.951 724.319 c
155.663 724.319 155.231 724.319 154.943 724.319 c
154.512 724.463 153.575 725.471 153.215 726.407 c
152.927 727.055 152.567 727.919 152.351 728.639 c
152.280 729.359 152.063 730.223 152.063 730.943 c
151.991 731.807 152.783 733.175 153.719 733.463 c
154.512 733.679 155.231 733.823 155.951 733.823 c
156.815 733.823 157.536 733.679 158.183 733.463 c
159.191 733.175 159.983 731.807 159.983 730.943 c
159.983 730.223 159.623 729.359 159.407 728.639 c
159.335 727.919 159.048 727.199 158.687 726.407 c
158.399 725.615 157.536 724.463 157.103 724.319 c
f
0.000 0.000 0.000 1.000 k
510.551 982.079 m
510.191 982.079 509.903 982.223 509.471 982.223 c
509.039 982.223 508.751 982.223 508.319 982.079 c
507.887 982.007 507.023 981.071 506.735 980.063 c
506.447 979.487 506.015 978.623 505.871 977.759 c
505.799 977.183 505.511 976.319 505.511 975.599 c
505.511 974.735 506.231 973.223 507.239 973.007 c
507.887 972.863 508.751 972.647 509.471 972.647 c
510.191 972.647 510.983 972.863 511.703 973.007 c
512.639 973.223 513.503 974.735 513.360 975.599 c
513.360 976.319 513.072 977.039 512.927 977.759 c
512.855 978.551 512.567 979.343 512.207 980.063 c
511.919 980.927 510.983 982.007 510.551 982.079 c
f
0.000 0.000 0.000 1.000 k
154.871 692.783 m
155.231 692.783 155.519 692.855 155.951 692.855 c
156.383 692.855 156.671 692.855 157.103 692.783 c
157.536 692.639 158.399 691.703 158.687 690.767 c
158.975 690.120 159.407 689.255 159.551 688.463 c
159.623 687.815 159.911 686.951 159.911 686.231 c
159.911 685.367 159.191 683.927 158.183 683.711 c
157.536 683.495 156.671 683.279 155.951 683.279 c
155.231 683.279 154.439 683.495 153.719 683.711 c
152.783 683.927 151.919 685.367 152.063 686.231 c
152.063 686.951 152.351 687.743 152.495 688.463 c
152.567 689.183 152.855 690.048 153.215 690.767 c
153.503 691.631 154.439 692.639 154.871 692.783 c
f
0.000 0.000 0.000 1.000 k
497.447 1008.359 m
497.663 1008.575 497.951 1008.791 498.239 1009.079 c
498.599 1009.367 498.815 1009.583 499.103 1009.943 c
499.319 1010.231 499.103 1011.599 498.815 1012.535 c
498.455 1013.255 498.167 1014.047 497.735 1014.623 c
497.303 1015.271 496.871 1016.063 496.367 1016.567 c
495.719 1017.287 494.279 1017.575 493.343 1017.071 c
492.695 1016.855 492.047 1016.351 491.543 1015.847 c
491.039 1015.199 490.607 1014.623 490.247 1014.047 c
489.743 1013.111 490.031 1011.599 490.823 1010.951 c
491.327 1010.447 492.191 1010.159 492.695 1009.727 c
493.415 1009.295 494.063 1008.863 494.783 1008.575 c
495.719 1008.359 497.087 1008.143 497.447 1008.359 c
f
0.000 0.000 0.000 1.000 k
167.975 718.991 m
167.759 719.207 167.471 719.423 167.183 719.711 c
166.823 720.071 166.607 720.287 166.319 720.575 c
166.103 720.935 166.319 722.303 166.607 723.239 c
166.967 723.959 167.256 724.679 167.687 725.327 c
168.119 725.975 168.551 726.695 169.055 727.199 c
169.703 727.991 171.143 728.279 172.079 727.775 c
172.727 727.559 173.375 726.983 173.879 726.479 c
174.383 725.831 174.815 725.327 175.175 724.679 c
175.679 723.743 175.391 722.303 174.599 721.655 c
174.095 721.079 173.231 720.791 172.727 720.359 c
172.007 719.927 171.359 719.567 170.639 719.207 c
169.703 718.991 168.335 718.775 167.975 718.991 c
f
0.000 0.000 0.000 1.000 k
521.351 987.623 m
521.135 987.407 520.847 987.047 520.631 986.759 c
520.415 986.543 520.127 986.327 519.767 986.039 c
519.551 985.607 519.695 984.311 520.127 983.375 c
520.415 982.655 520.631 981.935 521.135 981.215 c
521.567 980.639 522.000 979.919 522.503 979.415 c
523.079 978.623 524.663 978.263 525.599 978.767 c
526.103 979.055 526.823 979.631 527.255 980.135 c
527.903 980.639 528.336 981.287 528.623 981.791 c
529.127 982.727 528.767 984.311 527.975 984.887 c
527.471 985.391 526.751 985.823 526.103 986.255 c
525.599 986.687 524.735 987.047 524.015 987.263 c
523.151 987.623 521.783 987.839 521.351 987.623 c
f
0.000 0.000 0.000 1.000 k
144.072 698.255 m
144.287 698.039 144.575 697.751 144.792 697.463 c
145.007 697.247 145.295 697.031 145.655 696.671 c
145.871 696.239 145.727 695.015 145.295 694.079 c
145.007 693.359 144.792 692.567 144.287 691.847 c
143.855 691.343 143.423 690.551 142.919 690.048 c
142.343 689.327 140.759 688.895 139.823 689.399 c
139.319 689.759 138.599 690.263 138.167 690.767 c
137.519 691.343 137.087 691.991 136.799 692.495 c
136.295 693.431 136.655 695.015 137.447 695.519 c
137.951 696.096 138.671 696.455 139.319 696.887 c
139.823 697.319 140.687 697.751 141.407 697.967 c
142.271 698.255 143.639 698.471 144.072 698.255 c
f
0.000 0.000 0.000 1.000 k
493.631 996.839 m
493.631 997.199 493.631 997.487 493.631 997.919 c
493.631 998.351 493.631 998.639 493.631 999.071 c
493.559 999.503 492.479 1000.367 491.543 1000.727 c
490.895 1000.943 490.103 1001.375 489.311 1001.519 c
488.735 1001.735 487.727 1001.879 487.007 1001.879 c
486.143 1001.879 484.775 1001.159 484.487 1000.151 c
484.271 999.503 484.127 998.639 484.127 997.919 c
484.127 997.199 484.271 996.407 484.487 995.831 c
484.775 994.751 486.143 993.887 487.007 994.031 c
487.727 994.031 488.591 994.319 489.311 994.463 c
490.103 994.535 490.823 994.823 491.543 995.183 c
492.479 995.471 493.559 996.407 493.631 996.839 c
f
0.000 0.000 0.000 1.000 k
171.791 707.543 m
171.791 707.831 171.791 708.191 171.791 708.551 c
171.791 708.983 171.791 709.343 171.791 709.703 c
171.863 710.135 172.943 711.000 173.879 711.431 c
174.527 711.647 175.319 712.079 176.111 712.151 c
176.687 712.367 177.695 712.583 178.415 712.583 c
179.279 712.583 180.647 711.863 180.935 710.783 c
181.151 710.135 181.223 709.343 181.223 708.551 c
181.223 707.831 181.151 707.111 180.935 706.463 c
180.647 705.455 179.279 704.591 178.415 704.663 c
177.695 704.663 176.831 705.024 176.111 705.095 c
175.319 705.239 174.599 705.527 173.879 705.815 c
172.943 706.175 171.863 707.111 171.791 707.543 c
f
0.000 0.000 0.000 1.000 k
525.240 998.999 m
525.240 998.711 525.168 998.279 525.168 997.847 c
525.168 997.559 525.168 997.127 525.240 996.839 c
525.384 996.407 526.319 995.471 527.255 995.111 c
527.975 994.823 528.767 994.463 529.559 994.247 c
530.207 994.175 531.072 993.959 531.791 993.959 c
532.727 993.887 534.096 994.679 534.312 995.759 c
534.599 996.407 534.743 997.127 534.743 997.847 c
534.743 998.711 534.599 999.431 534.312 1000.079 c
534.096 1001.087 532.727 1001.879 531.791 1001.879 c
531.072 1001.879 530.279 1001.519 529.559 1001.447 c
528.839 1001.231 527.975 1000.943 527.255 1000.727 c
526.391 1000.295 525.384 999.431 525.240 998.999 c
f
0.000 0.000 0.000 1.000 k
140.183 709.703 m
140.183 709.343 140.256 708.983 140.256 708.551 c
140.256 708.191 140.256 707.759 140.183 707.471 c
140.039 707.039 139.103 706.103 138.167 705.815 c
137.447 705.455 136.655 705.167 135.863 704.951 c
135.215 704.807 134.352 704.663 133.631 704.663 c
132.695 704.519 131.328 705.383 131.111 706.391 c
130.823 707.039 130.679 707.759 130.679 708.551 c
130.679 709.343 130.823 710.135 131.111 710.711 c
131.328 711.791 132.695 712.511 133.631 712.511 c
134.352 712.511 135.143 712.223 135.863 712.079 c
136.584 711.863 137.447 711.575 138.167 711.359 c
139.031 710.927 140.039 710.135 140.183 709.703 c
f
0.000 0.000 0.000 1.000 k
499.103 986.039 m
498.887 986.111 498.671 986.543 498.455 986.759 c
498.167 987.047 497.951 987.263 497.519 987.479 c
497.303 987.839 495.791 987.695 494.999 987.263 c
494.207 987.047 493.487 986.759 492.767 986.327 c
492.263 985.823 491.471 985.391 490.967 984.887 c
490.247 984.311 489.959 982.727 490.463 981.791 c
490.679 981.287 491.183 980.639 491.687 980.135 c
492.335 979.487 492.839 979.055 493.487 978.767 c
494.423 978.263 495.935 978.623 496.583 979.415 c
497.015 979.919 497.375 980.639 497.807 981.287 c
498.239 981.935 498.527 982.727 498.887 983.375 c
499.175 984.239 499.391 985.607 499.103 986.039 c
f
0.000 0.000 0.000 1.000 k
166.319 696.671 m
166.536 696.815 166.751 697.247 166.967 697.391 c
167.256 697.751 167.471 697.967 167.903 698.183 c
168.119 698.471 169.631 698.399 170.423 697.967 c
171.215 697.751 171.935 697.391 172.655 697.031 c
173.159 696.455 173.951 696.024 174.455 695.519 c
175.175 695.015 175.463 693.431 174.959 692.495 c
174.743 691.919 174.239 691.343 173.735 690.767 c
173.087 690.191 172.583 689.759 171.935 689.399 c
171.000 688.895 169.487 689.327 168.839 690.048 c
168.407 690.551 168.047 691.343 167.615 691.919 c
167.183 692.567 166.895 693.431 166.536 694.079 c
166.247 694.871 166.031 696.239 166.319 696.671 c
f
0.000 0.000 0.000 1.000 k
519.911 1009.943 m
520.127 1009.727 520.415 1009.367 520.631 1009.079 c
520.847 1008.863 521.135 1008.575 521.351 1008.359 c
521.783 1008.143 523.151 1008.215 524.087 1008.575 c
524.735 1009.007 525.599 1009.223 526.175 1009.727 c
526.823 1009.943 527.615 1010.447 528.120 1010.951 c
528.767 1011.527 529.127 1013.111 528.623 1014.047 c
528.408 1014.695 527.903 1015.271 527.399 1015.847 c
526.823 1016.351 526.175 1016.855 525.599 1017.071 c
524.663 1017.647 523.079 1017.215 522.503 1016.567 c
522.072 1016.063 521.567 1015.271 521.279 1014.695 c
520.847 1014.047 520.415 1013.327 520.199 1012.535 c
519.767 1011.743 519.695 1010.231 519.911 1009.943 c
f
0.000 0.000 0.000 1.000 k
145.512 720.575 m
145.295 720.359 145.007 720.071 144.792 719.783 c
144.575 719.567 144.287 719.207 144.072 718.991 c
143.639 718.775 142.271 718.919 141.335 719.207 c
140.687 719.639 139.823 719.855 139.247 720.359 c
138.599 720.575 137.807 721.151 137.304 721.655 c
136.655 722.159 136.295 723.743 136.799 724.679 c
137.015 725.327 137.519 725.975 138.024 726.479 c
138.599 726.983 139.247 727.559 139.823 727.775 c
140.759 728.279 142.343 727.847 142.919 727.199 c
143.351 726.695 143.855 725.975 144.143 725.327 c
144.575 724.679 145.007 723.959 145.223 723.239 c
145.655 722.375 145.727 720.935 145.512 720.575 c
f
0.000 0.000 0.000 1.000 k
502.271 1004.183 m
502.919 1004.183 503.423 1004.687 503.423 1005.263 c
503.423 1005.911 502.919 1006.415 502.271 1006.415 c
501.695 1006.415 501.191 1005.911 501.191 1005.263 c
501.191 1004.687 501.695 1004.183 502.271 1004.183 c
f
0.000 0.000 0.000 1.000 k
163.151 714.815 m
162.503 714.815 162.000 715.319 162.000 715.967 c
162.000 716.543 162.503 717.048 163.151 717.048 c
163.727 717.048 164.231 716.543 164.231 715.967 c
164.231 715.319 163.727 714.815 163.151 714.815 c
f
0.000 0.000 0.000 1.000 k
516.456 989.279 m
517.031 989.279 517.535 989.783 517.535 990.431 c
517.535 991.007 517.031 991.511 516.456 991.511 c
515.807 991.511 515.303 991.007 515.303 990.431 c
515.303 989.783 515.807 989.279 516.456 989.279 c
f
0.000 0.000 0.000 1.000 k
148.967 699.983 m
148.391 699.983 147.887 700.487 147.887 701.063 c
147.887 701.711 148.391 702.215 148.967 702.215 c
149.615 702.215 150.119 701.711 150.119 701.063 c
150.119 700.487 149.615 699.983 148.967 699.983 c
f
0.000 0.000 0.000 1.000 k
510.047 1007.351 m
510.479 1006.847 511.127 1006.775 511.631 1007.135 c
512.135 1007.567 512.207 1008.215 511.847 1008.719 c
511.415 1009.223 510.767 1009.295 510.263 1008.935 c
509.759 1008.503 509.687 1007.855 510.047 1007.351 c
f
0.000 0.000 0.000 1.000 k
155.375 718.055 m
154.943 717.551 154.295 717.479 153.792 717.839 c
153.287 718.199 153.215 718.919 153.575 719.423 c
154.007 719.855 154.655 720.000 155.159 719.567 c
155.663 719.207 155.735 718.487 155.375 718.055 c
f
0.000 0.000 0.000 1.000 k
507.023 986.975 m
507.383 986.471 508.103 986.399 508.535 986.759 c
509.039 987.119 509.111 987.839 508.751 988.343 c
508.391 988.775 507.671 988.919 507.167 988.487 c
506.735 988.127 506.591 987.407 507.023 986.975 c
f
0.000 0.000 0.000 1.000 k
158.399 697.607 m
158.039 697.103 157.319 697.031 156.887 697.391 c
156.383 697.823 156.311 698.471 156.671 698.975 c
157.031 699.479 157.751 699.551 158.256 699.191 c
158.687 698.759 158.831 698.111 158.399 697.607 c
f
0.000 0.000 0.000 1.000 k
517.751 1002.671 m
517.535 1002.095 517.895 1001.447 518.471 1001.303 c
519.048 1001.087 519.695 1001.375 519.839 1001.951 c
520.055 1002.527 519.767 1003.175 519.192 1003.391 c
518.615 1003.607 517.967 1003.247 517.751 1002.671 c
f
0.000 0.000 0.000 1.000 k
147.671 713.375 m
147.887 712.799 147.527 712.151 146.951 711.935 c
146.375 711.719 145.727 712.007 145.584 712.655 c
145.367 713.231 145.655 713.807 146.231 714.024 c
146.807 714.239 147.455 713.951 147.671 713.375 c
f
0.000 0.000 0.000 1.000 k
499.031 994.031 m
498.815 993.455 499.103 992.807 499.679 992.591 c
500.255 992.375 500.903 992.663 501.119 993.311 c
501.335 993.887 500.975 994.463 500.399 994.679 c
499.823 994.895 499.247 994.607 499.031 994.031 c
f
0.000 0.000 0.000 1.000 k
166.391 704.663 m
166.607 704.087 166.319 703.439 165.743 703.295 c
165.167 703.079 164.519 703.367 164.303 703.943 c
164.087 704.519 164.447 705.167 165.024 705.383 c
165.599 705.599 166.175 705.239 166.391 704.663 c
f
0.000 0.000 0.000 0.000 k
509.399 992.663 m
512.207 992.663 514.511 994.895 514.511 997.703 c
514.511 1000.583 512.207 1002.815 509.399 1002.815 c
506.591 1002.815 504.287 1000.583 504.287 997.703 c
504.287 994.895 506.591 992.663 509.399 992.663 c
f
0.000 0.000 0.000 0.000 k
156.024 703.295 m
153.215 703.295 150.911 705.599 150.911 708.407 c
150.911 711.215 153.215 713.519 156.024 713.519 c
158.831 713.519 161.135 711.215 161.135 708.407 c
161.135 705.599 158.831 703.295 156.024 703.295 c
f
0.000 0.000 0.000 1.000 k
509.327 993.887 m
511.487 993.887 513.216 995.615 513.216 997.775 c
513.216 999.935 511.487 1001.663 509.327 1001.663 c
507.167 1001.663 505.439 999.935 505.439 997.775 c
505.439 995.615 507.167 993.887 509.327 993.887 c
f
0.000 0.000 0.000 1.000 k
156.095 704.591 m
153.935 704.591 152.207 706.319 152.207 708.479 c
152.207 710.639 153.935 712.367 156.095 712.367 c
158.256 712.367 159.983 710.639 159.983 708.479 c
159.983 706.319 158.256 704.591 156.095 704.591 c
f
0.000 0.000 0.000 1.000 K
0 j
0 J
0.287 w
[]0 d
0.000 0.000 0.000 0.498 k
661.823 1087.919 m
673.559 1087.919 L
673.991 1037.519 L
661.823 1037.519 L
661.823 1087.919 L
b
0.000 0.000 0.000 1.000 K
0 j
0 J
0.287 w
[]0 d
0.000 0.000 0.000 0.498 k
3.599 798.623 m
-8.135 798.623 L
-8.567 748.151 L
3.599 748.151 L
3.599 798.623 L
b
0.000 0.000 0.000 1.000 K
0 j
0 J
0.287 w
[]0 d
0.000 0.000 0.000 0.200 k
664.703 1071.288 m
670.823 1071.288 l
671.615 1071.288 672.335 1072.079 672.335 1073.159 c
672.335 1084.463 l
672.335 1085.543 671.615 1086.336 670.823 1086.336 c
664.703 1086.336 l
663.839 1086.336 663.191 1085.543 663.191 1084.463 c
663.191 1073.159 l
663.191 1072.079 663.839 1071.288 664.703 1071.288 c
b
0.000 0.000 0.000 1.000 K
0 j
0 J
0.287 w
[]0 d
0.000 0.000 0.000 0.200 k
0.719 781.991 m
-5.399 781.991 l
-6.191 781.991 -6.911 782.783 -6.911 783.863 c
-6.911 795.167 l
-6.911 796.175 -6.191 796.967 -5.399 796.967 c
0.719 796.967 l
1.583 796.967 2.231 796.175 2.231 795.167 c
2.231 783.863 l
2.231 782.783 1.583 781.991 0.719 781.991 c
b
0.000 0.000 0.000 1.000 K
0 j
0 J
0.287 w
[]0 d
0.000 0.000 0.000 0.200 k
664.703 1055.591 m
670.967 1055.591 l
671.831 1055.591 672.479 1056.384 672.479 1057.463 c
672.479 1068.768 l
672.479 1069.775 671.831 1070.567 670.967 1070.567 c
664.703 1070.567 l
663.839 1070.567 663.191 1069.775 663.191 1068.768 c
663.191 1057.463 l
663.191 1056.384 663.839 1055.591 664.703 1055.591 c
b
0.000 0.000 0.000 1.000 K
0 j
0 J
0.287 w
[]0 d
0.000 0.000 0.000 0.200 k
0.719 766.223 m
-5.543 766.223 l
-6.407 766.223 -7.055 767.015 -7.055 768.095 c
-7.055 779.399 l
-7.055 780.479 -6.407 781.271 -5.543 781.271 c
0.719 781.271 l
1.583 781.271 2.231 780.479 2.231 779.399 c
2.231 768.095 l
2.231 767.015 1.583 766.223 0.719 766.223 c
b
0.000 0.000 0.000 1.000 K
0 j
0 J
0.287 w
[]0 d
0.000 0.000 0.000 0.200 k
664.703 1039.175 m
670.967 1039.175 l
671.831 1039.175 672.479 1039.967 672.479 1041.048 c
672.479 1052.351 l
672.479 1053.359 671.831 1054.151 670.967 1054.151 c
664.703 1054.151 l
663.839 1054.151 663.191 1053.359 663.191 1052.351 c
663.191 1041.048 l
663.191 1039.967 663.839 1039.175 664.703 1039.175 c
b
0.000 0.000 0.000 1.000 K
0 j
0 J
0.287 w
[]0 d
0.000 0.000 0.000 0.200 k
0.719 749.807 m
-5.543 749.807 l
-6.407 749.807 -7.055 750.599 -7.055 751.679 c
-7.055 762.983 l
-7.055 764.063 -6.407 764.855 -5.543 764.855 c
0.719 764.855 l
1.583 764.855 2.231 764.063 2.231 762.983 c
2.231 751.679 l
2.231 750.599 1.583 749.807 0.719 749.807 c
b
u
u
0.000 0.000 0.000 1.000 K
0 j
0 J
0.287 w
[]0 d
20.591 1022.111 m
38.663 1015.559 L
S
U
U
u
u
0.000 0.000 0.000 1.000 K
0 j
0 J
0.287 w
[]0 d
644.831 732.815 m
626.759 726.263 L
S
U
U
0.000 0.000 0.000 1.000 K
0 j
0 J
0.287 w
[]0 d
298.367 1070.279 m
315.143 1070.279 l
316.439 1070.279 317.447 1069.199 317.447 1067.903 c
317.447 1061.279 l
317.447 1059.983 316.439 1058.903 315.143 1058.903 c
298.367 1058.903 l
297.072 1058.903 296.063 1059.983 296.063 1061.279 c
296.063 1067.903 l
296.063 1069.199 297.072 1070.279 298.367 1070.279 c
s
0.000 0.000 0.000 1.000 K
0 j
0 J
0.287 w
[]0 d
366.983 780.911 m
350.279 780.911 l
348.983 780.911 347.903 779.903 347.903 778.607 c
347.903 771.911 l
347.903 770.615 348.983 769.607 350.279 769.607 c
366.983 769.607 l
368.279 769.607 369.359 770.615 369.359 771.911 c
369.359 778.607 l
369.359 779.903 368.279 780.911 366.983 780.911 c
s
0.000 0.000 0.000 1.000 K
0 j
0 J
0.287 w
[]0 d
0.000 0.000 0.000 0.498 k
347.111 1166.399 m
384.551 1166.399 l
386.567 1166.399 388.223 1164.815 388.295 1162.727 c
390.455 1098.503 l
390.527 1096.415 388.943 1094.831 386.927 1094.831 c
349.487 1094.831 l
347.399 1094.831 345.743 1096.415 345.671 1098.503 c
343.512 1162.727 l
343.439 1164.815 345.024 1166.399 347.111 1166.399 c
b
0.000 0.000 0.000 1.000 K
0 j
0 J
0.287 w
[]0 d
0.000 0.000 0.000 0.498 k
318.311 877.103 m
280.871 877.103 l
278.783 877.103 277.127 875.447 277.055 873.431 c
274.895 809.135 l
274.895 807.119 276.407 805.463 278.495 805.463 c
315.935 805.463 l
317.951 805.463 319.679 807.119 319.679 809.135 c
321.839 873.431 l
321.911 875.447 320.327 877.103 318.311 877.103 c
b
0.000 0.000 0.000 1.000 K
0 j
0 J
0.287 w
[]0 d
0.000 0.000 0.000 0.200 k
384.479 1165.031 m
385.919 1164.959 386.711 1164.023 386.927 1162.655 C
389.087 1098.503 L
388.871 1097.135 388.295 1096.271 386.855 1096.199 C
349.559 1096.199 L
348.191 1096.271 347.183 1097.207 347.111 1098.576 C
344.951 1162.727 L
345.024 1164.167 345.743 1164.959 347.183 1165.031 C
384.479 1165.031 L
b
0.000 0.000 0.000 1.000 K
0 j
0 J
0.287 w
[]0 d
0.000 0.000 0.000 0.200 k
280.943 875.663 m
279.503 875.591 278.639 874.727 278.495 873.287 C
276.335 809.207 L
276.479 807.839 277.127 806.975 278.567 806.903 C
315.863 806.903 L
317.159 806.975 318.239 807.911 318.311 809.279 C
320.471 873.431 L
320.399 874.871 319.679 875.591 318.239 875.663 C
280.943 875.663 L
b
0.000 0.000 0.000 1.000 K
0 j
0 J
0.863 w
[]0 d
0.000 0.000 0.000 0.000 k
830.663 1034.063 m
719.495 1034.063 L
719.495 1098.215 L
727.487 1124.495 738.000 1146.599 746.279 1166.543 C
746.927 1167.480 749.231 1168.559 750.959 1168.559 c
768.383 1168.631 798.551 1171.583 830.663 1171.799 C
862.847 1171.583 893.015 1168.631 910.367 1168.559 c
912.167 1168.559 914.471 1167.480 915.047 1166.543 C
922.391 1146.599 933.407 1127.735 941.831 1101.384 C
941.831 1034.063 L
830.663 1034.063 L
b
0.000 0.000 0.000 1.000 K
0 j
0 J
0.287 w
[]0 d
0.000 0.000 0.000 1.000 k
724.751 658.871 m
742.679 658.871 l
745.127 658.871 746.855 661.463 746.855 664.847 c
746.855 722.231 L
720.575 722.231 L
720.575 664.847 l
720.575 661.463 722.375 658.871 724.751 658.871 c
b
0.000 0.000 0.000 1.000 K
0 j
0 J
0.287 w
[]0 d
0.000 0.000 0.000 1.000 k
936.575 658.151 m
918.719 658.151 l
916.271 658.151 914.471 660.743 914.471 664.127 c
914.471 722.159 L
940.823 722.159 L
940.823 664.127 l
940.823 660.743 939.023 658.151 936.575 658.151 c
b
0.000 0.000 0.000 1.000 K
0 j
0 J
0.287 w
[]0 d
0.000 0.000 0.000 0.498 k
746.927 722.231 m
915.047 722.231 L
915.047 712.511 L
910.223 710.423 L
906.623 701.567 L
898.703 701.567 L
898.703 711.575 L
848.447 711.647 L
846.215 708.623 L
846.575 699.551 818.783 697.463 818.495 707.471 C
812.951 712.007 L
796.535 711.575 L
764.855 711.575 L
764.495 701.567 L
758.735 701.567 L
755.639 710.423 L
746.927 712.511 L
746.927 722.231 L
b
0.000 0.000 0.000 1.000 K
0 j
0 J
0.863 w
[]0 d
0.000 0.000 0.000 0.000 k
830.663 722.159 m
727.199 722.159 l
724.031 722.159 719.495 724.679 719.495 727.847 c
719.495 798.263 L
723.887 824.615 734.399 855.791 746.279 875.663 C
746.927 876.671 749.231 877.679 750.959 877.679 c
768.383 877.751 798.551 880.703 830.663 880.919 C
862.847 880.703 893.015 877.751 910.367 877.679 c
912.167 877.679 914.471 876.671 915.047 875.663 C
926.927 855.791 937.439 824.615 941.831 798.263 C
941.831 728.567 l
941.831 725.183 937.295 722.159 933.911 722.159 c
830.663 722.159 L
b
0.000 0.000 0.000 1.000 K
0 j
0 J
0.287 w
[]0 d
0.000 0.000 0.000 0.498 k
702.287 825.191 m
717.695 825.335 L
718.991 825.191 719.207 824.687 719.423 823.607 C
721.727 811.007 L
720.287 807.263 L
715.031 806.039 712.511 806.975 712.295 811.295 C
712.295 808.559 L
700.847 808.631 L
699.191 808.559 698.183 809.063 698.111 810.215 C
697.103 817.919 698.831 820.511 700.919 824.327 C
700.919 824.327 701.711 824.975 702.287 825.191 C
b
0.000 0.000 0.000 1.000 K
0 j
0 J
0.287 w
[]0 d
0.000 0.000 0.000 0.498 k
959.111 825.191 m
943.703 825.335 L
942.335 825.191 942.119 824.687 941.903 823.607 C
939.599 811.007 L
941.039 807.263 L
946.295 806.039 948.887 806.975 949.103 811.295 C
949.103 808.559 L
960.551 808.631 L
962.207 808.559 963.143 809.063 963.287 810.215 C
964.295 817.919 962.495 820.511 960.407 824.327 C
960.407 824.327 959.615 824.975 959.111 825.191 C
b
u
u
0.000 0.000 0.000 1.000 K
0 j
0 J
0.287 w
[]0 d
731.735 801.935 m
927.431 801.935 L
S
U
U
0.000 0.000 0.000 1.000 K
0 j
0 J
0.287 w
[]0 d
0.000 0.000 0.000 0.498 k
820.223 798.983 m
839.807 798.983 L
839.807 792.071 L
820.223 792.071 L
820.223 798.983 L
b
0.000 0.000 0.000 1.000 K
0 j
0 J
0.287 w
[]0 d
0.000 0.000 0.000 0.298 k
820.223 792.215 m
839.807 792.215 L
839.807 788.255 833.903 788.255 830.375 788.255 C
826.199 788.255 820.223 788.255 820.223 792.215 C
b
0.000 0.000 0.000 1.000 K
0 j
0 J
0.287 w
[]0 d
780.407 738.575 m
880.415 738.575 L
880.199 729.935 877.247 721.439 872.711 721.439 C
788.111 721.439 L
781.487 721.439 780.407 729.935 780.407 738.575 C
s
u
u
0.000 0.000 0.000 1.000 K
0 j
0 J
0.287 w
[]0 d
830.375 721.871 m
830.375 738.791 L
S
U
U
u
u
0.000 0.000 0.000 1.000 K
0 j
0 J
0.287 w
[]0 d
830.375 721.871 m
830.375 738.791 L
S
U
U
u
u
0.000 0.000 0.000 1.000 K
0 j
0 J
0.287 w
[]0 d
722.447 812.951 m
940.031 812.951 L
S
U
U
u
u
0.000 0.000 0.000 1.000 K
0 j
0 J
0.287 w
[]0 d
927.503 812.951 m
927.503 746.135 L
732.383 746.135 L
732.383 812.951 L
S
U
U
0.000 0.000 0.000 1.000 K
0 j
0 J
0.287 w
[]0 d
0.000 0.000 0.000 0.498 k
830.591 814.967 m
734.759 814.967 L
732.311 821.807 744.119 868.031 751.391 873.431 C
774.503 875.303 802.799 876.455 830.591 876.455 C
858.455 876.455 886.679 875.303 909.863 873.431 C
917.063 868.031 928.943 821.807 926.495 814.967 C
830.591 814.967 L
b
0.000 0.000 0.000 1.000 K
0 j
0 J
0.287 w
[]0 d
0.000 0.000 0.000 0.498 k
830.591 1106.135 m
726.767 1106.135 L
729.000 1112.975 749.519 1159.127 751.391 1164.599 C
774.503 1166.471 802.799 1167.624 830.591 1167.624 C
858.455 1167.624 886.679 1166.471 909.863 1164.599 C
914.039 1157.615 933.119 1111.607 933.407 1106.135 C
830.591 1106.135 L
b
0.000 0.000 0.000 1.000 K
0 j
0 J
0.287 w
[]0 d
0.000 0.000 0.000 0.200 k
755.999 870.191 m
767.951 870.911 779.975 871.775 791.927 872.135 C
821.807 873.359 851.831 872.927 881.783 871.631 C
890.495 871.127 899.423 870.623 908.207 869.903 C
908.423 869.687 L
913.319 861.983 915.767 852.479 918.359 843.839 C
920.375 835.703 922.463 827.423 923.183 819.071 C
923.183 818.567 L
738.071 818.567 L
738.071 823.607 739.511 829.295 740.519 834.263 C
743.183 845.567 746.279 857.519 751.607 867.815 C
753.263 870.479 752.615 869.903 755.999 870.191 C
b
0.000 0.000 0.000 1.000 K
0 j
0 J
0.287 w
[]0 d
0.000 0.000 0.000 0.200 k
769.679 1164.455 m
807.047 1166.615 844.559 1166.615 881.855 1164.959 C
890.927 1164.455 899.999 1163.951 908.999 1163.231 C
914.543 1152.432 919.079 1140.695 923.759 1129.391 C
926.351 1122.839 929.015 1116.000 931.247 1109.303 C
931.679 1107.576 L
728.783 1107.576 L
735.119 1123.703 742.463 1139.471 749.087 1155.455 C
750.239 1158.048 751.319 1160.639 752.327 1163.231 C
758.087 1163.735 763.919 1164.167 769.679 1164.455 C
b
0.000 0.000 0.000 1.000 K
0 j
0 J
0.287 w
[]0 d
0.000 0.000 0.000 0.498 k
701.279 1118.879 m
716.687 1119.023 L
718.055 1118.879 718.271 1118.375 718.487 1117.223 C
720.791 1104.119 L
719.351 1100.303 L
714.095 1099.007 711.503 1099.943 711.287 1104.480 C
711.287 1101.599 L
699.839 1101.743 L
698.183 1101.599 697.247 1102.175 697.103 1103.399 C
696.096 1111.319 697.895 1114.055 699.983 1118.015 C
699.983 1118.015 700.775 1118.663 701.279 1118.879 C
b
0.000 0.000 0.000 1.000 K
0 j
0 J
0.287 w
[]0 d
0.000 0.000 0.000 0.498 k
959.615 1118.879 m
944.207 1119.023 L
942.911 1118.879 942.695 1118.375 942.479 1117.223 C
940.175 1104.119 L
941.615 1100.303 L
946.871 1099.007 949.391 1099.943 949.607 1104.480 C
949.607 1101.599 L
961.055 1101.743 L
962.711 1101.599 963.719 1102.175 963.791 1103.399 C
964.799 1111.319 963.071 1114.055 960.983 1118.015 C
960.983 1118.015 960.191 1118.663 959.615 1118.879 C
b
0.000 0.000 0.000 1.000 K
0 j
0 J
0.287 w
[]0 d
0.000 0.000 0.000 0.000 k
719.783 1063.583 m
941.111 1063.655 L
943.055 1063.511 942.551 1042.127 942.119 1032.912 c
941.903 1028.303 940.751 1023.983 939.095 1020.239 c
937.655 1016.783 931.247 1010.951 926.927 1010.951 C
922.103 1010.951 L
914.543 1002.455 L
914.831 992.159 L
747.215 992.231 L
747.287 1002.815 L
739.511 1010.951 L
734.687 1010.951 L
722.447 1016.639 719.063 1027.727 718.703 1040.111 c
718.487 1047.743 717.767 1063.583 719.783 1063.583 C
b
0.000 0.000 0.000 1.000 K
0 j
0 J
0.287 w
[]0 d
0.000 0.000 0.000 0.498 k
922.103 1010.951 m
914.543 1002.455 L
914.831 992.159 L
747.215 992.231 L
747.287 1002.815 L
739.511 1010.951 L
922.103 1010.951 L
b
0.000 0.000 0.000 1.000 K
0 j
0 J
0.287 w
[]0 d
0.000 0.000 0.000 0.000 k
922.103 1010.951 m
914.543 1002.455 L
747.287 1002.815 L
739.511 1010.951 L
922.103 1010.951 L
b
0.000 0.000 0.000 1.000 K
0 j
0 J
0.287 w
[]0 d
0.000 0.000 0.000 0.498 k
719.783 1063.583 m
941.111 1063.655 L
943.055 1063.511 942.551 1042.055 942.119 1032.912 c
941.975 1028.303 940.679 1023.983 939.095 1020.239 c
937.655 1016.855 931.247 1010.951 926.927 1010.951 C
922.103 1010.951 L
739.511 1010.951 L
734.687 1010.951 L
722.447 1016.639 718.991 1027.727 718.703 1040.111 c
718.487 1047.672 717.767 1063.583 719.783 1063.583 C
b
0.000 0.000 0.000 1.000 K
0 j
0 J
0.287 w
[]0 d
0.000 0.000 0.000 0.498 k
719.423 1061.207 m
940.967 1061.207 L
940.895 1035.720 L
719.423 1035.720 L
719.423 1061.207 L
b
0.000 0.000 0.000 1.000 K
0 j
0 J
0.287 w
[]0 d
0.000 0.000 0.000 0.098 k
736.343 1059.192 m
758.807 1059.192 l
760.247 1059.192 761.471 1058.111 761.471 1056.672 c
761.471 1040.975 l
761.471 1039.535 760.247 1038.384 758.807 1038.384 c
736.343 1038.384 l
734.903 1038.384 733.895 1039.535 733.895 1040.975 c
733.895 1056.672 l
733.895 1058.111 734.903 1059.192 736.343 1059.192 c
b
0.000 0.000 0.000 1.000 K
0 j
0 J
0.287 w
[]0 d
0.000 0.000 0.000 0.000 k
759.311 1057.679 m
759.671 1057.463 759.887 1057.319 760.031 1056.816 C
760.031 1041.048 L
759.959 1040.327 759.455 1039.823 758.807 1039.751 C
736.415 1039.751 L
735.695 1039.823 735.335 1040.327 735.263 1041.048 C
735.263 1056.672 L
735.335 1057.391 735.695 1057.679 736.415 1057.751 C
758.807 1057.751 L
759.095 1057.751 L
759.311 1057.679 L
b
0.000 0.000 0.000 1.000 K
0 j
0 J
0.287 w
[]0 d
0.000 0.000 0.000 0.298 k
924.911 1059.192 m
902.447 1059.192 l
901.007 1059.192 899.783 1058.111 899.783 1056.672 c
899.783 1040.975 l
899.783 1039.535 901.007 1038.384 902.447 1038.384 c
924.911 1038.384 l
926.351 1038.384 927.359 1039.535 927.359 1040.975 c
927.359 1056.672 l
927.359 1058.111 926.351 1059.192 924.911 1059.192 c
b
0.000 0.000 0.000 1.000 K
0 j
0 J
0.287 w
[]0 d
0.000 0.000 0.000 0.000 k
901.583 1057.463 m
901.439 1057.247 L
901.295 1057.031 L
901.223 1056.816 L
901.223 1041.048 L
901.295 1040.327 901.799 1039.823 902.447 1039.751 C
925.055 1039.751 L
925.631 1039.967 925.919 1040.399 925.991 1041.048 C
925.991 1056.672 L
925.919 1057.391 925.631 1057.679 924.839 1057.751 C
902.447 1057.751 L
902.087 1057.751 901.871 1057.607 901.583 1057.463 C
b
0.000 0.000 0.000 1.000 K
0 j
0 J
0.287 w
[]0 d
0.000 0.000 0.000 0.098 k
721.079 1038.672 m
730.511 1038.672 L
730.511 1058.615 L
730.511 1059.480 730.151 1059.839 729.719 1059.839 C
721.943 1059.839 L
721.367 1059.839 721.079 1059.480 721.079 1058.615 C
721.079 1038.672 L
b
0.000 0.000 0.000 1.000 K
0 j
0 J
0.287 w
[]0 d
0.000 0.000 0.000 0.098 k
940.175 1038.672 m
930.743 1038.672 L
930.743 1058.615 L
930.743 1059.480 931.103 1059.839 931.535 1059.839 C
939.311 1059.839 L
939.887 1059.839 940.175 1059.480 940.175 1058.615 C
940.175 1038.672 L
b
u
u
0.000 0.000 0.000 1.000 K
0 j
0 J
0.287 w
[]0 d
730.439 1064.735 m
730.367 1079.207 L
726.119 1100.231 L
S
U
U
u
u
0.000 0.000 0.000 1.000 K
0 j
0 J
0.287 w
[]0 d
930.455 1064.735 m
930.599 1079.207 L
934.775 1100.231 L
S
U
U
u
u
0.000 0.000 0.000 1.000 K
0 j
0 J
0.287 w
[]0 d
721.367 1101.384 m
793.727 1102.535 869.255 1102.535 941.687 1101.384 C
S
U
U
u
u
0.000 0.000 0.000 1.000 K
0 j
0 J
0.287 w
[]0 d
730.583 1079.207 m
803.015 1080.432 862.631 1081.295 930.527 1079.135 C
S
U
U
0.000 0.000 0.000 1.000 K
0 j
0 J
0.287 w
[]0 d
0.000 0.000 0.000 0.000 k
834.335 1073.951 m
825.335 1073.951 L
828.575 1078.343 832.751 1076.687 834.335 1073.951 C
b
0.000 0.000 0.000 1.000 K
0 j
0 J
0.287 w
[]0 d
0.000 0.000 0.000 0.000 k
825.407 1068.983 m
834.191 1068.983 L
833.039 1065.959 827.207 1065.240 825.407 1068.983 C
b
0.000 0.000 0.000 1.000 K
0 j
0 J
0.287 w
[]0 d
0.000 0.000 0.000 0.000 k
823.175 1069.775 m
836.423 1069.775 l
836.783 1069.775 837.071 1070.063 837.071 1070.423 c
837.071 1072.799 l
837.071 1073.159 836.783 1073.375 836.423 1073.375 c
823.175 1073.375 l
822.815 1073.375 822.527 1073.159 822.527 1072.799 c
822.527 1070.423 l
822.527 1070.063 822.815 1069.775 823.175 1069.775 c
b
0.000 0.000 0.000 1.000 K
0 j
0 J
0.287 w
[]0 d
0.000 0.000 0.000 1.000 k
825.983 1070.855 m
825.983 1072.871 L
826.631 1072.871 L
826.631 1070.855 L
825.983 1070.855 L
b
0.000 0.000 0.000 1.000 K
0 j
0 J
0.287 w
[]0 d
0.000 0.000 0.000 1.000 k
832.031 1071.288 m
832.967 1071.288 L
833.183 1070.855 L
833.759 1070.855 L
832.967 1072.871 L
832.031 1072.871 L
831.167 1070.855 L
831.887 1070.855 L
832.031 1071.288 L
b
0.000 0.000 0.000 1.000 K
0 j
0 J
0.287 w
[]0 d
0.000 0.000 0.000 1.000 k
830.663 1072.223 m
829.871 1072.223 L
829.871 1072.439 L
831.023 1072.439 L
831.023 1072.871 L
829.871 1072.871 L
828.935 1072.871 829.079 1071.576 829.799 1071.576 C
830.663 1071.576 L
830.663 1071.288 L
829.367 1071.288 L
829.367 1070.855 L
830.663 1070.855 L
831.599 1070.855 831.455 1072.223 830.663 1072.223 C
b
0.000 0.000 0.000 1.000 K
0 j
0 J
0.287 w
[]0 d
0.000 0.000 0.000 1.000 k
828.287 1072.223 m
827.567 1072.223 L
827.567 1072.439 L
828.719 1072.439 L
828.719 1072.871 L
827.567 1072.871 L
826.631 1072.871 826.631 1071.576 827.495 1071.576 C
828.287 1071.576 L
828.287 1071.288 L
827.063 1071.288 L
827.063 1070.855 L
828.287 1070.855 L
829.295 1070.855 829.151 1072.223 828.287 1072.223 C
b
0.000 0.000 0.000 1.000 K
0 j
0 J
0.287 w
[]0 d
0.000 0.000 0.000 1.000 k
834.983 1072.871 m
833.975 1072.871 L
833.903 1070.783 L
834.623 1070.783 L
834.623 1072.367 L
835.271 1070.783 L
836.351 1070.783 L
836.207 1072.871 L
835.703 1072.871 L
835.703 1071.359 L
834.983 1072.871 L
b
0.000 0.000 0.000 1.000 K
0 j
0 J
0.287 w
[]0 d
0.000 0.000 0.000 1.000 k
824.327 1072.871 m
823.391 1072.871 L
823.391 1070.855 L
823.967 1070.855 L
823.967 1072.367 L
824.615 1070.855 L
825.551 1070.855 L
825.551 1072.871 L
824.975 1072.871 L
824.975 1071.503 L
824.327 1072.871 L
b
u
u
0.000 0.000 0.000 1.000 K
0 j
0 J
0.287 w
[]0 d
744.983 1011.167 m
918.575 1011.167 L
S
U
U
u
u
0.000 0.000 0.000 1.000 K
0 j
0 J
0.287 w
[]0 d
731.735 1035.720 m
731.447 1027.511 732.455 1017.647 741.455 1011.311 C
S
U
U
u
u
0.000 0.000 0.000 1.000 K
0 j
0 J
0.287 w
[]0 d
929.519 1035.720 m
929.807 1027.007 928.007 1016.063 921.167 1011.311 C
S
U
U
0.000 0.000 0.000 1.000 K
0 j
0 J
0.287 w
[]0 d
0.000 0.000 0.000 0.498 k
896.471 1059.263 m
896.471 1038.384 L
764.351 1038.384 L
764.351 1059.263 L
896.471 1059.263 L
b
u
u
0.000 0.000 0.000 1.000 K
0 j
0 J
0.287 w
[]0 d
781.055 1101.959 m
782.855 1085.111 L
787.031 1099.655 L
817.991 1100.159 848.303 1099.655 879.911 1099.655 C
884.015 1085.111 L
887.183 1101.959 L
S
U
U
0.000 0.000 0.000 1.000 K
0 j
0 J
0.287 w
[]0 d
0.000 0.000 0.000 0.498 k
719.783 800.135 m
731.519 800.135 L
732.024 749.735 L
719.783 749.735 L
719.783 800.135 L
b
0.000 0.000 0.000 1.000 K
0 j
0 J
0.287 w
[]0 d
0.000 0.000 0.000 0.498 k
941.543 800.135 m
929.807 800.135 L
929.375 749.735 L
941.543 749.735 L
941.543 800.135 L
b
0.000 0.000 0.000 1.000 K
0 j
0 J
0.287 w
[]0 d
0.000 0.000 0.000 0.298 k
722.735 783.503 m
728.783 783.503 l
729.647 783.503 730.295 784.295 730.295 785.375 c
730.295 796.679 l
730.295 797.759 729.647 798.551 728.783 798.551 c
722.735 798.551 l
721.871 798.551 721.223 797.759 721.223 796.679 c
721.223 785.375 l
721.223 784.295 721.871 783.503 722.735 783.503 c
b
0.000 0.000 0.000 1.000 K
0 j
0 J
0.287 w
[]0 d
0.000 0.000 0.000 0.298 k
938.663 783.503 m
932.543 783.503 l
931.751 783.503 931.031 784.295 931.031 785.375 c
931.031 796.679 l
931.031 797.759 931.751 798.551 932.543 798.551 c
938.663 798.551 l
939.527 798.551 940.175 797.759 940.175 796.679 c
940.175 785.375 l
940.175 784.295 939.527 783.503 938.663 783.503 c
b
0.000 0.000 0.000 1.000 K
0 j
0 J
0.287 w
[]0 d
0.000 0.000 0.000 0.298 k
722.735 767.807 m
729.000 767.807 l
729.791 767.807 730.511 768.599 730.511 769.679 c
730.511 780.983 l
730.511 781.991 729.791 782.783 729.000 782.783 c
722.735 782.783 l
721.871 782.783 721.223 781.991 721.223 780.983 c
721.223 769.679 l
721.223 768.599 721.871 767.807 722.735 767.807 c
b
0.000 0.000 0.000 1.000 K
0 j
0 J
0.287 w
[]0 d
0.000 0.000 0.000 0.298 k
938.663 767.807 m
932.399 767.807 l
931.535 767.807 930.887 768.599 930.887 769.679 c
930.887 780.983 l
930.887 781.991 931.535 782.783 932.399 782.783 c
938.663 782.783 l
939.527 782.783 940.175 781.991 940.175 780.983 c
940.175 769.679 l
940.175 768.599 939.527 767.807 938.663 767.807 c
b
0.000 0.000 0.000 1.000 K
0 j
0 J
0.287 w
[]0 d
0.000 0.000 0.000 0.298 k
722.735 751.391 m
729.000 751.391 l
729.791 751.391 730.511 752.183 730.511 753.263 c
730.511 764.567 l
730.511 765.575 729.791 766.367 729.000 766.367 c
722.735 766.367 l
721.871 766.367 721.223 765.575 721.223 764.567 c
721.223 753.263 l
721.223 752.183 721.871 751.391 722.735 751.391 c
b
0.000 0.000 0.000 1.000 K
0 j
0 J
0.287 w
[]0 d
0.000 0.000 0.000 0.298 k
938.663 751.391 m
932.399 751.391 l
931.535 751.391 930.887 752.183 930.887 753.263 c
930.887 764.567 l
930.887 765.575 931.535 766.367 932.399 766.367 c
938.663 766.367 l
939.527 766.367 940.175 765.575 940.175 764.567 c
940.175 753.263 l
940.175 752.183 939.527 751.391 938.663 751.391 c
b
0.000 0.000 0.000 1.000 K
0 j
0 J
0.287 w
[]0 d
0.000 0.000 0.000 0.000 k
832.823 1071.791 m
832.175 1071.791 L
832.535 1072.583 L
832.823 1071.791 L
b
u
u
0.000 0.000 0.000 1.000 K
0 j
0 J
0.287 w
[]0 d
733.391 781.991 m
927.431 781.991 L
S
U
U
u
u
0.000 0.000 0.000 1.000 K
0 j
0 J
0.287 w
[]0 d
733.391 776.591 m
927.431 776.591 L
S
U
U
u
u
0.000 0.000 0.000 1.000 K
0 j
0 J
0.287 w
[]0 d
719.639 1083.096 m
727.415 1063.583 L
S
U
U
u
u
0.000 0.000 0.000 1.000 K
0 j
0 J
0.287 w
[]0 d
941.615 1082.879 m
935.207 1066.319 L
S
U
U
u
u
0.000 0.000 0.000 1.000 K
0 j
0 J
0.287 w
[]0 d
719.639 1078.847 m
725.903 1063.295 L
S
U
U
u
u
0.000 0.000 0.000 1.000 K
0 j
0 J
0.287 w
[]0 d
941.543 1079.279 m
935.495 1063.871 L
S
U
U
u
u
0.000 0.000 0.000 1.000 K
0 j
0 J
0.287 w
[]0 d
720.647 1099.655 m
725.831 1078.415 L
726.119 1035.791 L
S
U
U
u
u
0.000 0.000 0.000 1.000 K
0 j
0 J
0.287 w
[]0 d
940.535 1099.655 m
935.351 1078.415 L
935.063 1035.791 L
S
U
U
0.000 0.000 0.000 1.000 K
0 j
0 J
0.287 w
[]0 d
0.000 0.000 0.000 1.000 k
940.967 1025.639 m
940.463 1023.767 939.815 1021.967 939.095 1020.239 c
937.655 1016.783 931.247 1010.951 926.927 1010.951 C
922.103 1010.951 L
914.687 1002.599 L
914.687 953.495 l
914.687 950.111 916.487 947.519 918.863 947.519 c
936.791 947.519 l
939.239 947.519 940.967 950.111 940.967 953.495 c
940.967 1025.639 L
b
0.000 0.000 0.000 1.000 K
0 j
0 J
0.287 w
[]0 d
0.000 0.000 0.000 1.000 k
746.855 1003.247 m
739.511 1010.951 L
734.687 1010.951 L
726.839 1014.623 722.663 1020.455 720.575 1027.439 C
720.575 953.495 l
720.575 950.111 722.375 947.519 724.751 947.519 c
742.679 947.519 l
745.127 947.519 746.855 950.111 746.855 953.495 c
746.855 1003.247 L
b
0.000 0.000 0.000 1.000 K
0 j
0 J
0.287 w
[]0 d
0.000 0.000 0.000 1.000 k
861.911 1056.599 m
860.183 1041.407 L
892.871 1041.263 L
892.871 1056.599 L
861.911 1056.599 L
b
0.000 0.000 0.000 1.000 K
0 j
0 J
0.287 w
[]0 d
0.000 0.000 0.000 1.000 k
854.783 1041.263 m
856.511 1056.455 L
804.743 1056.599 L
806.471 1041.407 L
854.783 1041.263 L
b
0.000 0.000 0.000 1.000 K
0 j
0 J
0.287 w
[]0 d
0.000 0.000 0.000 1.000 k
801.071 1041.263 m
799.343 1056.455 L
768.095 1056.599 L
768.095 1041.263 L
801.071 1041.263 L
b
0.000 0.000 0.000 1.000 K
0 j
0 J
0.215 w
[]0 d
0.000 0.000 0.000 1.000 k
741.887 1028.519 m
792.719 1028.519 l
794.231 1028.519 795.383 1027.295 795.383 1025.783 c
795.383 1020.455 l
795.383 1018.943 794.231 1017.719 792.719 1017.719 c
741.887 1017.719 l
740.375 1017.719 739.223 1018.943 739.223 1020.455 c
739.223 1025.783 l
739.223 1027.295 740.375 1028.519 741.887 1028.519 c
b
0.000 0.000 0.000 1.000 K
0 j
0 J
0.215 w
[]0 d
0.000 0.000 0.000 1.000 k
919.151 1028.519 m
868.319 1028.519 l
866.807 1028.519 865.655 1027.295 865.655 1025.783 c
865.655 1020.455 l
865.655 1018.943 866.807 1017.719 868.319 1017.719 c
919.151 1017.719 l
920.663 1017.719 921.815 1018.943 921.815 1020.455 c
921.815 1025.783 l
921.815 1027.295 920.663 1028.519 919.151 1028.519 c
b
0.000 0.000 0.000 1.000 K
0 j
0 J
0.287 w
[]0 d
0.000 0.000 0.000 0.298 k
762.407 1027.511 m
740.951 1027.511 L
740.951 1018.943 L
762.407 1018.943 L
762.407 1027.511 L
b
0.000 0.000 0.000 1.000 K
0 j
0 J
0.287 w
[]0 d
0.000 0.000 0.000 0.298 k
898.631 1027.511 m
920.087 1027.511 L
920.087 1018.943 L
898.631 1018.943 L
898.631 1027.511 L
b
u
u
0.000 0.000 0.000 1.000 K
0 j
0 J
0.215 w
[]0 d
719.927 746.351 m
941.327 746.351 L
S
U
U
u
u
0.000 0.000 0.000 1.000 K
0 j
0 J
0.215 w
[]0 d
719.927 738.719 m
941.327 738.719 L
S
U
U
0.000 0.000 0.000 1.000 K
0 j
0 J
0.287 w
[]0 d
0.000 0.000 0.000 0.000 k
797.543 732.239 m
863.279 732.239 L
863.279 719.063 L
797.543 719.063 L
797.543 732.239 L
b
u
u
U
u
0.000 0.000 0.000 1.000 K
0 j
0 J
0.215 w
[]0 d
-9.575 655.919 m
-9.575 625.175 L
S
U
U
0.000 0.000 0.000 1.000 k
-9.791 642.168 m
0.359 639.144 L
0.359 645.192 L
-9.791 642.168 L
f
u
u
U
u
0.000 0.000 0.000 1.000 K
0 j
0 J
0.215 w
[]0 d
674.351 651.671 m
674.351 621.359 L
S
U
U
0.000 0.000 0.000 1.000 k
674.495 640.007 m
664.343 636.983 L
664.343 643.031 L
674.495 640.007 L
f
u
u
U
u
0.000 0.000 0.000 1.000 K
0 j
0 J
0.215 w
[]0 d
-7.127 641.447 m
260.855 641.447 L
S
U
U
u
u
U
u
0.000 0.000 0.000 1.000 K
0 j
0 J
0.215 w
[]0 d
453.527 640.223 m
675.215 640.223 L
S
U
U
0.000 0.000 0.000 1.000 k
409.823 634.679 m
411.119 636.407 411.911 638.063 411.911 640.295 c
411.911 642.527 411.119 644.039 409.823 645.839 C
409.247 645.839 L
410.327 644.183 411.047 642.311 411.047 640.295 c
411.047 638.279 410.327 636.335 409.247 634.679 C
409.823 634.679 L
f
0.000 0.000 0.000 1.000 k
400.031 640.367 m
400.031 640.871 400.175 641.591 400.463 642.024 c
400.823 642.527 401.327 642.743 401.903 642.743 c
402.911 642.743 403.199 642.168 403.199 641.303 c
403.199 636.983 L
403.919 636.983 L
403.919 640.367 l
403.919 640.871 403.991 641.591 404.351 642.024 c
404.711 642.527 405.215 642.743 405.719 642.743 c
406.727 642.743 407.087 642.168 407.087 641.303 c
407.087 636.983 L
407.807 636.983 L
407.807 640.943 l
407.807 642.168 407.519 643.391 405.863 643.391 c
404.927 643.391 404.207 642.959 403.847 642.168 C
403.559 642.815 403.127 643.391 401.975 643.391 c
401.183 643.391 400.463 642.959 400.103 642.311 C
400.031 642.311 L
400.031 643.175 L
399.311 643.175 L
399.311 636.983 L
400.031 636.983 L
400.031 640.367 l
f
0.000 0.000 0.000 1.000 k
390.095 640.367 m
390.095 640.871 390.167 641.591 390.527 642.024 c
390.887 642.527 391.391 642.743 391.895 642.743 c
392.903 642.743 393.263 642.168 393.263 641.303 c
393.263 636.983 L
393.983 636.983 L
393.983 640.367 l
393.983 640.871 394.055 641.591 394.343 642.024 c
394.703 642.527 395.207 642.743 395.783 642.743 c
396.791 642.743 397.079 642.168 397.079 641.303 c
397.079 636.983 L
397.799 636.983 L
397.799 640.943 l
397.799 642.168 397.583 643.391 395.855 643.391 c
394.991 643.391 394.271 642.959 393.839 642.168 C
393.623 642.815 393.191 643.391 392.039 643.391 c
391.247 643.391 390.455 642.959 390.095 642.311 C
390.095 642.311 L
390.095 643.175 L
389.375 643.175 L
389.375 636.983 L
390.095 636.983 L
390.095 640.367 l
f
0.000 0.000 0.000 1.000 k
379.007 639.216 m
379.151 637.415 380.375 636.767 381.959 636.767 c
383.399 636.767 384.623 637.847 384.623 639.647 c
384.623 641.375 383.543 642.455 381.959 642.455 c
381.239 642.455 380.807 642.311 380.159 641.879 C
380.663 644.687 L
384.191 644.687 L
384.191 645.335 L
380.015 645.335 L
379.295 641.015 L
379.943 640.943 L
380.447 641.519 381.023 641.807 381.815 641.807 c
383.111 641.807 383.903 640.871 383.903 639.647 c
383.903 638.423 383.111 637.487 381.887 637.487 c
380.735 637.487 379.943 638.063 379.799 639.216 C
379.007 639.216 L
f
0.000 0.000 0.000 1.000 k
373.607 642.671 m
373.535 643.823 374.327 644.831 375.407 644.831 c
376.487 644.831 377.279 644.183 377.279 643.031 c
377.279 641.087 374.903 641.087 373.175 639.072 c
372.599 638.423 372.527 637.775 372.527 636.983 C
377.999 636.983 L
377.999 637.631 L
373.319 637.631 L
373.391 638.423 373.895 638.927 374.399 639.359 c
375.695 640.295 378.071 640.871 378.071 643.103 c
378.071 644.399 377.207 645.479 375.479 645.479 c
373.823 645.479 372.743 644.327 372.743 642.671 C
373.607 642.671 L
f
0.000 0.000 0.000 1.000 k
367.271 641.519 m
366.335 641.159 365.831 640.367 365.831 639.359 c
365.831 637.703 367.199 636.767 368.423 636.767 c
370.223 636.767 371.375 637.775 371.375 639.431 c
371.375 640.367 370.871 641.159 369.935 641.519 C
370.727 641.879 371.087 642.527 371.087 643.391 c
371.087 644.831 369.791 645.479 368.495 645.479 c
367.199 645.479 366.119 644.543 366.119 643.391 c
366.119 642.383 366.479 642.096 367.271 641.519 C
f
0.000 0.000 0.000 1.000 k
362.879 636.983 m
363.671 636.983 L
363.671 639.072 L
364.823 639.072 L
364.823 639.719 L
363.671 639.719 L
363.671 645.335 L
362.951 645.335 L
359.063 639.719 L
359.063 639.072 L
362.879 639.072 L
362.879 636.983 L
f
0.000 0.000 0.000 1.000 k
357.335 645.839 m
356.039 644.111 355.247 642.527 355.247 640.295 c
355.247 638.063 356.039 636.479 357.335 634.679 C
357.911 634.679 L
356.831 636.335 356.111 638.279 356.111 640.223 c
356.111 642.239 356.831 644.183 357.911 645.839 C
357.335 645.839 L
f
0.000 0.000 0.000 1.000 k
349.919 642.887 m
350.567 642.887 L
350.567 645.623 L
349.919 645.623 L
349.919 642.887 L
f
0.000 0.000 0.000 1.000 k
348.623 642.887 m
349.199 642.887 L
349.199 645.623 L
348.623 645.623 L
348.623 642.887 L
f
0.000 0.000 0.000 1.000 k
344.591 645.479 m
342.143 645.479 341.711 643.319 341.711 641.159 c
341.711 638.855 342.287 636.767 344.591 636.767 c
346.895 636.767 347.471 638.855 347.471 641.087 c
347.471 643.031 347.111 645.479 344.591 645.479 c
f
0.000 0.000 0.000 1.000 k
339.983 638.063 m
339.119 638.063 L
339.119 636.983 L
339.551 636.983 L
339.551 636.551 l
339.551 636.048 339.335 635.903 339.119 635.759 C
339.119 635.327 L
339.623 635.471 339.983 635.903 339.983 636.623 c
339.983 638.063 L
f
0.000 0.000 0.000 1.000 k
334.583 645.479 m
332.135 645.479 331.703 643.319 331.703 641.159 c
331.703 638.855 332.279 636.767 334.583 636.767 c
336.887 636.767 337.463 638.855 337.463 641.087 c
337.463 643.031 337.103 645.479 334.583 645.479 c
f
0.000 0.000 0.000 1.000 k
325.223 638.855 m
325.367 637.487 326.375 636.767 327.671 636.767 c
329.471 636.767 330.767 638.351 330.767 641.159 c
330.767 643.535 330.119 645.479 327.815 645.479 c
325.943 645.479 325.079 644.255 325.079 642.671 c
325.079 641.015 326.087 639.935 327.671 639.935 c
328.679 639.935 329.471 640.439 329.975 641.231 C
329.975 641.231 L
329.903 639.719 329.687 637.487 327.671 637.487 c
326.735 637.487 326.159 637.991 326.015 638.855 C
325.223 638.855 L
f
0.000 0.000 0.000 1.000 k
321.551 636.983 m
322.343 636.983 L
322.343 645.479 L
321.695 645.479 L
321.479 643.967 320.687 643.895 319.391 643.751 C
319.391 643.247 L
321.551 643.247 L
321.551 636.983 L
f
0.000 0.000 0.000 0.000 k
368.567 644.831 m
369.719 644.831 370.295 644.327 370.295 643.463 c
370.295 642.239 369.575 641.807 368.639 641.807 c
367.703 641.807 366.839 642.239 366.839 643.247 c
366.839 644.255 367.631 644.831 368.567 644.831 c
f
0.000 0.000 0.000 0.000 k
368.639 641.159 m
369.719 641.159 370.655 640.583 370.655 639.359 c
370.655 638.279 369.791 637.487 368.639 637.487 c
367.415 637.487 366.551 638.279 366.551 639.359 c
366.551 640.583 367.415 641.159 368.639 641.159 c
f
0.000 0.000 0.000 0.000 k
362.879 644.183 m
362.879 639.719 L
359.783 639.719 L
362.879 644.183 L
f
0.000 0.000 0.000 0.000 k
346.679 641.159 m
346.679 639.431 346.391 637.487 344.591 637.487 c
343.007 637.487 342.503 638.927 342.503 641.087 c
342.503 642.959 342.863 644.831 344.591 644.831 c
346.391 644.831 346.679 642.959 346.679 641.159 c
f
0.000 0.000 0.000 0.000 k
336.671 641.159 m
336.671 639.431 336.383 637.487 334.583 637.487 c
333.000 637.487 332.495 638.927 332.495 641.087 c
332.495 642.959 332.855 644.831 334.583 644.831 c
336.383 644.831 336.671 642.959 336.671 641.159 c
f
0.000 0.000 0.000 0.000 k
327.815 644.831 m
328.967 644.759 329.687 643.895 329.687 642.671 c
329.687 641.519 329.039 640.583 327.815 640.583 c
326.591 640.583 325.871 641.375 325.871 642.671 c
325.871 643.967 326.519 644.759 327.815 644.831 c
f
%%Trailer
_E end