%!PS-Adobe-2.0 EPSF-1.2
%%Creator: Adobe Illustrator exported from Corel Draw 3.0
%%Title:6
%%BoundingBox:18 211 1252 1718
%%CreationDate:(Unknown)
%%ColorUsage:
%%TemplateBox:18 211 1252 1718
%%EndComments
%%BeginProcSet:Adobe_Illustrator_1.1 0 0
% Version 1.0 3/27/1990 $nokeywords$
% Copyright (C) 1990,1991,1992
% Corel Corporation
% All Rights Reserved

/wPmsDict 150 dict def 
wPmsDict begin 

/$debug 25 string def 

/bd {bind def} bind def 
/ld {load def} bd 
/xd {exch def} bd 
/_ null def 

/$c 0 def 
/$m 0 def 
/$y 0 def 
/$k 0 def 
/$t 1 def 
/$n _ def 
/$o 0 def 
/$pf false def 

/$C 0 def 
/$M 0 def 
/$Y 0 def 
/$K 0 def 
/$T 1 def 
/$N _ def 
/$O 0 def 
/$PF false def 

/$h false def 

/$al 0 def 
/$tr 0 def 
/$le 0 def 
/$lx 0 def 
/$ly 0 def 

/$ctm matrix currentmatrix def 
/$ptm matrix def 

/$pn () def 
/$pm matrix def 
/$px 0 def 
/$py 0 def 
/$pxf 0 def 
/$pyf 0 def 
/$psx 10 def 
/$psy 0 def 

/$llx 0 def 
/$lly 0 def 
/$urx 0 def 
/$ury 0 def 


/$Bbllx 0 def 
/$Bblly 0 def 
/$Bburx 0 def 
/$Bbury 0 def 

/$tllx 0 def 
/$tlly 0 def 
/$turx 0 def 
/$tury 0 def 

/$pd [] def 
/$tx 0 def 
/$ty 0 def 

/$sv 0 def 
/@cp /closepath ld 
/@gs /gsave ld 
/@gr /grestore ld 
/@np /newpath ld 
/@sv {/$sv save def}bd 
/@rs {$sv restore}bd 

/@MN { 
2 copy le{pop}{exch pop}ifelse 
}bd 

/setcmykcolor where {pop} 
{ 
/setcmykcolor 
{ 
4 1 roll 
3 {3 index add 1 @MN 1 exch sub 3 1 roll} repeat 
setrgbcolor 
pop 
}bd 
}ifelse 

/@tc 
{ 
dup 1 ge 
{pop} 
{ 
4 { 
dup 
6 -1 roll 
mul 
exch 
}repeat 
pop 
}ifelse 
}bd 

/@scc 
{ 
$c $m $y $k $t @tc 
setcmykcolor 
true 
}bd 
/@SCC 
{ 
$C $M $Y $K $T @tc 
setcmykcolor 
true 
}bd 

/@sft 
{ 
(setfirsttile sft )print 
/$tx $tllx $pxf add dup $tllx gt {$pwid $psx add sub}if def 
/$ty $tury $pyf sub dup $tury lt {$phei $psy add add}if def 
(setfirsttile exit )print 
}bd 

/@stb 
{ 
pathbbox /$ury xd /$urx xd /$lly xd /$llx xd 
}bd 

/@ep 
{ 
{ 
cvx exec 
}forall 
}bd 

/@tp 
{ 

(tile pattern tp )print 
@sv 
/$in true def 
2 copy 
dup $lly le {/$in false def}if 
$phei sub $ury ge {/$in false def}if 
dup $urx ge {/$in false def}if 
$pwid add $llx le {/$in false def}if 
$in 
{ 
@np 
2 copy moveto 
$pwid 0 rlineto 
0 $phei neg rlineto 
$pwid neg 0 rlineto 
0 $phei rlineto 
clip @np 

$pn cvlit load aload pop 
7 -1 roll 
5 index sub 
7 -1 roll 
3 index sub 
translate 
@ep 
pop pop pop pop 
} 
{pop pop}ifelse 
@rs 
(tile pattern exit )print 
}bd 

/@th 
{ 
(tile horizontal th)print 
@sft 
0 1 $tly 1 sub 
{ 
dup $psx mul $tx add 
{ 
dup $llx gt {$pwid sub}{exit}ifelse 
}loop 
exch $phei mul $ty exch sub 

0 1 $tlx 1 sub 
{ 
$pwid mul 
3 copy 
3 -1 roll add exch 
@tp 
pop 
}for 
pop pop 
} for 
(tile horizontal exiting )print 
}bd 

/@tv 
{ 
(tile vertical tv)print 
@sft 
0 1 $tlx 1 sub 
{ 
dup $pwid mul $tx add 
exch $psy mul $ty exch sub 
{ 
dup $ury lt {$phei add}{exit}ifelse 
}loop 

0 1 $tly 1 sub 
{ 
$phei mul 
3 copy sub 
@tp 
pop 
}for 
pop pop 
} for 
(tile vertical exit )print 
}bd 

/@pf 
{ 
(pattern fill pf)print 
@gs 
$pm concat 
@stb 
@gs 1 setgray eofill @gr 
eoclip 
$Bburx $Bbury $pm itransform /$tury xd /$turx xd 
$Bbllx $Bblly $pm itransform /$tlly xd /$tllx xd 
/$wid $turx $tllx sub def 
/$hei $tury $tlly sub def 
$wid 0 gt $hei 0 gt and 
{ 
$pn cvlit load aload pop 
$pd xd 
3 -1 roll sub /$phei xd 
exch sub /$pwid xd 
/$tlx $wid $pwid div ceiling 1 add def 
/$tly $hei $phei div ceiling 1 add def 
$psx 0 eq 
{ 
@tv 
} 
{ 
@th 
}ifelse 
}if 

@gr 
@np 
(pattern fill exit)print 
}bd 

/@xp 
{ 
{ 
dup (text Character is:) print == 
usertime (time before is:)print == 
(0) dup 3 -1 roll 0 exch put 
@gs 
true charpath currentpoint 
$ctm setmatrix 
@pf 
@gr 
@np 
moveto $tr 0 rmoveto 
usertime (time after is:)print == 
}forall 
pop 
}bd 

/@sm 
{ 
/$ctm $ctm currentmatrix def 
}bd 

%--@lorg  move to line origin   length string @torg length string
/@lorg    % moves currentpoint to line origin according to current alignment
  {      
  $lx $ly moveto    
  /$ly $ly $le sub def      % - prepare for next line(tracking)
  $al 0 ne
    {dup      % ->len str len str
    stringwidth   % ->len str len dx dy
    exch 3 index  % ->len str dy len dx
    1 sub         % ->len str dy len dx (len-1)
    $tr mul add   % ->len str dy len dx+(len-1)*$tr
    neg
    exch neg      % ->len str -dx_total dy len
    $al 1 eq      % check for centered alignment
    {2 div exch 2 div exch} if  
    rmoveto} if
  }bd

/@ft 
{ 
$pf 
{@xp} 
{ 
@scc 
{$tr exch 0 exch ashow pop} 
{pop pop}ifelse 
}ifelse 
}bd 

/@st 
{ 
$PF 
{} 
{ 
@SCC 
{ 
{ 
(0) dup 3 -1 roll 0 exch put 
@gs 
true charpath currentpoint 
$ctm setmatrix $ptm concat 
stroke 
@gr 
moveto $tr 0 rmoveto 
}forall 
pop 
} 
{pop pop}ifelse 
}ifelse 
}bd 
/@pt 
{ 
dup length exch 
}bd 
/@te 
{ 
@pt 
@lorg 
@ft 
}bd 

/@tr 
{ 
@pt 
@lorg 
@st 
}bd 
/@ta 
{ 
@pt 
@lorg 
2 copy 
@gs @ft @gr 
/$lx 0 def 
/$ly 0 def 
@st 
}bd 















/g { 
1 exch sub /$k xd 
/$c 0 def /$m 0 def /$y 0 def /$t 1 def /$n _ def /$pf false def 
}bd 

/G { 
1 exch sub /$K xd 
/$C 0 def /$M 0 def /$Y 0 def /$T 1 def /$N _ def /$PF false def 
}bd 

/k { 
/$k xd /$y xd /$m xd /$c xd 
/$t 1 def /$n _ def /$pf false def 
}bd 

/K { 
/$K xd /$Y xd /$M xd /$C xd 
/$T 1 def /$N _ def /$PF false def 
}bd 

/x { 
/$t xd /$n xd 
/$k xd /$y xd /$m xd /$c xd /$pf false def 
}bd 

/X { 
/$T xd /$N xd 
/$K xd /$Y xd /$M xd /$C xd /$PF false def 
}bd 

/d /setdash ld 

/i { 
dup 0 ne {setflat} {pop} ifelse 
}bd 

/j /setlinejoin ld 

/J /setlinecap ld 

/M /setmiterlimit ld 

/w /setlinewidth ld 

/O { 
/$o xd 
}bd 

/R { 
/$O xd 
}bd 


/c /curveto ld 

/C /c ld 

/v { 
currentpoint
6 2 roll 
curveto 
}bd

/V /v ld 

/y { 
2 copy curveto 
}bd 

/Y /y ld 

/l /lineto ld 

/L /l ld 

/m /moveto ld 



/n /newpath ld 

/N /newpath ld 

/F { 
$pf 
{@pf} 
{ 
@scc 
{eofill}if 
}ifelse 
}bd 

/f { 
@cp F 
}bd 
/S { 
$PF 
{} 
{ 
@SCC 
{ 
@sm 
$ptm concat 
stroke 
$ctm setmatrix 
}if 
}ifelse 
}bd 
/s { 
@cp 
S 
}bd 

/B { 
@gs F @gr 
S 
}bd 
/b { 
@cp 
B 
}bd 

/W { 
oeclip 
@np 
}bd 

/p { 
/$pm xd 
7 {pop} repeat 
/$pyf xd /$pxf xd 
/$pn xd 
/$pf true def 
}bd 

/P { 
11 {pop} repeat 
}bd 

/@p { 
/$pm xd 
/$psy xd 
/$psx xd 
/$pyf xd /$pxf xd 
/$pn xd 
/$pf true def 
}bd 

/@b { 
/$Bbury xd /$Bburx xd 
/$Bblly xd /$Bbllx xd 
}bd 


/z { 
/$al xd 
/$tr xd 
/$le xd 
exch findfont exch scalefont setfont 
}bd 

/Z { 
dup type 0 type eq { /$bDir xd } if
findfont 
dup maxlength 1 add dict exch 



dup 
{1 index /FID ne 
{ 
3 index 
3 1 roll put 
} 
{pop pop}ifelse 
} forall 



pop 
dup dup /Encoding get 
256 array copy 
dup /$fe xd
/Encoding exch put 

dup /Fontname 3 index put 

}bd 

/e { 
@sm 
concat 
[ 
/t {@te}def 
}bd 

/r { 
@sm 
concat 
[ 
/t {@tr}def 
}bd 

/o { 
@sm 
concat 
[ 
/t {pop}def 
}bd 

/a { 
@sm 
concat 
[ 
/t {@ta}def 
}bd 

/@o{
@sm 
concat 
[ 
/t {@t@a}def 
}bd 

/I { 
@sm 
concat 
[ 
/t {pop}def 
}bd 

/t {@te}def 

/T { 
cleartomark 
/$lx 0 def 
/$ly 0 def 
$ctm setmatrix 
}bd 


/u {}bd 

/U {}bd 

/A {pop}bd 

/h { 
$h true def 
}bd 

/h { 
$h true def 
}bd 

/q /@gs ld 

/Q /@gr ld 



/E { 
5 array astore 
exch cvlit exch def 
}bd 

/` {}bd 

/~ {}bd 

/@ {}bd 

/& {}bd 

/CorelDrawRencodeVect [ 
16#80/grave 
16#81/circumflex 
16#82/tilde 
16#83/dotlessi 
16#84/florin 
16#85/quotedblleft 
16#86/quotedblright 
16#87/guilsinglleft 
16#88/guilsinglright 
16#89/fi 
16#8a/fl 
16#8b/dagger 
16#8c/daggerdbl 
16#8d/endash 
16#8e/periodcentered 
16#8f/breve 
16#90/quotedblbase 
16#91/ellipsis 
16#92/perthousand 
16#a1/exclamdown 
16#a2/cent 
16#a3/sterling 
16#a4/currency 
16#a5/yen 
16#a6/bar 
16#a7/section 
16#a8/dieresis 
16#a9/copyright 
16#aa/ordfeminine 
16#ab/guillemotleft 
16#ac/logicalnot 
16#ad/emdash 
16#ae/registered 
16#af/spac 
16#b0/ring 
16#b1/spac 
16#b2/spac 
16#b3/spac 
16#b4/acute 
16#b5/spac 
16#b6/paragraph 
16#b7/bullet 
16#b8/cedilla 
16#b9/spac 
16#ba/ordmasculine 
16#bb/guillemotright 
16#bc/spac 
16#bd/spac 
16#be/spac 
16#bf/questiondown 
16#c0/Agrave 
16#c1/Aacute 
16#c2/Acircumflex 
16#c3/Atilde 
16#c4/Adieresis 
16#c5/Aring 
16#c6/AE 
16#c7/Ccedilla 
16#c8/Egrave 
16#c9/Eacute 
16#ca/Ecircumflex 
16#cb/Edieresis 
16#cc/Igrave 
16#cd/Iacute 
16#ce/Icircumflex 
16#cf/Idieresis 
16#d0/spac 
16#d1/Ntilde 
16#d2/Ograve 
16#d3/Oacute 
16#d4/Ocircumflex 
16#d5/Otilde 
16#d6/Odieresis 
16#d7/OE 
16#d8/Oslash 
16#d9/Ugrave 
16#da/Uacute 
16#db/Ucircumflex 
16#dc/Udieresis 
16#dd/space 
16#de/spac 
16#df/germandbls 
16#e0/agrave 
16#e1/aacute 
16#e2/acircumflex 
16#e3/atilde 
16#e4/adieresis 
16#e5/aring 
16#e6/ae 
16#e7/ccedilla 
16#e8/egrave 
16#e9/eacute 
16#ea/ecircumflex 
16#eb/edieresis 
16#ec/igrave 
16#ed/iacute 
16#ee/icircumflex 
16#ef/idieresis 
16#f0/space 
16#f1/ntilde 
16#f2/ograve 
16#f3/oacute 
16#f4/ocircumflex 
16#f5/otilde 
16#f6/odieresis 
16#f7/oe 
16#f8/oslash 
16#f9/ugrave 
16#fa/uacute 
16#fb/ucircumflex 
16#fc/udieresis 
16#fd/spac 
16#fe/spac 
16#ff/ydieresis 
] def
%%EndProlog
%%BeginSetup
%%BeginEncoding:_Times-Bold Times-Bold
[
]/_Times-Bold/Times-Bold Z
%%EndEncoding
%%EndSetup
0.000 0.000 0.000 1.000 K
0 j
0 J
0.863 w
[]0 d
0.000 0.000 0.000 0.000 k
55.799 1159.991 m
1193.759 1159.991 L
1217.447 1159.991 1228.967 1157.543 1228.103 1140.551 C
1228.103 1114.199 L
1228.103 1100.879 L
1239.767 1039.535 1248.480 976.607 1249.487 916.703 C
1249.487 837.215 L
1251.719 818.711 L
1251.719 796.607 L
1234.871 788.615 1212.911 781.775 1186.055 775.799 C
1041.192 775.799 L
1015.775 707.255 926.711 715.103 905.039 775.799 C
433.439 775.727 L
405.071 712.439 322.055 709.703 296.567 774.359 C
132.048 774.359 L
107.855 776.519 L
26.783 794.951 L
21.599 796.895 18.575 799.487 19.511 803.735 C
18.071 906.983 18.288 1012.463 23.183 1113.911 C
23.471 1121.615 24.047 1129.175 24.407 1136.807 C
25.271 1161.432 30.887 1158.695 55.799 1159.991 C
b
0.000 0.000 0.000 1.000 K
0 j
0 J
0.863 w
[]0 d
0.000 0.000 0.000 0.000 k
1213.847 1711.079 m
75.887 1711.079 L
52.199 1711.079 40.679 1708.703 41.543 1691.639 C
41.543 1665.287 L
41.543 1652.039 L
29.879 1590.623 21.167 1527.695 20.160 1467.791 C
20.160 1388.303 L
17.927 1369.871 L
17.927 1347.767 L
34.775 1339.775 56.735 1332.935 83.591 1326.959 C
228.455 1326.959 L
253.871 1258.343 342.935 1266.263 364.607 1326.959 C
836.207 1326.887 L
864.575 1263.527 947.591 1260.863 973.079 1325.519 C
1137.599 1325.519 L
1161.791 1327.607 L
1242.863 1346.111 L
1248.048 1348.055 1251.071 1350.647 1250.135 1354.823 C
1251.575 1458.071 1251.359 1563.623 1246.463 1664.999 C
1246.175 1672.703 1245.599 1680.335 1245.240 1687.895 C
1244.375 1712.519 1238.759 1709.855 1213.847 1711.079 C
b
0.000 0.000 0.000 1.000 K
0 j
0 J
0.215 w
[]0 d
0.000 0.000 0.000 0.498 k
1228.103 1100.879 m
1239.767 1039.535 1248.480 976.607 1249.487 916.703 C
1228.967 922.607 1219.823 924.335 1218.240 930.527 C
1211.111 968.543 1210.823 1066.823 1218.023 1089.647 C
1222.055 1096.415 1224.288 1100.303 1228.103 1100.879 C
b
0.000 0.000 0.000 1.000 K
0 j
0 J
0.215 w
[]0 d
0.000 0.000 0.000 0.498 k
41.543 1652.039 m
29.879 1590.623 21.167 1527.695 20.160 1467.791 C
40.679 1473.767 49.823 1475.495 51.407 1481.615 C
58.535 1519.631 58.823 1617.983 51.623 1640.735 C
47.591 1647.503 45.359 1651.463 41.543 1652.039 C
b
0.000 0.000 0.000 1.000 K
0 j
0 J
0.215 w
[]0 d
0.000 0.000 0.000 0.200 k
1228.967 1096.487 m
1240.919 1036.079 1246.967 981.143 1249.487 921.959 C
1228.967 927.935 1223.783 929.663 1222.127 935.783 C
1216.295 973.799 1212.983 1061.135 1220.255 1083.959 C
1222.415 1091.591 1225.151 1095.911 1228.967 1096.487 C
b
0.000 0.000 0.000 1.000 K
0 j
0 J
0.215 w
[]0 d
0.000 0.000 0.000 0.200 k
40.679 1647.575 m
28.727 1587.167 22.679 1532.231 20.160 1473.119 C
40.679 1479.023 45.863 1480.751 47.519 1486.943 C
53.351 1524.959 56.663 1612.295 49.391 1635.119 C
47.231 1642.679 44.495 1646.999 40.679 1647.575 C
b
0.000 0.000 0.000 1.000 K
0 j
0 J
0.215 w
[]0 d
55.799 1159.991 m
1193.759 1159.991 L
1217.447 1159.991 1228.967 1157.543 1228.103 1140.551 C
1228.103 1114.199 L
23.183 1113.911 L
23.471 1121.615 24.047 1129.175 24.407 1136.807 C
25.271 1161.432 30.887 1158.695 55.799 1159.991 C
s
0.000 0.000 0.000 1.000 K
0 j
0 J
0.215 w
[]0 d
1213.847 1711.079 m
75.887 1711.079 L
52.199 1711.079 40.679 1708.703 41.543 1691.639 C
41.543 1665.287 L
1246.463 1664.999 L
1246.175 1672.703 1245.599 1680.335 1245.240 1687.895 C
1244.375 1712.519 1238.759 1709.855 1213.847 1711.079 C
s
0.000 0.000 0.000 1.000 K
0 j
0 J
0.215 w
[]0 d
0.000 0.000 0.000 1.000 k
364.247 727.055 m
404.135 727.055 436.679 759.599 436.679 799.631 c
436.679 839.519 404.135 872.063 364.247 872.063 c
324.215 872.063 291.671 839.519 291.671 799.631 c
291.671 759.599 324.215 727.055 364.247 727.055 c
b
0.000 0.000 0.000 1.000 K
0 j
0 J
0.215 w
[]0 d
0.000 0.000 0.000 1.000 k
905.399 1278.215 m
865.511 1278.215 832.967 1310.759 832.967 1350.719 c
832.967 1390.679 865.511 1423.223 905.399 1423.223 c
945.431 1423.223 977.975 1390.679 977.975 1350.719 c
977.975 1310.759 945.431 1278.215 905.399 1278.215 c
b
0.000 0.000 0.000 1.000 K
0 j
0 J
0.215 w
[]0 d
0.000 0.000 0.000 0.000 k
364.319 751.463 m
390.815 751.463 412.343 773.063 412.343 799.559 c
412.343 826.055 390.815 847.583 364.319 847.583 c
337.751 847.583 316.223 826.055 316.223 799.559 c
316.223 773.063 337.751 751.463 364.319 751.463 c
b
0.000 0.000 0.000 1.000 K
0 j
0 J
0.215 w
[]0 d
0.000 0.000 0.000 0.000 k
905.327 1302.623 m
878.831 1302.623 857.303 1324.151 857.303 1350.719 c
857.303 1377.215 878.831 1398.743 905.327 1398.743 c
931.895 1398.743 953.423 1377.215 953.423 1350.719 c
953.423 1324.151 931.895 1302.623 905.327 1302.623 c
b
0.000 0.000 0.000 1.000 K
0 j
0 J
0.215 w
[]0 d
0.000 0.000 0.000 0.498 k
47.807 1108.439 m
438.983 1108.439 L
438.983 965.231 L
47.807 965.231 L
47.807 1108.439 L
b
0.000 0.000 0.000 1.000 K
0 j
0 J
0.215 w
[]0 d
0.000 0.000 0.000 0.498 k
626.039 1108.439 m
1078.199 1108.439 L
1078.199 965.159 L
626.039 965.159 L
626.039 1108.439 L
b
0.000 0.000 0.000 1.000 K
0 j
0 J
0.215 w
[]0 d
0.000 0.000 0.000 0.498 k
1221.983 1659.599 m
70.631 1659.599 L
71.280 1472.255 L
147.959 1472.543 L
270.935 1516.319 L
1221.983 1516.319 L
1221.983 1659.599 L
b
0.000 0.000 0.000 1.000 K
0 j
0 J
0.215 w
[]0 d
0.000 0.000 0.000 0.200 k
57.095 1058.687 m
242.207 1058.687 L
242.207 973.151 L
57.095 973.151 L
57.095 1058.687 L
b
0.000 0.000 0.000 1.000 K
0 j
0 J
0.215 w
[]0 d
0.000 0.000 0.000 0.200 k
1212.551 1609.775 m
1027.439 1609.775 L
1027.439 1524.239 L
1212.551 1524.239 L
1212.551 1609.775 L
b
0.000 0.000 0.000 1.000 K
0 j
0 J
0.215 w
[]0 d
0.000 0.000 0.000 0.200 k
57.095 1100.807 m
242.207 1100.807 L
242.207 1067.471 L
57.095 1067.471 L
57.095 1100.807 L
b
0.000 0.000 0.000 1.000 K
0 j
0 J
0.215 w
[]0 d
0.000 0.000 0.000 0.200 k
1212.551 1651.895 m
1027.439 1651.895 L
1027.439 1618.631 L
1212.551 1618.631 L
1212.551 1651.895 L
b
0.000 0.000 0.000 1.000 K
0 j
0 J
0.215 w
[]0 d
0.000 0.000 0.000 0.200 k
252.071 1100.375 m
428.111 1100.375 L
428.111 973.367 L
252.071 973.367 L
252.071 1100.375 L
b
0.000 0.000 0.000 1.000 K
0 j
0 J
0.215 w
[]0 d
0.000 0.000 0.000 0.200 k
1017.575 1651.463 m
839.231 1651.463 L
839.231 1524.455 L
1017.575 1524.455 L
1017.575 1651.463 L
b
0.000 0.000 0.000 1.000 K
0 j
0 J
0.215 w
[]0 d
0.000 0.000 0.000 0.200 k
643.175 1651.463 m
464.759 1651.463 L
464.759 1524.455 L
643.175 1524.455 L
643.175 1651.463 L
b
0.000 0.000 0.000 1.000 K
0 j
0 J
0.215 w
[]0 d
0.000 0.000 0.000 0.200 k
638.423 1100.375 m
847.727 1100.375 L
847.727 973.367 L
638.423 973.367 L
638.423 1100.375 L
b
0.000 0.000 0.000 1.000 K
0 j
0 J
0.215 w
[]0 d
0.000 0.000 0.000 0.200 k
827.639 1651.463 m
653.975 1651.463 L
653.975 1524.455 L
827.639 1524.455 L
827.639 1651.463 L
b
0.000 0.000 0.000 1.000 K
0 j
0 J
0.215 w
[]0 d
0.000 0.000 0.000 0.200 k
453.023 1651.463 m
279.431 1651.463 L
279.431 1524.455 L
453.023 1524.455 L
453.023 1651.463 L
b
0.000 0.000 0.000 1.000 K
0 j
0 J
0.215 w
[]0 d
0.000 0.000 0.000 0.200 k
857.231 1100.375 m
1066.535 1100.375 L
1066.535 973.367 L
857.231 973.367 L
857.231 1100.375 L
b
0.000 0.000 0.000 1.000 K
0 j
0 J
0.215 w
[]0 d
449.135 1108.223 m
626.759 1108.223 L
626.759 775.727 L
449.135 775.727 L
449.135 1108.223 L
s
0.000 0.000 0.000 1.000 K
0 j
0 J
0.215 w
[]0 d
0.000 0.000 0.000 0.498 k
459.863 879.695 m
534.455 879.695 L
534.455 1086.839 L
459.863 1086.839 L
459.863 879.695 L
b
0.000 0.000 0.000 1.000 K
0 j
0 J
0.215 w
[]0 d
0.000 0.000 0.000 0.498 k
541.655 879.695 m
616.247 879.695 L
616.247 1086.839 L
541.655 1086.839 L
541.655 879.695 L
b
0.000 0.000 0.000 1.000 K
0 j
0 J
0.215 w
[]0 d
0.000 0.000 0.000 0.200 k
467.927 886.103 m
526.391 886.103 L
526.391 1080.215 L
467.927 1080.215 L
467.927 886.103 L
b
0.000 0.000 0.000 1.000 K
0 j
0 J
0.215 w
[]0 d
0.000 0.000 0.000 0.200 k
549.791 886.103 m
608.183 886.103 L
608.183 1080.215 L
549.791 1080.215 L
549.791 886.103 L
b
0.000 0.000 0.000 1.000 K
0 j
0 J
0.215 w
[]0 d
1078.631 1108.655 m
1212.767 1108.655 L
1212.767 782.063 L
1183.463 776.015 L
1078.631 776.015 L
1078.631 1108.655 L
s
0.000 0.000 0.000 1.000 K
0 j
0 J
0.215 w
[]0 d
0.000 0.000 0.000 0.498 k
1090.079 1085.687 m
1199.519 1085.687 L
1199.519 879.191 L
1090.079 879.191 L
1090.079 1085.687 L
b
0.000 0.000 0.000 1.000 K
0 j
0 J
0.215 w
[]0 d
0.000 0.000 0.000 0.200 k
1099.439 1077.048 m
1190.303 1077.048 L
1190.303 887.903 L
1099.439 887.903 L
1099.439 1077.048 L
b
u
u
0.000 0.000 0.000 1.000 K
0 j
0 J
0.215 w
[]0 d
17.855 876.383 m
334.655 876.383 L
353.951 884.735 373.463 884.591 393.119 876.383 C
1212.839 876.383 L
S
U
U
u
u
0.000 0.000 0.000 1.000 K
0 j
0 J
0.215 w
[]0 d
1251.791 1427.471 m
934.991 1427.471 L
915.695 1435.823 896.183 1435.751 876.527 1427.471 C
56.807 1427.471 L
S
U
U
u
u
0.000 0.000 0.000 1.000 K
0 j
0 J
0.215 w
[]0 d
19.367 838.655 m
293.543 838.655 L
S
U
U
u
u
0.000 0.000 0.000 1.000 K
0 j
0 J
0.215 w
[]0 d
1250.279 1389.815 m
976.103 1389.815 L
S
U
U
u
u
0.000 0.000 0.000 1.000 K
0 j
0 J
0.215 w
[]0 d
433.439 838.655 m
902.447 838.655 L
S
U
U
u
u
0.000 0.000 0.000 1.000 K
0 j
0 J
0.215 w
[]0 d
836.207 1389.815 m
367.199 1389.815 L
S
U
U
u
u
0.000 0.000 0.000 1.000 K
0 j
0 J
0.215 w
[]0 d
19.151 842.903 m
295.991 842.903 L
S
U
U
u
u
0.000 0.000 0.000 1.000 K
0 j
0 J
0.215 w
[]0 d
1250.495 1393.991 m
973.655 1393.991 L
S
U
U
u
u
0.000 0.000 0.000 1.000 K
0 j
0 J
0.215 w
[]0 d
431.207 842.903 m
905.183 842.903 L
S
U
U
u
u
0.000 0.000 0.000 1.000 K
0 j
0 J
0.215 w
[]0 d
838.439 1393.991 m
364.463 1393.991 L
S
U
U
u
u
0.000 0.000 0.000 1.000 K
0 j
0 J
0.215 w
[]0 d
19.655 822.239 m
286.487 822.239 L
S
U
U
u
u
0.000 0.000 0.000 1.000 K
0 j
0 J
0.215 w
[]0 d
1249.991 1373.399 m
983.159 1373.399 L
S
U
U
u
u
0.000 0.000 0.000 1.000 K
0 j
0 J
0.215 w
[]0 d
440.495 822.239 m
896.687 822.239 L
S
U
U
u
u
0.000 0.000 0.000 1.000 K
0 j
0 J
0.215 w
[]0 d
829.151 1373.399 m
372.959 1373.399 L
S
U
U
u
u
0.000 0.000 0.000 1.000 K
0 j
0 J
0.215 w
[]0 d
281.303 774.503 m
275.399 838.871 317.735 882.359 363.239 882.647 c
408.527 882.935 453.095 838.511 441.071 775.655 C
S
U
U
u
u
0.000 0.000 0.000 1.000 K
0 j
0 J
0.215 w
[]0 d
988.343 1325.663 m
994.247 1389.959 951.911 1433.447 906.407 1433.735 c
861.119 1434.023 816.551 1389.599 828.575 1326.815 C
S
U
U
u
u
0.000 0.000 0.000 1.000 K
0 j
0 J
0.215 w
[]0 d
893.951 776.591 m
885.887 846.863 925.415 878.111 970.703 878.183 c
1015.847 878.327 1056.528 842.543 1053.720 776.303 C
S
U
U
u
u
0.000 0.000 0.000 1.000 K
0 j
0 J
0.215 w
[]0 d
375.695 1327.751 m
383.759 1397.951 344.231 1429.271 298.943 1429.343 c
253.799 1429.415 213.119 1393.631 215.927 1327.463 C
S
U
U
0.000 0.000 0.000 1.000 K
0 j
0 J
0.215 w
[]0 d
455.399 786.311 m
620.495 786.311 L
620.495 1100.447 L
455.399 1100.447 L
455.399 786.311 L
s
0.000 0.000 0.000 1.000 K
0 j
0 J
0.215 w
[]0 d
535.895 786.311 m
539.783 786.311 L
539.783 1100.447 L
535.895 1100.447 L
535.895 786.311 L
s
u
u
0.000 0.000 0.000 1.000 K
0 j
0 J
0.215 w
[]0 d
1038.384 842.759 m
1212.407 842.759 L
S
U
U
u
u
0.000 0.000 0.000 1.000 K
0 j
0 J
0.215 w
[]0 d
231.263 1393.919 m
57.239 1393.919 L
S
U
U
u
u
0.000 0.000 0.000 1.000 K
0 j
0 J
0.215 w
[]0 d
1040.543 838.655 m
1212.263 838.655 L
S
U
U
u
u
0.000 0.000 0.000 1.000 K
0 j
0 J
0.215 w
[]0 d
229.103 1389.815 m
57.383 1389.815 L
S
U
U
u
u
0.000 0.000 0.000 1.000 K
0 j
0 J
0.215 w
[]0 d
1047.311 822.239 m
1213.055 822.239 L
S
U
U
u
u
0.000 0.000 0.000 1.000 K
0 j
0 J
0.215 w
[]0 d
222.335 1373.399 m
56.591 1373.399 L
S
U
U
u
u
0.000 0.000 0.000 1.000 K
0 j
0 J
0.215 w
[]0 d
211.175 1327.823 m
211.175 1461.311 L
66.239 1461.311 L
66.239 1331.423 L
S
U
U
0.000 0.000 0.000 1.000 K
0 j
0 J
0.215 w
[]0 d
1082.303 786.743 m
1207.367 786.743 L
1207.367 1104.983 L
1082.303 1104.983 L
1082.303 786.743 L
s
u
u
0.000 0.000 0.000 1.000 K
0 j
0 J
0.215 w
[]0 d
1249.055 909.287 m
1220.471 909.287 L
1220.543 858.311 L
1249.055 858.383 L
S
U
U
u
u
0.000 0.000 0.000 1.000 K
0 j
0 J
0.215 w
[]0 d
20.591 1460.447 m
49.175 1460.447 L
49.103 1409.399 L
20.591 1409.543 L
S
U
U
u
u
0.000 0.000 0.000 1.000 K
0 j
0 J
0.215 w
[]0 d
26.423 1463.687 m
55.007 1463.687 L
54.935 1412.639 L
26.423 1412.783 L
S
U
U
u
u
0.000 0.000 0.000 1.000 K
0 j
0 J
0.215 w
[]0 d
1249.775 852.479 m
1220.831 852.479 L
1220.903 784.727 L
S
U
U
u
u
0.000 0.000 0.000 1.000 K
0 j
0 J
0.215 w
[]0 d
19.871 1403.639 m
48.815 1403.639 L
48.743 1335.887 L
S
U
U
u
u
0.000 0.000 0.000 1.000 K
0 j
0 J
0.215 w
[]0 d
25.703 1406.951 m
54.647 1406.951 L
54.575 1339.199 L
S
U
U
0.000 0.000 0.000 1.000 K
0 j
0 J
0.215 w
[]0 d
0.000 0.000 0.000 0.098 k
1152.719 1149.048 m
952.775 1149.048 L
952.775 1114.631 L
1152.719 1114.631 L
1152.719 1149.048 L
b
0.000 0.000 0.000 1.000 K
0 j
0 J
0.215 w
[]0 d
0.000 0.000 0.000 0.098 k
116.927 1700.207 m
316.871 1700.207 L
316.871 1665.719 L
116.927 1665.719 L
116.927 1700.207 L
b
u
u
0.000 0.000 0.000 1.000 K
0 j
0 J
0.215 w
[]0 d
1185.839 1132.847 m
1152.719 1132.847 L
S
U
U
u
u
0.000 0.000 0.000 1.000 K
0 j
0 J
0.215 w
[]0 d
83.807 1684.007 m
116.927 1684.007 L
S
U
U
u
u
0.000 0.000 0.000 1.000 K
0 j
0 J
0.215 w
[]0 d
1203.983 1132.847 m
1228.679 1132.847 L
S
U
U
u
u
0.000 0.000 0.000 1.000 K
0 j
0 J
0.215 w
[]0 d
104.975 1684.007 m
40.967 1684.007 L
S
U
U
u
u
0.000 0.000 0.000 1.000 K
0 j
0 J
0.215 w
[]0 d
1213.055 1108.655 m
1213.055 1141.199 L
1213.127 1145.807 1211.327 1148.975 1204.415 1149.048 C
1152.863 1149.048 L
S
U
U
u
u
0.000 0.000 0.000 1.000 K
0 j
0 J
0.215 w
[]0 d
56.591 1659.815 m
56.591 1692.287 L
56.519 1696.895 58.319 1700.063 65.231 1700.207 C
116.783 1700.207 L
S
U
U
u
u
0.000 0.000 0.000 1.000 K
0 j
0 J
0.215 w
[]0 d
961.343 1149.192 m
50.255 1149.192 L
43.199 1149.480 39.599 1148.183 38.879 1145.015 C
S
U
U
u
u
0.000 0.000 0.000 1.000 K
0 j
0 J
0.215 w
[]0 d
308.303 1700.279 m
1219.391 1700.279 L
1226.447 1700.567 1230.048 1699.343 1230.767 1696.175 C
S
U
U
u
u
0.000 0.000 0.000 1.000 K
0 j
0 J
0.215 w
[]0 d
956.303 1132.631 m
24.551 1132.631 L
S
U
U
u
u
0.000 0.000 0.000 1.000 K
0 j
0 J
0.215 w
[]0 d
313.343 1683.791 m
1245.096 1683.791 L
S
U
U
0.000 0.000 0.000 1.000 K
0 j
0 J
0.215 w
[]0 d
0.000 0.000 0.000 1.000 k
973.439 727.055 m
1013.399 727.055 1045.943 759.599 1045.943 799.631 c
1045.943 839.519 1013.399 872.063 973.439 872.063 c
933.479 872.063 900.935 839.519 900.935 799.631 c
900.935 759.599 933.479 727.055 973.439 727.055 c
b
0.000 0.000 0.000 1.000 K
0 j
0 J
0.215 w
[]0 d
0.000 0.000 0.000 1.000 k
296.207 1278.215 m
256.247 1278.215 223.703 1310.759 223.703 1350.719 c
223.703 1390.679 256.247 1423.223 296.207 1423.223 c
336.167 1423.223 368.711 1390.679 368.711 1350.719 c
368.711 1310.759 336.167 1278.215 296.207 1278.215 c
b
0.000 0.000 0.000 1.000 K
0 j
0 J
0.215 w
[]0 d
0.000 0.000 0.000 0.000 k
973.439 751.463 m
999.935 751.463 1021.463 773.063 1021.463 799.559 c
1021.463 826.055 999.935 847.583 973.439 847.583 c
946.871 847.583 925.343 826.055 925.343 799.559 c
925.343 773.063 946.871 751.463 973.439 751.463 c
b
0.000 0.000 0.000 1.000 K
0 j
0 J
0.215 w
[]0 d
0.000 0.000 0.000 0.000 k
296.207 1302.623 m
269.711 1302.623 248.183 1324.151 248.183 1350.719 c
248.183 1377.215 269.711 1398.743 296.207 1398.743 c
322.775 1398.743 344.303 1377.215 344.303 1350.719 c
344.303 1324.151 322.775 1302.623 296.207 1302.623 c
b
0.000 0.000 0.000 1.000 K
0 j
0 J
0.863 w
[]0 d
207.863 262.943 m
322.991 262.943 439.055 262.943 554.039 262.943 C
554.039 359.927 554.039 453.095 554.039 550.151 C
554.039 610.775 L
561.815 619.127 561.815 627.407 554.039 635.903 C
548.423 643.103 532.367 646.199 508.175 646.055 C
253.727 646.055 L
229.463 646.127 212.975 643.319 207.863 636.048 C
200.159 627.263 200.159 618.623 207.863 610.127 C
207.863 550.151 L
207.863 453.095 207.863 359.927 207.863 262.943 C
s
0.000 0.000 0.000 1.000 K
0 j
0 J
0.863 w
[]0 d
692.495 256.967 m
807.551 256.967 923.615 256.967 1038.599 256.967 C
1038.599 354.024 1038.599 450.935 1038.599 547.991 C
1038.599 608.615 L
1046.375 616.967 1046.375 625.247 1038.599 633.743 C
1032.983 640.943 1016.999 644.039 992.735 643.895 C
738.287 643.895 L
714.024 643.967 697.535 641.159 692.495 633.887 C
684.719 625.103 684.719 616.463 692.495 607.967 C
692.495 547.991 L
692.495 450.935 692.495 354.024 692.495 256.967 C
s
0.000 0.000 0.000 1.000 K
0 j
0 J
0.215 w
[]0 d
0.000 0.000 0.000 0.298 k
554.039 610.775 m
561.815 619.127 561.815 627.407 554.039 635.903 C
554.039 610.775 L
b
0.000 0.000 0.000 1.000 K
0 j
0 J
0.215 w
[]0 d
0.000 0.000 0.000 0.298 k
1038.599 608.615 m
1046.375 616.967 1046.375 625.247 1038.599 633.743 C
1038.599 608.615 L
b
0.000 0.000 0.000 1.000 K
0 j
0 J
0.215 w
[]0 d
0.000 0.000 0.000 0.298 k
208.151 610.775 m
200.375 619.127 200.375 627.407 208.151 635.903 C
208.151 610.775 L
b
0.000 0.000 0.000 1.000 K
0 j
0 J
0.215 w
[]0 d
0.000 0.000 0.000 0.298 k
692.711 608.615 m
684.935 616.967 684.935 625.247 692.711 633.743 C
692.711 608.615 L
b
0.000 0.000 0.000 1.000 K
0 j
0 J
0.287 w
[]0 d
704.303 440.783 m
1026.791 440.783 L
1026.791 591.264 L
704.303 591.264 L
704.303 440.783 L
s
0.000 0.000 0.000 1.000 K
0 j
0 J
0.287 w
[]0 d
0.000 0.000 0.000 0.498 k
713.807 452.735 m
1017.647 452.735 L
1017.647 581.471 L
713.807 581.471 L
713.807 452.735 L
b
0.000 0.000 0.000 1.000 K
0 j
0 J
0.287 w
[]0 d
0.000 0.000 0.000 0.200 k
719.063 457.919 m
1011.815 457.919 L
1011.815 576.216 L
719.063 576.216 L
719.063 457.919 L
b
0.000 0.000 0.000 1.000 K
0 j
0 J
0.287 w
[]0 d
0.000 0.000 0.000 0.200 k
838.655 601.271 m
892.871 601.271 l
898.127 601.271 902.303 605.447 902.303 610.703 c
902.303 630.575 l
902.303 635.831 898.127 640.007 892.871 640.007 c
838.655 640.007 l
833.399 640.007 829.223 635.831 829.223 630.575 c
829.223 610.703 l
829.223 605.447 833.399 601.271 838.655 601.271 c
b
u
u
0.000 0.000 0.000 1.000 K
0 j
0 J
0.287 w
[]0 d
829.007 614.519 m
692.855 614.519 L
S
U
U
u
u
0.000 0.000 0.000 1.000 K
0 j
0 J
0.287 w
[]0 d
1038.023 614.519 m
901.871 614.519 L
S
U
U
0.000 0.000 0.000 1.000 K
0 j
0 J
0.287 w
[]0 d
0.000 0.000 0.000 0.298 k
426.815 646.055 m
426.815 651.311 422.567 652.967 417.311 652.967 C
344.807 652.967 L
339.623 652.967 335.303 651.311 335.303 646.055 C
426.815 646.055 L
b
0.000 0.000 0.000 1.000 K
0 j
0 J
0.287 w
[]0 d
0.000 0.000 0.000 0.298 k
911.447 643.895 m
911.447 649.151 907.199 650.807 901.943 650.807 C
829.439 650.807 L
824.183 650.807 819.935 649.151 819.935 643.895 C
911.447 643.895 L
b
0.000 0.000 0.000 1.000 K
0 j
0 J
0.287 w
[]0 d
0.000 0.000 0.000 0.298 k
980.855 422.423 m
1012.967 422.423 l
1016.639 422.423 1019.591 419.543 1019.591 415.871 c
1019.591 407.951 l
1019.591 404.279 1016.639 401.399 1012.967 401.399 c
980.855 401.399 l
977.183 401.399 974.231 404.279 974.231 407.951 c
974.231 415.871 l
974.231 419.543 977.183 422.423 980.855 422.423 c
b
0.000 0.000 0.000 1.000 K
0 j
0 J
0.287 w
[]0 d
0.000 0.000 0.000 0.298 k
718.127 422.423 m
750.311 422.423 l
753.983 422.423 756.863 419.543 756.863 415.871 c
756.863 407.951 l
756.863 404.279 753.983 401.399 750.311 401.399 c
718.127 401.399 l
714.455 401.399 711.575 404.279 711.575 407.951 c
711.575 415.871 l
711.575 419.543 714.455 422.423 718.127 422.423 c
b
u
u
0.000 0.000 0.000 1.000 K
0 j
0 J
0.287 w
[]0 d
692.423 317.087 m
1038.599 317.087 L
S
U
U
u
u
0.000 0.000 0.000 1.000 K
0 j
0 J
0.287 w
[]0 d
692.423 312.695 m
1038.599 312.695 L
S
U
U
u
u
0.000 0.000 0.000 1.000 K
0 j
0 J
0.287 w
[]0 d
708.839 317.159 m
708.839 396.935 L
764.711 396.935 L
764.711 436.823 L
884.663 436.823 L
S
U
U
u
u
0.000 0.000 0.000 1.000 K
0 j
0 J
0.287 w
[]0 d
1021.823 317.159 m
1021.823 396.935 L
965.951 396.935 L
965.951 436.823 L
845.999 436.823 L
S
U
U
0.000 0.000 0.000 1.000 K
0 j
0 J
0.287 w
[]0 d
725.471 317.087 m
1008.359 317.087 L
1008.359 388.151 L
725.471 388.151 L
725.471 317.087 L
s
u
u
0.000 0.000 0.000 1.000 K
0 j
0 J
0.287 w
[]0 d
708.839 351.863 m
692.423 351.863 L
S
U
U
u
u
0.000 0.000 0.000 1.000 K
0 j
0 J
0.287 w
[]0 d
1021.895 351.863 m
1038.311 351.863 L
S
U
U
u
u
0.000 0.000 0.000 1.000 K
0 j
0 J
0.287 w
[]0 d
708.839 317.303 m
708.839 274.031 L
1022.039 274.175 L
1022.039 317.303 L
S
U
U
u
u
0.000 0.000 0.000 1.000 K
0 j
0 J
0.287 w
[]0 d
708.839 303.911 m
1022.039 303.911 L
S
U
U
0.000 0.000 0.000 1.000 K
0 j
0 J
0.287 w
[]0 d
0.000 0.000 0.000 0.298 k
715.391 299.807 m
734.471 299.807 l
735.119 299.807 735.479 299.447 735.479 298.871 c
735.479 280.151 l
735.479 279.503 735.119 279.144 734.471 279.144 c
715.391 279.144 l
714.815 279.144 714.455 279.503 714.455 280.151 c
714.455 298.871 l
714.455 299.447 714.815 299.807 715.391 299.807 c
b
0.000 0.000 0.000 1.000 K
0 j
0 J
0.287 w
[]0 d
0.000 0.000 0.000 0.298 k
740.159 299.807 m
759.167 299.807 l
759.815 299.807 760.175 299.447 760.175 298.871 c
760.175 280.151 l
760.175 279.503 759.815 279.144 759.167 279.144 c
740.159 279.144 l
739.511 279.144 739.151 279.503 739.151 280.151 c
739.151 298.871 l
739.151 299.447 739.511 299.807 740.159 299.807 c
b
0.000 0.000 0.000 1.000 K
0 j
0 J
0.287 w
[]0 d
0.000 0.000 0.000 0.298 k
998.711 299.807 m
1017.719 299.807 l
1018.367 299.807 1018.727 299.447 1018.727 298.871 c
1018.727 280.151 l
1018.727 279.503 1018.367 279.144 1017.719 279.144 c
998.711 279.144 l
998.063 279.144 997.703 279.503 997.703 280.151 c
997.703 298.871 l
997.703 299.447 998.063 299.807 998.711 299.807 c
b
u
u
0.000 0.000 0.000 1.000 K
0 j
0 J
0.287 w
[]0 d
760.247 296.135 m
997.703 296.135 L
S
U
U
0.000 0.000 0.000 1.000 K
0 j
0 J
0.287 w
[]0 d
833.255 296.135 m
904.175 296.135 L
904.175 282.743 L
833.255 282.743 L
833.255 296.135 L
s
u
u
0.000 0.000 0.000 1.000 K
0 j
0 J
0.287 w
[]0 d
708.839 293.543 m
692.423 293.543 L
S
U
U
u
u
0.000 0.000 0.000 1.000 K
0 j
0 J
0.287 w
[]0 d
1021.895 293.543 m
1038.311 293.543 L
S
U
U
0.000 0.000 0.000 1.000 k
266.903 262.943 m
266.903 223.703 L
266.903 217.655 262.007 212.759 255.959 212.759 C
235.079 212.759 L
229.103 212.759 224.207 217.655 224.207 223.703 C
224.207 262.943 L
266.903 262.943 L
f
0.000 0.000 0.000 1.000 k
751.535 256.895 m
751.535 221.543 L
751.535 215.495 746.567 210.599 740.591 210.599 C
719.711 210.599 L
713.663 210.599 708.767 215.495 708.767 221.543 C
708.767 256.895 L
751.535 256.895 L
f
0.000 0.000 0.000 1.000 k
986.543 256.895 m
986.543 221.543 L
986.543 215.495 981.575 210.599 975.599 210.599 C
954.719 210.599 L
948.671 210.599 943.775 215.495 943.775 221.543 C
943.775 256.895 L
986.543 256.895 L
f
0.000 0.000 0.000 1.000 k
796.751 256.895 m
796.751 221.543 L
796.751 215.495 791.855 210.599 785.807 210.599 C
764.999 210.599 L
758.951 210.599 754.055 215.495 754.055 221.543 C
754.055 256.895 L
796.751 256.895 L
f
0.000 0.000 0.000 1.000 k
547.055 263.159 m
547.055 223.703 L
547.055 217.655 542.159 212.759 536.111 212.759 C
515.231 212.759 L
509.255 212.759 504.359 217.655 504.359 223.703 C
504.359 263.159 L
547.055 263.159 L
f
0.000 0.000 0.000 1.000 k
1031.687 256.895 m
1031.687 221.543 L
1031.687 215.495 1026.720 210.599 1020.743 210.599 C
999.863 210.599 L
993.815 210.599 988.919 215.495 988.919 221.543 C
988.919 256.895 L
1031.687 256.895 L
f
0.000 0.000 0.000 1.000 K
0 j
0 J
0.287 w
[]0 d
0.000 0.000 0.000 0.200 k
270.000 1651.463 m
128.304 1651.463 L
128.304 1625.327 L
270.000 1625.327 L
270.000 1651.463 L
b
0.000 0.000 0.000 1.000 K
0 j
0 J
0.287 w
[]0 d
0.000 0.000 0.000 0.200 k
122.687 1651.463 m
78.479 1651.463 L
78.479 1529.927 L
122.687 1529.927 L
122.687 1651.463 L
b
0.000 0.000 0.000 1.000 K
0 j
0 J
0.287 w
[]0 d
0.000 0.000 0.000 0.200 k
193.967 1618.847 m
128.231 1618.847 L
128.231 1529.927 L
193.967 1529.927 L
193.967 1618.847 L
b
0.000 0.000 0.000 1.000 K
0 j
0 J
0.287 w
[]0 d
0.000 0.000 0.000 0.200 k
269.711 1618.847 m
203.903 1618.847 L
203.903 1529.927 L
269.711 1529.927 L
269.711 1618.847 L
b
0.000 0.000 0.000 1.000 K
0 j
0 J
0.287 w
[]0 d
0.000 0.000 0.000 0.200 k
267.192 1524.671 m
78.191 1524.671 L
78.191 1478.735 L
137.375 1478.735 L
267.192 1524.671 L
b
0.000 0.000 0.000 1.000 K
0 j
0 J
0.287 w
[]0 d
0.000 0.000 0.000 0.498 k
128.159 1581.911 m
130.463 1581.911 L
131.831 1581.911 132.840 1580.903 132.840 1579.535 C
132.840 1558.583 L
132.840 1557.215 131.831 1556.207 130.463 1556.207 C
128.159 1556.207 L
128.159 1581.911 L
b
0.000 0.000 0.000 1.000 K
0 j
0 J
0.287 w
[]0 d
0.000 0.000 0.000 0.498 k
1175.975 1479.959 m
1219.103 1479.959 l
1220.471 1479.959 1221.480 1480.967 1221.480 1482.335 c
1221.480 1508.399 l
1221.480 1509.767 1220.471 1510.775 1219.103 1510.775 c
1175.975 1510.775 l
1174.607 1510.775 1173.671 1509.767 1173.671 1508.399 c
1173.671 1482.335 l
1173.671 1480.967 1174.607 1479.959 1175.975 1479.959 c
b
0.000 0.000 0.000 1.000 K
0 j
0 J
0.287 w
[]0 d
0.000 0.000 0.000 1.000 k
1176.624 1509.119 m
1218.311 1509.119 l
1219.247 1509.119 1219.895 1508.471 1219.895 1507.535 c
1219.895 1503.000 l
1219.895 1502.135 1219.247 1501.487 1218.311 1501.487 c
1176.624 1501.487 l
1175.687 1501.487 1175.039 1502.135 1175.039 1503.000 c
1175.039 1507.535 l
1175.039 1508.471 1175.687 1509.119 1176.624 1509.119 c
b
0.000 0.000 0.000 1.000 K
0 j
0 J
0.287 w
[]0 d
0.000 0.000 0.000 1.000 k
1176.624 1499.183 m
1218.311 1499.183 l
1219.247 1499.183 1219.895 1498.535 1219.895 1497.599 c
1219.895 1493.063 l
1219.895 1492.199 1219.247 1491.551 1218.311 1491.551 c
1176.624 1491.551 l
1175.687 1491.551 1175.039 1492.199 1175.039 1493.063 c
1175.039 1497.599 l
1175.039 1498.535 1175.687 1499.183 1176.624 1499.183 c
b
0.000 0.000 0.000 1.000 K
0 j
0 J
0.287 w
[]0 d
0.000 0.000 0.000 1.000 k
1176.624 1488.743 m
1218.311 1488.743 l
1219.247 1488.743 1219.895 1488.095 1219.895 1487.159 c
1219.895 1482.623 l
1219.895 1481.687 1219.247 1481.039 1218.311 1481.039 c
1176.624 1481.039 l
1175.687 1481.039 1175.039 1481.687 1175.039 1482.623 c
1175.039 1487.159 l
1175.039 1488.095 1175.687 1488.743 1176.624 1488.743 c
b
0.000 0.000 0.000 1.000 K
0 j
0 J
0.287 w
[]0 d
0.000 0.000 0.000 0.498 k
380.231 1160.063 m
380.231 1164.023 378.863 1166.903 377.063 1166.903 C
280.584 1166.903 L
278.783 1166.903 277.415 1164.023 277.415 1160.063 C
380.231 1160.063 L
b
0.000 0.000 0.000 1.000 K
0 j
0 J
0.287 w
[]0 d
0.000 0.000 0.000 0.498 k
889.415 1711.223 m
889.415 1715.111 890.783 1718.063 892.583 1718.063 C
989.063 1718.063 L
990.863 1718.063 992.231 1715.111 992.231 1711.223 C
889.415 1711.223 L
b
0.000 0.000 0.000 1.000 K
0 j
0 J
0.287 w
[]0 d
0.000 0.000 0.000 0.498 k
936.575 1160.063 m
936.575 1164.023 935.207 1166.903 933.407 1166.903 C
836.927 1166.903 L
835.055 1166.903 833.687 1164.023 833.687 1160.063 C
936.575 1160.063 L
b
0.000 0.000 0.000 1.000 K
0 j
0 J
0.287 w
[]0 d
0.000 0.000 0.000 0.498 k
333.072 1711.223 m
333.072 1715.111 334.439 1718.063 336.239 1718.063 C
432.719 1718.063 L
434.591 1718.063 435.959 1715.111 435.959 1711.223 C
333.072 1711.223 L
b
0.000 0.000 0.000 1.000 K
0 j
0 J
0.215 w
[]0 d
0.000 0.000 0.000 0.498 k
215.423 395.711 m
545.615 395.711 L
548.855 395.711 551.807 396.719 554.039 398.663 C
554.039 583.343 L
551.807 585.144 548.855 586.223 545.615 586.223 C
215.423 586.223 L
212.759 586.223 210.239 585.431 208.151 584.063 C
208.151 397.871 L
210.167 396.503 212.759 395.711 215.423 395.711 C
b
0.000 0.000 0.000 1.000 K
0 j
0 J
0.215 w
[]0 d
208.007 370.295 m
208.007 344.447 L
554.183 344.447 L
554.183 370.511 L
208.007 370.295 L
s
0.000 0.000 0.000 1.000 K
0 j
0 J
0.215 w
[]0 d
0.000 0.000 0.000 0.298 k
553.823 388.799 m
518.255 388.799 L
518.255 369.791 L
553.823 369.791 L
553.823 388.799 L
b
0.000 0.000 0.000 1.000 K
0 j
0 J
0.215 w
[]0 d
0.000 0.000 0.000 0.298 k
207.863 388.799 m
243.503 388.799 L
243.503 369.791 L
207.863 369.791 L
207.863 388.799 L
b
0.000 0.000 0.000 1.000 K
0 j
0 J
0.215 w
[]0 d
208.151 337.463 m
554.183 337.463 L
554.183 284.831 L
208.151 284.831 L
208.151 337.463 L
s
0.000 0.000 0.000 1.000 K
0 j
0 J
0.215 w
[]0 d
0.000 0.000 0.000 0.498 k
532.655 636.911 m
234.647 636.911 l
230.975 636.911 228.311 635.903 228.311 634.535 c
228.311 609.479 l
228.311 608.111 230.975 607.103 234.647 607.103 c
532.655 607.103 l
536.255 607.103 538.919 608.111 538.919 609.479 c
538.919 634.535 l
538.919 635.903 536.255 636.911 532.655 636.911 c
b
u
u
0.000 0.000 0.000 1.000 K
0 j
0 J
0.215 w
[]0 d
208.151 600.479 m
553.031 600.479 L
S
U
U
0.000 0.000 0.000 1.000 K
0 j
0 J
0.215 w
[]0 d
0.000 0.000 0.000 0.200 k
220.751 402.551 m
541.295 402.551 l
548.207 402.551 553.895 408.095 553.895 414.791 c
553.895 567.575 l
553.895 574.271 548.207 579.959 541.295 579.959 c
220.751 579.959 l
213.839 579.959 208.295 574.271 208.295 567.575 c
208.295 414.791 l
208.295 408.095 213.839 402.551 220.751 402.551 c
b
0.000 0.000 0.000 1.000 K
0 j
0 J
0.287 w
[]0 d
0.000 0.000 0.000 0.498 k
233.351 335.447 m
266.039 335.447 l
268.775 335.447 270.935 333.287 270.935 330.551 c
270.935 304.991 l
270.935 302.255 268.775 300.024 266.039 300.024 c
233.351 300.024 l
230.615 300.024 228.383 302.255 228.383 304.991 c
228.383 330.551 l
228.383 333.287 230.615 335.447 233.351 335.447 c
b
0.000 0.000 0.000 1.000 K
0 j
0 J
0.287 w
[]0 d
0.000 0.000 0.000 0.498 k
492.839 335.447 m
525.599 335.447 l
528.336 335.447 530.495 333.287 530.495 330.551 c
530.495 304.991 l
530.495 302.255 528.336 300.024 525.599 300.024 c
492.839 300.024 l
490.103 300.024 487.943 302.255 487.943 304.991 c
487.943 330.551 l
487.943 333.287 490.103 335.447 492.839 335.447 c
b
0.000 0.000 0.000 1.000 K
0 j
0 J
0.287 w
[]0 d
0.000 0.000 0.000 0.000 k
265.895 334.367 m
268.271 334.223 269.639 332.783 269.783 330.479 C
269.783 305.063 L
269.639 302.759 268.199 301.319 265.895 301.175 C
233.351 301.175 L
231.119 301.319 229.607 302.759 229.463 305.063 C
229.463 330.479 L
229.607 332.783 230.975 334.223 233.351 334.367 C
265.895 334.367 L
b
0.000 0.000 0.000 1.000 K
0 j
0 J
0.287 w
[]0 d
0.000 0.000 0.000 0.000 k
525.527 334.367 m
527.903 334.223 529.271 332.783 529.415 330.479 C
529.415 305.063 L
529.271 302.759 527.831 301.319 525.527 301.175 C
492.983 301.175 L
490.751 301.319 489.239 302.759 489.095 305.063 C
489.095 330.479 L
489.239 332.783 490.607 334.223 492.983 334.367 C
525.527 334.367 L
b
0.000 0.000 0.000 1.000 K
0 j
0 J
0.287 w
[]0 d
0.000 0.000 0.000 0.498 k
207.791 282.671 m
553.967 282.671 L
553.967 263.015 L
207.791 263.015 L
207.791 282.671 L
b
u
u
0.000 0.000 0.000 1.000 K
0 j
0 J
0.287 w
[]0 d
283.895 284.615 m
283.895 370.655 L
S
U
U
u
u
0.000 0.000 0.000 1.000 K
0 j
0 J
0.287 w
[]0 d
473.903 284.615 m
473.903 370.655 L
S
U
U
u
0.000 0.000 0.000 1.000 K
0 j
0 J
0.287 w
[]0 d
0.000 0.000 0.000 0.498 k
344.951 351.935 m
367.487 351.935 L
367.487 350.927 L
344.951 350.927 L
344.951 351.935 L
b
0.000 0.000 0.000 1.000 K
0 j
0 J
0.287 w
[]0 d
0.000 0.000 0.000 0.498 k
369.935 351.935 m
392.471 351.935 L
392.471 350.927 L
369.935 350.927 L
369.935 351.935 L
b
0.000 0.000 0.000 1.000 K
0 j
0 J
0.287 w
[]0 d
0.000 0.000 0.000 0.498 k
394.919 351.935 m
417.383 351.935 L
417.383 350.927 L
394.919 350.927 L
394.919 351.935 L
b
0.000 0.000 0.000 1.000 K
0 j
0 J
0.287 w
[]0 d
0.000 0.000 0.000 0.498 k
344.951 349.343 m
367.487 349.343 L
367.487 348.335 L
344.951 348.335 L
344.951 349.343 L
b
0.000 0.000 0.000 1.000 K
0 j
0 J
0.287 w
[]0 d
0.000 0.000 0.000 0.498 k
369.935 349.343 m
392.471 349.343 L
392.471 348.335 L
369.935 348.335 L
369.935 349.343 L
b
0.000 0.000 0.000 1.000 K
0 j
0 J
0.287 w
[]0 d
0.000 0.000 0.000 0.498 k
394.919 349.343 m
417.383 349.343 L
417.383 348.335 L
394.919 348.335 L
394.919 349.343 L
b
0.000 0.000 0.000 1.000 K
0 j
0 J
0.287 w
[]0 d
0.000 0.000 0.000 0.498 k
344.951 346.823 m
367.487 346.823 L
367.487 345.815 L
344.951 345.815 L
344.951 346.823 L
b
0.000 0.000 0.000 1.000 K
0 j
0 J
0.287 w
[]0 d
0.000 0.000 0.000 0.498 k
369.935 346.823 m
392.471 346.823 L
392.471 345.815 L
369.935 345.815 L
369.935 346.823 L
b
0.000 0.000 0.000 1.000 K
0 j
0 J
0.287 w
[]0 d
0.000 0.000 0.000 0.498 k
394.919 346.823 m
417.383 346.823 L
417.383 345.815 L
394.919 345.815 L
394.919 346.823 L
b
U
u
0.000 0.000 0.000 1.000 k
398.447 326.879 m
393.191 326.879 L
393.191 309.959 L
398.519 309.959 L
398.519 315.287 L
398.303 319.175 L
404.351 309.959 L
409.463 309.959 L
409.463 326.879 L
404.207 326.879 L
404.207 321.407 L
404.423 317.663 L
398.447 326.879 L
f
0.000 0.000 0.000 1.000 k
379.079 309.959 m
379.727 312.191 L
385.199 312.191 L
385.847 309.959 L
391.319 309.959 L
385.271 326.879 L
379.727 326.879 L
373.679 309.959 L
379.079 309.959 L
f
0.000 0.000 0.000 1.000 k
357.695 309.959 m
357.695 315.647 L
357.551 318.311 L
357.335 320.831 L
357.335 320.831 L
360.431 309.959 L
364.247 309.959 L
367.343 320.831 L
367.415 320.831 L
367.127 317.807 L
367.055 315.072 L
367.055 309.959 L
371.951 309.959 L
371.951 326.879 L
365.255 326.879 L
362.303 316.295 L
359.351 326.879 L
352.655 326.879 L
352.655 309.959 L
357.695 309.959 L
f
0.000 0.000 0.000 0.000 k
384.191 315.719 m
380.735 315.719 L
382.463 321.695 L
384.191 315.719 L
f
U
0.000 0.000 0.000 1.000 K
0 j
0 J
0.287 w
[]0 d
375.119 303.695 m
387.431 303.695 l
388.583 303.695 389.519 302.831 389.519 301.608 c
389.519 295.055 l
389.519 293.903 388.583 292.967 387.431 292.967 c
375.119 292.967 l
373.967 292.967 373.031 293.903 373.031 295.055 c
373.031 301.608 l
373.031 302.831 373.967 303.695 375.119 303.695 c
s
0.000 0.000 0.000 1.000 k
848.951 328.679 m
848.951 329.615 849.095 330.695 849.599 331.415 c
850.103 332.135 850.967 332.495 851.831 332.495 c
853.415 332.495 853.991 331.631 853.991 330.119 c
853.991 323.423 L
855.143 323.423 L
855.143 328.679 l
855.143 329.615 855.215 330.695 855.719 331.415 c
856.295 332.135 857.159 332.495 857.951 332.495 c
859.607 332.495 860.039 331.631 860.039 330.119 c
860.039 323.423 L
861.119 323.423 L
861.119 329.615 l
861.119 331.631 860.903 333.503 858.167 333.503 c
856.655 333.503 855.575 332.855 854.927 331.631 C
854.495 332.711 853.847 333.503 852.047 333.503 c
850.751 333.503 849.599 332.855 849.023 331.775 C
848.951 331.775 L
848.951 333.287 L
847.727 333.287 L
847.727 323.423 L
848.951 323.423 L
848.951 328.679 l
f
0.000 0.000 0.000 1.000 k
833.111 328.679 m
833.111 329.615 833.255 330.695 833.759 331.415 c
834.263 332.135 835.127 332.495 835.919 332.495 c
837.575 332.495 838.079 331.631 838.079 330.119 c
838.079 323.423 L
839.231 323.423 L
839.231 328.679 l
839.231 329.615 839.375 330.695 839.807 331.415 c
840.455 332.135 841.175 332.495 842.111 332.495 c
843.767 332.495 844.199 331.631 844.199 330.119 c
844.199 323.423 L
845.279 323.423 L
845.279 329.615 l
845.279 331.631 844.919 333.503 842.327 333.503 c
840.815 333.503 839.663 332.855 839.015 331.631 C
838.655 332.711 837.935 333.503 836.207 333.503 c
834.839 333.503 833.759 332.855 833.111 331.775 C
833.111 331.775 L
833.111 333.287 L
831.887 333.287 L
831.887 323.423 L
833.111 323.423 L
833.111 328.679 l
f
0.000 0.000 0.000 1.000 k
820.151 336.815 m
816.335 336.815 815.615 333.431 815.615 330.048 c
815.615 326.303 816.407 323.063 820.151 323.063 c
823.823 323.063 824.687 326.303 824.687 329.903 c
824.687 333.000 824.039 336.815 820.151 336.815 c
f
0.000 0.000 0.000 1.000 k
809.567 336.815 m
805.751 336.815 805.031 333.431 805.031 330.048 c
805.031 326.303 805.823 323.063 809.567 323.063 c
813.239 323.063 814.175 326.303 814.175 329.903 c
814.175 333.000 813.527 336.815 809.567 336.815 c
f
0.000 0.000 0.000 1.000 k
794.375 326.879 m
794.519 324.143 796.535 323.063 799.127 323.063 c
801.287 323.063 803.303 324.791 803.303 327.599 c
803.303 330.335 801.503 332.063 799.127 332.063 c
797.831 332.063 797.183 331.919 796.103 331.127 C
797.039 335.591 L
802.583 335.591 L
802.583 336.743 L
795.887 336.743 L
794.807 329.687 L
795.887 329.615 L
796.679 330.623 797.687 330.983 798.767 330.983 c
800.855 330.983 802.151 329.615 802.151 327.599 c
802.151 325.655 800.927 324.143 798.839 324.143 c
797.111 324.143 795.815 325.079 795.527 326.879 C
794.375 326.879 L
f
0.000 0.000 0.000 1.000 k
786.743 323.423 m
788.111 323.423 L
784.367 328.536 L
787.967 333.287 L
786.527 333.287 L
783.719 329.327 L
780.983 333.287 L
779.543 333.287 L
783.071 328.536 L
779.255 323.423 L
780.623 323.423 L
783.719 327.671 L
786.743 323.423 L
f
0.000 0.000 0.000 1.000 k
768.311 336.815 m
764.495 336.815 763.847 333.431 763.847 330.048 c
763.847 326.303 764.567 323.063 768.311 323.063 c
772.055 323.063 772.847 326.303 772.847 329.903 c
772.847 333.000 772.343 336.815 768.311 336.815 c
f
0.000 0.000 0.000 1.000 k
757.727 336.815 m
753.911 336.815 753.191 333.431 753.191 330.048 c
753.191 326.303 753.983 323.063 757.727 323.063 c
761.471 323.063 762.335 326.303 762.335 329.903 c
762.335 333.000 761.759 336.815 757.727 336.815 c
f
0.000 0.000 0.000 1.000 k
747.143 336.815 m
743.327 336.815 742.607 333.431 742.607 330.048 c
742.607 326.303 743.471 323.063 747.143 323.063 c
750.887 323.063 751.751 326.303 751.751 329.903 c
751.751 333.000 751.175 336.815 747.143 336.815 c
f
0.000 0.000 0.000 1.000 k
733.895 332.423 m
733.895 334.223 735.119 335.807 736.919 335.807 c
738.503 335.807 739.799 334.799 739.799 333.000 c
739.799 329.903 736.055 329.903 733.247 326.663 c
732.455 325.655 732.239 324.719 732.239 323.423 C
740.951 323.423 L
740.951 324.431 L
733.535 324.431 L
733.607 325.655 734.399 326.447 735.335 327.167 c
737.351 328.607 741.095 329.615 741.095 333.143 c
741.095 335.159 739.727 336.815 736.991 336.815 c
734.327 336.815 732.671 335.087 732.671 332.423 C
733.895 332.423 L
f
0.000 0.000 0.000 0.000 k
823.463 330.048 m
823.463 327.311 822.959 324.143 820.151 324.143 c
817.487 324.143 816.767 326.447 816.767 329.903 c
816.767 332.783 817.415 335.807 820.079 335.807 c
822.959 335.807 823.463 332.855 823.463 330.048 c
f
0.000 0.000 0.000 0.000 k
812.879 330.048 m
812.879 327.311 812.447 324.143 809.567 324.143 c
806.975 324.143 806.183 326.447 806.183 329.903 c
806.183 332.783 806.831 335.807 809.495 335.807 c
812.447 335.807 812.879 332.855 812.879 330.048 c
f
0.000 0.000 0.000 0.000 k
771.695 330.048 m
771.695 327.311 771.263 324.143 768.311 324.143 c
765.791 324.143 765.071 326.447 765.071 329.903 c
765.071 332.783 765.647 335.807 768.311 335.807 c
771.119 335.807 771.695 332.855 771.695 330.048 c
f
0.000 0.000 0.000 0.000 k
761.111 330.048 m
761.111 327.311 760.679 324.143 757.727 324.143 c
755.207 324.143 754.487 326.447 754.487 329.903 c
754.487 332.783 755.135 335.807 757.727 335.807 c
760.607 335.807 761.111 332.855 761.111 330.048 c
f
0.000 0.000 0.000 0.000 k
750.527 330.048 m
750.527 327.311 750.095 324.143 747.143 324.143 c
744.623 324.143 743.903 326.447 743.903 329.903 c
743.903 332.783 744.479 335.807 747.143 335.807 c
750.023 335.807 750.527 332.855 750.527 330.048 c
f
0.000 0.000 0.000 1.000 K
0 j
0 J
0.287 w
[]0 d
743.687 850.247 m
776.735 850.247 l
779.543 850.247 781.847 847.943 781.847 845.135 c
781.847 812.087 l
781.847 809.279 779.543 807.047 776.735 807.047 c
743.687 807.047 l
740.879 807.047 738.647 809.279 738.647 812.087 c
738.647 845.135 l
738.647 847.943 740.879 850.247 743.687 850.247 c
s
0.000 0.000 0.000 1.000 K
0 j
0 J
0.287 w
[]0 d
540.216 1401.263 m
573.264 1401.263 l
576.072 1401.263 578.303 1398.959 578.303 1396.151 c
578.303 1363.103 l
578.303 1360.295 576.072 1358.063 573.264 1358.063 c
540.216 1358.063 l
537.408 1358.063 535.103 1360.295 535.103 1363.103 c
535.103 1396.151 l
535.103 1398.959 537.408 1401.263 540.216 1401.263 c
s
%%Trailer
_E end