%!PS-Adobe-2.0 EPSF-1.2
%%Creator: Adobe Illustrator exported from Corel Draw 3.0
%%Title:6
%%BoundingBox:-3 496 967 1099
%%CreationDate:(Unknown)
%%ColorUsage:
%%TemplateBox:-3 496 967 1099
%%EndComments
%%BeginProcSet:Adobe_Illustrator_1.1 0 0
% Version 1.0 3/27/1990 $nokeywords$
% Copyright (C) 1990,1991,1992
% Corel Corporation
% All Rights Reserved

/wPmsDict 150 dict def 
wPmsDict begin 

/$debug 25 string def 

/bd {bind def} bind def 
/ld {load def} bd 
/xd {exch def} bd 
/_ null def 

/$c 0 def 
/$m 0 def 
/$y 0 def 
/$k 0 def 
/$t 1 def 
/$n _ def 
/$o 0 def 
/$pf false def 

/$C 0 def 
/$M 0 def 
/$Y 0 def 
/$K 0 def 
/$T 1 def 
/$N _ def 
/$O 0 def 
/$PF false def 

/$h false def 

/$al 0 def 
/$tr 0 def 
/$le 0 def 
/$lx 0 def 
/$ly 0 def 

/$ctm matrix currentmatrix def 
/$ptm matrix def 

/$pn () def 
/$pm matrix def 
/$px 0 def 
/$py 0 def 
/$pxf 0 def 
/$pyf 0 def 
/$psx 10 def 
/$psy 0 def 

/$llx 0 def 
/$lly 0 def 
/$urx 0 def 
/$ury 0 def 


/$Bbllx 0 def 
/$Bblly 0 def 
/$Bburx 0 def 
/$Bbury 0 def 

/$tllx 0 def 
/$tlly 0 def 
/$turx 0 def 
/$tury 0 def 

/$pd [] def 
/$tx 0 def 
/$ty 0 def 

/$sv 0 def 
/@cp /closepath ld 
/@gs /gsave ld 
/@gr /grestore ld 
/@np /newpath ld 
/@sv {/$sv save def}bd 
/@rs {$sv restore}bd 

/@MN { 
2 copy le{pop}{exch pop}ifelse 
}bd 

/setcmykcolor where {pop} 
{ 
/setcmykcolor 
{ 
4 1 roll 
3 {3 index add 1 @MN 1 exch sub 3 1 roll} repeat 
setrgbcolor 
pop 
}bd 
}ifelse 

/@tc 
{ 
dup 1 ge 
{pop} 
{ 
4 { 
dup 
6 -1 roll 
mul 
exch 
}repeat 
pop 
}ifelse 
}bd 

/@scc 
{ 
$c $m $y $k $t @tc 
setcmykcolor 
true 
}bd 
/@SCC 
{ 
$C $M $Y $K $T @tc 
setcmykcolor 
true 
}bd 

/@sft 
{ 
(setfirsttile sft )print 
/$tx $tllx $pxf add dup $tllx gt {$pwid $psx add sub}if def 
/$ty $tury $pyf sub dup $tury lt {$phei $psy add add}if def 
(setfirsttile exit )print 
}bd 

/@stb 
{ 
pathbbox /$ury xd /$urx xd /$lly xd /$llx xd 
}bd 

/@ep 
{ 
{ 
cvx exec 
}forall 
}bd 

/@tp 
{ 

(tile pattern tp )print 
@sv 
/$in true def 
2 copy 
dup $lly le {/$in false def}if 
$phei sub $ury ge {/$in false def}if 
dup $urx ge {/$in false def}if 
$pwid add $llx le {/$in false def}if 
$in 
{ 
@np 
2 copy moveto 
$pwid 0 rlineto 
0 $phei neg rlineto 
$pwid neg 0 rlineto 
0 $phei rlineto 
clip @np 

$pn cvlit load aload pop 
7 -1 roll 
5 index sub 
7 -1 roll 
3 index sub 
translate 
@ep 
pop pop pop pop 
} 
{pop pop}ifelse 
@rs 
(tile pattern exit )print 
}bd 

/@th 
{ 
(tile horizontal th)print 
@sft 
0 1 $tly 1 sub 
{ 
dup $psx mul $tx add 
{ 
dup $llx gt {$pwid sub}{exit}ifelse 
}loop 
exch $phei mul $ty exch sub 

0 1 $tlx 1 sub 
{ 
$pwid mul 
3 copy 
3 -1 roll add exch 
@tp 
pop 
}for 
pop pop 
} for 
(tile horizontal exiting )print 
}bd 

/@tv 
{ 
(tile vertical tv)print 
@sft 
0 1 $tlx 1 sub 
{ 
dup $pwid mul $tx add 
exch $psy mul $ty exch sub 
{ 
dup $ury lt {$phei add}{exit}ifelse 
}loop 

0 1 $tly 1 sub 
{ 
$phei mul 
3 copy sub 
@tp 
pop 
}for 
pop pop 
} for 
(tile vertical exit )print 
}bd 

/@pf 
{ 
(pattern fill pf)print 
@gs 
$pm concat 
@stb 
@gs 1 setgray eofill @gr 
eoclip 
$Bburx $Bbury $pm itransform /$tury xd /$turx xd 
$Bbllx $Bblly $pm itransform /$tlly xd /$tllx xd 
/$wid $turx $tllx sub def 
/$hei $tury $tlly sub def 
$wid 0 gt $hei 0 gt and 
{ 
$pn cvlit load aload pop 
$pd xd 
3 -1 roll sub /$phei xd 
exch sub /$pwid xd 
/$tlx $wid $pwid div ceiling 1 add def 
/$tly $hei $phei div ceiling 1 add def 
$psx 0 eq 
{ 
@tv 
} 
{ 
@th 
}ifelse 
}if 

@gr 
@np 
(pattern fill exit)print 
}bd 

/@xp 
{ 
{ 
dup (text Character is:) print == 
usertime (time before is:)print == 
(0) dup 3 -1 roll 0 exch put 
@gs 
true charpath currentpoint 
$ctm setmatrix 
@pf 
@gr 
@np 
moveto $tr 0 rmoveto 
usertime (time after is:)print == 
}forall 
pop 
}bd 

/@sm 
{ 
/$ctm $ctm currentmatrix def 
}bd 

%--@lorg  move to line origin   length string @torg length string
/@lorg    % moves currentpoint to line origin according to current alignment
  {      
  $lx $ly moveto    
  /$ly $ly $le sub def      % - prepare for next line(tracking)
  $al 0 ne
    {dup      % ->len str len str
    stringwidth   % ->len str len dx dy
    exch 3 index  % ->len str dy len dx
    1 sub         % ->len str dy len dx (len-1)
    $tr mul add   % ->len str dy len dx+(len-1)*$tr
    neg
    exch neg      % ->len str -dx_total dy len
    $al 1 eq      % check for centered alignment
    {2 div exch 2 div exch} if  
    rmoveto} if
  }bd

/@ft 
{ 
$pf 
{@xp} 
{ 
@scc 
{$tr exch 0 exch ashow pop} 
{pop pop}ifelse 
}ifelse 
}bd 

/@st 
{ 
$PF 
{} 
{ 
@SCC 
{ 
{ 
(0) dup 3 -1 roll 0 exch put 
@gs 
true charpath currentpoint 
$ctm setmatrix $ptm concat 
stroke 
@gr 
moveto $tr 0 rmoveto 
}forall 
pop 
} 
{pop pop}ifelse 
}ifelse 
}bd 
/@pt 
{ 
dup length exch 
}bd 
/@te 
{ 
@pt 
@lorg 
@ft 
}bd 

/@tr 
{ 
@pt 
@lorg 
@st 
}bd 
/@ta 
{ 
@pt 
@lorg 
2 copy 
@gs @ft @gr 
/$lx 0 def 
/$ly 0 def 
@st 
}bd 















/g { 
1 exch sub /$k xd 
/$c 0 def /$m 0 def /$y 0 def /$t 1 def /$n _ def /$pf false def 
}bd 

/G { 
1 exch sub /$K xd 
/$C 0 def /$M 0 def /$Y 0 def /$T 1 def /$N _ def /$PF false def 
}bd 

/k { 
/$k xd /$y xd /$m xd /$c xd 
/$t 1 def /$n _ def /$pf false def 
}bd 

/K { 
/$K xd /$Y xd /$M xd /$C xd 
/$T 1 def /$N _ def /$PF false def 
}bd 

/x { 
/$t xd /$n xd 
/$k xd /$y xd /$m xd /$c xd /$pf false def 
}bd 

/X { 
/$T xd /$N xd 
/$K xd /$Y xd /$M xd /$C xd /$PF false def 
}bd 

/d /setdash ld 

/i { 
dup 0 ne {setflat} {pop} ifelse 
}bd 

/j /setlinejoin ld 

/J /setlinecap ld 

/M /setmiterlimit ld 

/w /setlinewidth ld 

/O { 
/$o xd 
}bd 

/R { 
/$O xd 
}bd 


/c /curveto ld 

/C /c ld 

/v { 
currentpoint
6 2 roll 
curveto 
}bd

/V /v ld 

/y { 
2 copy curveto 
}bd 

/Y /y ld 

/l /lineto ld 

/L /l ld 

/m /moveto ld 



/n /newpath ld 

/N /newpath ld 

/F { 
$pf 
{@pf} 
{ 
@scc 
{eofill}if 
}ifelse 
}bd 

/f { 
@cp F 
}bd 
/S { 
$PF 
{} 
{ 
@SCC 
{ 
@sm 
$ptm concat 
stroke 
$ctm setmatrix 
}if 
}ifelse 
}bd 
/s { 
@cp 
S 
}bd 

/B { 
@gs F @gr 
S 
}bd 
/b { 
@cp 
B 
}bd 

/W { 
oeclip 
@np 
}bd 

/p { 
/$pm xd 
7 {pop} repeat 
/$pyf xd /$pxf xd 
/$pn xd 
/$pf true def 
}bd 

/P { 
11 {pop} repeat 
}bd 

/@p { 
/$pm xd 
/$psy xd 
/$psx xd 
/$pyf xd /$pxf xd 
/$pn xd 
/$pf true def 
}bd 

/@b { 
/$Bbury xd /$Bburx xd 
/$Bblly xd /$Bbllx xd 
}bd 


/z { 
/$al xd 
/$tr xd 
/$le xd 
exch findfont exch scalefont setfont 
}bd 

/Z { 
dup type 0 type eq { /$bDir xd } if
findfont 
dup maxlength 1 add dict exch 



dup 
{1 index /FID ne 
{ 
3 index 
3 1 roll put 
} 
{pop pop}ifelse 
} forall 



pop 
dup dup /Encoding get 
256 array copy 
dup /$fe xd
/Encoding exch put 

dup /Fontname 3 index put 

}bd 

/e { 
@sm 
concat 
[ 
/t {@te}def 
}bd 

/r { 
@sm 
concat 
[ 
/t {@tr}def 
}bd 

/o { 
@sm 
concat 
[ 
/t {pop}def 
}bd 

/a { 
@sm 
concat 
[ 
/t {@ta}def 
}bd 

/@o{
@sm 
concat 
[ 
/t {@t@a}def 
}bd 

/I { 
@sm 
concat 
[ 
/t {pop}def 
}bd 

/t {@te}def 

/T { 
cleartomark 
/$lx 0 def 
/$ly 0 def 
$ctm setmatrix 
}bd 


/u {}bd 

/U {}bd 

/A {pop}bd 

/h { 
$h true def 
}bd 

/h { 
$h true def 
}bd 

/q /@gs ld 

/Q /@gr ld 



/E { 
5 array astore 
exch cvlit exch def 
}bd 

/` {}bd 

/~ {}bd 

/@ {}bd 

/& {}bd 

/CorelDrawRencodeVect [ 
16#80/grave 
16#81/circumflex 
16#82/tilde 
16#83/dotlessi 
16#84/florin 
16#85/quotedblleft 
16#86/quotedblright 
16#87/guilsinglleft 
16#88/guilsinglright 
16#89/fi 
16#8a/fl 
16#8b/dagger 
16#8c/daggerdbl 
16#8d/endash 
16#8e/periodcentered 
16#8f/breve 
16#90/quotedblbase 
16#91/ellipsis 
16#92/perthousand 
16#a1/exclamdown 
16#a2/cent 
16#a3/sterling 
16#a4/currency 
16#a5/yen 
16#a6/bar 
16#a7/section 
16#a8/dieresis 
16#a9/copyright 
16#aa/ordfeminine 
16#ab/guillemotleft 
16#ac/logicalnot 
16#ad/emdash 
16#ae/registered 
16#af/spac 
16#b0/ring 
16#b1/spac 
16#b2/spac 
16#b3/spac 
16#b4/acute 
16#b5/spac 
16#b6/paragraph 
16#b7/bullet 
16#b8/cedilla 
16#b9/spac 
16#ba/ordmasculine 
16#bb/guillemotright 
16#bc/spac 
16#bd/spac 
16#be/spac 
16#bf/questiondown 
16#c0/Agrave 
16#c1/Aacute 
16#c2/Acircumflex 
16#c3/Atilde 
16#c4/Adieresis 
16#c5/Aring 
16#c6/AE 
16#c7/Ccedilla 
16#c8/Egrave 
16#c9/Eacute 
16#ca/Ecircumflex 
16#cb/Edieresis 
16#cc/Igrave 
16#cd/Iacute 
16#ce/Icircumflex 
16#cf/Idieresis 
16#d0/spac 
16#d1/Ntilde 
16#d2/Ograve 
16#d3/Oacute 
16#d4/Ocircumflex 
16#d5/Otilde 
16#d6/Odieresis 
16#d7/OE 
16#d8/Oslash 
16#d9/Ugrave 
16#da/Uacute 
16#db/Ucircumflex 
16#dc/Udieresis 
16#dd/space 
16#de/spac 
16#df/germandbls 
16#e0/agrave 
16#e1/aacute 
16#e2/acircumflex 
16#e3/atilde 
16#e4/adieresis 
16#e5/aring 
16#e6/ae 
16#e7/ccedilla 
16#e8/egrave 
16#e9/eacute 
16#ea/ecircumflex 
16#eb/edieresis 
16#ec/igrave 
16#ed/iacute 
16#ee/icircumflex 
16#ef/idieresis 
16#f0/space 
16#f1/ntilde 
16#f2/ograve 
16#f3/oacute 
16#f4/ocircumflex 
16#f5/otilde 
16#f6/odieresis 
16#f7/oe 
16#f8/oslash 
16#f9/ugrave 
16#fa/uacute 
16#fb/ucircumflex 
16#fc/udieresis 
16#fd/spac 
16#fe/spac 
16#ff/ydieresis 
] def
%%EndProlog
%%BeginSetup
%%BeginEncoding:_Times-Bold Times-Bold
[
]/_Times-Bold/Times-Bold Z
%%EndEncoding
%%EndSetup
0.000 0.000 0.000 1.000 K
0 j
0 J
1.008 w
[]0 d
0.000 0.000 0.000 0.000 k
916.991 767.375 m
914.039 771.335 907.703 772.415 901.943 773.351 C
850.463 776.375 796.463 776.159 744.911 773.351 c
739.583 773.063 735.263 770.903 732.311 767.375 C
723.455 746.567 714.599 724.319 714.743 703.943 C
707.831 695.375 704.375 681.407 704.015 668.159 C
701.567 666.072 699.695 664.703 700.631 661.031 C
701.135 642.383 702.287 620.495 705.455 612.503 C
706.535 609.911 707.615 608.183 712.007 608.183 C
938.303 608.183 L
941.615 608.183 943.775 609.983 944.423 612.503 C
948.311 628.199 948.887 646.271 949.535 661.319 C
949.535 665.783 947.519 667.151 945.791 668.591 C
945.935 680.471 941.543 696.239 935.423 704.087 C
934.415 727.775 925.271 746.135 916.991 767.375 C
b
0.000 0.000 0.000 1.000 K
0 j
0 J
0.215 w
[]0 d
0.000 0.000 0.000 0.498 k
707.615 635.831 m
943.847 635.975 L
945.071 635.903 946.151 635.471 946.223 634.103 c
946.511 630.863 942.335 616.103 940.391 610.271 C
939.959 608.975 938.015 608.183 935.999 608.183 C
869.255 608.183 L
869.327 622.223 L
869.255 624.527 867.455 626.183 863.495 626.183 C
787.103 626.255 L
783.215 625.967 780.839 625.175 781.127 622.151 C
781.055 608.183 L
711.863 608.183 L
710.063 608.183 707.543 609.120 707.471 610.703 C
706.535 616.679 704.159 630.216 704.303 633.815 c
704.447 635.687 705.959 635.831 707.615 635.831 C
b
u
u
U
u
0.000 0.000 0.000 1.000 K
0 j
0 J
0.215 w
[]0 d
-2.591 534.455 m
-2.591 497.879 L
S
U
U
0.000 0.000 0.000 1.000 k
-2.807 518.183 m
9.287 514.583 L
9.287 521.711 L
-2.807 518.183 L
f
u
u
U
u
0.000 0.000 0.000 1.000 K
0 j
0 J
0.215 w
[]0 d
611.639 532.583 m
611.639 496.439 L
S
U
U
0.000 0.000 0.000 1.000 k
611.711 518.687 m
599.687 515.159 L
599.687 522.288 L
611.711 518.687 L
f
0.000 0.000 0.000 1.000 k
312.983 513.000 m
313.991 513.000 L
313.991 517.463 L
313.991 519.192 314.711 520.415 316.367 520.415 C
317.591 520.415 318.024 519.479 318.024 518.399 C
318.024 513.000 L
319.031 513.000 L
319.031 517.463 L
319.031 518.903 319.463 520.415 321.191 520.415 C
322.631 520.415 323.063 519.695 323.063 518.399 C
323.063 513.000 L
324.072 513.000 L
324.072 518.399 L
324.072 520.271 323.207 521.135 321.407 521.135 C
320.399 521.135 319.391 520.703 318.815 519.623 C
318.599 520.703 317.591 521.135 316.584 521.135 C
315.215 521.135 314.423 520.631 313.919 519.623 C
313.919 519.623 L
313.919 520.919 L
312.983 520.919 L
312.983 513.000 L
312.983 513.000 L
f
0.000 0.000 0.000 1.000 k
300.024 513.000 m
301.031 513.000 L
301.031 517.463 L
301.031 519.192 301.679 520.415 303.407 520.415 C
304.632 520.415 305.063 519.479 305.063 518.399 C
305.063 513.000 L
306.072 513.000 L
306.072 517.463 L
306.072 518.903 306.503 520.415 308.231 520.415 C
309.671 520.415 310.103 519.695 310.103 518.399 C
310.103 513.000 L
311.111 513.000 L
311.111 518.399 L
311.111 520.271 310.175 521.135 308.447 521.135 C
307.439 521.135 306.431 520.703 305.855 519.623 C
305.639 520.703 304.632 521.135 303.623 521.135 C
302.255 521.135 301.463 520.631 300.959 519.623 C
300.959 519.623 L
300.959 520.919 L
300.024 520.919 L
300.024 513.000 L
300.024 513.000 L
f
0.000 0.000 0.000 1.000 k
286.632 516.024 m
286.632 514.007 288.072 512.783 290.159 512.783 C
292.175 512.783 293.903 514.223 293.903 516.384 C
293.903 518.615 292.536 520.199 290.303 520.199 C
289.439 520.199 288.503 519.839 287.927 519.192 C
287.927 519.192 L
288.647 522.863 L
293.399 522.863 L
293.399 523.727 L
287.927 523.727 L
286.847 518.039 L
287.711 518.039 L
288.287 518.903 289.151 519.408 290.159 519.408 C
291.743 519.408 292.967 518.183 292.967 516.456 C
292.967 514.943 291.887 513.575 290.159 513.575 C
288.719 513.575 287.639 514.583 287.495 516.024 C
286.632 516.024 L
f
0.000 0.000 0.000 1.000 k
285.263 521.063 m
285.048 522.935 283.823 523.943 281.951 523.943 C
278.351 523.943 277.991 519.839 277.991 518.471 C
277.991 514.223 279.144 512.783 281.807 512.783 C
283.895 512.783 285.479 514.223 285.479 516.384 C
285.479 518.471 284.039 520.055 281.951 520.055 C
280.656 520.055 279.575 519.264 279.000 518.255 C
279.000 518.255 L
279.000 520.199 279.431 523.079 282.024 523.079 C
283.247 523.079 284.039 522.288 284.255 521.063 C
285.263 521.063 L
f
0.000 0.000 0.000 1.000 k
269.279 516.456 m
269.135 514.151 270.719 512.783 272.951 512.783 C
274.967 512.783 276.767 513.935 276.767 516.024 C
276.767 517.463 275.903 518.471 274.536 518.687 C
274.536 518.687 L
275.687 519.048 276.335 519.911 276.335 521.135 C
276.335 523.079 274.680 523.943 272.951 523.943 C
270.863 523.943 269.495 522.432 269.495 520.415 C
270.503 520.415 L
270.503 521.927 271.439 523.079 272.951 523.079 C
274.319 523.079 275.327 522.503 275.327 521.063 C
275.327 519.695 274.175 519.048 273.168 519.048 C
272.303 519.048 L
272.303 518.255 L
273.168 518.255 L
274.680 518.255 275.759 517.463 275.759 515.879 C
275.759 514.367 274.391 513.575 272.951 513.575 C
271.151 513.575 270.144 514.655 270.287 516.456 C
269.279 516.456 L
f
0.000 0.000 0.000 1.000 k
260.639 515.663 m
265.680 515.663 L
265.680 513.000 L
266.615 513.000 L
266.615 515.663 L
268.127 515.663 L
268.127 516.456 L
266.615 516.456 L
266.615 523.871 L
265.680 523.871 L
260.639 516.599 L
260.639 515.663 L
f
u
u
0.000 0.000 0.000 1.000 K
0 j
0 J
0.215 w
[]0 d
719.063 992.735 m
704.951 1004.687 L
S
U
U
u
u
0.000 0.000 0.000 1.000 K
0 j
0 J
0.215 w
[]0 d
929.303 992.735 m
943.343 1004.687 L
S
U
U
0.000 0.000 0.000 1.000 K
0 j
0 J
1.008 w
[]0 d
0.000 0.000 0.000 0.000 k
916.199 1089.215 m
913.247 1093.175 906.911 1094.255 901.151 1095.192 C
849.671 1098.288 795.671 1098.000 744.119 1095.192 c
738.791 1094.903 734.471 1092.743 731.519 1089.215 C
722.663 1068.407 713.807 1046.159 714.024 1025.783 C
707.039 1017.215 703.583 1003.247 703.223 989.999 C
700.775 987.911 698.903 986.615 699.839 982.871 C
700.343 964.223 701.495 939.599 704.663 931.607 C
705.743 929.015 706.823 927.287 711.215 927.287 C
937.511 927.287 L
940.823 927.287 942.983 929.087 943.631 931.607 C
947.519 947.375 948.095 968.183 948.743 983.159 C
948.743 987.623 946.727 988.991 944.999 990.431 C
945.143 1002.311 940.751 1018.079 934.631 1025.927 C
933.623 1049.615 924.479 1067.975 916.199 1089.215 C
b
0.000 0.000 0.000 1.000 K
0 j
0 J
0.215 w
[]0 d
0.000 0.000 0.000 0.498 k
721.295 992.735 m
927.431 992.735 l
928.655 992.735 929.591 991.871 929.591 990.647 c
929.591 969.551 l
929.591 968.327 928.655 967.463 927.431 967.463 c
721.295 967.463 l
720.071 967.463 719.207 968.327 719.207 969.551 c
719.207 990.647 l
719.207 991.871 720.071 992.735 721.295 992.735 c
b
0.000 0.000 0.000 1.000 K
0 j
0 J
0.575 w
[]0 d
0.000 0.000 0.000 0.200 k
721.583 703.943 m
928.223 703.943 L
926.351 724.607 918.647 746.351 910.079 765.503 C
880.847 766.439 855.071 767.303 826.055 767.303 c
796.895 767.303 768.311 766.295 739.151 765.215 C
729.791 745.775 723.167 723.527 721.583 703.943 C
b
0.000 0.000 0.000 1.000 K
0 j
0 J
0.575 w
[]0 d
0.000 0.000 0.000 0.200 k
716.471 1025.855 m
750.887 1027.727 790.271 1028.807 824.831 1028.807 c
859.391 1028.807 897.335 1027.799 931.967 1025.855 C
930.095 1046.447 922.463 1068.192 913.895 1087.343 C
884.591 1088.279 854.279 1089.144 825.263 1089.144 c
796.175 1089.144 763.199 1088.135 734.039 1087.055 C
724.751 1067.615 718.127 1045.367 716.471 1025.855 C
b
0.000 0.000 0.000 1.000 K
0 j
0 J
0.215 w
[]0 d
0.000 0.000 0.000 0.498 k
961.847 724.031 m
940.823 724.031 L
937.727 724.031 933.839 721.583 933.839 718.487 C
935.351 705.815 L
935.567 703.151 935.423 703.511 937.655 701.207 C
959.543 701.495 L
962.639 701.495 967.031 703.943 967.031 707.039 C
967.391 718.487 L
967.391 721.583 964.943 724.031 961.847 724.031 C
b
0.000 0.000 0.000 1.000 K
0 j
0 J
0.215 w
[]0 d
0.000 0.000 0.000 0.498 k
961.055 1045.871 m
940.031 1045.871 L
936.935 1045.871 933.047 1043.423 933.047 1040.327 C
934.631 1027.655 L
934.775 1024.991 934.703 1025.351 936.863 1023.047 C
958.751 1023.335 L
961.847 1023.335 966.239 1025.783 966.239 1028.879 C
966.599 1040.327 L
966.599 1043.423 964.151 1045.871 961.055 1045.871 C
b
0.000 0.000 0.000 1.000 K
0 j
0 J
0.215 w
[]0 d
0.000 0.000 0.000 0.498 k
688.751 723.815 m
709.703 723.815 L
712.871 723.815 716.255 721.367 716.255 718.271 C
715.175 705.599 L
714.959 702.935 715.103 703.295 712.943 700.991 C
691.055 701.207 L
687.887 701.207 683.567 703.655 683.567 706.823 C
683.135 718.271 L
683.135 721.367 685.583 723.815 688.751 723.815 C
b
0.000 0.000 0.000 1.000 K
0 j
0 J
0.215 w
[]0 d
0.000 0.000 0.000 0.498 k
687.959 1045.655 m
708.983 1045.655 L
712.079 1045.655 715.463 1043.207 715.463 1040.111 C
714.383 1027.439 L
714.167 1024.775 714.311 1025.135 712.151 1022.831 C
690.263 1023.119 L
687.096 1023.119 682.775 1025.567 682.775 1028.663 C
682.343 1040.111 L
682.343 1043.207 684.791 1045.655 687.959 1045.655 C
b
0.000 0.000 0.000 1.000 K
0 j
0 J
0.215 w
[]0 d
0.000 0.000 0.000 1.000 k
707.975 608.183 m
737.495 608.183 L
737.495 546.408 L
736.919 540.288 707.255 541.295 707.687 546.479 C
707.975 608.183 L
b
0.000 0.000 0.000 1.000 K
0 j
0 J
0.215 w
[]0 d
0.000 0.000 0.000 1.000 k
707.183 927.287 m
736.703 927.287 L
736.703 865.799 L
736.127 859.679 706.463 860.687 706.895 865.871 C
707.183 927.287 L
b
0.000 0.000 0.000 1.000 K
0 j
0 J
0.215 w
[]0 d
0.000 0.000 0.000 1.000 k
912.383 608.111 m
942.119 608.111 L
942.119 546.408 L
941.615 540.288 911.951 541.295 912.311 546.479 C
912.383 608.111 L
b
0.000 0.000 0.000 1.000 K
0 j
0 J
0.215 w
[]0 d
0.000 0.000 0.000 1.000 k
911.591 927.287 m
941.327 927.287 L
941.327 866.015 L
940.823 859.895 911.159 860.903 911.519 866.087 C
911.591 927.287 L
b
0.000 0.000 0.000 1.000 K
0 j
0 J
0.215 w
[]0 d
0.000 0.000 0.000 0.498 k
728.927 943.847 m
920.303 943.919 L
920.303 931.823 L
920.159 929.303 918.503 927.143 914.399 927.143 C
736.199 927.143 L
734.255 927.215 728.927 928.367 728.855 931.535 C
728.927 943.847 L
b
0.000 0.000 0.000 1.000 K
0 j
0 J
0.215 w
[]0 d
0.000 0.000 0.000 0.000 k
759.671 985.391 m
759.743 987.047 758.447 988.559 754.991 988.559 C
719.135 988.559 L
719.135 971.639 L
754.847 971.639 L
757.943 971.567 759.671 972.791 759.671 974.807 C
759.671 985.391 L
b
0.000 0.000 0.000 1.000 K
0 j
0 J
0.215 w
[]0 d
0.000 0.000 0.000 0.000 k
890.855 985.391 m
890.783 987.047 892.079 988.559 895.535 988.559 C
929.447 988.559 L
929.447 971.639 L
895.679 971.639 L
892.655 971.567 890.855 972.791 890.855 974.807 C
890.855 985.391 L
b
0.000 0.000 0.000 1.000 k
808.919 997.559 m
842.327 997.559 l
842.903 997.559 843.263 997.415 843.263 997.127 c
843.263 995.687 l
843.263 995.471 842.903 995.255 842.327 995.255 c
808.919 995.255 l
808.415 995.255 807.983 995.471 807.983 995.687 c
807.983 997.127 l
807.983 997.415 808.415 997.559 808.919 997.559 c
f
0.000 0.000 0.000 1.000 k
851.903 997.559 m
885.311 997.559 l
885.815 997.559 886.247 997.415 886.247 997.127 c
886.247 995.687 l
886.247 995.471 885.815 995.255 885.311 995.255 c
851.903 995.255 l
851.327 995.255 850.967 995.471 850.967 995.687 c
850.967 997.127 l
850.967 997.415 851.327 997.559 851.903 997.559 c
f
0.000 0.000 0.000 1.000 k
764.567 997.559 m
797.975 997.559 l
798.479 997.559 798.911 997.415 798.911 997.127 c
798.911 995.687 l
798.911 995.471 798.479 995.255 797.975 995.255 c
764.567 995.255 l
763.991 995.255 763.631 995.471 763.631 995.687 c
763.631 997.127 l
763.631 997.415 763.991 997.559 764.567 997.559 c
f
0.000 0.000 0.000 1.000 K
0 j
0 J
0.215 w
[]0 d
0.000 0.000 0.000 0.498 k
912.455 608.327 m
912.455 597.671 L
845.207 597.671 L
832.607 588.599 819.215 588.599 803.231 597.671 C
737.423 597.671 L
737.423 608.327 L
912.455 608.327 L
b
0.000 0.000 0.000 1.000 K
0 j
0 J
0.215 w
[]0 d
0.000 0.000 0.000 1.000 k
911.663 927.215 m
911.663 919.295 L
844.415 919.295 L
831.815 910.223 818.423 910.223 802.439 919.295 C
736.703 919.295 L
736.703 927.215 L
911.663 927.215 L
b
u
u
0.000 0.000 0.000 1.000 K
0 j
0 J
1.008 w
[]0 d
711.359 964.151 m
710.855 972.719 708.983 978.767 703.223 990.071 C
S
U
U
u
u
0.000 0.000 0.000 1.000 K
0 j
0 J
1.008 w
[]0 d
936.359 964.151 m
936.935 972.719 938.735 978.767 944.567 990.071 C
S
U
U
0.000 0.000 0.000 1.000 K
0 j
0 J
0.215 w
[]0 d
0.000 0.000 0.000 1.000 k
733.679 939.959 m
778.463 939.959 l
779.975 939.959 781.271 938.663 781.271 937.151 c
781.271 932.831 l
781.271 931.247 779.975 930.023 778.463 930.023 c
733.679 930.023 l
732.095 930.023 730.871 931.247 730.871 932.831 c
730.871 937.151 l
730.871 938.663 732.095 939.959 733.679 939.959 c
b
0.000 0.000 0.000 1.000 K
0 j
0 J
0.215 w
[]0 d
0.000 0.000 0.000 1.000 k
870.335 939.959 m
915.119 939.959 l
916.631 939.959 917.927 938.663 917.927 937.151 c
917.927 932.831 l
917.927 931.247 916.631 930.023 915.119 930.023 c
870.335 930.023 l
868.751 930.023 867.527 931.247 867.527 932.831 c
867.527 937.151 l
867.527 938.663 868.751 939.959 870.335 939.959 c
b
u
u
0.000 0.000 0.000 1.000 K
0 j
0 J
0.215 w
[]0 d
719.135 1000.943 m
786.743 1002.599 861.911 1002.599 929.519 1000.943 C
S
U
U
u
u
0.000 0.000 0.000 1.000 K
0 j
0 J
0.215 w
[]0 d
714.743 703.655 m
717.551 703.943 L
S
U
U
u
u
0.000 0.000 0.000 1.000 K
0 j
0 J
0.215 w
[]0 d
714.024 1025.495 m
716.759 1025.783 L
S
U
U
u
u
0.000 0.000 0.000 1.000 K
0 j
0 J
0.215 w
[]0 d
932.687 703.943 m
935.711 703.583 L
S
U
U
u
u
0.000 0.000 0.000 1.000 K
0 j
0 J
0.215 w
[]0 d
931.967 1025.783 m
934.919 1025.423 L
S
U
U
u
u
0.000 0.000 0.000 1.000 K
0 j
0 J
0.215 w
[]0 d
750.167 773.567 m
750.743 765.863 L
753.335 765.863 L
752.831 773.567 L
S
U
U
u
u
0.000 0.000 0.000 1.000 K
0 j
0 J
0.215 w
[]0 d
749.375 1095.407 m
749.951 1087.703 L
752.543 1087.703 L
752.039 1095.407 L
S
U
U
u
u
0.000 0.000 0.000 1.000 K
0 j
0 J
0.215 w
[]0 d
901.943 773.567 m
901.439 766.079 L
898.847 766.079 L
899.279 773.567 L
S
U
U
u
u
0.000 0.000 0.000 1.000 K
0 j
0 J
0.215 w
[]0 d
901.151 1095.407 m
900.647 1087.919 L
898.055 1087.919 L
898.487 1095.407 L
S
U
U
u
u
0.000 0.000 0.000 1.000 K
0 j
0 J
0.215 w
[]0 d
801.287 1027.295 m
801.287 1005.407 L
804.383 1005.407 L
804.959 1027.223 L
S
U
U
u
u
0.000 0.000 0.000 1.000 K
0 j
0 J
0.215 w
[]0 d
844.487 1027.295 m
845.063 1005.407 L
848.159 1005.407 L
848.159 1027.223 L
S
U
U
0.000 0.000 0.000 1.000 K
0 j
0 J
0.575 w
[]0 d
0.000 0.000 0.000 0.498 k
714.887 967.463 m
933.911 967.463 L
935.135 967.391 936.215 966.887 936.287 965.519 c
936.575 962.351 936.359 952.055 935.783 946.007 C
935.351 944.711 934.847 943.919 932.831 943.919 C
714.959 943.775 L
713.159 943.775 712.079 944.711 712.007 946.295 C
711.072 952.271 711.431 961.775 711.647 965.375 c
711.791 967.319 713.303 967.463 714.887 967.463 C
b
0.000 0.000 0.000 1.000 K
0 j
0 J
0.215 w
[]0 d
0.000 0.000 0.000 0.098 k
728.423 961.919 m
750.527 961.919 l
750.815 961.919 750.959 961.703 750.959 961.415 c
750.959 953.927 l
750.959 953.639 750.815 953.495 750.527 953.495 c
728.423 953.495 l
728.135 953.495 727.919 953.639 727.919 953.927 c
727.919 961.415 l
727.919 961.703 728.135 961.919 728.423 961.919 c
b
0.000 0.000 0.000 1.000 K
0 j
0 J
0.215 w
[]0 d
0.000 0.000 0.000 0.098 k
897.479 961.919 m
919.583 961.919 l
919.871 961.919 920.087 961.703 920.087 961.415 c
920.087 953.927 l
920.087 953.639 919.871 953.495 919.583 953.495 c
897.479 953.495 l
897.191 953.495 897.047 953.639 897.047 953.927 c
897.047 961.415 l
897.047 961.703 897.191 961.919 897.479 961.919 c
b
u
u
0.000 0.000 0.000 1.000 K
0 j
0 J
0.215 w
[]0 d
719.207 991.295 m
719.279 1002.959 719.063 1014.551 716.327 1026.215 C
S
U
U
u
u
0.000 0.000 0.000 1.000 K
0 j
0 J
0.215 w
[]0 d
929.303 991.295 m
929.303 1002.887 929.303 1014.479 931.679 1026.144 C
S
U
U
u
u
0.000 0.000 0.000 1.000 K
0 j
0 J
0.215 w
[]0 d
731.159 967.247 m
731.159 1026.576 L
S
U
U
u
u
0.000 0.000 0.000 1.000 K
0 j
0 J
0.215 w
[]0 d
917.567 967.247 m
917.567 1026.647 L
S
U
U
u
u
0.000 0.000 0.000 1.000 K
0 j
0 J
0.215 w
[]0 d
711.287 950.687 m
936.215 950.687 L
S
U
U
0.000 0.000 0.000 1.000 K
0 j
0 J
1.008 w
[]0 d
0.000 0.000 0.000 0.000 k
147.167 1036.007 m
150.191 1035.071 154.295 1034.423 157.103 1035.720 C
181.151 1056.096 207.575 1075.607 235.511 1091.015 C
246.383 1096.055 259.271 1096.991 272.159 1096.991 C
328.607 1096.991 L
333.719 1098.791 337.967 1099.439 344.087 1099.439 C
401.975 1099.151 458.711 1099.583 517.895 1098.503 C
532.943 1098.503 540.503 1093.175 545.903 1088.135 C
573.911 1053.359 596.879 1020.095 596.663 1012.751 C
596.663 957.383 L
586.727 957.383 L
581.759 957.383 580.751 955.799 579.815 952.775 C
578.159 931.103 L
532.799 926.351 L
531.144 947.447 528.336 967.967 510.695 977.471 c
493.919 986.471 446.255 987.047 430.631 977.471 c
415.871 968.471 409.463 945.431 411.551 926.783 C
412.991 922.967 410.183 921.455 404.063 921.455 C
166.391 921.455 L
164.015 944.063 158.256 970.415 137.375 979.487 c
117.575 988.127 77.327 986.471 55.007 978.335 c
45.215 974.735 34.991 952.199 37.007 937.583 C
24.767 938.807 L
24.767 963.935 L
4.823 963.935 L
4.895 966.239 L
4.391 973.295 4.895 980.783 5.687 987.767 C
6.695 992.015 L
10.439 1002.887 L
12.887 1008.503 17.135 1010.663 23.039 1012.175 C
59.687 1023.047 95.471 1026.000 135.719 1030.535 C
140.471 1030.823 144.431 1033.199 147.167 1036.007 C
b
0.000 0.000 0.000 1.000 K
0 j
0 J
1.008 w
[]0 d
0.000 0.000 0.000 0.000 k
461.231 714.095 m
458.135 713.231 454.031 712.583 451.223 713.879 C
427.247 734.183 400.751 753.767 372.887 769.103 C
362.015 774.215 349.055 775.151 336.167 775.151 C
279.719 775.151 L
274.608 776.951 270.431 777.599 264.239 777.599 C
206.351 777.311 149.615 777.671 90.503 776.663 C
75.455 776.663 67.896 771.335 62.495 766.295 C
34.487 731.519 11.519 698.255 11.663 690.911 C
11.663 635.543 L
21.671 635.543 L
26.639 635.543 27.647 633.959 28.583 630.935 C
30.239 609.264 L
75.527 604.511 L
77.183 625.607 80.063 646.127 97.631 655.631 c
114.407 664.631 162.071 665.207 177.695 655.631 c
192.455 646.631 198.935 623.591 196.775 604.943 C
195.335 601.055 198.143 599.615 204.263 599.615 C
441.935 599.615 L
444.383 622.151 450.071 648.503 470.951 657.647 c
490.823 666.287 531.072 664.631 553.391 656.423 c
563.111 652.895 573.336 630.359 571.319 615.743 C
583.559 616.967 L
583.559 642.096 L
603.575 642.096 L
603.503 644.399 L
603.935 651.455 603.503 658.943 602.639 665.927 C
601.631 670.175 L
597.959 681.048 L
595.511 686.663 591.264 688.823 585.359 690.335 C
548.711 701.207 512.927 704.159 472.607 708.695 C
467.855 708.983 463.895 711.359 461.231 714.095 C
b
0.000 0.000 0.000 1.000 K
0 j
0 J
0.215 w
[]0 d
0.000 0.000 0.000 0.498 k
166.247 920.951 m
166.247 911.735 L
153.719 913.031 L
154.727 941.399 132.840 968.975 100.583 969.335 C
70.920 968.975 50.759 948.239 46.439 922.247 C
37.367 910.871 26.711 916.199 23.039 925.415 C
16.631 924.263 8.927 925.127 7.847 927.503 C
6.551 931.391 8.639 936.647 10.583 939.311 C
24.551 938.447 L
36.719 938.015 L
36.719 958.103 46.079 975.815 59.975 980.423 c
76.896 986.039 117.071 988.847 137.807 979.199 c
157.536 969.983 163.439 947.447 166.247 920.951 C
b
0.000 0.000 0.000 1.000 K
0 j
0 J
0.215 w
[]0 d
0.000 0.000 0.000 0.498 k
442.079 599.111 m
442.079 589.895 L
454.607 591.192 L
453.599 619.559 475.487 647.135 507.815 647.495 C
537.479 647.135 557.639 626.399 561.959 600.407 C
570.959 588.959 581.687 594.359 585.359 603.575 C
591.695 602.423 599.471 603.288 600.551 605.663 C
601.847 609.551 599.759 614.807 597.815 617.471 C
583.775 616.607 L
571.607 616.175 L
571.607 636.263 562.319 653.975 548.423 658.583 c
531.432 664.199 491.327 667.007 470.519 657.359 c
450.791 648.144 444.887 625.535 442.079 599.111 C
b
0.000 0.000 0.000 1.000 K
0 j
0 J
0.215 w
[]0 d
0.000 0.000 0.000 0.498 k
577.655 931.031 m
587.447 929.447 L
585.503 926.927 581.903 924.479 576.359 924.623 C
562.535 924.911 549.216 921.815 534.815 922.319 C
527.831 914.687 L
529.991 943.487 506.519 970.919 474.263 971.279 C
444.599 970.919 424.799 950.183 420.407 924.191 C
419.903 918.503 419.975 913.247 420.911 907.055 C
397.511 907.055 L
385.991 902.159 371.159 907.919 361.655 911.591 C
371.519 912.383 374.471 920.231 382.679 921.527 C
397.007 921.527 L
404.855 921.527 412.631 921.239 411.839 925.199 c
407.735 946.655 418.607 969.911 430.487 977.759 c
443.807 986.687 497.231 986.543 511.487 977.255 c
528.911 966.023 529.847 949.967 532.799 926.567 C
577.655 931.031 L
b
0.000 0.000 0.000 1.000 K
0 j
0 J
0.215 w
[]0 d
0.000 0.000 0.000 0.498 k
30.743 609.192 m
20.951 607.607 L
22.895 605.087 26.495 602.639 32.039 602.783 C
45.863 603.072 59.183 599.975 73.583 600.479 C
80.567 592.847 L
78.335 621.575 101.879 649.079 134.063 649.439 C
163.727 649.079 183.599 628.343 187.919 602.351 C
188.423 596.663 188.351 591.407 187.415 585.216 C
210.815 585.216 L
222.335 580.319 237.167 586.007 246.671 589.751 C
236.807 590.543 233.855 598.391 225.647 599.687 C
211.319 599.687 L
203.471 599.687 195.767 599.399 196.487 603.359 c
200.591 624.815 189.719 648.072 177.839 655.847 c
164.519 664.847 111.167 664.703 96.911 655.415 c
79.487 644.183 78.551 628.127 75.599 604.727 C
30.743 609.192 L
b
0.000 0.000 0.000 1.000 K
0 j
0 J
0.215 w
[]0 d
272.735 1092.167 m
328.175 1092.167 L
331.055 1038.672 333.431 985.103 332.783 931.535 C
172.727 931.535 L
161.711 959.255 158.903 996.839 168.551 1027.583 C
191.663 1049.039 215.711 1069.991 242.135 1085.759 C
249.983 1091.879 262.151 1091.879 272.735 1092.167 C
s
0.000 0.000 0.000 1.000 K
0 j
0 J
0.215 w
[]0 d
335.591 770.327 m
280.151 770.327 L
277.271 716.831 274.895 663.263 275.543 609.695 C
435.671 609.695 L
446.615 637.415 449.495 675.000 439.775 705.743 C
416.663 727.199 392.615 748.151 366.191 763.919 C
358.343 770.039 346.175 770.039 335.591 770.327 C
s
0.000 0.000 0.000 1.000 K
0 j
0 J
0.215 w
[]0 d
328.031 1092.167 m
443.519 1092.096 L
450.287 1075.679 458.063 1057.535 463.463 1039.607 C
468.575 1020.959 L
470.015 1012.751 470.303 1005.479 470.303 997.991 c
470.231 986.039 453.167 987.263 437.975 985.319 c
414.863 982.439 406.727 957.095 406.151 931.535 C
332.783 931.535 L
333.215 985.679 330.911 1040.327 328.031 1092.167 C
s
0.000 0.000 0.000 1.000 K
0 j
0 J
0.215 w
[]0 d
280.295 770.327 m
164.879 770.255 L
158.039 753.839 150.263 735.695 144.863 717.695 C
139.751 699.119 L
138.311 690.911 138.024 683.639 138.024 676.151 c
138.096 664.199 155.159 665.423 170.351 663.479 c
193.463 660.599 201.599 635.255 202.175 609.695 C
275.615 609.695 L
275.111 663.839 277.415 718.487 280.295 770.327 C
s
0.000 0.000 0.000 1.000 K
0 j
0 J
0.215 w
[]0 d
0.000 0.000 0.000 0.498 k
265.823 1086.263 m
312.623 1086.263 L
317.159 1086.263 320.759 1082.663 320.759 1078.199 C
320.759 1028.951 L
320.759 1024.487 317.159 1020.887 312.623 1020.887 C
192.095 1020.887 L
181.871 1020.887 182.231 1029.599 189.431 1036.079 C
205.559 1051.127 223.775 1064.663 241.775 1078.199 C
248.399 1082.951 255.743 1085.975 265.823 1086.263 C
b
0.000 0.000 0.000 1.000 K
0 j
0 J
0.215 w
[]0 d
0.000 0.000 0.000 0.498 k
342.503 764.423 m
295.703 764.423 L
291.168 764.423 287.639 760.823 287.639 756.359 C
287.639 707.111 L
287.639 702.647 291.168 699.048 295.703 699.048 C
416.231 699.048 L
426.455 699.048 426.095 707.759 418.895 714.239 C
402.767 729.215 384.551 742.823 366.551 756.359 C
359.927 761.111 352.583 764.135 342.503 764.423 C
b
0.000 0.000 0.000 1.000 K
0 j
0 J
0.215 w
[]0 d
0.000 0.000 0.000 0.498 k
350.927 1085.039 m
425.375 1085.039 l
430.055 1085.039 430.775 1085.975 433.655 1079.423 c
441.287 1062.071 446.831 1044.791 445.823 1027.367 c
445.607 1024.271 443.303 1021.751 440.207 1021.751 c
352.871 1021.751 l
349.703 1021.751 347.327 1024.271 347.255 1027.367 c
345.311 1079.423 l
345.167 1082.447 347.759 1085.039 350.927 1085.039 c
b
0.000 0.000 0.000 1.000 K
0 j
0 J
0.215 w
[]0 d
0.000 0.000 0.000 0.498 k
257.399 763.199 m
182.951 763.199 l
178.271 763.199 177.551 764.063 174.671 757.583 c
167.039 740.231 161.495 722.879 162.503 705.527 c
162.719 702.431 165.024 699.911 168.119 699.911 c
255.455 699.911 l
258.623 699.911 261.000 702.431 261.144 705.527 c
263.015 757.583 l
263.159 760.607 260.567 763.199 257.399 763.199 c
b
0.000 0.000 0.000 1.000 K
0 j
0 J
0.215 w
[]0 d
0.000 0.000 0.000 0.498 k
463.031 1084.391 m
519.695 1084.391 L
522.575 1084.391 528.551 1082.231 528.551 1079.351 C
559.079 1025.567 L
560.447 1021.823 554.615 1020.455 551.807 1020.455 C
488.303 1020.455 L
483.407 1020.455 479.015 1022.687 479.015 1025.567 C
457.919 1079.351 L
457.919 1082.231 460.151 1084.391 463.031 1084.391 C
b
0.000 0.000 0.000 1.000 K
0 j
0 J
0.215 w
[]0 d
0.000 0.000 0.000 0.498 k
145.295 762.551 m
88.631 762.551 L
85.823 762.551 79.847 760.391 79.847 757.511 C
49.319 703.727 L
47.951 699.983 53.783 698.615 56.591 698.615 C
120.095 698.615 L
124.991 698.615 129.311 700.847 129.311 703.727 C
150.407 757.511 L
150.407 760.391 148.175 762.551 145.295 762.551 C
b
0.000 0.000 0.000 1.000 K
0 j
0 J
0.215 w
[]0 d
0.000 0.000 0.000 1.000 k
99.863 861.551 m
129.527 861.551 153.719 885.815 153.719 915.479 c
153.719 945.143 129.527 969.407 99.863 969.407 c
70.199 969.407 45.935 945.143 45.935 915.479 c
45.935 885.815 70.199 861.551 99.863 861.551 c
b
0.000 0.000 0.000 1.000 K
0 j
0 J
0.215 w
[]0 d
0.000 0.000 0.000 1.000 k
508.535 539.711 m
478.799 539.711 454.607 563.975 454.607 593.639 c
454.607 623.303 478.799 647.495 508.535 647.495 c
538.199 647.495 562.391 623.303 562.391 593.639 c
562.391 563.975 538.199 539.711 508.535 539.711 c
b
0.000 0.000 0.000 1.000 K
0 j
0 J
0.215 w
[]0 d
0.000 0.000 0.000 1.000 k
496.871 868.679 m
523.727 881.207 535.463 913.463 522.935 940.319 c
510.407 967.175 478.151 978.911 451.295 966.383 c
424.367 953.855 412.703 921.671 425.231 894.743 c
437.759 867.887 469.943 856.151 496.871 868.679 c
b
0.000 0.000 0.000 1.000 K
0 j
0 J
0.215 w
[]0 d
0.000 0.000 0.000 1.000 k
111.527 546.839 m
84.599 559.367 72.935 591.623 85.463 618.479 c
97.991 645.335 130.175 657.072 157.031 644.543 c
183.959 632.015 195.695 599.831 183.167 572.903 c
170.567 546.048 138.383 534.312 111.527 546.839 c
b
0.000 0.000 0.000 1.000 K
0 j
0 J
0.215 w
[]0 d
0.000 0.000 0.000 0.200 k
235.367 1091.015 m
242.495 1086.119 L
216.071 1070.351 191.879 1049.039 168.695 1028.087 C
157.103 1036.079 L
176.039 1051.559 206.351 1075.535 235.367 1091.015 C
b
0.000 0.000 0.000 1.000 K
0 j
0 J
0.215 w
[]0 d
0.000 0.000 0.000 0.200 k
372.959 769.103 m
365.831 764.279 L
392.327 748.511 416.447 727.199 439.631 706.175 C
451.295 714.239 L
432.287 729.719 401.975 753.623 372.959 769.103 C
b
0.000 0.000 0.000 1.000 K
0 j
0 J
0.215 w
[]0 d
0.000 0.000 0.000 0.498 k
4.247 963.935 m
24.695 963.935 L
24.695 938.879 L
16.703 938.807 7.271 938.879 1.871 942.335 c
-5.255 946.799 -4.967 958.391 -2.231 961.919 c
-1.079 963.287 1.367 963.935 4.247 963.935 C
b
0.000 0.000 0.000 1.000 K
0 j
0 J
0.215 w
[]0 d
0.000 0.000 0.000 0.498 k
604.151 642.096 m
583.703 642.096 L
583.703 617.039 L
591.695 616.967 601.055 617.039 606.527 620.423 c
613.583 624.959 613.367 636.551 610.559 640.079 c
609.479 641.447 606.959 642.096 604.151 642.096 C
b
0.000 0.000 0.000 1.000 K
0 j
0 J
0.215 w
[]0 d
0.000 0.000 0.000 0.098 k
5.759 987.839 m
18.143 987.839 l
20.160 987.839 21.743 986.255 21.743 984.239 c
21.743 969.839 l
21.743 967.823 20.160 966.239 18.143 966.239 c
4.967 966.239 L
4.607 970.487 4.607 981.719 5.759 987.839 C
b
0.000 0.000 0.000 1.000 K
0 j
0 J
0.215 w
[]0 d
0.000 0.000 0.000 0.098 k
602.567 666.000 m
590.255 666.000 l
588.240 666.000 586.655 664.415 586.655 662.399 c
586.655 648.000 l
586.655 645.983 588.240 644.399 590.255 644.399 c
603.431 644.399 L
603.791 648.647 603.791 659.879 602.567 666.000 C
b
0.000 0.000 0.000 1.000 K
0 j
0 J
0.215 w
[]0 d
0.000 0.000 0.000 0.098 k
5.759 987.839 m
6.695 991.943 l
20.951 991.943 l
22.679 991.943 24.551 991.943 24.551 988.343 c
24.551 963.935 L
4.967 963.935 L
4.607 968.183 4.607 981.719 5.759 987.839 C
b
0.000 0.000 0.000 1.000 K
0 j
0 J
0.215 w
[]0 d
0.000 0.000 0.000 0.098 k
602.567 666.000 m
601.703 670.103 l
587.375 670.103 l
585.719 670.103 583.775 670.103 583.775 666.503 c
583.775 642.096 L
603.431 642.096 L
603.791 646.343 603.791 659.879 602.567 666.000 C
b
u
u
0.000 0.000 0.000 1.000 K
0 j
0 J
0.215 w
[]0 d
11.087 987.839 m
10.151 966.311 L
S
U
U
u
u
0.000 0.000 0.000 1.000 K
0 j
0 J
0.215 w
[]0 d
597.311 666.000 m
598.247 644.399 L
S
U
U
u
u
0.000 0.000 0.000 1.000 K
0 j
0 J
0.215 w
[]0 d
36.791 938.159 m
36.503 929.447 35.711 927.503 23.615 925.631 C
S
U
U
u
u
0.000 0.000 0.000 1.000 K
0 j
0 J
0.215 w
[]0 d
571.607 616.319 m
571.895 607.607 572.687 605.663 584.783 603.791 C
S
U
U
u
u
U
u
0.000 0.000 0.000 1.000 K
0 j
0 J
0.215 w
[]0 d
24.623 959.111 m
-3.527 959.111 L
S
U
U
u
u
0.000 0.000 0.000 1.000 K
0 j
0 J
0.215 w
[]0 d
583.775 637.271 m
611.855 637.271 L
S
U
U
0.000 0.000 0.000 1.000 K
0 j
0 J
0.215 w
[]0 d
0.000 0.000 0.000 0.498 k
579.743 951.839 m
580.319 955.439 582.048 957.599 586.439 957.383 C
596.591 957.383 L
606.096 954.935 L
613.727 953.135 611.279 942.263 608.759 938.447 C
601.919 927.935 593.135 933.983 587.015 929.375 C
578.015 930.743 L
579.743 951.839 L
b
0.000 0.000 0.000 1.000 K
0 j
0 J
0.215 w
[]0 d
0.000 0.000 0.000 0.498 k
28.655 630.000 m
28.079 633.599 26.351 635.759 21.887 635.543 C
11.807 635.543 L
2.303 633.096 L
-5.327 631.295 -2.879 620.423 -0.359 616.607 C
6.407 606.096 15.263 612.144 21.383 607.535 C
30.383 608.903 L
28.655 630.000 L
b
0.000 0.000 0.000 1.000 K
0 j
0 J
0.215 w
[]0 d
0.000 0.000 0.000 0.498 k
586.295 1012.247 m
596.591 1012.247 L
596.591 964.943 L
586.295 964.943 L
582.192 964.943 580.823 966.095 580.823 968.615 C
580.823 1007.999 L
580.823 1011.527 582.983 1012.103 586.295 1012.247 C
b
0.000 0.000 0.000 1.000 K
0 j
0 J
0.215 w
[]0 d
0.000 0.000 0.000 0.498 k
22.103 690.407 m
11.807 690.407 L
11.807 643.103 L
22.103 643.103 L
26.135 643.103 27.575 644.255 27.575 646.775 C
27.575 686.159 L
27.575 689.687 25.415 690.263 22.103 690.407 C
b
u
u
0.000 0.000 0.000 1.000 K
0 j
0 J
0.215 w
[]0 d
596.519 967.535 m
583.415 967.535 L
583.415 993.671 L
596.519 993.671 L
596.519 989.495 L
583.415 989.495 L
S
U
U
u
u
0.000 0.000 0.000 1.000 K
0 j
0 J
0.215 w
[]0 d
11.879 645.695 m
24.911 645.695 L
24.911 671.759 L
11.879 671.759 L
11.879 667.655 L
24.911 667.655 L
S
U
U
u
u
0.000 0.000 0.000 1.000 K
0 j
0 J
0.215 w
[]0 d
596.519 982.943 m
583.415 982.943 L
S
U
U
u
u
0.000 0.000 0.000 1.000 K
0 j
0 J
0.215 w
[]0 d
11.879 661.103 m
24.911 661.103 L
S
U
U
u
u
0.000 0.000 0.000 1.000 K
0 j
0 J
0.215 w
[]0 d
583.415 993.671 m
583.415 1009.295 L
596.519 1009.295 L
S
U
U
u
u
0.000 0.000 0.000 1.000 K
0 j
0 J
0.215 w
[]0 d
24.911 671.831 m
24.911 687.455 L
11.879 687.455 L
S
U
U
u
u
0.000 0.000 0.000 1.000 K
0 j
0 J
0.215 w
[]0 d
333.935 1092.311 m
337.031 1035.503 L
337.391 1032.048 336.311 1027.871 331.415 1028.231 C
S
U
U
u
u
0.000 0.000 0.000 1.000 K
0 j
0 J
0.215 w
[]0 d
274.391 770.471 m
271.295 713.663 L
270.935 710.207 272.015 706.031 276.911 706.391 C
S
U
U
0.000 0.000 0.000 1.000 K
0 j
0 J
0.215 w
[]0 d
0.000 0.000 0.000 0.200 k
353.879 1082.159 m
422.423 1082.159 l
427.031 1082.159 427.823 1083.096 430.703 1076.543 c
438.335 1059.192 443.879 1047.672 442.871 1030.319 c
442.655 1027.223 440.351 1024.703 437.255 1024.703 c
355.823 1024.703 l
352.655 1024.703 350.279 1027.655 350.207 1030.319 c
348.263 1076.543 l
348.119 1079.207 350.711 1082.159 353.879 1082.159 c
b
0.000 0.000 0.000 1.000 K
0 j
0 J
0.215 w
[]0 d
0.000 0.000 0.000 0.200 k
254.447 760.319 m
185.903 760.319 l
181.295 760.319 180.503 761.255 177.623 754.703 c
169.991 737.351 164.447 725.831 165.455 708.479 c
165.671 705.383 167.975 702.791 171.071 702.791 c
252.575 702.791 l
255.671 702.791 258.048 705.743 258.192 708.479 c
260.063 754.703 l
260.207 757.367 257.615 760.319 254.447 760.319 c
b
0.000 0.000 0.000 1.000 K
0 j
0 J
0.215 w
[]0 d
0.000 0.000 0.000 0.200 k
470.303 1080.288 m
510.623 1080.288 L
513.432 1080.288 519.408 1078.055 519.408 1075.175 C
545.759 1031.039 L
547.199 1027.367 541.367 1026.000 538.487 1026.000 C
492.551 1026.000 L
487.655 1026.000 483.263 1028.231 483.263 1031.039 C
465.191 1075.175 L
465.191 1078.055 467.423 1080.288 470.303 1080.288 C
b
0.000 0.000 0.000 1.000 K
0 j
0 J
0.215 w
[]0 d
0.000 0.000 0.000 0.200 k
138.024 758.447 m
97.775 758.447 L
94.895 758.447 88.919 756.215 88.919 753.335 C
62.567 709.199 L
61.199 705.527 67.031 704.159 69.839 704.159 C
115.847 704.159 L
120.743 704.159 125.063 706.391 125.063 709.199 C
143.135 753.335 L
143.135 756.215 140.903 758.447 138.024 758.447 C
b
0.000 0.000 0.000 1.000 K
0 j
0 J
0.215 w
[]0 d
0.000 0.000 0.000 0.200 k
267.767 1083.240 m
309.959 1083.240 L
314.495 1083.240 318.096 1079.639 318.096 1075.103 C
318.096 1031.543 L
318.096 1027.079 314.495 1023.479 309.959 1023.479 C
200.591 1023.479 L
200.375 1023.479 198.719 1023.983 198.719 1025.783 C
198.719 1040.471 L
213.047 1053.288 226.727 1062.359 243.719 1075.103 C
250.343 1079.927 257.687 1082.951 267.767 1083.240 C
b
0.000 0.000 0.000 1.000 K
0 j
0 J
0.215 w
[]0 d
0.000 0.000 0.000 0.200 k
340.560 761.399 m
298.367 761.399 L
293.903 761.399 290.303 757.799 290.303 753.263 C
290.303 709.703 L
290.303 705.167 293.903 701.639 298.367 701.639 C
407.735 701.639 L
407.951 701.639 409.607 702.143 409.607 703.943 C
409.607 718.631 L
395.279 731.447 381.599 740.519 364.607 753.263 C
357.983 758.087 350.639 761.111 340.560 761.399 C
b
0.000 0.000 0.000 1.000 K
0 j
0 J
0.215 w
[]0 d
0.000 0.000 0.000 0.498 k
166.247 921.527 m
382.247 921.527 L
375.767 920.375 369.935 911.807 361.943 911.663 C
166.247 911.735 L
166.247 921.527 L
b
0.000 0.000 0.000 1.000 K
0 j
0 J
0.215 w
[]0 d
0.000 0.000 0.000 0.498 k
442.079 599.687 m
226.151 599.687 L
232.559 598.535 238.391 589.967 246.383 589.823 C
442.079 589.895 L
442.079 599.687 L
b
0.000 0.000 0.000 1.000 K
0 j
0 J
0.215 w
[]0 d
0.000 0.000 0.000 0.498 k
256.536 911.663 m
272.015 911.663 L
272.015 908.279 L
256.536 908.279 L
256.536 911.663 L
b
0.000 0.000 0.000 1.000 K
0 j
0 J
0.215 w
[]0 d
0.000 0.000 0.000 0.498 k
351.791 589.823 m
336.311 589.823 L
336.311 586.439 L
351.791 586.439 L
351.791 589.823 L
b
0.000 0.000 0.000 1.000 K
0 j
0 J
0.215 w
[]0 d
0.000 0.000 0.000 0.498 k
306.431 911.663 m
325.871 911.663 L
325.871 908.279 L
306.431 908.279 L
306.431 911.663 L
b
0.000 0.000 0.000 1.000 K
0 j
0 J
0.215 w
[]0 d
0.000 0.000 0.000 0.498 k
301.967 589.823 m
282.527 589.823 L
282.527 586.439 L
301.967 586.439 L
301.967 589.823 L
b
u
u
0.000 0.000 0.000 1.000 K
0 j
0 J
0.215 w
[]0 d
169.127 1027.799 m
119.375 1024.991 59.399 1020.599 20.303 1007.567 C
13.823 1004.903 12.671 998.351 11.663 992.231 C
S
U
U
u
u
0.000 0.000 0.000 1.000 K
0 j
0 J
0.215 w
[]0 d
439.271 705.959 m
489.023 703.079 549.000 698.759 588.096 685.727 C
594.503 682.991 595.727 676.511 596.735 670.391 C
S
U
U
0.000 0.000 0.000 1.000 K
0 j
0 J
0.215 w
[]0 d
0.000 0.000 0.000 0.098 k
151.199 1003.823 m
158.039 1003.823 l
158.903 1003.823 159.407 1003.247 159.407 1002.455 c
159.407 999.431 l
159.407 998.567 158.903 997.991 158.039 997.991 c
151.199 997.991 l
150.407 997.991 149.831 998.567 149.831 999.431 c
149.831 1002.455 l
149.831 1003.247 150.407 1003.823 151.199 1003.823 c
b
0.000 0.000 0.000 1.000 K
0 j
0 J
0.215 w
[]0 d
0.000 0.000 0.000 0.098 k
457.127 681.983 m
450.287 681.983 l
449.495 681.983 448.919 681.407 448.919 680.615 c
448.919 677.591 l
448.919 676.727 449.495 676.151 450.287 676.151 c
457.127 676.151 l
457.919 676.151 458.495 676.727 458.495 677.591 c
458.495 680.615 l
458.495 681.407 457.919 681.983 457.127 681.983 c
b
u
u
0.000 0.000 0.000 1.000 K
0 j
0 J
0.215 w
[]0 d
178.559 931.391 m
164.663 931.391 L
S
U
U
u
u
0.000 0.000 0.000 1.000 K
0 j
0 J
0.215 w
[]0 d
429.767 609.551 m
443.663 609.551 L
S
U
U
u
u
0.000 0.000 0.000 1.000 K
0 j
0 J
0.215 w
[]0 d
24.623 988.415 m
581.039 989.423 L
S
U
U
u
u
0.000 0.000 0.000 1.000 K
0 j
0 J
0.215 w
[]0 d
583.775 666.575 m
27.359 667.583 L
S
U
U
u
u
0.000 0.000 0.000 1.000 K
0 j
0 J
0.215 w
[]0 d
29.879 992.735 m
581.039 993.671 L
S
U
U
u
u
0.000 0.000 0.000 1.000 K
0 j
0 J
0.215 w
[]0 d
578.519 670.895 m
27.359 671.831 L
S
U
U
u
u
0.000 0.000 0.000 1.000 K
0 j
0 J
0.215 w
[]0 d
440.999 1092.023 m
473.975 1092.023 507.815 1092.023 541.367 1091.303 C
S
U
U
u
u
0.000 0.000 0.000 1.000 K
0 j
0 J
0.215 w
[]0 d
167.327 770.183 m
134.352 770.183 100.511 770.183 66.959 769.463 C
S
U
U
u
u
0.000 0.000 0.000 1.000 K
0 j
0 J
0.215 w
[]0 d
328.247 1092.096 m
332.351 1095.336 339.119 1096.847 345.815 1096.703 C
409.103 1096.343 472.031 1096.703 535.895 1095.624 C
S
U
U
u
u
0.000 0.000 0.000 1.000 K
0 j
0 J
0.215 w
[]0 d
280.079 770.255 m
275.975 773.495 269.207 775.007 262.512 774.863 C
199.223 774.503 136.295 774.863 72.431 773.783 C
S
U
U
u
u
0.000 0.000 0.000 0.498 k
581.327 930.599 m
584.711 953.063 L
609.264 953.063 L
S
U
u
0.000 0.000 0.000 1.000 K
0 j
0 J
0.215 w
[]0 d
581.327 930.599 m
584.711 953.063 L
609.264 953.063 L
S
U
U
u
u
0.000 0.000 0.000 0.498 k
27.071 608.759 m
23.615 631.223 L
-0.863 631.223 L
S
U
u
0.000 0.000 0.000 1.000 K
0 j
0 J
0.215 w
[]0 d
27.071 608.759 m
23.615 631.223 L
-0.863 631.223 L
S
U
U
u
u
U
u
0.000 0.000 0.000 1.000 K
0 j
0 J
0.215 w
[]0 d
610.415 941.687 m
583.127 941.687 L
S
U
U
u
u
U
u
0.000 0.000 0.000 1.000 K
0 j
0 J
0.215 w
[]0 d
-2.016 619.775 m
25.271 619.775 L
S
U
U
0.000 0.000 0.000 1.000 K
0 j
0 J
0.215 w
[]0 d
302.687 1000.007 m
316.512 1000.007 l
317.951 1000.007 319.031 998.927 319.031 997.559 c
319.031 991.367 l
319.031 989.999 317.951 988.847 316.512 988.847 c
302.687 988.847 l
301.319 988.847 300.239 989.999 300.239 991.367 c
300.239 997.559 l
300.239 998.927 301.319 1000.007 302.687 1000.007 c
s
0.000 0.000 0.000 1.000 K
0 j
0 J
0.215 w
[]0 d
305.639 678.167 m
291.815 678.167 l
290.447 678.167 289.295 677.087 289.295 675.719 c
289.295 669.527 l
289.295 668.159 290.447 667.007 291.815 667.007 c
305.639 667.007 l
307.007 667.007 308.087 668.159 308.087 669.527 c
308.087 675.719 l
308.087 677.087 307.007 678.167 305.639 678.167 c
s
0.000 0.000 0.000 1.000 K
0 j
0 J
0.215 w
[]0 d
461.519 1022.039 m
457.847 1035.359 l
457.487 1036.727 458.279 1038.096 459.575 1038.455 c
465.551 1040.111 l
466.847 1040.471 468.215 1039.679 468.575 1038.311 c
472.247 1024.991 l
472.607 1023.695 471.887 1022.327 470.519 1021.967 c
464.543 1020.311 l
463.247 1019.951 461.879 1020.743 461.519 1022.039 c
s
0.000 0.000 0.000 1.000 K
0 j
0 J
0.215 w
[]0 d
146.807 700.199 m
150.479 713.519 l
150.839 714.887 150.119 716.255 148.751 716.615 c
142.775 718.199 l
141.479 718.631 140.111 717.839 139.751 716.471 c
136.079 703.151 l
135.719 701.855 136.512 700.487 137.807 700.127 c
143.783 698.471 l
145.079 698.111 146.447 698.903 146.807 700.199 c
s
0.000 0.000 0.000 1.000 K
0 j
0 J
0.215 w
[]0 d
0.000 0.000 0.000 0.498 k
302.687 1000.007 m
316.512 1000.007 l
317.951 1000.007 319.031 998.855 319.031 997.559 c
319.031 993.239 L
300.239 993.239 L
300.239 997.559 l
300.239 998.855 301.319 1000.007 302.687 1000.007 c
b
0.000 0.000 0.000 1.000 K
0 j
0 J
0.215 w
[]0 d
0.000 0.000 0.000 0.498 k
305.639 678.167 m
291.815 678.167 l
290.447 678.167 289.295 677.015 289.295 675.719 c
289.295 671.327 L
308.087 671.327 L
308.087 675.719 l
308.087 677.015 307.007 678.167 305.639 678.167 c
b
0.000 0.000 0.000 1.000 K
0 j
0 J
0.215 w
[]0 d
0.000 0.000 0.000 0.498 k
461.519 1022.039 m
457.847 1035.359 l
457.487 1036.727 458.279 1038.096 459.575 1038.455 c
463.823 1039.607 L
468.863 1021.463 L
464.543 1020.311 l
463.247 1019.951 461.879 1020.743 461.519 1022.039 c
b
0.000 0.000 0.000 1.000 K
0 j
0 J
0.215 w
[]0 d
0.000 0.000 0.000 0.498 k
146.807 700.199 m
150.479 713.519 l
150.839 714.887 150.119 716.255 148.751 716.615 c
144.503 717.767 L
139.536 699.623 L
143.783 698.471 l
145.079 698.111 146.447 698.903 146.807 700.199 c
b
0.000 0.000 0.000 1.000 K
0 j
0 J
0.215 w
[]0 d
0.000 0.000 0.000 0.498 k
200.879 1042.415 m
203.831 1044.647 206.567 1046.159 210.455 1046.159 c
211.319 1046.159 212.399 1045.367 212.399 1044.288 c
212.399 1025.351 l
212.399 1024.271 211.463 1023.407 210.455 1023.407 c
200.807 1023.407 l
199.799 1023.407 198.863 1024.847 198.863 1025.351 c
198.935 1040.471 l
198.935 1041.048 200.159 1041.839 200.879 1042.415 c
b
0.000 0.000 0.000 1.000 K
0 j
0 J
0.215 w
[]0 d
0.000 0.000 0.000 0.498 k
407.447 720.575 m
404.495 722.807 401.759 724.319 397.871 724.319 c
397.079 724.319 395.927 723.527 395.927 722.375 c
395.927 703.511 l
395.927 702.431 396.863 701.567 397.871 701.567 c
407.519 701.567 l
408.599 701.567 409.463 702.935 409.463 703.511 c
409.391 718.631 l
409.391 719.207 408.167 720.000 407.447 720.575 c
b
u
u
0.000 0.000 0.000 1.000 K
0 j
0 J
0.215 w
[]0 d
529.775 947.591 m
579.527 947.591 L
S
U
U
u
u
0.000 0.000 0.000 1.000 K
0 j
0 J
0.215 w
[]0 d
78.623 625.751 m
28.871 625.751 L
S
U
U
u
u
0.000 0.000 0.000 1.000 K
0 j
0 J
0.215 w
[]0 d
162.719 942.551 m
408.527 942.551 L
S
U
U
u
u
0.000 0.000 0.000 1.000 K
0 j
0 J
0.215 w
[]0 d
445.607 620.711 m
199.799 620.711 L
S
U
U
0.000 0.000 0.000 1.000 K
0 j
0 J
0.215 w
[]0 d
0.000 0.000 0.000 0.098 k
99.935 947.951 m
82.007 947.951 67.319 933.335 67.319 915.551 C
67.319 897.551 82.007 882.935 99.935 882.935 C
117.719 882.935 132.407 897.551 132.407 915.551 C
132.407 933.335 117.719 947.951 99.935 947.951 C
b
0.000 0.000 0.000 1.000 K
0 j
0 J
0.215 w
[]0 d
0.000 0.000 0.000 0.098 k
508.463 626.111 m
526.391 626.111 541.079 611.495 541.079 593.711 C
541.079 575.711 526.391 561.096 508.463 561.096 C
490.607 561.096 475.991 575.711 475.991 593.711 C
475.991 611.495 490.607 626.111 508.463 626.111 C
b
0.000 0.000 0.000 1.000 K
0 j
0 J
0.215 w
[]0 d
0.000 0.000 0.000 0.000 k
99.935 945.503 m
83.447 945.503 69.839 932.039 69.839 915.551 C
69.839 899.063 83.447 885.455 99.935 885.455 C
116.423 885.455 129.887 899.063 129.887 915.551 C
129.887 932.039 116.423 945.503 99.935 945.503 C
b
0.000 0.000 0.000 1.000 K
0 j
0 J
0.215 w
[]0 d
0.000 0.000 0.000 0.000 k
508.463 623.663 m
524.951 623.663 538.559 610.199 538.559 593.711 C
538.559 577.151 524.951 563.615 508.463 563.615 C
491.975 563.615 478.439 577.151 478.439 593.711 C
478.439 610.199 491.975 623.663 508.463 623.663 C
b
0.000 0.000 0.000 1.000 K
0 j
0 J
0.215 w
[]0 d
0.000 0.000 0.000 1.000 k
118.943 934.559 m
116.423 925.055 L
125.927 922.535 L
118.943 934.559 L
b
0.000 0.000 0.000 1.000 K
0 j
0 J
0.215 w
[]0 d
0.000 0.000 0.000 1.000 k
489.455 612.647 m
491.975 603.144 L
482.399 600.695 L
489.455 612.647 L
b
0.000 0.000 0.000 1.000 K
0 j
0 J
0.215 w
[]0 d
0.000 0.000 0.000 1.000 k
125.927 908.423 m
119.087 896.399 L
116.423 905.903 L
125.927 908.423 L
b
0.000 0.000 0.000 1.000 K
0 j
0 J
0.215 w
[]0 d
0.000 0.000 0.000 1.000 k
482.399 586.583 m
489.311 574.559 L
491.975 584.063 L
482.399 586.583 L
b
0.000 0.000 0.000 1.000 K
0 j
0 J
0.215 w
[]0 d
0.000 0.000 0.000 1.000 k
106.775 889.271 m
99.935 896.255 L
92.951 889.271 L
106.775 889.271 L
b
0.000 0.000 0.000 1.000 K
0 j
0 J
0.215 w
[]0 d
0.000 0.000 0.000 1.000 k
501.623 567.431 m
508.463 574.415 L
515.447 567.431 L
501.623 567.431 L
b
0.000 0.000 0.000 1.000 K
0 j
0 J
0.215 w
[]0 d
0.000 0.000 0.000 1.000 k
80.640 896.399 m
73.799 908.423 L
83.303 905.903 L
80.640 896.399 L
b
0.000 0.000 0.000 1.000 K
0 j
0 J
0.215 w
[]0 d
0.000 0.000 0.000 1.000 k
527.687 574.559 m
534.599 586.583 L
525.096 584.063 L
527.687 574.559 L
b
0.000 0.000 0.000 1.000 K
0 j
0 J
0.215 w
[]0 d
0.000 0.000 0.000 1.000 k
73.799 922.535 m
83.303 925.055 L
80.640 934.559 L
73.799 922.535 L
b
0.000 0.000 0.000 1.000 K
0 j
0 J
0.215 w
[]0 d
0.000 0.000 0.000 1.000 k
534.599 600.695 m
525.096 603.144 L
527.687 612.647 L
534.599 600.695 L
b
0.000 0.000 0.000 1.000 K
0 j
0 J
0.215 w
[]0 d
0.000 0.000 0.000 1.000 k
92.951 941.543 m
106.775 941.543 L
99.935 934.631 L
92.951 941.543 L
b
0.000 0.000 0.000 1.000 K
0 j
0 J
0.215 w
[]0 d
0.000 0.000 0.000 1.000 k
515.447 619.703 m
501.623 619.703 L
508.463 612.791 L
515.447 619.703 L
b
0.000 0.000 0.000 1.000 K
0 j
0 J
0.215 w
[]0 d
0.000 0.000 0.000 0.098 k
99.935 928.583 m
92.663 928.583 86.759 922.679 86.759 915.551 C
86.759 908.279 92.663 902.303 99.935 902.303 C
107.063 902.303 112.967 908.279 112.967 915.551 C
112.967 922.679 107.063 928.583 99.935 928.583 C
b
0.000 0.000 0.000 1.000 K
0 j
0 J
0.215 w
[]0 d
0.000 0.000 0.000 0.098 k
508.463 606.743 m
515.735 606.743 521.639 600.767 521.639 593.711 C
521.639 586.439 515.735 580.463 508.463 580.463 C
501.335 580.463 495.359 586.439 495.359 593.711 C
495.359 600.767 501.335 606.743 508.463 606.743 C
b
0.000 0.000 0.000 1.000 K
0 j
0 J
0.215 w
[]0 d
0.000 0.000 0.000 0.000 k
99.935 925.127 m
105.191 925.127 109.583 920.807 109.583 915.551 C
109.583 910.079 105.191 905.759 99.935 905.759 C
94.535 905.759 90.143 910.079 90.143 915.551 C
90.143 920.807 94.535 925.127 99.935 925.127 C
b
0.000 0.000 0.000 1.000 K
0 j
0 J
0.215 w
[]0 d
0.000 0.000 0.000 0.000 k
508.463 603.288 m
503.207 603.288 498.815 598.967 498.815 593.711 C
498.815 588.240 503.207 583.919 508.463 583.919 C
513.863 583.919 518.255 588.240 518.255 593.711 C
518.255 598.967 513.863 603.288 508.463 603.288 C
b
0.000 0.000 0.000 1.000 K
0 j
0 J
0.215 w
[]0 d
0.000 0.000 0.000 0.098 k
460.223 947.231 m
443.951 939.671 436.895 920.231 444.383 904.031 C
452.015 887.831 471.455 880.703 487.799 888.335 C
503.927 895.823 510.983 915.263 503.423 931.535 C
495.863 947.663 476.351 954.791 460.223 947.231 C
b
0.000 0.000 0.000 1.000 K
0 j
0 J
0.215 w
[]0 d
0.000 0.000 0.000 0.098 k
148.103 625.391 m
164.375 617.831 171.431 598.391 163.943 582.192 C
156.311 565.919 136.871 558.863 120.599 566.423 C
104.471 573.983 97.415 593.423 104.975 609.695 C
112.463 625.823 131.975 632.951 148.103 625.391 C
b
0.000 0.000 0.000 1.000 K
0 j
0 J
0.215 w
[]0 d
0.000 0.000 0.000 0.000 k
461.303 944.999 m
446.327 938.015 439.703 920.087 446.687 905.111 C
453.671 890.207 471.743 883.583 486.719 890.567 C
501.623 897.551 508.103 915.551 501.119 930.527 C
494.135 945.431 476.279 951.983 461.303 944.999 C
b
0.000 0.000 0.000 1.000 K
0 j
0 J
0.215 w
[]0 d
0.000 0.000 0.000 0.000 k
147.024 623.159 m
162.000 616.175 168.623 598.247 161.639 583.271 C
154.655 568.295 136.584 561.743 121.679 568.727 C
106.703 575.711 100.295 593.711 107.207 608.615 C
114.191 623.591 132.119 630.072 147.024 623.159 C
b
0.000 0.000 0.000 1.000 K
0 j
0 J
0.215 w
[]0 d
0.000 0.000 0.000 1.000 k
483.119 943.055 m
484.919 933.407 L
494.567 935.135 L
483.119 943.055 L
b
0.000 0.000 0.000 1.000 K
0 j
0 J
0.215 w
[]0 d
0.000 0.000 0.000 1.000 k
125.207 621.216 m
123.479 611.567 L
113.759 613.295 L
125.207 621.216 L
b
0.000 0.000 0.000 1.000 K
0 j
0 J
0.215 w
[]0 d
0.000 0.000 0.000 1.000 k
500.543 922.391 m
499.391 908.567 L
492.983 916.055 L
500.543 922.391 L
b
0.000 0.000 0.000 1.000 K
0 j
0 J
0.215 w
[]0 d
0.000 0.000 0.000 1.000 k
107.783 600.551 m
108.935 586.727 L
115.343 594.216 L
107.783 600.551 L
b
0.000 0.000 0.000 1.000 K
0 j
0 J
0.215 w
[]0 d
0.000 0.000 0.000 1.000 k
491.327 896.903 m
482.111 900.359 L
478.727 891.071 L
491.327 896.903 L
b
0.000 0.000 0.000 1.000 K
0 j
0 J
0.215 w
[]0 d
0.000 0.000 0.000 1.000 k
117.071 575.063 m
126.215 578.519 L
129.599 569.231 L
117.071 575.063 L
b
0.000 0.000 0.000 1.000 K
0 j
0 J
0.215 w
[]0 d
0.000 0.000 0.000 1.000 k
464.615 892.367 m
453.311 900.359 L
462.959 902.087 L
464.615 892.367 L
b
0.000 0.000 0.000 1.000 K
0 j
0 J
0.215 w
[]0 d
0.000 0.000 0.000 1.000 k
143.783 570.527 m
155.015 578.519 L
145.367 580.247 L
143.783 570.527 L
b
0.000 0.000 0.000 1.000 K
0 j
0 J
0.215 w
[]0 d
0.000 0.000 0.000 1.000 k
447.335 913.103 m
454.895 919.439 L
448.487 926.927 L
447.335 913.103 L
b
0.000 0.000 0.000 1.000 K
0 j
0 J
0.215 w
[]0 d
0.000 0.000 0.000 1.000 k
160.991 591.264 m
153.431 597.599 L
159.839 605.087 L
160.991 591.264 L
b
0.000 0.000 0.000 1.000 K
0 j
0 J
0.215 w
[]0 d
0.000 0.000 0.000 1.000 k
456.623 938.447 m
469.223 944.279 L
465.839 935.207 L
456.623 938.447 L
b
0.000 0.000 0.000 1.000 K
0 j
0 J
0.215 w
[]0 d
0.000 0.000 0.000 1.000 k
151.703 616.607 m
139.175 622.439 L
142.487 613.295 L
151.703 616.607 L
b
0.000 0.000 0.000 1.000 K
0 j
0 J
0.215 w
[]0 d
0.000 0.000 0.000 0.098 k
468.431 929.663 m
461.879 926.639 458.999 918.719 462.023 912.239 C
465.047 905.687 472.967 902.807 479.519 905.903 C
485.999 908.855 488.879 916.775 485.855 923.327 C
482.759 929.807 474.911 932.687 468.431 929.663 C
b
0.000 0.000 0.000 1.000 K
0 j
0 J
0.215 w
[]0 d
0.000 0.000 0.000 0.098 k
139.895 607.823 m
146.447 604.727 149.327 596.879 146.375 590.399 C
143.280 583.847 135.359 580.967 128.807 584.063 C
122.327 587.015 119.447 594.935 122.543 601.487 C
125.567 607.967 133.415 610.847 139.895 607.823 C
b
0.000 0.000 0.000 1.000 K
0 j
0 J
0.215 w
[]0 d
0.000 0.000 0.000 0.000 k
469.871 926.567 m
474.695 928.799 480.455 926.711 482.687 921.887 C
484.991 916.991 482.831 911.231 478.079 908.999 C
473.183 906.695 467.423 908.783 465.119 913.679 C
462.887 918.503 464.975 924.263 469.871 926.567 C
b
0.000 0.000 0.000 1.000 K
0 j
0 J
0.215 w
[]0 d
0.000 0.000 0.000 0.000 k
138.455 604.727 m
133.703 606.959 127.871 604.871 125.639 600.048 C
123.335 595.151 125.495 589.391 130.247 587.159 C
135.143 584.855 140.975 586.943 143.207 591.839 C
145.439 596.663 143.351 602.423 138.455 604.727 C
b
0.000 0.000 0.000 1.000 k
765.143 988.631 m
800.207 988.631 l
800.639 988.631 800.927 988.271 800.927 987.839 c
800.927 982.007 l
800.927 981.575 800.639 981.215 800.207 981.215 c
765.143 981.215 l
764.711 981.215 764.351 981.575 764.351 982.007 c
764.351 987.839 l
764.351 988.271 764.711 988.631 765.143 988.631 c
f
0.000 0.000 0.000 1.000 k
765.143 978.983 m
800.207 978.983 l
800.639 978.983 800.927 978.695 800.927 978.191 c
800.927 972.431 l
800.927 971.927 800.639 971.639 800.207 971.639 c
765.143 971.639 l
764.711 971.639 764.351 971.927 764.351 972.431 c
764.351 978.191 l
764.351 978.695 764.711 978.983 765.143 978.983 c
f
0.000 0.000 0.000 1.000 k
806.903 988.631 m
841.463 988.631 l
841.967 988.631 842.471 988.199 842.471 987.623 c
842.471 982.223 l
842.471 981.719 841.967 981.215 841.463 981.215 c
806.903 981.215 l
806.327 981.215 805.895 981.719 805.895 982.223 c
805.895 987.623 l
805.895 988.199 806.327 988.631 806.903 988.631 c
f
0.000 0.000 0.000 1.000 k
806.903 978.983 m
841.463 978.983 l
841.967 978.983 842.471 978.551 842.471 977.975 c
842.471 972.647 l
842.471 972.071 841.967 971.639 841.463 971.639 c
806.903 971.639 l
806.327 971.639 805.895 972.071 805.895 972.647 c
805.895 977.975 l
805.895 978.551 806.327 978.983 806.903 978.983 c
f
0.000 0.000 0.000 1.000 k
849.167 988.631 m
883.727 988.631 l
884.303 988.631 884.735 988.199 884.735 987.623 c
884.735 982.223 l
884.735 981.719 884.303 981.215 883.727 981.215 c
849.167 981.215 l
848.591 981.215 848.159 981.719 848.159 982.223 c
848.159 987.623 l
848.159 988.199 848.591 988.631 849.167 988.631 c
f
0.000 0.000 0.000 1.000 k
849.167 978.983 m
883.727 978.983 l
884.303 978.983 884.735 978.551 884.735 977.975 c
884.735 972.647 l
884.735 972.071 884.303 971.639 883.727 971.639 c
849.167 971.639 l
848.591 971.639 848.159 972.071 848.159 972.647 c
848.159 977.975 l
848.159 978.551 848.591 978.983 849.167 978.983 c
f
u
u
0.000 0.000 0.000 1.000 K
0 j
0 J
0.215 w
[]0 d
708.119 690.335 m
942.623 690.335 L
S
U
U
u
u
0.000 0.000 0.000 1.000 K
0 j
0 J
0.215 w
[]0 d
721.583 703.799 m
721.583 636.120 L
S
U
U
u
u
0.000 0.000 0.000 1.000 K
0 j
0 J
0.215 w
[]0 d
928.079 703.799 m
928.079 636.120 L
S
U
U
0.000 0.000 0.000 1.000 K
0 j
0 J
0.215 w
[]0 d
707.903 690.335 m
721.655 690.335 L
721.655 643.031 L
707.903 643.031 L
707.903 690.335 L
s
0.000 0.000 0.000 1.000 K
0 j
0 J
0.215 w
[]0 d
941.831 690.335 m
928.079 690.335 L
928.079 643.031 L
941.831 643.031 L
941.831 690.335 L
s
0.000 0.000 0.000 1.000 K
0 j
0 J
0.215 w
[]0 d
0.000 0.000 0.000 0.298 k
707.903 687.599 m
717.983 687.599 L
717.983 645.767 L
707.903 645.767 L
707.903 687.599 L
b
0.000 0.000 0.000 1.000 K
0 j
0 J
0.215 w
[]0 d
0.000 0.000 0.000 0.298 k
941.831 687.599 m
931.823 687.599 L
931.823 645.767 L
941.831 645.767 L
941.831 687.599 L
b
u
u
0.000 0.000 0.000 1.000 K
0 j
0 J
0.215 w
[]0 d
717.983 671.687 m
707.903 671.687 L
S
U
U
u
u
0.000 0.000 0.000 1.000 K
0 j
0 J
0.215 w
[]0 d
931.823 671.687 m
941.831 671.687 L
S
U
U
u
u
0.000 0.000 0.000 1.000 K
0 j
0 J
0.215 w
[]0 d
707.903 667.655 m
717.983 667.655 L
S
U
U
u
u
0.000 0.000 0.000 1.000 K
0 j
0 J
0.215 w
[]0 d
941.831 667.655 m
931.823 667.655 L
S
U
U
u
u
0.000 0.000 0.000 1.000 K
0 j
0 J
0.215 w
[]0 d
717.983 661.319 m
707.903 661.319 L
S
U
U
u
u
0.000 0.000 0.000 1.000 K
0 j
0 J
0.215 w
[]0 d
931.823 661.319 m
941.831 661.319 L
S
U
U
u
u
0.000 0.000 0.000 1.000 K
0 j
0 J
0.215 w
[]0 d
721.583 672.120 m
928.079 672.120 L
S
U
U
u
u
0.000 0.000 0.000 1.000 K
0 j
0 J
0.215 w
[]0 d
721.583 667.655 m
928.079 667.655 L
S
U
U
u
u
U
u
0.000 0.000 0.000 1.000 K
0 j
0 J
0.215 w
[]0 d
24.623 948.383 m
-2.303 948.383 L
S
U
U
u
u
U
u
0.000 0.000 0.000 1.000 K
0 j
0 J
0.215 w
[]0 d
583.775 626.543 m
610.703 626.543 L
S
U
U
u
u
U
u
0.000 0.000 0.000 1.000 K
0 j
0 J
0.215 w
[]0 d
935.927 948.383 m
711.000 948.383 L
S
U
U
u
u
0.000 0.000 0.000 1.000 K
0 j
0 J
0.215 w
[]0 d
705.815 619.919 m
780.695 619.919 L
S
U
U
u
u
0.000 0.000 0.000 1.000 K
0 j
0 J
0.215 w
[]0 d
869.831 619.919 m
944.783 619.919 L
S
U
U
u
u
0.000 0.000 0.000 1.000 K
0 j
0 J
0.215 w
[]0 d
707.687 643.175 m
707.687 635.903 L
S
U
U
u
u
0.000 0.000 0.000 1.000 K
0 j
0 J
0.215 w
[]0 d
941.831 643.175 m
941.831 636.120 L
S
U
U
0.000 0.000 0.000 1.000 K
0 j
0 J
0.215 w
[]0 d
0.000 0.000 0.000 0.000 k
787.103 623.951 m
863.351 623.951 l
865.367 623.951 867.023 622.295 867.023 620.279 c
867.023 605.159 l
867.023 603.144 865.367 601.487 863.351 601.487 c
787.103 601.487 l
785.087 601.487 783.431 603.144 783.431 605.159 c
783.431 620.279 l
783.431 622.295 785.087 623.951 787.103 623.951 c
b
0.000 0.000 0.000 1.000 K
0 j
0 J
0.215 w
[]0 d
55.439 681.839 m
81.431 681.839 l
84.095 681.839 86.111 679.823 86.111 677.159 c
86.111 662.615 l
86.111 659.951 84.095 657.935 81.431 657.935 c
55.439 657.935 l
52.775 657.935 50.759 659.951 50.759 662.615 c
50.759 677.159 l
50.759 679.823 52.775 681.839 55.439 681.839 c
s
u
u
0.000 0.000 0.000 1.000 K
0 j
0 J
0.215 w
[]0 d
-2.016 518.183 m
244.439 518.183 L
S
U
U
u
u
0.000 0.000 0.000 1.000 K
0 j
0 J
0.215 w
[]0 d
331.560 518.183 m
612.287 518.183 L
S
U
U
0.000 0.000 0.000 0.000 k
281.951 519.264 m
283.608 519.264 284.471 517.895 284.471 516.384 C
284.471 514.799 283.463 513.575 281.951 513.575 C
280.007 513.575 279.215 514.799 279.215 516.384 C
279.215 517.895 280.223 519.264 281.951 519.264 C
f
0.000 0.000 0.000 0.000 k
261.575 516.456 m
265.608 522.432 L
265.680 522.432 L
265.680 516.456 L
261.575 516.456 L
f
%%Trailer
_E end