%!PS-Adobe-2.0 EPSF-1.2
%%Creator: Adobe Illustrator exported from Corel Draw 3.0
%%Title:6
%%BoundingBox:45 274 1048 984
%%CreationDate:(Unknown)
%%ColorUsage:
%%TemplateBox:45 274 1048 984
%%EndComments
%%BeginProcSet:Adobe_Illustrator_1.1 0 0
% Version 1.0 3/27/1990 $nokeywords$
% Copyright (C) 1990,1991,1992
% Corel Corporation
% All Rights Reserved

/wPmsDict 150 dict def 
wPmsDict begin 

/$debug 25 string def 

/bd {bind def} bind def 
/ld {load def} bd 
/xd {exch def} bd 
/_ null def 

/$c 0 def 
/$m 0 def 
/$y 0 def 
/$k 0 def 
/$t 1 def 
/$n _ def 
/$o 0 def 
/$pf false def 

/$C 0 def 
/$M 0 def 
/$Y 0 def 
/$K 0 def 
/$T 1 def 
/$N _ def 
/$O 0 def 
/$PF false def 

/$h false def 

/$al 0 def 
/$tr 0 def 
/$le 0 def 
/$lx 0 def 
/$ly 0 def 

/$ctm matrix currentmatrix def 
/$ptm matrix def 

/$pn () def 
/$pm matrix def 
/$px 0 def 
/$py 0 def 
/$pxf 0 def 
/$pyf 0 def 
/$psx 10 def 
/$psy 0 def 

/$llx 0 def 
/$lly 0 def 
/$urx 0 def 
/$ury 0 def 


/$Bbllx 0 def 
/$Bblly 0 def 
/$Bburx 0 def 
/$Bbury 0 def 

/$tllx 0 def 
/$tlly 0 def 
/$turx 0 def 
/$tury 0 def 

/$pd [] def 
/$tx 0 def 
/$ty 0 def 

/$sv 0 def 
/@cp /closepath ld 
/@gs /gsave ld 
/@gr /grestore ld 
/@np /newpath ld 
/@sv {/$sv save def}bd 
/@rs {$sv restore}bd 

/@MN { 
2 copy le{pop}{exch pop}ifelse 
}bd 

/setcmykcolor where {pop} 
{ 
/setcmykcolor 
{ 
4 1 roll 
3 {3 index add 1 @MN 1 exch sub 3 1 roll} repeat 
setrgbcolor 
pop 
}bd 
}ifelse 

/@tc 
{ 
dup 1 ge 
{pop} 
{ 
4 { 
dup 
6 -1 roll 
mul 
exch 
}repeat 
pop 
}ifelse 
}bd 

/@scc 
{ 
$c $m $y $k $t @tc 
setcmykcolor 
true 
}bd 
/@SCC 
{ 
$C $M $Y $K $T @tc 
setcmykcolor 
true 
}bd 

/@sft 
{ 
(setfirsttile sft )print 
/$tx $tllx $pxf add dup $tllx gt {$pwid $psx add sub}if def 
/$ty $tury $pyf sub dup $tury lt {$phei $psy add add}if def 
(setfirsttile exit )print 
}bd 

/@stb 
{ 
pathbbox /$ury xd /$urx xd /$lly xd /$llx xd 
}bd 

/@ep 
{ 
{ 
cvx exec 
}forall 
}bd 

/@tp 
{ 

(tile pattern tp )print 
@sv 
/$in true def 
2 copy 
dup $lly le {/$in false def}if 
$phei sub $ury ge {/$in false def}if 
dup $urx ge {/$in false def}if 
$pwid add $llx le {/$in false def}if 
$in 
{ 
@np 
2 copy moveto 
$pwid 0 rlineto 
0 $phei neg rlineto 
$pwid neg 0 rlineto 
0 $phei rlineto 
clip @np 

$pn cvlit load aload pop 
7 -1 roll 
5 index sub 
7 -1 roll 
3 index sub 
translate 
@ep 
pop pop pop pop 
} 
{pop pop}ifelse 
@rs 
(tile pattern exit )print 
}bd 

/@th 
{ 
(tile horizontal th)print 
@sft 
0 1 $tly 1 sub 
{ 
dup $psx mul $tx add 
{ 
dup $llx gt {$pwid sub}{exit}ifelse 
}loop 
exch $phei mul $ty exch sub 

0 1 $tlx 1 sub 
{ 
$pwid mul 
3 copy 
3 -1 roll add exch 
@tp 
pop 
}for 
pop pop 
} for 
(tile horizontal exiting )print 
}bd 

/@tv 
{ 
(tile vertical tv)print 
@sft 
0 1 $tlx 1 sub 
{ 
dup $pwid mul $tx add 
exch $psy mul $ty exch sub 
{ 
dup $ury lt {$phei add}{exit}ifelse 
}loop 

0 1 $tly 1 sub 
{ 
$phei mul 
3 copy sub 
@tp 
pop 
}for 
pop pop 
} for 
(tile vertical exit )print 
}bd 

/@pf 
{ 
(pattern fill pf)print 
@gs 
$pm concat 
@stb 
@gs 1 setgray eofill @gr 
eoclip 
$Bburx $Bbury $pm itransform /$tury xd /$turx xd 
$Bbllx $Bblly $pm itransform /$tlly xd /$tllx xd 
/$wid $turx $tllx sub def 
/$hei $tury $tlly sub def 
$wid 0 gt $hei 0 gt and 
{ 
$pn cvlit load aload pop 
$pd xd 
3 -1 roll sub /$phei xd 
exch sub /$pwid xd 
/$tlx $wid $pwid div ceiling 1 add def 
/$tly $hei $phei div ceiling 1 add def 
$psx 0 eq 
{ 
@tv 
} 
{ 
@th 
}ifelse 
}if 

@gr 
@np 
(pattern fill exit)print 
}bd 

/@xp 
{ 
{ 
dup (text Character is:) print == 
usertime (time before is:)print == 
(0) dup 3 -1 roll 0 exch put 
@gs 
true charpath currentpoint 
$ctm setmatrix 
@pf 
@gr 
@np 
moveto $tr 0 rmoveto 
usertime (time after is:)print == 
}forall 
pop 
}bd 

/@sm 
{ 
/$ctm $ctm currentmatrix def 
}bd 

%--@lorg  move to line origin   length string @torg length string
/@lorg    % moves currentpoint to line origin according to current alignment
  {      
  $lx $ly moveto    
  /$ly $ly $le sub def      % - prepare for next line(tracking)
  $al 0 ne
    {dup      % ->len str len str
    stringwidth   % ->len str len dx dy
    exch 3 index  % ->len str dy len dx
    1 sub         % ->len str dy len dx (len-1)
    $tr mul add   % ->len str dy len dx+(len-1)*$tr
    neg
    exch neg      % ->len str -dx_total dy len
    $al 1 eq      % check for centered alignment
    {2 div exch 2 div exch} if  
    rmoveto} if
  }bd

/@ft 
{ 
$pf 
{@xp} 
{ 
@scc 
{$tr exch 0 exch ashow pop} 
{pop pop}ifelse 
}ifelse 
}bd 

/@st 
{ 
$PF 
{} 
{ 
@SCC 
{ 
{ 
(0) dup 3 -1 roll 0 exch put 
@gs 
true charpath currentpoint 
$ctm setmatrix $ptm concat 
stroke 
@gr 
moveto $tr 0 rmoveto 
}forall 
pop 
} 
{pop pop}ifelse 
}ifelse 
}bd 
/@pt 
{ 
dup length exch 
}bd 
/@te 
{ 
@pt 
@lorg 
@ft 
}bd 

/@tr 
{ 
@pt 
@lorg 
@st 
}bd 
/@ta 
{ 
@pt 
@lorg 
2 copy 
@gs @ft @gr 
/$lx 0 def 
/$ly 0 def 
@st 
}bd 















/g { 
1 exch sub /$k xd 
/$c 0 def /$m 0 def /$y 0 def /$t 1 def /$n _ def /$pf false def 
}bd 

/G { 
1 exch sub /$K xd 
/$C 0 def /$M 0 def /$Y 0 def /$T 1 def /$N _ def /$PF false def 
}bd 

/k { 
/$k xd /$y xd /$m xd /$c xd 
/$t 1 def /$n _ def /$pf false def 
}bd 

/K { 
/$K xd /$Y xd /$M xd /$C xd 
/$T 1 def /$N _ def /$PF false def 
}bd 

/x { 
/$t xd /$n xd 
/$k xd /$y xd /$m xd /$c xd /$pf false def 
}bd 

/X { 
/$T xd /$N xd 
/$K xd /$Y xd /$M xd /$C xd /$PF false def 
}bd 

/d /setdash ld 

/i { 
dup 0 ne {setflat} {pop} ifelse 
}bd 

/j /setlinejoin ld 

/J /setlinecap ld 

/M /setmiterlimit ld 

/w /setlinewidth ld 

/O { 
/$o xd 
}bd 

/R { 
/$O xd 
}bd 


/c /curveto ld 

/C /c ld 

/v { 
currentpoint
6 2 roll 
curveto 
}bd

/V /v ld 

/y { 
2 copy curveto 
}bd 

/Y /y ld 

/l /lineto ld 

/L /l ld 

/m /moveto ld 



/n /newpath ld 

/N /newpath ld 

/F { 
$pf 
{@pf} 
{ 
@scc 
{eofill}if 
}ifelse 
}bd 

/f { 
@cp F 
}bd 
/S { 
$PF 
{} 
{ 
@SCC 
{ 
@sm 
$ptm concat 
stroke 
$ctm setmatrix 
}if 
}ifelse 
}bd 
/s { 
@cp 
S 
}bd 

/B { 
@gs F @gr 
S 
}bd 
/b { 
@cp 
B 
}bd 

/W { 
oeclip 
@np 
}bd 

/p { 
/$pm xd 
7 {pop} repeat 
/$pyf xd /$pxf xd 
/$pn xd 
/$pf true def 
}bd 

/P { 
11 {pop} repeat 
}bd 

/@p { 
/$pm xd 
/$psy xd 
/$psx xd 
/$pyf xd /$pxf xd 
/$pn xd 
/$pf true def 
}bd 

/@b { 
/$Bbury xd /$Bburx xd 
/$Bblly xd /$Bbllx xd 
}bd 


/z { 
/$al xd 
/$tr xd 
/$le xd 
exch findfont exch scalefont setfont 
}bd 

/Z { 
dup type 0 type eq { /$bDir xd } if
findfont 
dup maxlength 1 add dict exch 



dup 
{1 index /FID ne 
{ 
3 index 
3 1 roll put 
} 
{pop pop}ifelse 
} forall 



pop 
dup dup /Encoding get 
256 array copy 
dup /$fe xd
/Encoding exch put 

dup /Fontname 3 index put 

}bd 

/e { 
@sm 
concat 
[ 
/t {@te}def 
}bd 

/r { 
@sm 
concat 
[ 
/t {@tr}def 
}bd 

/o { 
@sm 
concat 
[ 
/t {pop}def 
}bd 

/a { 
@sm 
concat 
[ 
/t {@ta}def 
}bd 

/@o{
@sm 
concat 
[ 
/t {@t@a}def 
}bd 

/I { 
@sm 
concat 
[ 
/t {pop}def 
}bd 

/t {@te}def 

/T { 
cleartomark 
/$lx 0 def 
/$ly 0 def 
$ctm setmatrix 
}bd 


/u {}bd 

/U {}bd 

/A {pop}bd 

/h { 
$h true def 
}bd 

/h { 
$h true def 
}bd 

/q /@gs ld 

/Q /@gr ld 



/E { 
5 array astore 
exch cvlit exch def 
}bd 

/` {}bd 

/~ {}bd 

/@ {}bd 

/& {}bd 

/CorelDrawRencodeVect [ 
16#80/grave 
16#81/circumflex 
16#82/tilde 
16#83/dotlessi 
16#84/florin 
16#85/quotedblleft 
16#86/quotedblright 
16#87/guilsinglleft 
16#88/guilsinglright 
16#89/fi 
16#8a/fl 
16#8b/dagger 
16#8c/daggerdbl 
16#8d/endash 
16#8e/periodcentered 
16#8f/breve 
16#90/quotedblbase 
16#91/ellipsis 
16#92/perthousand 
16#a1/exclamdown 
16#a2/cent 
16#a3/sterling 
16#a4/currency 
16#a5/yen 
16#a6/bar 
16#a7/section 
16#a8/dieresis 
16#a9/copyright 
16#aa/ordfeminine 
16#ab/guillemotleft 
16#ac/logicalnot 
16#ad/emdash 
16#ae/registered 
16#af/spac 
16#b0/ring 
16#b1/spac 
16#b2/spac 
16#b3/spac 
16#b4/acute 
16#b5/spac 
16#b6/paragraph 
16#b7/bullet 
16#b8/cedilla 
16#b9/spac 
16#ba/ordmasculine 
16#bb/guillemotright 
16#bc/spac 
16#bd/spac 
16#be/spac 
16#bf/questiondown 
16#c0/Agrave 
16#c1/Aacute 
16#c2/Acircumflex 
16#c3/Atilde 
16#c4/Adieresis 
16#c5/Aring 
16#c6/AE 
16#c7/Ccedilla 
16#c8/Egrave 
16#c9/Eacute 
16#ca/Ecircumflex 
16#cb/Edieresis 
16#cc/Igrave 
16#cd/Iacute 
16#ce/Icircumflex 
16#cf/Idieresis 
16#d0/spac 
16#d1/Ntilde 
16#d2/Ograve 
16#d3/Oacute 
16#d4/Ocircumflex 
16#d5/Otilde 
16#d6/Odieresis 
16#d7/OE 
16#d8/Oslash 
16#d9/Ugrave 
16#da/Uacute 
16#db/Ucircumflex 
16#dc/Udieresis 
16#dd/space 
16#de/spac 
16#df/germandbls 
16#e0/agrave 
16#e1/aacute 
16#e2/acircumflex 
16#e3/atilde 
16#e4/adieresis 
16#e5/aring 
16#e6/ae 
16#e7/ccedilla 
16#e8/egrave 
16#e9/eacute 
16#ea/ecircumflex 
16#eb/edieresis 
16#ec/igrave 
16#ed/iacute 
16#ee/icircumflex 
16#ef/idieresis 
16#f0/space 
16#f1/ntilde 
16#f2/ograve 
16#f3/oacute 
16#f4/ocircumflex 
16#f5/otilde 
16#f6/odieresis 
16#f7/oe 
16#f8/oslash 
16#f9/ugrave 
16#fa/uacute 
16#fb/ucircumflex 
16#fc/udieresis 
16#fd/spac 
16#fe/spac 
16#ff/ydieresis 
] def
%%EndProlog
%%BeginSetup
%%BeginEncoding:_Times-Bold Times-Bold
[
]/_Times-Bold/Times-Bold Z
%%EndEncoding
%%EndSetup
0.000 0.000 0.000 1.000 k
1016.927 382.607 m
1014.695 376.847 1010.663 371.807 1005.479 369.863 C
987.623 369.863 L
987.623 328.536 L
987.551 323.135 1016.927 322.847 1016.927 328.536 C
1016.927 382.607 L
f
0.000 0.000 0.000 1.000 k
813.671 369.863 m
795.599 369.863 L
790.127 372.671 786.455 378.359 784.295 384.551 C
784.295 328.536 L
784.223 323.135 813.671 322.847 813.671 328.536 C
813.671 369.863 L
f
0.000 0.000 0.000 1.000 K
0 j
0 J
0.215 w
[]0 d
0.000 0.000 0.000 0.498 k
514.655 747.215 m
511.847 818.999 609.983 838.727 628.559 760.967 C
617.759 757.367 L
610.055 826.199 519.623 815.399 524.231 748.943 C
514.655 747.215 L
b
0.000 0.000 0.000 1.000 K
0 j
0 J
0.215 w
[]0 d
0.000 0.000 0.000 0.498 k
263.663 367.559 m
260.567 445.823 159.551 441.071 150.048 374.759 C
161.423 372.311 L
164.951 437.471 260.063 433.799 254.663 363.239 C
263.663 367.559 L
b
0.000 0.000 0.000 1.000 K
0 j
0 J
0.215 w
[]0 d
0.000 0.000 0.000 0.498 k
146.375 753.191 m
146.375 822.527 247.679 835.847 254.159 755.567 C
248.111 748.943 L
250.559 825.047 152.567 818.423 154.799 752.831 C
146.375 753.191 L
b
0.000 0.000 0.000 1.000 K
0 j
0 J
0.215 w
[]0 d
0.000 0.000 0.000 0.498 k
632.087 371.735 m
623.735 449.495 523.151 438.695 524.231 366.335 C
530.855 364.535 L
522.575 433.799 626.687 439.271 623.591 367.487 C
632.087 371.735 L
b
0.000 0.000 0.000 1.000 K
0 j
0 J
0.863 w
[]0 d
0.000 0.000 0.000 0.000 k
91.007 884.879 m
111.023 913.607 137.447 938.231 161.783 962.855 C
165.311 966.959 167.687 969.695 175.679 970.847 C
211.967 977.327 247.679 983.159 290.231 982.439 C
398.447 984.671 549.791 984.671 657.935 982.439 C
674.495 982.943 687.383 980.999 695.375 970.559 C
704.807 951.911 717.623 904.391 719.423 861.983 C
719.495 814.967 L
720.359 813.743 719.711 814.967 720.719 812.375 C
720.719 784.511 L
725.255 777.167 L
722.807 760.391 L
705.311 758.303 L
645.048 754.847 L
641.159 749.591 L
641.879 742.607 639.072 731.087 634.175 732.527 C
629.423 756.431 L
616.751 834.047 512.351 824.615 514.655 747.287 C
270.575 747.215 L
260.135 731.087 L
255.023 748.727 L
253.511 831.023 148.967 828.647 145.871 752.903 C
145.439 748.079 144.647 744.911 139.175 744.767 C
98.063 749.879 L
98.351 751.391 L
59.039 754.199 L
57.167 754.703 55.367 755.207 55.007 757.295 C
54.215 770.183 L
58.607 776.519 53.279 784.799 52.847 791.855 C
52.199 794.375 50.831 794.375 47.519 795.383 C
47.519 806.183 L
58.463 815.327 L
56.879 817.991 58.319 818.567 60.623 819.791 C
63.359 829.583 L
60.191 828.143 57.959 827.495 59.039 831.095 c
60.983 838.007 60.407 836.135 62.783 842.039 C
62.999 842.831 63.359 843.551 64.295 843.551 C
67.319 843.551 L
63.359 845.567 66.311 847.511 68.256 847.511 C
68.256 849.239 68.975 851.039 70.128 852.335 C
75.239 864.503 82.295 875.951 91.007 884.879 C
b
0.000 0.000 0.000 1.000 K
0 j
0 J
0.863 w
[]0 d
0.000 0.000 0.000 0.000 k
687.815 500.255 m
667.799 528.983 641.375 553.679 617.039 578.231 C
613.511 582.407 611.135 585.072 603.144 586.223 C
566.855 592.703 531.144 598.535 488.591 597.815 C
380.303 600.048 229.031 600.048 120.887 597.815 C
104.327 598.319 91.439 596.375 83.447 585.935 C
74.015 567.288 61.199 519.839 59.399 477.359 C
59.327 430.343 L
58.463 429.191 59.111 430.343 58.103 427.751 C
58.103 399.887 L
53.567 392.543 L
55.943 375.767 L
73.512 373.679 L
133.775 370.223 L
137.663 365.039 L
136.943 357.983 139.679 346.463 144.647 347.903 C
149.399 371.807 L
162.071 449.495 266.399 440.063 264.168 362.663 C
508.247 362.591 L
518.687 346.463 L
523.799 364.103 L
525.312 446.399 629.855 444.095 632.879 368.351 C
633.383 363.455 634.175 360.359 639.647 360.143 C
680.759 365.255 L
680.471 366.767 L
719.783 369.575 L
721.655 370.151 723.455 370.583 723.815 372.743 C
724.607 385.559 L
720.215 391.967 725.543 400.175 725.975 407.303 C
726.623 409.823 727.919 409.823 731.303 410.759 C
731.303 421.559 L
720.359 430.703 L
721.943 433.367 720.503 433.943 718.199 435.167 C
715.463 444.959 L
718.631 443.519 720.863 442.943 719.783 446.471 c
717.839 453.383 718.415 451.511 716.039 457.415 C
715.823 458.279 715.463 458.999 714.527 458.999 C
711.503 458.999 L
715.463 460.943 712.511 462.887 710.567 462.887 C
710.567 464.615 709.847 466.415 708.623 467.783 C
703.511 479.879 696.527 491.399 687.815 500.255 C
b
0.000 0.000 0.000 1.000 K
0 j
0 J
0.215 w
[]0 d
287.711 965.303 m
460.727 966.023 L
462.239 751.967 L
287.639 751.967 L
287.711 965.303 L
s
0.000 0.000 0.000 1.000 K
0 j
0 J
0.215 w
[]0 d
491.039 580.679 m
318.024 581.399 L
316.512 367.343 L
491.183 367.343 L
491.039 580.679 L
s
0.000 0.000 0.000 1.000 K
0 j
0 J
0.215 w
[]0 d
184.607 961.559 m
214.055 964.583 241.703 965.879 272.663 965.087 C
271.871 896.471 281.663 831.455 232.559 804.239 C
187.199 833.687 141.911 797.039 143.567 753.983 C
109.799 757.223 L
106.703 757.511 105.263 758.447 105.479 761.759 C
105.479 852.983 L
103.895 875.231 109.655 883.151 113.111 886.607 C
173.591 953.927 L
176.687 956.951 178.703 961.487 184.607 961.559 C
s
0.000 0.000 0.000 1.000 K
0 j
0 J
0.215 w
[]0 d
594.288 576.935 m
564.911 580.031 537.264 581.255 506.303 580.463 C
507.095 511.919 497.231 446.831 546.408 419.615 C
591.695 449.063 637.055 412.487 635.327 369.359 C
669.167 372.599 L
672.191 372.887 673.631 373.895 673.487 377.207 C
673.487 468.359 L
675.000 490.607 669.239 498.527 665.855 502.055 C
605.375 569.303 L
602.207 572.399 600.264 576.863 594.288 576.935 C
s
0.000 0.000 0.000 1.000 K
0 j
0 J
0.215 w
[]0 d
0.000 0.000 0.000 0.498 k
185.255 955.655 m
208.583 958.175 232.127 959.759 255.743 960.047 C
261.791 961.055 265.680 957.527 266.327 953.999 C
256.319 902.951 L
255.023 896.759 252.071 894.959 244.151 892.655 C
204.983 885.887 157.175 884.231 118.223 883.223 C
179.783 952.775 L
181.223 954.647 182.879 955.655 185.255 955.655 C
b
0.000 0.000 0.000 1.000 K
0 j
0 J
0.215 w
[]0 d
0.000 0.000 0.000 0.498 k
593.567 571.031 m
570.240 573.551 546.695 575.135 523.079 575.423 C
516.959 576.431 513.144 572.903 512.495 569.447 C
522.432 518.327 L
523.799 512.135 526.751 510.335 534.671 508.031 C
573.767 501.335 621.647 499.607 660.599 498.599 C
599.039 568.151 L
597.599 570.024 595.943 571.031 593.567 571.031 C
b
0.000 0.000 0.000 1.000 K
0 j
0 J
0.215 w
[]0 d
0.000 0.000 0.000 0.498 k
304.127 869.183 m
314.279 869.183 l
317.447 869.183 319.895 866.807 319.895 863.639 c
319.895 849.095 l
319.895 845.999 317.447 843.551 314.279 843.551 c
304.127 843.551 l
301.031 843.551 298.584 845.999 298.584 849.095 c
298.584 863.639 l
298.584 866.807 301.031 869.183 304.127 869.183 c
b
0.000 0.000 0.000 1.000 K
0 j
0 J
0.215 w
[]0 d
0.000 0.000 0.000 0.498 k
474.623 484.631 m
464.471 484.631 l
461.303 484.631 458.927 482.183 458.927 479.015 c
458.927 464.543 l
458.927 461.375 461.303 458.927 464.471 458.927 c
474.623 458.927 l
477.791 458.927 480.167 461.375 480.167 464.543 c
480.167 479.015 l
480.167 482.183 477.791 484.631 474.623 484.631 c
b
0.000 0.000 0.000 1.000 K
0 j
0 J
0.215 w
[]0 d
67.247 843.695 m
103.895 843.911 L
103.895 815.255 L
58.463 815.327 L
56.591 817.127 58.535 819.287 60.551 819.935 C
67.247 843.695 L
s
0.000 0.000 0.000 1.000 K
0 j
0 J
0.215 w
[]0 d
711.575 459.143 m
674.927 459.287 L
674.927 430.703 L
720.359 430.775 L
722.231 432.575 720.287 434.735 718.271 435.311 C
711.575 459.143 L
s
u
u
0.000 0.000 0.000 1.000 K
0 j
0 J
0.215 w
[]0 d
118.871 883.007 m
117.287 880.991 118.295 879.479 121.103 879.479 C
163.871 879.479 209.447 881.783 249.191 889.991 C
254.015 890.567 257.543 893.807 258.192 896.327 C
265.391 951.551 L
S
U
U
u
u
0.000 0.000 0.000 1.000 K
0 j
0 J
0.215 w
[]0 d
659.951 498.383 m
661.535 496.367 660.527 494.855 657.647 494.855 C
614.951 494.855 569.375 497.231 529.631 505.367 C
524.735 506.015 521.279 509.255 520.631 511.775 C
513.432 566.927 L
S
U
U
0.000 0.000 0.000 1.000 K
0 j
0 J
0.215 w
[]0 d
311.687 952.343 m
435.887 952.343 l
440.855 952.343 444.815 948.455 444.815 943.487 c
444.815 896.903 l
444.815 892.007 440.783 888.047 435.887 888.047 c
311.759 888.047 l
306.935 888.047 302.903 890.999 302.903 895.679 c
302.831 943.487 l
302.831 948.239 306.791 952.343 311.687 952.343 c
s
0.000 0.000 0.000 1.000 K
0 j
0 J
0.215 w
[]0 d
467.063 567.791 m
342.863 567.791 l
337.967 567.791 334.007 563.831 334.007 558.863 c
334.007 512.279 l
334.007 507.383 338.039 503.423 342.863 503.423 c
466.991 503.423 l
471.815 503.423 475.847 506.375 475.847 511.055 c
475.991 558.863 l
475.991 563.615 472.031 567.791 467.063 567.791 c
s
0.000 0.000 0.000 1.000 K
0 j
0 J
0.215 w
[]0 d
304.632 958.607 m
442.511 958.607 l
447.479 958.607 451.439 954.647 451.439 949.751 c
451.439 890.423 l
451.439 885.455 447.479 881.495 442.511 881.495 c
304.127 881.495 l
299.159 881.495 295.271 885.671 295.271 890.423 c
295.271 949.751 l
295.271 954.503 299.735 958.607 304.632 958.607 c
s
0.000 0.000 0.000 1.000 K
0 j
0 J
0.215 w
[]0 d
474.119 573.983 m
336.239 573.983 l
331.343 573.983 327.383 570.024 327.383 565.127 c
327.383 505.799 l
327.383 500.831 331.343 496.943 336.239 496.943 c
474.623 496.943 l
479.591 496.943 483.551 501.047 483.551 505.799 c
483.551 565.127 l
483.551 569.879 479.015 573.983 474.119 573.983 c
s
0.000 0.000 0.000 1.000 K
0 j
0 J
0.215 w
[]0 d
485.207 952.703 m
657.144 952.703 l
662.111 952.703 665.711 948.311 666.144 943.775 c
670.823 896.759 l
671.255 892.151 666.791 887.759 661.823 887.759 c
485.207 887.759 l
480.239 887.759 476.207 891.791 476.207 896.759 c
476.207 943.775 l
476.207 948.671 480.239 952.703 485.207 952.703 c
s
0.000 0.000 0.000 1.000 K
0 j
0 J
0.215 w
[]0 d
293.687 568.151 m
121.751 568.151 l
116.855 568.151 113.255 563.759 112.751 559.151 c
108.143 512.135 l
107.639 507.527 112.175 503.135 117.071 503.135 c
293.687 503.135 l
298.655 503.135 302.687 507.167 302.687 512.135 c
302.687 559.151 l
302.687 564.120 298.655 568.151 293.687 568.151 c
s
0.000 0.000 0.000 1.000 K
0 j
0 J
0.215 w
[]0 d
478.511 958.391 m
663.335 958.391 l
668.375 958.391 671.831 953.783 672.407 949.319 c
679.391 890.351 l
679.967 885.815 675.359 881.279 670.319 881.279 c
478.511 881.279 l
473.471 881.279 469.439 885.383 469.439 890.351 c
469.439 949.319 l
469.439 954.215 473.471 958.391 478.511 958.391 c
s
0.000 0.000 0.000 1.000 K
0 j
0 J
0.215 w
[]0 d
300.527 573.767 m
115.703 573.767 l
110.663 573.767 107.207 569.159 106.631 564.695 c
99.647 505.727 l
99.143 501.263 103.679 496.655 108.719 496.655 c
300.527 496.655 l
305.567 496.655 309.599 500.831 309.599 505.727 c
309.599 564.695 l
309.599 569.663 305.567 573.767 300.527 573.767 c
s
u
u
0.000 0.000 0.000 1.000 K
0 j
0 J
0.215 w
[]0 d
659.951 958.391 m
673.703 958.391 681.767 956.231 684.072 949.535 C
690.767 894.383 L
689.183 880.631 680.615 880.271 667.295 880.271 C
S
U
U
u
u
0.000 0.000 0.000 1.000 K
0 j
0 J
0.215 w
[]0 d
118.943 573.767 m
105.263 573.767 97.199 571.607 94.823 564.983 C
88.199 509.759 L
89.711 496.007 98.351 495.647 111.599 495.647 C
S
U
U
u
u
0.000 0.000 0.000 1.000 K
0 j
0 J
0.215 w
[]0 d
305.567 866.447 m
305.567 846.287 L
S
U
U
u
u
0.000 0.000 0.000 1.000 K
0 j
0 J
0.215 w
[]0 d
473.183 481.895 m
473.183 461.663 L
S
U
U
u
u
0.000 0.000 0.000 1.000 K
0 j
0 J
0.215 w
[]0 d
312.120 866.447 m
312.120 846.287 L
S
U
U
u
u
0.000 0.000 0.000 1.000 K
0 j
0 J
0.215 w
[]0 d
466.775 481.895 m
466.775 461.663 L
S
U
U
u
u
0.000 0.000 0.000 1.000 K
0 j
0 J
0.215 w
[]0 d
272.663 965.087 m
288.000 964.943 L
S
U
U
u
u
0.000 0.000 0.000 1.000 K
0 j
0 J
0.215 w
[]0 d
506.303 580.463 m
490.895 580.391 L
S
U
U
0.000 0.000 0.000 1.000 K
0 j
0 J
0.215 w
[]0 d
0.000 0.000 0.000 0.098 k
60.551 819.935 m
98.063 819.935 l
100.079 819.935 101.159 818.351 101.159 822.455 c
101.375 843.839 L
67.247 843.695 L
60.551 819.935 l
b
0.000 0.000 0.000 1.000 K
0 j
0 J
0.215 w
[]0 d
0.000 0.000 0.000 0.098 k
718.271 435.311 m
680.759 435.311 l
678.743 435.311 677.663 433.799 677.663 437.831 c
677.447 459.287 L
711.575 459.071 L
718.271 435.311 l
b
0.000 0.000 0.000 1.000 K
0 j
0 J
0.215 w
[]0 d
0.000 0.000 0.000 0.498 k
610.127 584.639 m
605.015 577.583 L
672.335 501.191 L
676.799 498.671 688.679 495.863 688.391 499.535 C
667.943 529.343 634.535 560.519 610.127 584.639 C
b
u
u
0.000 0.000 0.000 1.000 K
0 j
0 J
0.215 w
[]0 d
173.591 962.063 m
181.727 961.199 L
S
U
U
u
u
0.000 0.000 0.000 1.000 K
0 j
0 J
0.215 w
[]0 d
605.231 577.439 m
597.096 576.575 L
S
U
U
u
u
0.000 0.000 0.000 0.498 k
108.215 887.543 m
102.167 880.343 96.335 876.959 84.599 877.823 C
S
U
u
0.000 0.000 0.000 1.000 K
0 j
0 J
0.215 w
[]0 d
108.215 887.543 m
102.167 880.343 96.335 876.959 84.599 877.823 C
S
U
U
u
u
0.000 0.000 0.000 1.000 K
0 j
0 J
0.215 w
[]0 d
670.607 502.919 m
676.655 495.719 682.487 492.335 694.151 493.199 C
S
U
U
u
u
0.000 0.000 0.000 1.000 K
0 j
0 J
0.215 w
[]0 d
105.335 852.191 m
70.271 852.191 L
S
U
U
u
u
0.000 0.000 0.000 1.000 K
0 j
0 J
0.215 w
[]0 d
673.559 467.639 m
708.623 467.639 L
S
U
U
u
u
0.000 0.000 0.000 1.000 K
0 j
0 J
0.215 w
[]0 d
105.335 847.583 m
68.327 847.583 L
S
U
U
u
u
0.000 0.000 0.000 1.000 K
0 j
0 J
0.215 w
[]0 d
673.559 462.959 m
710.639 462.959 L
S
U
U
0.000 0.000 0.000 1.000 k
570.959 710.423 m
596.663 710.423 617.759 731.519 617.759 757.367 c
617.759 783.143 596.663 804.239 570.959 804.239 c
545.111 804.239 524.015 783.143 524.015 757.367 c
524.015 731.519 545.111 710.423 570.959 710.423 c
f
0.000 0.000 0.000 1.000 k
208.151 325.799 m
182.375 325.799 161.280 346.895 161.280 372.743 c
161.280 398.519 182.375 419.615 208.151 419.615 c
233.999 419.615 255.095 398.519 255.095 372.743 c
255.095 346.895 233.999 325.799 208.151 325.799 c
f
0.000 0.000 0.000 1.000 k
201.815 710.423 m
227.591 710.423 248.687 731.519 248.687 757.367 c
248.687 783.143 227.591 804.239 201.815 804.239 c
175.967 804.239 154.943 783.143 154.943 757.367 c
154.943 731.519 175.967 710.423 201.815 710.423 c
f
0.000 0.000 0.000 1.000 k
576.935 325.799 m
551.231 325.799 530.135 346.895 530.135 372.743 c
530.135 398.519 551.231 419.615 576.935 419.615 c
602.783 419.615 623.879 398.519 623.879 372.743 c
623.879 346.895 602.783 325.799 576.935 325.799 c
f
0.000 0.000 0.000 1.000 K
0 j
0 J
0.215 w
[]0 d
0.000 0.000 0.000 0.000 k
570.671 785.519 m
586.223 785.519 599.039 772.703 599.039 757.151 C
599.039 741.527 586.223 728.855 570.671 728.855 C
555.048 728.855 542.303 741.527 542.303 757.151 C
542.303 772.703 555.048 785.519 570.671 785.519 C
b
0.000 0.000 0.000 1.000 K
0 j
0 J
0.215 w
[]0 d
0.000 0.000 0.000 0.000 k
208.223 400.967 m
192.671 400.967 179.855 388.151 179.855 372.599 C
179.855 356.903 192.671 344.159 208.223 344.159 C
223.919 344.159 236.591 356.903 236.591 372.599 C
236.591 388.151 223.919 400.967 208.223 400.967 C
b
0.000 0.000 0.000 1.000 K
0 j
0 J
0.215 w
[]0 d
570.671 731.879 m
556.631 731.879 545.399 743.111 545.399 757.151 C
545.399 771.119 556.631 782.351 570.671 782.351 C
584.639 782.351 595.871 771.119 595.871 757.151 C
595.871 743.111 584.639 731.879 570.671 731.879 C
s
0.000 0.000 0.000 1.000 K
0 j
0 J
0.215 w
[]0 d
208.223 347.255 m
222.335 347.255 233.567 358.487 233.567 372.599 C
233.567 386.567 222.335 397.799 208.223 397.799 C
194.327 397.799 183.095 386.567 183.095 372.599 C
183.095 358.487 194.327 347.255 208.223 347.255 C
s
0.000 0.000 0.000 1.000 k
570.671 739.799 m
580.103 739.799 587.951 747.647 587.951 757.151 C
587.951 766.583 580.103 774.431 570.671 774.431 C
561.168 774.431 553.319 766.583 553.319 757.151 C
553.319 747.647 561.168 739.799 570.671 739.799 C
f
0.000 0.000 0.000 1.000 k
208.223 355.247 m
198.863 355.247 191.015 363.024 191.015 372.599 C
191.015 382.031 198.863 389.807 208.223 389.807 C
217.799 389.807 225.575 382.031 225.575 372.599 C
225.575 363.024 217.799 355.247 208.223 355.247 C
f
0.000 0.000 0.000 1.000 K
0 j
0 J
0.215 w
[]0 d
0.000 0.000 0.000 0.000 k
570.671 743.039 m
562.751 743.039 556.487 749.375 556.487 757.151 C
556.487 764.927 562.751 771.335 570.671 771.335 C
578.519 771.335 584.855 764.927 584.855 757.151 C
584.855 749.375 578.519 743.039 570.671 743.039 C
b
0.000 0.000 0.000 1.000 K
0 j
0 J
0.215 w
[]0 d
0.000 0.000 0.000 0.000 k
208.223 358.415 m
216.215 358.415 222.407 364.751 222.407 372.599 C
222.407 380.303 216.215 386.783 208.223 386.783 C
200.447 386.783 194.039 380.303 194.039 372.599 C
194.039 364.751 200.447 358.415 208.223 358.415 C
b
0.000 0.000 0.000 1.000 k
581.111 761.399 m
580.895 761.831 580.319 762.047 579.959 761.831 C
579.455 761.759 579.168 761.183 579.455 760.679 C
579.671 760.247 580.103 760.031 580.535 760.103 C
581.111 760.391 581.327 760.895 581.111 761.399 C
f
0.000 0.000 0.000 1.000 k
197.783 376.775 m
198.071 377.207 198.575 377.495 198.935 377.207 C
199.511 377.135 199.727 376.559 199.511 376.127 C
199.295 375.623 198.863 375.407 198.359 375.551 C
197.783 375.767 197.567 376.343 197.783 376.775 C
f
0.000 0.000 0.000 1.000 k
577.799 748.367 m
578.159 748.583 578.303 749.231 577.943 749.735 C
577.583 750.023 576.935 750.167 576.575 749.807 C
576.144 749.447 576.144 748.871 576.503 748.439 C
576.791 748.007 577.367 748.007 577.799 748.367 C
f
0.000 0.000 0.000 1.000 k
201.095 363.743 m
200.735 363.959 200.663 364.679 201.023 365.111 C
201.311 365.471 202.031 365.543 202.319 365.183 C
202.823 364.895 202.823 364.319 202.463 363.887 C
202.103 363.383 201.527 363.383 201.095 363.743 C
f
0.000 0.000 0.000 1.000 k
564.336 747.647 m
564.767 747.431 565.343 747.575 565.703 747.863 C
565.919 748.367 565.775 749.015 565.343 749.231 C
564.911 749.591 564.336 749.447 564.120 749.015 C
563.759 748.583 563.903 748.007 564.336 747.647 C
f
0.000 0.000 0.000 1.000 k
214.631 363.024 m
214.127 362.807 213.551 362.951 213.263 363.311 C
213.047 363.743 213.119 364.391 213.551 364.679 C
214.055 364.967 214.631 364.895 214.847 364.391 C
215.135 363.959 215.063 363.383 214.631 363.024 C
f
0.000 0.000 0.000 1.000 k
559.799 760.463 m
559.655 759.887 559.943 759.455 560.447 759.239 C
560.951 759.095 561.383 759.311 561.527 759.887 C
561.743 760.391 561.383 760.895 561.024 761.039 C
560.447 761.255 559.943 760.895 559.799 760.463 C
f
0.000 0.000 0.000 1.000 k
219.167 375.911 m
219.239 375.335 219.023 374.831 218.447 374.615 C
218.015 374.543 217.583 374.759 217.439 375.335 C
217.223 375.767 217.583 376.343 217.871 376.415 C
218.447 376.703 219.023 376.343 219.167 375.911 C
f
0.000 0.000 0.000 1.000 k
570.671 768.383 m
570.096 768.383 569.663 768.095 569.663 767.519 C
569.663 766.943 570.096 766.583 570.671 766.583 C
571.175 766.583 571.607 766.943 571.607 767.519 C
571.607 768.095 571.175 768.383 570.671 768.383 C
f
0.000 0.000 0.000 1.000 k
208.223 383.831 m
208.799 383.831 209.303 383.471 209.303 382.895 C
209.303 382.319 208.799 382.031 208.223 382.031 C
207.791 382.031 207.359 382.319 207.359 382.895 C
207.359 383.471 207.791 383.831 208.223 383.831 C
f
0.000 0.000 0.000 1.000 k
570.671 751.535 m
573.767 751.535 576.216 753.983 576.216 757.151 C
576.216 760.247 573.767 762.767 570.671 762.767 C
567.503 762.767 564.983 760.247 564.983 757.151 C
564.983 753.983 567.503 751.535 570.671 751.535 C
f
0.000 0.000 0.000 1.000 k
208.223 366.911 m
205.199 366.911 202.679 369.431 202.679 372.599 C
202.679 375.623 205.199 378.143 208.223 378.143 C
211.391 378.143 213.911 375.623 213.911 372.599 C
213.911 369.431 211.391 366.911 208.223 366.911 C
f
0.000 0.000 0.000 1.000 K
0 j
0 J
0.215 w
[]0 d
0.000 0.000 0.000 0.000 k
201.959 785.519 m
217.511 785.519 230.327 772.703 230.327 757.151 C
230.327 741.527 217.511 728.855 201.959 728.855 C
186.335 728.855 173.591 741.527 173.591 757.151 C
173.591 772.703 186.335 785.519 201.959 785.519 C
b
0.000 0.000 0.000 1.000 K
0 j
0 J
0.215 w
[]0 d
0.000 0.000 0.000 0.000 k
577.079 400.967 m
561.527 400.967 548.711 388.151 548.711 372.599 C
548.711 356.903 561.527 344.159 577.079 344.159 C
592.775 344.159 605.447 356.903 605.447 372.599 C
605.447 388.151 592.775 400.967 577.079 400.967 C
b
0.000 0.000 0.000 1.000 K
0 j
0 J
0.215 w
[]0 d
201.959 731.879 m
187.919 731.879 176.687 743.111 176.687 757.151 C
176.687 771.119 187.919 782.351 201.959 782.351 C
215.927 782.351 227.159 771.119 227.159 757.151 C
227.159 743.111 215.927 731.879 201.959 731.879 C
s
0.000 0.000 0.000 1.000 K
0 j
0 J
0.215 w
[]0 d
577.079 347.255 m
591.120 347.255 602.351 358.487 602.351 372.599 C
602.351 386.567 591.120 397.799 577.079 397.799 C
563.111 397.799 551.879 386.567 551.879 372.599 C
551.879 358.487 563.111 347.255 577.079 347.255 C
s
0.000 0.000 0.000 1.000 k
201.959 739.799 m
211.391 739.799 219.239 747.647 219.239 757.151 C
219.239 766.583 211.391 774.431 201.959 774.431 C
192.455 774.431 184.607 766.583 184.607 757.151 C
184.607 747.647 192.455 739.799 201.959 739.799 C
f
0.000 0.000 0.000 1.000 k
577.079 355.247 m
567.647 355.247 559.871 363.024 559.871 372.599 C
559.871 382.031 567.647 389.807 577.079 389.807 C
586.583 389.807 594.431 382.031 594.431 372.599 C
594.431 363.024 586.583 355.247 577.079 355.247 C
f
0.000 0.000 0.000 1.000 K
0 j
0 J
0.215 w
[]0 d
0.000 0.000 0.000 0.000 k
201.959 743.039 m
194.039 743.039 187.775 749.375 187.775 757.151 C
187.775 764.927 194.039 771.335 201.959 771.335 C
209.807 771.335 216.143 764.927 216.143 757.151 C
216.143 749.375 209.807 743.039 201.959 743.039 C
b
0.000 0.000 0.000 1.000 K
0 j
0 J
0.215 w
[]0 d
0.000 0.000 0.000 0.000 k
577.079 358.415 m
585.000 358.415 591.264 364.751 591.264 372.599 C
591.264 380.303 585.000 386.783 577.079 386.783 C
569.231 386.783 562.895 380.303 562.895 372.599 C
562.895 364.751 569.231 358.415 577.079 358.415 C
b
0.000 0.000 0.000 1.000 k
212.399 761.399 m
212.183 761.831 211.607 762.047 211.247 761.831 C
210.671 761.759 210.455 761.183 210.671 760.679 C
210.959 760.247 211.391 760.031 211.823 760.103 C
212.399 760.391 212.615 760.895 212.399 761.399 C
f
0.000 0.000 0.000 1.000 k
566.639 376.775 m
566.855 377.207 567.431 377.495 567.791 377.207 C
568.367 377.135 568.583 376.559 568.367 376.127 C
568.151 375.623 567.647 375.407 567.216 375.551 C
566.639 375.767 566.423 376.343 566.639 376.775 C
f
0.000 0.000 0.000 1.000 k
209.087 748.367 m
209.447 748.583 209.591 749.231 209.231 749.735 C
208.871 750.023 208.223 750.167 207.863 749.807 C
207.431 749.447 207.431 748.871 207.719 748.439 C
208.079 748.007 208.655 748.007 209.087 748.367 C
f
0.000 0.000 0.000 1.000 k
569.951 363.743 m
569.591 363.959 569.519 364.679 569.807 365.111 C
570.168 365.471 570.815 365.543 571.175 365.183 C
571.607 364.895 571.607 364.319 571.319 363.887 C
570.959 363.383 570.383 363.383 569.951 363.743 C
f
0.000 0.000 0.000 1.000 k
195.623 747.647 m
196.055 747.431 196.631 747.575 196.991 747.863 C
197.207 748.367 197.063 749.015 196.631 749.231 C
196.199 749.591 195.623 749.447 195.407 749.015 C
195.047 748.583 195.191 748.007 195.623 747.647 C
f
0.000 0.000 0.000 1.000 k
583.415 363.024 m
582.983 362.807 582.407 362.951 582.048 363.311 C
581.831 363.743 581.975 364.391 582.407 364.679 C
582.839 364.967 583.415 364.895 583.703 364.391 C
583.991 363.959 583.919 363.383 583.415 363.024 C
f
0.000 0.000 0.000 1.000 k
191.087 760.463 m
190.943 759.887 191.159 759.455 191.735 759.239 C
192.239 759.095 192.671 759.311 192.743 759.887 C
193.031 760.391 192.671 760.895 192.311 761.039 C
191.735 761.255 191.159 760.895 191.087 760.463 C
f
0.000 0.000 0.000 1.000 k
587.951 375.911 m
588.096 375.335 587.879 374.831 587.303 374.615 C
586.871 374.543 586.367 374.759 586.295 375.335 C
586.079 375.767 586.367 376.343 586.727 376.415 C
587.303 376.703 587.879 376.343 587.951 375.911 C
f
0.000 0.000 0.000 1.000 k
201.959 768.383 m
201.383 768.383 200.951 768.095 200.951 767.519 C
200.951 766.943 201.383 766.583 201.959 766.583 C
202.391 766.583 202.895 766.943 202.895 767.519 C
202.895 768.095 202.391 768.383 201.959 768.383 C
f
0.000 0.000 0.000 1.000 k
577.079 383.831 m
577.655 383.831 578.087 383.471 578.087 382.895 C
578.087 382.319 577.655 382.031 577.079 382.031 C
576.647 382.031 576.216 382.319 576.216 382.895 C
576.216 383.471 576.647 383.831 577.079 383.831 C
f
0.000 0.000 0.000 1.000 k
201.959 751.535 m
205.055 751.535 207.503 753.983 207.503 757.151 C
207.503 760.247 205.055 762.767 201.959 762.767 C
198.791 762.767 196.271 760.247 196.271 757.151 C
196.271 753.983 198.791 751.535 201.959 751.535 C
f
0.000 0.000 0.000 1.000 k
577.079 366.911 m
574.055 366.911 571.535 369.431 571.535 372.599 C
571.535 375.623 574.055 378.143 577.079 378.143 C
580.247 378.143 582.767 375.623 582.767 372.599 C
582.767 369.431 580.247 366.911 577.079 366.911 C
f
u
u
0.000 0.000 0.000 1.000 K
0 j
0 J
0.215 w
[]0 d
461.159 966.239 m
697.031 965.951 L
S
U
U
u
u
0.000 0.000 0.000 1.000 K
0 j
0 J
0.215 w
[]0 d
317.879 581.615 m
82.007 581.327 L
S
U
U
u
u
0.000 0.000 0.000 1.000 K
0 j
0 J
0.215 w
[]0 d
104.039 838.583 m
705.024 838.583 L
S
U
U
u
u
0.000 0.000 0.000 1.000 K
0 j
0 J
0.215 w
[]0 d
674.783 453.959 m
73.799 453.959 L
S
U
U
0.000 0.000 0.000 1.000 K
0 j
0 J
0.215 w
[]0 d
0.000 0.000 0.000 0.200 k
693.072 964.511 m
692.567 965.879 695.447 966.599 697.319 966.671 C
708.335 938.231 715.391 907.703 718.415 873.935 C
713.951 873.935 L
708.479 904.463 701.927 935.351 693.072 964.511 C
b
0.000 0.000 0.000 1.000 K
0 j
0 J
0.215 w
[]0 d
0.000 0.000 0.000 0.200 k
85.967 579.959 m
86.471 581.255 83.591 581.975 81.719 582.048 C
70.703 553.607 63.719 523.079 60.623 489.383 C
65.159 489.383 L
70.631 519.911 77.183 550.727 85.967 579.959 C
b
u
u
0.000 0.000 0.000 1.000 K
0 j
0 J
0.215 w
[]0 d
686.087 977.255 m
694.871 938.015 703.367 901.151 703.367 862.631 c
703.367 820.727 L
703.151 816.263 704.087 815.255 707.327 815.255 C
720.287 815.255 L
S
U
U
u
u
0.000 0.000 0.000 1.000 K
0 j
0 J
0.215 w
[]0 d
92.879 592.703 m
84.095 553.463 75.527 516.527 75.527 478.079 c
75.527 436.175 L
75.815 431.639 74.807 430.703 71.567 430.703 C
58.679 430.703 L
S
U
U
u
u
0.000 0.000 0.000 1.000 K
0 j
0 J
0.215 w
[]0 d
718.559 872.063 m
715.175 872.063 L
713.951 872.063 713.591 875.663 714.095 874.079 c
715.247 870.047 714.527 870.911 718.919 869.759 C
S
U
U
u
u
0.000 0.000 0.000 1.000 K
0 j
0 J
0.215 w
[]0 d
60.407 487.511 m
63.791 487.511 L
64.943 487.511 65.304 491.039 64.871 489.455 c
63.719 485.423 64.439 486.287 60.047 485.135 C
S
U
U
0.000 0.000 0.000 1.000 K
0 j
0 J
0.215 w
[]0 d
0.000 0.000 0.000 0.200 k
716.975 863.567 m
704.951 863.567 l
703.511 863.567 702.431 862.415 702.431 861.047 c
702.431 817.631 l
702.431 816.839 704.447 815.111 704.951 815.111 c
716.975 815.111 L
719.423 815.039 L
719.423 817.631 L
719.423 861.047 l
719.423 862.415 718.415 863.567 716.975 863.567 c
b
0.000 0.000 0.000 1.000 K
0 j
0 J
0.215 w
[]0 d
0.000 0.000 0.000 0.200 k
61.991 479.015 m
74.015 479.015 l
75.455 479.015 76.535 477.791 76.535 476.495 c
76.535 433.007 l
76.535 432.215 74.447 430.559 74.015 430.559 c
61.991 430.559 L
59.471 430.415 L
59.471 433.007 L
59.471 476.495 l
59.471 477.791 60.551 479.015 61.991 479.015 c
b
u
u
0.000 0.000 0.000 1.000 K
0 j
0 J
0.215 w
[]0 d
702.431 849.023 m
719.495 849.023 L
S
U
U
u
u
0.000 0.000 0.000 1.000 K
0 j
0 J
0.215 w
[]0 d
76.607 464.399 m
59.543 464.399 L
S
U
U
u
u
0.000 0.000 0.000 1.000 K
0 j
0 J
0.215 w
[]0 d
702.143 838.727 m
718.991 838.727 L
S
U
U
u
u
0.000 0.000 0.000 1.000 K
0 j
0 J
0.215 w
[]0 d
76.823 454.103 m
59.903 454.103 L
S
U
U
u
u
0.000 0.000 0.000 1.000 K
0 j
0 J
0.215 w
[]0 d
702.431 823.967 m
719.495 823.967 L
S
U
U
u
u
0.000 0.000 0.000 1.000 K
0 j
0 J
0.215 w
[]0 d
76.607 439.343 m
59.543 439.343 L
S
U
U
u
u
0.000 0.000 0.000 1.000 K
0 j
0 J
0.215 w
[]0 d
610.847 806.759 m
719.351 806.759 L
S
U
U
u
u
0.000 0.000 0.000 1.000 K
0 j
0 J
0.215 w
[]0 d
168.047 422.135 m
59.543 422.135 L
S
U
U
u
u
0.000 0.000 0.000 1.000 K
0 j
0 J
0.215 w
[]0 d
242.351 806.759 m
526.823 806.759 L
S
U
U
u
u
0.000 0.000 0.000 1.000 K
0 j
0 J
0.215 w
[]0 d
536.471 422.135 m
251.999 422.135 L
S
U
U
u
u
0.000 0.000 0.000 1.000 K
0 j
0 J
0.215 w
[]0 d
617.687 798.335 m
706.031 798.335 L
S
U
U
u
u
0.000 0.000 0.000 1.000 K
0 j
0 J
0.215 w
[]0 d
161.280 413.783 m
72.935 413.783 L
S
U
U
u
u
0.000 0.000 0.000 1.000 K
0 j
0 J
0.215 w
[]0 d
250.631 798.335 m
527.183 798.335 L
S
U
U
u
u
0.000 0.000 0.000 1.000 K
0 j
0 J
0.215 w
[]0 d
528.192 413.783 m
251.639 413.783 L
S
U
U
u
u
0.000 0.000 0.000 1.000 K
0 j
0 J
0.215 w
[]0 d
149.975 798.335 m
172.727 831.383 223.703 831.383 250.847 798.335 C
S
U
U
u
u
0.000 0.000 0.000 1.000 K
0 j
0 J
0.215 w
[]0 d
628.847 413.783 m
606.096 446.831 555.120 446.831 527.903 413.783 C
S
U
U
u
u
0.000 0.000 0.000 1.000 K
0 j
0 J
0.215 w
[]0 d
237.023 795.527 m
250.199 798.479 L
S
U
U
u
u
0.000 0.000 0.000 1.000 K
0 j
0 J
0.215 w
[]0 d
541.799 410.903 m
528.623 413.855 L
S
U
U
u
u
0.000 0.000 0.000 1.000 K
0 j
0 J
0.215 w
[]0 d
232.415 804.023 m
247.679 793.655 259.919 768.959 270.575 747.287 C
S
U
U
u
u
0.000 0.000 0.000 1.000 K
0 j
0 J
0.215 w
[]0 d
546.479 419.399 m
531.216 409.103 519.048 384.407 508.319 362.663 C
S
U
U
u
u
0.000 0.000 0.000 1.000 K
0 j
0 J
0.215 w
[]0 d
281.663 751.823 m
267.983 751.823 L
S
U
U
u
u
0.000 0.000 0.000 1.000 K
0 j
0 J
0.215 w
[]0 d
497.159 367.199 m
510.839 367.199 L
S
U
U
u
u
0.000 0.000 0.000 1.000 K
0 j
0 J
0.215 w
[]0 d
458.495 751.823 m
510.119 751.823 L
513.503 805.463 553.895 830.015 595.511 811.151 C
615.096 801.575 631.655 778.679 642.959 759.023 C
706.031 763.991 L
S
U
U
u
u
0.000 0.000 0.000 1.000 K
0 j
0 J
0.215 w
[]0 d
320.543 367.199 m
268.919 367.199 L
265.536 420.911 225.143 445.391 183.527 426.527 C
163.943 416.951 147.455 394.055 136.151 374.399 C
73.007 379.439 L
S
U
U
u
u
0.000 0.000 0.000 1.000 K
0 j
0 J
0.215 w
[]0 d
616.967 787.895 m
619.127 789.983 L
S
U
U
u
u
0.000 0.000 0.000 1.000 K
0 j
0 J
0.215 w
[]0 d
162.000 403.343 m
159.839 405.359 L
S
U
U
u
u
0.000 0.000 0.000 1.000 K
0 j
0 J
0.215 w
[]0 d
520.631 798.839 m
544.175 831.311 596.591 831.311 617.975 798.479 C
S
U
U
u
u
0.000 0.000 0.000 1.000 K
0 j
0 J
0.215 w
[]0 d
258.263 414.215 m
234.719 446.759 182.375 446.759 160.991 413.855 C
S
U
U
0.000 0.000 0.000 1.000 K
0 j
0 J
0.215 w
[]0 d
0.000 0.000 0.000 0.498 k
706.031 798.407 m
722.591 798.407 L
723.743 794.087 L
727.919 786.023 L
732.599 778.895 L
729.287 761.255 L
705.959 758.663 L
706.031 798.407 L
b
0.000 0.000 0.000 1.000 K
0 j
0 J
0.215 w
[]0 d
0.000 0.000 0.000 0.498 k
73.007 413.783 m
56.519 413.783 L
55.295 409.463 L
51.119 401.399 L
46.439 394.343 L
49.751 376.631 L
73.079 374.039 L
73.007 413.783 L
b
0.000 0.000 0.000 1.000 K
0 j
0 J
0.215 w
[]0 d
0.000 0.000 0.000 0.498 k
105.479 815.255 m
58.319 815.255 L
47.591 806.111 L
47.591 795.599 L
52.127 793.943 52.775 793.727 52.919 790.631 C
55.583 779.255 L
56.303 775.511 55.943 772.703 54.287 770.183 C
54.935 758.591 L
55.295 755.351 55.799 754.775 60.407 754.127 C
98.279 751.463 L
97.991 749.879 L
105.335 748.943 L
105.479 815.255 L
b
0.000 0.000 0.000 1.000 K
0 j
0 J
0.215 w
[]0 d
0.000 0.000 0.000 0.498 k
673.487 430.631 m
720.575 430.631 L
731.375 421.487 L
731.375 410.975 L
726.767 409.391 726.191 409.103 725.975 406.079 C
723.383 394.631 L
722.663 390.887 723.024 388.079 724.607 385.559 C
724.031 374.039 L
723.671 370.799 723.095 370.151 718.559 369.503 C
680.687 366.839 L
680.903 365.327 L
673.559 364.319 L
673.487 430.631 L
b
u
u
0.000 0.000 0.000 1.000 K
0 j
0 J
0.215 w
[]0 d
98.423 751.607 m
138.816 748.151 L
140.903 748.007 142.847 748.007 143.567 749.159 C
143.783 753.767 L
S
U
U
u
u
0.000 0.000 0.000 1.000 K
0 j
0 J
0.215 w
[]0 d
680.399 366.983 m
640.007 363.599 L
637.919 363.383 635.975 363.383 635.255 364.535 C
635.039 369.143 L
S
U
U
u
u
0.000 0.000 0.000 1.000 K
0 j
0 J
0.215 w
[]0 d
105.335 762.623 m
143.783 759.815 L
S
U
U
u
u
0.000 0.000 0.000 1.000 K
0 j
0 J
0.215 w
[]0 d
673.559 377.999 m
635.183 375.191 L
S
U
U
u
u
0.000 0.000 0.000 1.000 K
0 j
0 J
0.215 w
[]0 d
108.575 757.079 m
54.503 762.479 L
S
U
U
u
u
0.000 0.000 0.000 1.000 K
0 j
0 J
0.215 w
[]0 d
670.247 372.455 m
724.319 377.855 L
S
U
U
u
u
0.000 0.000 0.000 1.000 K
0 j
0 J
0.215 w
[]0 d
47.591 806.759 m
156.455 806.759 L
S
U
U
u
u
0.000 0.000 0.000 1.000 K
0 j
0 J
0.215 w
[]0 d
731.375 422.135 m
622.511 422.135 L
S
U
U
u
u
0.000 0.000 0.000 1.000 K
0 j
0 J
0.215 w
[]0 d
47.591 798.335 m
161.567 798.335 L
S
U
U
u
u
0.000 0.000 0.000 1.000 K
0 j
0 J
0.215 w
[]0 d
731.375 413.783 m
617.399 413.783 L
S
U
U
u
u
0.000 0.000 0.000 1.000 K
0 j
0 J
0.215 w
[]0 d
723.959 794.159 m
710.783 794.087 L
710.783 770.687 L
731.519 770.687 L
S
U
U
u
u
0.000 0.000 0.000 1.000 K
0 j
0 J
0.215 w
[]0 d
55.007 409.607 m
68.183 409.463 L
68.183 386.063 L
47.447 386.063 L
S
U
U
0.000 0.000 0.000 1.000 K
0 j
0 J
0.215 w
[]0 d
0.000 0.000 0.000 0.498 k
461.015 847.295 m
630.863 847.295 L
630.863 838.583 L
461.015 838.583 L
461.015 847.295 L
b
0.000 0.000 0.000 1.000 K
0 j
0 J
0.215 w
[]0 d
0.000 0.000 0.000 0.498 k
317.951 462.743 m
148.175 462.743 L
148.175 454.031 L
317.951 454.031 L
317.951 462.743 L
b
0.000 0.000 0.000 1.000 K
0 j
0 J
0.215 w
[]0 d
257.183 868.751 m
257.183 864.647 l
257.183 863.783 256.463 863.135 255.599 863.135 c
238.895 863.135 l
238.031 863.135 237.383 863.783 237.383 864.647 c
237.383 868.751 L
257.183 868.751 l
s
0.000 0.000 0.000 1.000 K
0 j
0 J
0.215 w
[]0 d
521.639 484.127 m
521.639 480.095 l
521.639 479.159 522.360 478.511 523.223 478.511 c
539.927 478.511 l
540.791 478.511 541.439 479.159 541.439 480.095 c
541.439 484.127 L
521.639 484.127 l
s
0.000 0.000 0.000 1.000 K
0 j
0 J
0.215 w
[]0 d
0.000 0.000 0.000 0.498 k
261.216 868.751 m
261.216 872.783 l
261.216 873.647 260.423 874.367 259.704 874.367 c
238.895 874.367 l
238.175 874.367 237.383 873.647 237.383 872.783 c
237.383 868.751 L
261.216 868.751 l
b
0.000 0.000 0.000 1.000 K
0 j
0 J
0.215 w
[]0 d
0.000 0.000 0.000 0.498 k
517.607 484.127 m
517.607 488.231 l
517.607 489.095 518.399 489.743 519.120 489.743 c
539.927 489.743 l
540.647 489.743 541.439 489.095 541.439 488.231 c
541.439 484.127 L
517.607 484.127 l
b
0.000 0.000 0.000 1.000 k
259.343 869.903 m
259.991 869.903 260.711 870.623 260.711 871.343 c
260.711 871.991 259.991 872.711 259.343 872.711 c
258.623 872.711 257.903 871.991 257.903 871.343 c
257.903 870.623 258.623 869.903 259.343 869.903 c
f
0.000 0.000 0.000 1.000 k
519.479 485.351 m
518.759 485.351 518.111 485.999 518.111 486.791 c
518.111 487.439 518.759 488.087 519.479 488.087 c
520.199 488.087 520.847 487.439 520.847 486.791 c
520.847 485.999 520.199 485.351 519.479 485.351 c
f
0.000 0.000 0.000 1.000 K
0 j
0 J
0.215 w
[]0 d
0.000 0.000 0.000 0.498 k
133.847 913.031 m
139.679 913.607 l
141.263 913.751 142.703 912.311 142.703 910.583 c
142.703 889.415 l
142.703 887.687 141.263 886.175 139.679 886.319 c
133.847 887.039 l
132.263 887.255 130.823 888.407 130.823 890.135 c
130.823 909.935 l
130.823 911.663 132.263 912.815 133.847 913.031 c
b
0.000 0.000 0.000 1.000 K
0 j
0 J
0.215 w
[]0 d
0.000 0.000 0.000 0.498 k
644.975 528.408 m
639.144 529.055 l
637.487 529.127 636.048 527.687 636.048 525.959 c
636.048 504.791 l
636.048 503.135 637.487 501.551 639.144 501.767 c
644.975 502.487 l
646.559 502.631 648.000 503.783 648.000 505.511 c
648.000 525.384 l
648.000 527.039 646.559 528.264 644.975 528.408 c
b
0.000 0.000 0.000 1.000 K
0 j
0 J
0.863 w
[]0 d
0.000 0.000 0.000 0.000 k
996.407 964.007 m
983.591 971.279 L
932.039 976.103 892.007 975.887 822.311 970.343 C
816.839 969.623 813.599 967.751 810.143 962.999 C
803.087 953.999 789.983 887.543 784.151 846.575 C
781.991 808.127 L
778.607 800.495 L
778.607 787.823 782.783 771.983 784.511 758.015 C
780.191 755.855 782.279 750.743 786.239 750.383 C
1023.767 750.383 L
1028.447 749.951 1030.175 755.351 1026.000 759.743 C
1033.415 775.511 1031.759 791.495 1030.319 808.559 C
1026.000 845.711 L
1021.895 892.439 1014.263 921.167 996.407 964.007 C
b
0.000 0.000 0.000 1.000 K
0 j
0 J
0.863 w
[]0 d
0.000 0.000 0.000 0.000 k
804.599 579.383 m
807.335 583.487 815.327 585.647 820.799 586.655 C
872.351 591.479 912.383 591.335 982.079 585.791 C
987.551 585.072 990.791 583.127 994.247 578.375 C
1001.303 569.447 1021.535 504.647 1023.911 462.527 C
1023.407 422.567 L
1023.407 409.967 1022.399 402.551 1019.015 388.943 C
1017.575 380.231 1011.239 371.519 1005.407 369.935 C
795.167 369.935 L
789.263 373.319 786.383 379.223 782.423 388.943 C
779.543 400.175 779.543 404.135 778.535 423.143 C
778.391 461.087 L
784.223 507.599 788.759 534.959 804.599 579.383 C
b
0.000 0.000 0.000 1.000 K
0 j
0 J
0.215 w
[]0 d
0.000 0.000 0.000 0.498 k
821.231 961.991 m
875.951 969.335 930.815 968.903 985.535 961.847 C
989.855 961.127 993.599 959.687 996.407 950.039 c
1015.703 884.375 l
1017.287 878.615 1010.879 873.503 1004.831 873.503 c
807.695 873.503 l
801.647 873.503 795.671 878.543 796.823 884.375 c
810.359 950.039 l
811.727 956.807 813.599 960.767 821.231 961.991 C
b
0.000 0.000 0.000 1.000 K
0 j
0 J
0.215 w
[]0 d
0.000 0.000 0.000 0.498 k
978.047 570.240 m
923.327 577.583 873.575 576.863 818.855 569.807 C
814.535 569.087 810.143 567.647 807.983 558.000 c
794.591 499.751 l
793.367 494.135 799.487 488.951 805.463 488.951 c
991.583 488.951 l
997.631 488.951 1003.751 494.207 1002.455 499.751 c
988.919 558.288 l
987.407 564.839 985.679 568.943 978.047 570.240 C
b
0.000 0.000 0.000 1.000 K
0 j
0 J
0.215 w
[]0 d
0.000 0.000 0.000 0.498 k
768.527 907.919 m
784.295 907.847 l
789.839 907.847 789.191 905.255 789.551 902.663 c
791.207 890.927 l
790.343 885.527 l
789.983 882.935 788.759 880.343 786.095 880.343 c
769.607 880.343 l
768.887 880.343 764.639 880.703 764.423 885.527 c
763.343 902.735 l
763.271 905.327 766.223 907.919 768.527 907.919 c
b
0.000 0.000 0.000 1.000 K
0 j
0 J
0.215 w
[]0 d
0.000 0.000 0.000 0.498 k
1040.831 523.367 m
1024.991 523.295 l
1019.591 523.295 1020.167 520.559 1019.807 518.039 c
1018.079 506.303 l
1019.015 500.903 l
1019.375 498.383 1020.599 495.719 1023.191 495.719 c
1039.751 495.719 l
1040.471 495.719 1044.647 496.151 1044.935 500.903 c
1046.015 518.183 l
1046.087 520.631 1043.063 523.367 1040.831 523.367 c
b
0.000 0.000 0.000 1.000 K
0 j
0 J
0.215 w
[]0 d
0.000 0.000 0.000 0.498 k
1042.487 907.919 m
1026.720 907.847 l
1021.319 907.847 1021.895 905.183 1021.535 902.663 c
1019.807 890.927 l
1020.671 885.527 l
1021.031 883.007 1022.327 880.343 1024.919 880.343 c
1041.407 880.343 l
1042.127 880.343 1046.375 880.775 1046.663 885.527 c
1047.743 902.735 l
1047.816 905.255 1044.720 907.919 1042.487 907.919 c
b
0.000 0.000 0.000 1.000 K
0 j
0 J
0.215 w
[]0 d
0.000 0.000 0.000 0.498 k
761.903 523.367 m
777.671 523.295 l
783.071 523.295 782.567 520.559 782.927 518.039 c
784.583 506.303 l
783.719 500.903 l
783.359 498.383 782.063 495.719 779.471 495.719 c
762.983 495.719 l
762.263 495.719 758.015 496.151 757.799 500.903 c
756.719 518.183 l
756.575 520.631 759.671 523.367 761.903 523.367 c
b
0.000 0.000 0.000 1.000 K
0 j
0 J
0.215 w
[]0 d
0.000 0.000 0.000 0.498 k
784.151 845.495 m
1025.927 845.495 L
1030.391 808.487 L
1032.407 791.207 1032.407 774.359 1026.144 759.887 C
1028.951 755.063 1029.455 752.255 1025.495 750.455 C
904.751 750.455 L
784.151 750.455 L
781.703 753.047 781.559 756.287 784.439 758.375 C
782.567 772.487 778.823 786.383 778.607 800.639 C
782.207 808.631 L
784.151 845.495 L
b
0.000 0.000 0.000 1.000 K
0 j
0 J
0.215 w
[]0 d
0.000 0.000 0.000 0.200 k
783.791 840.887 m
828.647 840.887 l
831.527 840.887 833.903 838.511 833.903 835.631 c
833.903 813.455 l
833.903 810.575 831.527 808.271 828.647 808.271 c
782.063 808.271 L
783.791 840.887 l
b
0.000 0.000 0.000 1.000 K
0 j
0 J
0.215 w
[]0 d
0.000 0.000 0.000 0.200 k
1026.935 840.887 m
982.079 840.887 l
979.199 840.887 976.895 838.511 976.895 835.631 c
976.895 813.455 l
976.895 810.575 979.199 808.271 982.079 808.271 c
1030.391 808.271 L
1026.935 840.887 l
b
0.000 0.000 0.000 1.000 K
0 j
0 J
0.215 w
[]0 d
0.000 0.000 0.000 0.000 k
804.311 836.423 m
822.239 836.351 l
824.687 836.351 827.135 834.191 827.135 831.455 c
827.135 817.919 l
827.135 815.255 824.687 813.095 822.239 813.095 c
804.311 813.023 l
801.863 813.023 799.487 815.183 799.487 817.847 c
799.487 831.599 l
799.487 834.263 801.791 836.423 804.311 836.423 c
b
0.000 0.000 0.000 1.000 K
0 j
0 J
0.215 w
[]0 d
0.000 0.000 0.000 0.000 k
1006.415 836.423 m
988.487 836.423 l
985.895 836.423 983.663 834.263 983.663 831.599 c
983.663 817.847 l
983.663 815.183 985.895 813.023 988.487 813.023 c
1006.415 813.023 l
1009.007 813.023 1011.239 815.183 1011.239 817.847 c
1011.239 831.599 l
1011.239 834.263 1009.007 836.423 1006.415 836.423 c
b
0.000 0.000 0.000 1.000 k
829.079 789.407 m
979.847 789.407 l
981.215 789.407 982.655 788.255 982.295 786.959 c
980.567 781.847 l
980.207 780.623 979.487 779.399 978.191 779.399 c
830.447 779.399 l
829.079 779.399 828.287 780.695 827.999 781.847 c
826.631 786.959 l
826.415 788.255 827.711 789.407 829.079 789.407 c
f
0.000 0.000 0.000 1.000 k
833.471 776.375 m
975.671 776.375 l
976.823 776.375 978.407 775.007 978.047 773.927 c
976.391 768.815 l
976.031 767.735 975.167 766.367 973.943 766.367 c
834.839 766.367 l
833.543 766.367 832.679 767.807 832.391 768.815 c
831.023 773.927 l
830.807 775.007 832.319 776.375 833.471 776.375 c
f
0.000 0.000 0.000 1.000 k
787.463 750.527 m
816.767 750.527 L
816.767 713.159 L
816.911 707.759 787.463 707.543 787.463 713.159 C
787.463 750.527 L
f
0.000 0.000 0.000 1.000 k
990.719 750.527 m
1020.095 750.527 L
1020.095 713.159 L
1020.167 707.759 990.719 707.543 990.719 713.159 C
990.719 750.527 L
f
u
u
0.000 0.000 0.000 1.000 K
0 j
0 J
0.215 w
[]0 d
783.935 758.015 m
1026.359 758.015 L
S
U
U
u
u
0.000 0.000 0.000 1.000 K
0 j
0 J
0.215 w
[]0 d
778.823 793.439 m
1031.183 793.439 L
S
U
U
u
u
0.000 0.000 0.000 1.000 K
0 j
0 J
0.215 w
[]0 d
780.263 804.023 m
1030.751 804.023 L
S
U
U
0.000 0.000 0.000 1.000 k
842.255 823.823 m
968.615 823.823 l
970.847 823.823 972.719 822.095 972.719 819.719 c
972.719 813.023 l
972.719 810.647 970.847 808.847 968.615 808.847 c
842.255 808.847 l
840.023 808.847 838.151 810.647 838.151 813.023 c
838.151 819.719 l
838.151 822.095 840.023 823.823 842.255 823.823 c
f
u
u
0.000 0.000 0.000 1.000 K
0 j
0 J
0.215 w
[]0 d
840.455 828.431 m
968.615 828.431 L
S
U
U
u
u
0.000 0.000 0.000 1.000 K
0 j
0 J
0.215 w
[]0 d
840.455 840.239 m
968.615 840.239 L
S
U
U
u
u
0.000 0.000 0.000 1.000 K
0 j
0 J
0.215 w
[]0 d
840.095 836.783 m
947.375 836.783 L
S
U
U
u
u
0.000 0.000 0.000 1.000 K
0 j
0 J
0.215 w
[]0 d
939.671 836.783 m
968.903 836.783 L
S
U
U
u
u
0.000 0.000 0.000 1.000 K
0 j
0 J
0.215 w
[]0 d
840.095 832.247 m
956.951 832.247 L
S
U
U
u
u
0.000 0.000 0.000 1.000 K
0 j
0 J
0.215 w
[]0 d
939.671 832.247 m
968.903 832.247 L
S
U
U
0.000 0.000 0.000 1.000 K
0 j
0 J
0.215 w
[]0 d
0.000 0.000 0.000 0.498 k
816.551 750.383 m
991.151 750.383 L
991.151 745.271 L
816.551 745.271 L
816.551 750.383 L
b
0.000 0.000 0.000 1.000 K
0 j
0 J
0.215 w
[]0 d
0.000 0.000 0.000 0.498 k
987.767 369.863 m
813.095 369.863 L
813.095 360.719 L
987.767 360.719 L
987.767 369.863 L
b
u
u
0.000 0.000 0.000 1.000 K
0 j
0 J
0.215 w
[]0 d
791.855 873.431 m
791.855 870.911 793.223 868.751 796.967 868.751 C
1014.551 868.751 L
1017.935 868.751 1018.871 870.407 1019.663 873.863 C
S
U
U
u
u
0.000 0.000 0.000 1.000 K
0 j
0 J
0.215 w
[]0 d
1012.535 488.807 m
1012.535 486.287 1011.167 484.127 1007.423 484.127 C
789.839 484.127 L
786.455 484.127 785.591 485.855 784.727 489.239 C
S
U
U
0.000 0.000 0.000 0.498 k
856.223 789.263 m
857.663 789.263 L
857.663 779.039 L
856.223 779.039 L
856.223 789.263 L
f
0.000 0.000 0.000 0.498 k
856.223 776.447 m
857.663 776.447 L
857.663 766.223 L
856.223 766.223 L
856.223 776.447 L
f
0.000 0.000 0.000 0.498 k
878.615 789.263 m
880.055 789.263 L
880.055 779.039 L
878.615 779.039 L
878.615 789.263 L
f
0.000 0.000 0.000 0.498 k
878.615 776.447 m
880.055 776.447 L
880.055 766.223 L
878.615 766.223 L
878.615 776.447 L
f
0.000 0.000 0.000 0.498 k
902.087 789.263 m
903.527 789.263 L
903.527 779.039 L
902.087 779.039 L
902.087 789.263 L
f
0.000 0.000 0.000 0.498 k
902.087 776.447 m
903.527 776.447 L
903.527 766.223 L
902.087 766.223 L
902.087 776.447 L
f
0.000 0.000 0.000 0.498 k
925.631 789.263 m
927.071 789.263 L
927.071 779.039 L
925.631 779.039 L
925.631 789.263 L
f
0.000 0.000 0.000 0.498 k
925.631 776.447 m
927.071 776.447 L
927.071 766.223 L
925.631 766.223 L
925.631 776.447 L
f
0.000 0.000 0.000 0.498 k
949.319 789.263 m
950.759 789.263 L
950.759 779.039 L
949.319 779.039 L
949.319 789.263 L
f
0.000 0.000 0.000 0.498 k
949.319 776.447 m
950.759 776.447 L
950.759 766.223 L
949.319 766.223 L
949.319 776.447 L
f
0.000 0.000 0.000 0.498 k
838.079 816.767 m
972.647 816.767 L
972.647 815.543 L
838.079 815.543 L
838.079 816.767 L
f
0.000 0.000 0.000 0.498 k
856.223 823.823 m
857.663 823.823 L
857.663 808.631 L
856.223 808.631 L
856.223 823.823 L
f
0.000 0.000 0.000 0.498 k
878.615 823.823 m
880.055 823.823 L
880.055 808.631 L
878.615 808.631 L
878.615 823.823 L
f
0.000 0.000 0.000 0.498 k
902.087 823.823 m
903.527 823.823 L
903.527 808.631 L
902.087 808.631 L
902.087 823.823 L
f
0.000 0.000 0.000 0.498 k
925.631 823.823 m
927.071 823.823 L
927.071 808.631 L
925.631 808.631 L
925.631 823.823 L
f
0.000 0.000 0.000 0.498 k
949.319 823.823 m
950.759 823.823 L
950.759 808.631 L
949.319 808.631 L
949.319 823.823 L
f
u
u
0.000 0.000 0.000 1.000 K
0 j
0 J
0.215 w
[]0 d
792.791 840.887 m
792.935 808.487 L
S
U
U
u
u
0.000 0.000 0.000 1.000 K
0 j
0 J
0.215 w
[]0 d
1018.151 840.887 m
1018.079 808.487 L
S
U
U
0.000 0.000 0.000 1.000 K
0 j
0 J
0.215 w
[]0 d
0.000 0.000 0.000 0.498 k
796.031 369.791 m
820.295 369.791 L
820.295 352.007 l
820.295 348.695 817.703 346.103 814.391 346.103 c
787.895 346.103 l
784.583 346.103 781.991 348.695 781.991 352.007 c
781.991 389.591 L
785.735 382.031 788.255 372.815 796.031 369.791 C
b
0.000 0.000 0.000 1.000 K
0 j
0 J
0.215 w
[]0 d
0.000 0.000 0.000 0.498 k
1005.047 369.791 m
980.711 369.791 L
980.711 352.007 l
980.711 348.695 983.303 346.103 986.687 346.103 c
1013.111 346.103 l
1016.423 346.103 1019.015 348.695 1019.015 352.007 c
1019.015 389.591 L
1017.431 380.879 1012.463 371.879 1005.047 369.791 C
b
0.000 0.000 0.000 1.000 K
0 j
0 J
0.215 w
[]0 d
806.111 569.375 m
810.071 577.079 816.911 578.447 826.415 579.743 C
874.799 585.791 923.111 585.791 971.639 579.743 C
980.639 577.583 988.415 574.991 990.575 569.807 C
1002.815 538.055 1009.007 504.503 1013.687 471.959 C
1001.663 473.039 1003.319 463.967 1003.319 448.415 C
1003.031 405.431 L
1003.535 396.431 998.135 391.247 989.207 388.583 C
811.655 388.583 L
804.167 390.815 800.351 397.439 798.911 405.431 C
798.911 448.847 L
799.631 462.959 800.783 472.679 788.615 471.815 C
791.423 504.863 795.671 539.063 806.111 569.375 C
s
u
u
0.000 0.000 0.000 1.000 K
0 j
0 J
0.215 w
[]0 d
799.127 405.359 m
802.799 395.207 808.415 392.687 817.343 392.687 C
984.887 392.687 L
993.383 392.687 1000.439 396.503 1003.031 405.071 C
S
U
U
0.000 0.000 0.000 1.000 K
0 j
0 J
0.215 w
[]0 d
940.967 445.895 m
940.967 427.679 l
940.967 424.439 938.519 421.919 935.279 421.919 c
863.207 421.919 l
859.967 421.919 857.447 424.439 857.447 427.679 c
857.447 445.895 L
940.967 445.895 l
s
0.000 0.000 0.000 1.000 K
0 j
0 J
0.215 w
[]0 d
945.503 445.895 m
945.503 422.207 l
945.503 418.967 942.983 416.447 939.743 416.447 c
859.175 416.447 l
855.935 416.447 853.415 418.967 853.415 422.207 c
853.415 445.895 L
945.503 445.895 l
s
0.000 0.000 0.000 1.000 K
0 j
0 J
0.215 w
[]0 d
0.000 0.000 0.000 0.498 k
848.447 445.823 m
949.679 445.823 L
949.679 454.175 947.159 455.183 940.895 455.183 C
857.375 455.183 L
850.823 455.183 848.735 454.463 848.447 445.823 C
b
0.000 0.000 0.000 1.000 K
0 j
0 J
0.215 w
[]0 d
0.000 0.000 0.000 0.200 k
780.047 471.815 m
791.063 471.815 L
795.815 471.815 798.911 467.783 799.199 462.815 C
799.127 410.183 L
799.199 405.287 L
779.543 405.287 L
779.255 421.271 776.951 455.543 780.047 471.815 C
b
0.000 0.000 0.000 1.000 K
0 j
0 J
0.215 w
[]0 d
0.000 0.000 0.000 0.200 k
1022.255 471.815 m
1011.311 471.815 L
1006.559 471.815 1003.463 467.783 1003.175 462.815 C
1003.247 410.183 L
1003.175 405.287 L
1022.831 405.287 L
1023.119 421.271 1025.423 455.543 1022.255 471.815 C
b
u
u
0.000 0.000 0.000 1.000 K
0 j
0 J
0.215 w
[]0 d
778.463 458.639 m
799.199 458.639 L
S
U
U
u
u
0.000 0.000 0.000 1.000 K
0 j
0 J
0.215 w
[]0 d
1023.911 458.639 m
1003.175 458.639 L
S
U
U
u
u
0.000 0.000 0.000 1.000 K
0 j
0 J
0.215 w
[]0 d
778.103 448.919 m
799.127 448.919 L
S
U
U
u
u
0.000 0.000 0.000 1.000 K
0 j
0 J
0.215 w
[]0 d
1024.127 448.919 m
1003.103 448.919 L
S
U
U
u
u
0.000 0.000 0.000 1.000 K
0 j
0 J
0.215 w
[]0 d
778.607 433.727 m
799.127 433.727 L
S
U
U
u
u
0.000 0.000 0.000 1.000 K
0 j
0 J
0.215 w
[]0 d
1023.623 433.727 m
1003.103 433.727 L
S
U
U
u
u
0.000 0.000 0.000 1.000 K
0 j
0 J
0.215 w
[]0 d
778.607 422.495 m
798.983 422.495 L
S
U
U
u
u
0.000 0.000 0.000 1.000 K
0 j
0 J
0.215 w
[]0 d
1023.623 422.495 m
1003.319 422.495 L
S
U
U
u
u
0.000 0.000 0.000 1.000 K
0 j
0 J
0.215 w
[]0 d
779.183 410.903 m
798.911 410.903 L
S
U
U
u
u
0.000 0.000 0.000 1.000 K
0 j
0 J
0.215 w
[]0 d
1023.047 410.903 m
1003.319 410.903 L
S
U
U
u
u
0.000 0.000 0.000 1.000 K
0 j
0 J
0.215 w
[]0 d
798.911 448.487 m
849.023 448.487 L
S
U
U
u
u
0.000 0.000 0.000 1.000 K
0 j
0 J
0.215 w
[]0 d
798.479 422.855 m
853.271 422.855 L
S
U
U
u
u
0.000 0.000 0.000 1.000 K
0 j
0 J
0.215 w
[]0 d
949.463 448.487 m
1003.319 448.487 L
S
U
U
u
u
0.000 0.000 0.000 1.000 K
0 j
0 J
0.215 w
[]0 d
945.503 422.855 m
1002.887 422.855 L
S
U
U
0.000 0.000 0.000 1.000 K
0 j
0 J
0.215 w
[]0 d
0.000 0.000 0.000 0.000 k
786.743 430.055 m
794.519 430.055 L
794.519 425.231 L
786.743 425.231 L
786.743 430.055 L
b
0.000 0.000 0.000 1.000 K
0 j
0 J
0.215 w
[]0 d
0.000 0.000 0.000 0.000 k
1008.215 430.055 m
1016.063 430.055 L
1016.063 425.231 L
1008.215 425.231 L
1008.215 430.055 L
b
0.000 0.000 0.000 1.000 K
0 j
0 J
0.215 w
[]0 d
0.000 0.000 0.000 0.200 k
1008.215 444.671 m
1016.063 444.671 L
1016.063 436.391 L
1008.215 436.391 L
1008.215 444.671 L
b
0.000 0.000 0.000 1.000 k
417.455 293.471 m
418.535 293.471 L
418.535 298.223 L
418.535 300.024 419.255 301.391 421.055 301.391 C
422.351 301.391 422.855 300.383 422.855 299.231 C
422.855 293.471 L
423.935 293.471 L
423.935 298.223 L
423.935 299.807 424.367 301.391 426.167 301.391 C
427.751 301.391 428.255 300.671 428.255 299.231 C
428.255 293.471 L
429.263 293.471 L
429.263 299.231 L
429.263 301.247 428.327 302.183 426.455 302.183 C
425.375 302.183 424.295 301.751 423.647 300.527 C
423.431 301.751 422.351 302.183 421.271 302.183 C
419.831 302.183 419.039 301.608 418.391 300.527 C
418.391 300.527 L
418.391 301.967 L
417.455 301.967 L
417.455 293.471 L
417.455 293.471 L
f
0.000 0.000 0.000 1.000 k
403.559 293.471 m
404.639 293.471 L
404.639 298.223 L
404.639 300.024 405.359 301.391 407.159 301.391 C
408.455 301.391 408.959 300.383 408.959 299.231 C
408.959 293.471 L
410.039 293.471 L
410.039 298.223 L
410.039 299.807 410.543 301.391 412.271 301.391 C
413.855 301.391 414.359 300.671 414.359 299.231 C
414.359 293.471 L
415.439 293.471 L
415.439 299.231 L
415.439 301.247 414.431 302.183 412.559 302.183 C
411.479 302.183 410.399 301.751 409.823 300.527 C
409.535 301.751 408.455 302.183 407.375 302.183 C
405.935 302.183 405.143 301.608 404.495 300.527 C
404.495 300.527 L
404.495 301.967 L
403.559 301.967 L
403.559 293.471 L
403.559 293.471 L
f
0.000 0.000 0.000 1.000 k
393.623 305.207 m
390.311 305.207 389.591 301.823 389.591 299.087 C
389.591 296.495 390.311 293.255 393.623 293.255 C
397.079 293.255 397.727 296.495 397.727 299.231 C
397.727 301.823 397.079 305.207 393.623 305.207 C
f
0.000 0.000 0.000 1.000 k
380.375 297.215 m
380.231 294.695 381.887 293.255 384.335 293.255 C
386.423 293.255 388.367 294.407 388.367 296.711 C
388.367 298.223 387.431 299.303 385.991 299.591 C
385.991 299.591 L
387.143 299.951 387.863 300.887 387.863 302.183 C
387.863 304.271 386.063 305.207 384.335 305.207 C
382.031 305.207 380.591 303.551 380.591 301.391 C
381.671 301.391 L
381.671 303.048 382.607 304.271 384.335 304.271 C
385.775 304.271 386.783 303.623 386.783 302.111 C
386.783 300.671 385.631 299.951 384.551 299.951 C
383.615 299.951 L
383.615 299.087 L
384.551 299.087 L
386.063 299.087 387.287 298.223 387.287 296.567 C
387.287 294.911 385.847 294.048 384.335 294.048 C
382.391 294.048 381.311 295.271 381.455 297.215 C
380.375 297.215 L
f
0.000 0.000 0.000 1.000 k
378.791 302.183 m
378.791 304.271 376.991 305.207 375.191 305.207 C
373.535 305.207 371.735 304.271 371.735 302.183 C
371.735 301.031 372.311 300.024 373.535 299.663 C
373.535 299.663 L
372.095 299.303 371.231 298.151 371.231 296.711 C
371.231 294.335 373.031 293.255 375.191 293.255 C
377.351 293.255 379.295 294.335 379.295 296.711 C
379.295 298.223 378.287 299.303 376.919 299.663 C
376.919 299.663 L
376.919 299.663 L
378.071 300.024 378.791 301.031 378.791 302.183 C
f
0.000 0.000 0.000 1.000 k
361.943 296.351 m
367.343 296.351 L
367.343 293.471 L
368.279 293.471 L
368.279 296.351 L
369.935 296.351 L
369.935 297.215 L
368.279 297.215 L
368.279 305.063 L
367.343 305.063 L
361.943 297.287 L
361.943 296.351 L
f
0.000 0.000 0.000 1.000 K
0 j
0 J
0.215 w
[]0 d
0.000 0.000 0.000 0.498 k
779.615 405.287 m
798.911 405.287 L
800.423 396.575 805.895 389.447 811.727 388.583 C
988.631 388.583 L
997.487 390.383 1003.247 395.999 1003.319 405.287 C
1022.543 405.359 L
1020.239 390.383 1016.207 371.519 1004.327 369.935 C
795.959 369.935 L
786.239 374.039 780.407 391.391 779.615 405.287 C
b
u
u
0.000 0.000 0.000 1.000 K
0 j
0 J
0.215 w
[]0 d
788.183 377.639 m
1014.983 377.639 L
S
U
U
u
u
0.000 0.000 0.000 1.000 K
0 j
0 J
0.215 w
[]0 d
811.007 388.727 m
811.007 369.719 L
S
U
U
u
u
0.000 0.000 0.000 1.000 K
0 j
0 J
0.215 w
[]0 d
988.847 388.727 m
988.847 369.719 L
S
U
U
0.000 0.000 0.000 1.000 K
0 j
0 J
0.215 w
[]0 d
651.455 833.759 m
668.519 833.759 l
670.607 833.759 672.120 832.247 672.120 830.231 c
672.120 813.095 l
672.120 811.079 670.607 809.495 668.519 809.495 c
651.455 809.495 l
649.367 809.495 647.855 811.079 647.855 813.095 c
647.855 830.231 l
647.855 832.247 649.367 833.759 651.455 833.759 c
s
0.000 0.000 0.000 1.000 k
668.303 819.215 m
669.024 819.215 669.743 819.935 669.743 820.727 c
669.743 821.447 669.024 822.167 668.303 822.167 c
667.439 822.167 666.719 821.447 666.719 820.727 c
666.719 819.935 667.439 819.215 668.303 819.215 c
f
0.000 0.000 0.000 1.000 K
0 j
0 J
0.215 w
[]0 d
279.215 861.335 m
269.207 861.335 l
268.847 861.335 266.687 847.583 264.527 842.039 C
265.391 841.319 266.903 840.527 268.127 840.527 c
279.215 840.527 l
281.735 840.527 283.751 842.543 283.751 845.063 c
283.751 856.799 l
283.751 859.247 281.735 861.335 279.215 861.335 c
s
0.000 0.000 0.000 1.000 K
0 j
0 J
0.215 w
[]0 d
499.679 476.711 m
509.759 476.711 l
510.119 476.711 512.279 462.959 514.439 457.415 C
513.575 456.695 511.991 455.903 510.839 455.903 c
499.679 455.903 l
497.159 455.903 495.143 457.919 495.143 460.439 c
495.143 472.175 l
495.143 474.695 497.159 476.711 499.679 476.711 c
s
u
u
U
u
0.000 0.000 0.000 1.000 K
0 j
0 J
0.215 w
[]0 d
49.895 297.791 m
333.072 297.791 L
S
U
U
u
u
U
u
0.000 0.000 0.000 1.000 K
0 j
0 J
0.215 w
[]0 d
444.383 297.791 m
728.639 297.791 L
S
U
U
u
u
U
u
0.000 0.000 0.000 1.000 K
0 j
0 J
0.215 w
[]0 d
44.783 315.359 m
44.783 276.263 L
S
U
U
0.000 0.000 0.000 1.000 k
44.567 297.935 m
57.527 294.048 L
57.527 301.751 L
44.567 297.935 L
f
u
u
U
u
0.000 0.000 0.000 1.000 K
0 j
0 J
0.215 w
[]0 d
731.519 312.767 m
731.519 274.103 L
S
U
U
0.000 0.000 0.000 1.000 k
731.591 297.935 m
718.703 294.048 L
718.703 301.751 L
731.591 297.935 L
f
0.000 0.000 0.000 0.000 k
393.623 304.271 m
396.287 304.271 396.647 301.103 396.647 299.231 C
396.647 297.215 396.287 294.048 393.623 294.048 C
391.031 294.048 390.671 297.215 390.671 299.231 C
390.671 301.103 391.031 304.271 393.623 304.271 C
f
0.000 0.000 0.000 0.000 k
375.191 300.024 m
374.039 300.024 372.671 300.671 372.671 302.183 C
372.671 303.623 373.895 304.271 375.191 304.271 C
376.631 304.271 377.711 303.623 377.711 302.183 C
377.711 300.743 376.559 300.024 375.191 300.024 C
f
0.000 0.000 0.000 0.000 k
375.191 294.048 m
373.679 294.048 372.239 294.911 372.239 296.711 C
372.239 298.367 373.679 299.231 375.191 299.231 C
376.775 299.231 378.215 298.367 378.215 296.711 C
378.215 294.911 376.919 294.048 375.191 294.048 C
f
0.000 0.000 0.000 0.000 k
362.879 297.215 m
367.199 303.551 L
367.343 303.551 L
367.343 297.215 L
362.879 297.215 L
f
0.000 0.000 0.000 1.000 K
0 j
0 J
0.215 w
[]0 d
0.000 0.000 0.000 0.200 k
186.911 953.423 m
252.863 955.943 L
258.983 956.879 261.791 954.287 262.439 950.759 C
253.871 903.671 L
250.991 898.199 246.239 896.255 237.599 894.959 C
205.919 889.703 173.303 888.335 142.487 887.687 C
142.199 906.839 L
182.159 950.687 L
183.599 952.559 184.967 953.207 186.911 953.423 C
b
0.000 0.000 0.000 1.000 K
0 j
0 J
0.215 w
[]0 d
0.000 0.000 0.000 0.498 k
168.695 969.263 m
173.807 962.135 L
106.487 885.815 L
102.023 883.295 90.143 880.487 90.431 884.159 C
110.879 913.967 144.287 945.143 168.695 969.263 C
b
0.000 0.000 0.000 1.000 K
0 j
0 J
0.215 w
[]0 d
0.000 0.000 0.000 0.200 k
165.383 965.807 m
167.903 961.055 L
103.895 889.199 L
99.431 886.679 94.751 886.895 95.039 890.567 C
116.135 919.151 140.975 941.687 165.383 965.807 C
b
0.000 0.000 0.000 1.000 K
0 j
0 J
0.215 w
[]0 d
0.000 0.000 0.000 0.200 k
825.407 959.831 m
878.111 965.087 929.951 965.087 982.727 959.831 c
988.559 959.327 991.871 954.719 993.311 949.247 c
1009.511 887.687 l
1010.879 882.215 1004.687 877.103 998.855 877.103 c
810.863 877.103 l
805.031 877.103 798.983 882.143 800.279 887.687 c
814.823 949.247 l
816.047 954.863 819.575 959.327 825.407 959.831 c
b
0.000 0.000 0.000 1.000 K
0 j
0 J
0.215 w
[]0 d
0.000 0.000 0.000 0.200 k
973.367 566.567 m
920.735 571.751 874.295 571.751 821.519 566.567 c
815.687 565.991 811.943 561.455 810.935 555.983 c
800.783 503.135 l
799.847 497.735 805.535 492.479 811.439 492.479 c
986.759 492.479 l
992.591 492.479 998.711 497.807 997.343 503.135 c
984.023 555.983 l
982.655 561.312 979.199 565.991 973.367 566.567 c
b
0.000 0.000 0.000 1.000 K
0 j
0 J
0.215 w
[]0 d
0.000 0.000 0.000 0.200 k
591.911 568.799 m
525.959 571.319 L
519.839 572.327 516.959 569.663 516.384 566.207 C
524.951 519.048 L
527.831 513.575 532.583 511.631 541.223 510.335 C
572.903 505.079 605.447 503.711 636.335 503.135 C
636.623 522.216 L
596.663 566.135 L
595.223 568.007 593.783 568.583 591.911 568.799 C
b
0.000 0.000 0.000 1.000 K
0 j
0 J
0.215 w
[]0 d
0.000 0.000 0.000 0.200 k
613.439 581.255 m
610.919 576.503 L
674.927 504.575 L
679.391 502.055 684.072 502.271 683.783 505.943 C
662.687 534.599 637.847 557.063 613.439 581.255 C
b
%%Trailer
_E end