%!PS-Adobe-2.0 EPSF-1.2
%%Creator: Adobe Illustrator exported from Corel Draw 3.0
%%Title:6
%%BoundingBox:-39 724 885 1242
%%CreationDate:(Unknown)
%%ColorUsage:
%%TemplateBox:-39 724 885 1242
%%EndComments
%%BeginProcSet:Adobe_Illustrator_1.1 0 0
% Version 1.0 3/27/1990 $nokeywords$
% Copyright (C) 1990,1991,1992
% Corel Corporation
% All Rights Reserved

/wPmsDict 150 dict def 
wPmsDict begin 

/$debug 25 string def 

/bd {bind def} bind def 
/ld {load def} bd 
/xd {exch def} bd 
/_ null def 

/$c 0 def 
/$m 0 def 
/$y 0 def 
/$k 0 def 
/$t 1 def 
/$n _ def 
/$o 0 def 
/$pf false def 

/$C 0 def 
/$M 0 def 
/$Y 0 def 
/$K 0 def 
/$T 1 def 
/$N _ def 
/$O 0 def 
/$PF false def 

/$h false def 

/$al 0 def 
/$tr 0 def 
/$le 0 def 
/$lx 0 def 
/$ly 0 def 

/$ctm matrix currentmatrix def 
/$ptm matrix def 

/$pn () def 
/$pm matrix def 
/$px 0 def 
/$py 0 def 
/$pxf 0 def 
/$pyf 0 def 
/$psx 10 def 
/$psy 0 def 

/$llx 0 def 
/$lly 0 def 
/$urx 0 def 
/$ury 0 def 


/$Bbllx 0 def 
/$Bblly 0 def 
/$Bburx 0 def 
/$Bbury 0 def 

/$tllx 0 def 
/$tlly 0 def 
/$turx 0 def 
/$tury 0 def 

/$pd [] def 
/$tx 0 def 
/$ty 0 def 

/$sv 0 def 
/@cp /closepath ld 
/@gs /gsave ld 
/@gr /grestore ld 
/@np /newpath ld 
/@sv {/$sv save def}bd 
/@rs {$sv restore}bd 

/@MN { 
2 copy le{pop}{exch pop}ifelse 
}bd 

/setcmykcolor where {pop} 
{ 
/setcmykcolor 
{ 
4 1 roll 
3 {3 index add 1 @MN 1 exch sub 3 1 roll} repeat 
setrgbcolor 
pop 
}bd 
}ifelse 

/@tc 
{ 
dup 1 ge 
{pop} 
{ 
4 { 
dup 
6 -1 roll 
mul 
exch 
}repeat 
pop 
}ifelse 
}bd 

/@scc 
{ 
$c $m $y $k $t @tc 
setcmykcolor 
true 
}bd 
/@SCC 
{ 
$C $M $Y $K $T @tc 
setcmykcolor 
true 
}bd 

/@sft 
{ 
(setfirsttile sft )print 
/$tx $tllx $pxf add dup $tllx gt {$pwid $psx add sub}if def 
/$ty $tury $pyf sub dup $tury lt {$phei $psy add add}if def 
(setfirsttile exit )print 
}bd 

/@stb 
{ 
pathbbox /$ury xd /$urx xd /$lly xd /$llx xd 
}bd 

/@ep 
{ 
{ 
cvx exec 
}forall 
}bd 

/@tp 
{ 

(tile pattern tp )print 
@sv 
/$in true def 
2 copy 
dup $lly le {/$in false def}if 
$phei sub $ury ge {/$in false def}if 
dup $urx ge {/$in false def}if 
$pwid add $llx le {/$in false def}if 
$in 
{ 
@np 
2 copy moveto 
$pwid 0 rlineto 
0 $phei neg rlineto 
$pwid neg 0 rlineto 
0 $phei rlineto 
clip @np 

$pn cvlit load aload pop 
7 -1 roll 
5 index sub 
7 -1 roll 
3 index sub 
translate 
@ep 
pop pop pop pop 
} 
{pop pop}ifelse 
@rs 
(tile pattern exit )print 
}bd 

/@th 
{ 
(tile horizontal th)print 
@sft 
0 1 $tly 1 sub 
{ 
dup $psx mul $tx add 
{ 
dup $llx gt {$pwid sub}{exit}ifelse 
}loop 
exch $phei mul $ty exch sub 

0 1 $tlx 1 sub 
{ 
$pwid mul 
3 copy 
3 -1 roll add exch 
@tp 
pop 
}for 
pop pop 
} for 
(tile horizontal exiting )print 
}bd 

/@tv 
{ 
(tile vertical tv)print 
@sft 
0 1 $tlx 1 sub 
{ 
dup $pwid mul $tx add 
exch $psy mul $ty exch sub 
{ 
dup $ury lt {$phei add}{exit}ifelse 
}loop 

0 1 $tly 1 sub 
{ 
$phei mul 
3 copy sub 
@tp 
pop 
}for 
pop pop 
} for 
(tile vertical exit )print 
}bd 

/@pf 
{ 
(pattern fill pf)print 
@gs 
$pm concat 
@stb 
@gs 1 setgray eofill @gr 
eoclip 
$Bburx $Bbury $pm itransform /$tury xd /$turx xd 
$Bbllx $Bblly $pm itransform /$tlly xd /$tllx xd 
/$wid $turx $tllx sub def 
/$hei $tury $tlly sub def 
$wid 0 gt $hei 0 gt and 
{ 
$pn cvlit load aload pop 
$pd xd 
3 -1 roll sub /$phei xd 
exch sub /$pwid xd 
/$tlx $wid $pwid div ceiling 1 add def 
/$tly $hei $phei div ceiling 1 add def 
$psx 0 eq 
{ 
@tv 
} 
{ 
@th 
}ifelse 
}if 

@gr 
@np 
(pattern fill exit)print 
}bd 

/@xp 
{ 
{ 
dup (text Character is:) print == 
usertime (time before is:)print == 
(0) dup 3 -1 roll 0 exch put 
@gs 
true charpath currentpoint 
$ctm setmatrix 
@pf 
@gr 
@np 
moveto $tr 0 rmoveto 
usertime (time after is:)print == 
}forall 
pop 
}bd 

/@sm 
{ 
/$ctm $ctm currentmatrix def 
}bd 

%--@lorg  move to line origin   length string @torg length string
/@lorg    % moves currentpoint to line origin according to current alignment
  {      
  $lx $ly moveto    
  /$ly $ly $le sub def      % - prepare for next line(tracking)
  $al 0 ne
    {dup      % ->len str len str
    stringwidth   % ->len str len dx dy
    exch 3 index  % ->len str dy len dx
    1 sub         % ->len str dy len dx (len-1)
    $tr mul add   % ->len str dy len dx+(len-1)*$tr
    neg
    exch neg      % ->len str -dx_total dy len
    $al 1 eq      % check for centered alignment
    {2 div exch 2 div exch} if  
    rmoveto} if
  }bd

/@ft 
{ 
$pf 
{@xp} 
{ 
@scc 
{$tr exch 0 exch ashow pop} 
{pop pop}ifelse 
}ifelse 
}bd 

/@st 
{ 
$PF 
{} 
{ 
@SCC 
{ 
{ 
(0) dup 3 -1 roll 0 exch put 
@gs 
true charpath currentpoint 
$ctm setmatrix $ptm concat 
stroke 
@gr 
moveto $tr 0 rmoveto 
}forall 
pop 
} 
{pop pop}ifelse 
}ifelse 
}bd 
/@pt 
{ 
dup length exch 
}bd 
/@te 
{ 
@pt 
@lorg 
@ft 
}bd 

/@tr 
{ 
@pt 
@lorg 
@st 
}bd 
/@ta 
{ 
@pt 
@lorg 
2 copy 
@gs @ft @gr 
/$lx 0 def 
/$ly 0 def 
@st 
}bd 















/g { 
1 exch sub /$k xd 
/$c 0 def /$m 0 def /$y 0 def /$t 1 def /$n _ def /$pf false def 
}bd 

/G { 
1 exch sub /$K xd 
/$C 0 def /$M 0 def /$Y 0 def /$T 1 def /$N _ def /$PF false def 
}bd 

/k { 
/$k xd /$y xd /$m xd /$c xd 
/$t 1 def /$n _ def /$pf false def 
}bd 

/K { 
/$K xd /$Y xd /$M xd /$C xd 
/$T 1 def /$N _ def /$PF false def 
}bd 

/x { 
/$t xd /$n xd 
/$k xd /$y xd /$m xd /$c xd /$pf false def 
}bd 

/X { 
/$T xd /$N xd 
/$K xd /$Y xd /$M xd /$C xd /$PF false def 
}bd 

/d /setdash ld 

/i { 
dup 0 ne {setflat} {pop} ifelse 
}bd 

/j /setlinejoin ld 

/J /setlinecap ld 

/M /setmiterlimit ld 

/w /setlinewidth ld 

/O { 
/$o xd 
}bd 

/R { 
/$O xd 
}bd 


/c /curveto ld 

/C /c ld 

/v { 
currentpoint
6 2 roll 
curveto 
}bd

/V /v ld 

/y { 
2 copy curveto 
}bd 

/Y /y ld 

/l /lineto ld 

/L /l ld 

/m /moveto ld 



/n /newpath ld 

/N /newpath ld 

/F { 
$pf 
{@pf} 
{ 
@scc 
{eofill}if 
}ifelse 
}bd 

/f { 
@cp F 
}bd 
/S { 
$PF 
{} 
{ 
@SCC 
{ 
@sm 
$ptm concat 
stroke 
$ctm setmatrix 
}if 
}ifelse 
}bd 
/s { 
@cp 
S 
}bd 

/B { 
@gs F @gr 
S 
}bd 
/b { 
@cp 
B 
}bd 

/W { 
oeclip 
@np 
}bd 

/p { 
/$pm xd 
7 {pop} repeat 
/$pyf xd /$pxf xd 
/$pn xd 
/$pf true def 
}bd 

/P { 
11 {pop} repeat 
}bd 

/@p { 
/$pm xd 
/$psy xd 
/$psx xd 
/$pyf xd /$pxf xd 
/$pn xd 
/$pf true def 
}bd 

/@b { 
/$Bbury xd /$Bburx xd 
/$Bblly xd /$Bbllx xd 
}bd 


/z { 
/$al xd 
/$tr xd 
/$le xd 
exch findfont exch scalefont setfont 
}bd 

/Z { 
dup type 0 type eq { /$bDir xd } if
findfont 
dup maxlength 1 add dict exch 



dup 
{1 index /FID ne 
{ 
3 index 
3 1 roll put 
} 
{pop pop}ifelse 
} forall 



pop 
dup dup /Encoding get 
256 array copy 
dup /$fe xd
/Encoding exch put 

dup /Fontname 3 index put 

}bd 

/e { 
@sm 
concat 
[ 
/t {@te}def 
}bd 

/r { 
@sm 
concat 
[ 
/t {@tr}def 
}bd 

/o { 
@sm 
concat 
[ 
/t {pop}def 
}bd 

/a { 
@sm 
concat 
[ 
/t {@ta}def 
}bd 

/@o{
@sm 
concat 
[ 
/t {@t@a}def 
}bd 

/I { 
@sm 
concat 
[ 
/t {pop}def 
}bd 

/t {@te}def 

/T { 
cleartomark 
/$lx 0 def 
/$ly 0 def 
$ctm setmatrix 
}bd 


/u {}bd 

/U {}bd 

/A {pop}bd 

/h { 
$h true def 
}bd 

/h { 
$h true def 
}bd 

/q /@gs ld 

/Q /@gr ld 



/E { 
5 array astore 
exch cvlit exch def 
}bd 

/` {}bd 

/~ {}bd 

/@ {}bd 

/& {}bd 

/CorelDrawRencodeVect [ 
16#80/grave 
16#81/circumflex 
16#82/tilde 
16#83/dotlessi 
16#84/florin 
16#85/quotedblleft 
16#86/quotedblright 
16#87/guilsinglleft 
16#88/guilsinglright 
16#89/fi 
16#8a/fl 
16#8b/dagger 
16#8c/daggerdbl 
16#8d/endash 
16#8e/periodcentered 
16#8f/breve 
16#90/quotedblbase 
16#91/ellipsis 
16#92/perthousand 
16#a1/exclamdown 
16#a2/cent 
16#a3/sterling 
16#a4/currency 
16#a5/yen 
16#a6/bar 
16#a7/section 
16#a8/dieresis 
16#a9/copyright 
16#aa/ordfeminine 
16#ab/guillemotleft 
16#ac/logicalnot 
16#ad/emdash 
16#ae/registered 
16#af/spac 
16#b0/ring 
16#b1/spac 
16#b2/spac 
16#b3/spac 
16#b4/acute 
16#b5/spac 
16#b6/paragraph 
16#b7/bullet 
16#b8/cedilla 
16#b9/spac 
16#ba/ordmasculine 
16#bb/guillemotright 
16#bc/spac 
16#bd/spac 
16#be/spac 
16#bf/questiondown 
16#c0/Agrave 
16#c1/Aacute 
16#c2/Acircumflex 
16#c3/Atilde 
16#c4/Adieresis 
16#c5/Aring 
16#c6/AE 
16#c7/Ccedilla 
16#c8/Egrave 
16#c9/Eacute 
16#ca/Ecircumflex 
16#cb/Edieresis 
16#cc/Igrave 
16#cd/Iacute 
16#ce/Icircumflex 
16#cf/Idieresis 
16#d0/spac 
16#d1/Ntilde 
16#d2/Ograve 
16#d3/Oacute 
16#d4/Ocircumflex 
16#d5/Otilde 
16#d6/Odieresis 
16#d7/OE 
16#d8/Oslash 
16#d9/Ugrave 
16#da/Uacute 
16#db/Ucircumflex 
16#dc/Udieresis 
16#dd/space 
16#de/spac 
16#df/germandbls 
16#e0/agrave 
16#e1/aacute 
16#e2/acircumflex 
16#e3/atilde 
16#e4/adieresis 
16#e5/aring 
16#e6/ae 
16#e7/ccedilla 
16#e8/egrave 
16#e9/eacute 
16#ea/ecircumflex 
16#eb/edieresis 
16#ec/igrave 
16#ed/iacute 
16#ee/icircumflex 
16#ef/idieresis 
16#f0/space 
16#f1/ntilde 
16#f2/ograve 
16#f3/oacute 
16#f4/ocircumflex 
16#f5/otilde 
16#f6/odieresis 
16#f7/oe 
16#f8/oslash 
16#f9/ugrave 
16#fa/uacute 
16#fb/ucircumflex 
16#fc/udieresis 
16#fd/spac 
16#fe/spac 
16#ff/ydieresis 
] def
%%EndProlog
%%BeginSetup
%%BeginEncoding:_Times-Bold Times-Bold
[
]/_Times-Bold/Times-Bold Z
%%EndEncoding
%%EndSetup
u
u
U
u
0.000 0.000 0.000 1.000 K
0 j
0 J
0.215 w
[]0 d
-39.959 737.423 m
244.079 737.423 L
S
U
U
u
u
U
u
0.000 0.000 0.000 1.000 K
0 j
0 J
0.215 w
[]0 d
337.607 736.271 m
563.039 736.271 L
S
U
U
u
u
U
u
0.000 0.000 0.000 1.000 K
0 j
0 J
0.215 w
[]0 d
-39.887 727.631 m
-39.887 742.031 L
S
U
U
u
u
U
u
0.000 0.000 0.000 1.000 K
0 j
0 J
0.215 w
[]0 d
563.831 724.319 m
563.831 741.167 L
S
U
U
0.000 0.000 0.000 1.000 k
303.911 733.031 m
304.703 733.031 L
304.703 736.631 L
304.703 737.927 305.207 738.863 306.503 738.863 C
307.512 738.863 307.871 738.215 307.871 737.279 C
307.871 733.031 L
308.663 733.031 L
308.663 736.631 L
308.663 737.783 309.024 738.863 310.319 738.863 C
311.471 738.863 311.831 738.359 311.831 737.279 C
311.831 733.031 L
312.623 733.031 L
312.623 737.279 L
312.623 738.791 311.903 739.511 310.536 739.511 C
309.743 739.511 308.951 739.151 308.519 738.287 C
308.303 739.151 307.512 739.511 306.719 739.511 C
305.639 739.511 305.063 739.079 304.560 738.287 C
304.560 738.287 L
304.560 739.367 L
303.911 739.367 L
303.911 733.031 L
303.911 733.031 L
f
0.000 0.000 0.000 1.000 k
293.615 733.031 m
294.407 733.031 L
294.407 736.631 L
294.407 737.927 294.911 738.863 296.279 738.863 C
297.215 738.863 297.575 738.215 297.575 737.279 C
297.575 733.031 L
298.367 733.031 L
298.367 736.631 L
298.367 737.783 298.727 738.863 300.096 738.863 C
301.247 738.863 301.608 738.359 301.608 737.279 C
301.608 733.031 L
302.399 733.031 L
302.399 737.279 L
302.399 738.791 301.679 739.511 300.239 739.511 C
299.447 739.511 298.655 739.151 298.223 738.287 C
298.079 739.151 297.215 739.511 296.423 739.511 C
295.415 739.511 294.767 739.079 294.335 738.287 C
294.335 738.287 L
294.335 739.367 L
293.615 739.367 L
293.615 733.031 L
293.615 733.031 L
f
0.000 0.000 0.000 1.000 k
280.223 740.879 m
284.975 740.879 L
282.527 738.071 281.663 735.911 281.375 733.031 C
282.311 733.031 L
282.455 737.063 284.687 739.727 285.767 740.879 C
285.767 741.527 L
280.223 741.527 L
280.223 740.879 L
f
0.000 0.000 0.000 1.000 k
273.168 735.191 m
277.127 735.191 L
277.127 733.031 L
277.847 733.031 L
277.847 735.191 L
279.072 735.191 L
279.072 735.767 L
277.847 735.767 L
277.847 741.671 L
277.127 741.671 L
273.168 735.911 L
273.168 735.191 L
f
0.000 0.000 0.000 1.000 k
272.087 733.751 m
267.335 733.751 L
267.551 734.903 268.991 735.623 269.927 736.271 C
270.935 736.919 272.015 737.855 272.015 739.223 C
272.015 740.879 270.863 741.743 269.351 741.743 C
267.551 741.743 266.543 740.375 266.615 738.647 C
267.407 738.647 L
267.335 739.943 267.983 741.023 269.351 741.023 C
270.359 741.023 271.223 740.375 271.223 739.223 C
271.223 738.647 271.079 738.215 270.503 737.639 C
269.135 736.271 266.471 735.551 266.471 733.031 C
272.087 733.031 L
272.087 733.751 L
f
0.000 0.000 0.000 1.000 k
259.560 735.191 m
263.519 735.191 L
263.519 733.031 L
264.239 733.031 L
264.239 735.191 L
265.463 735.191 L
265.463 735.767 L
264.239 735.767 L
264.239 741.671 L
263.519 741.671 L
259.560 735.911 L
259.560 735.191 L
f
0.000 0.000 0.000 1.000 K
0 j
0 J
0.863 w
[]0 d
0.000 0.000 0.000 0.000 k
690.839 961.127 m
729.143 962.927 769.391 962.927 809.495 961.127 C
822.743 959.543 826.559 958.391 831.239 949.247 C
837.647 933.263 843.119 912.455 849.671 896.327 C
856.799 882.503 860.399 866.591 862.415 850.463 C
865.151 843.767 864.719 835.919 862.991 829.223 C
859.535 815.975 857.231 798.983 844.487 798.983 C
651.168 799.415 L
639.791 799.415 635.543 815.039 632.375 829.223 C
630.359 836.351 630.863 843.767 632.231 849.527 C
634.175 867.023 638.423 883.151 646.055 897.695 C
651.959 913.535 660.168 936.503 666.863 950.615 C
672.048 959.399 677.663 961.127 690.839 961.127 C
b
0.000 0.000 0.000 1.000 K
0 j
0 J
0.863 w
[]0 d
0.000 0.000 0.000 0.000 k
699.551 1240.271 m
737.783 1242.071 778.103 1242.071 818.207 1240.271 C
831.383 1238.759 835.199 1237.535 839.951 1228.391 C
846.287 1212.480 851.759 1191.671 858.311 1175.543 C
865.439 1161.719 869.111 1145.735 871.055 1129.679 C
873.791 1122.983 873.359 1115.063 871.703 1108.367 C
868.175 1095.192 865.943 1078.127 853.127 1078.127 C
659.879 1078.631 L
648.503 1078.631 644.183 1094.255 641.015 1108.367 C
639.072 1115.495 639.503 1122.983 640.871 1128.743 C
642.815 1146.240 647.135 1162.295 654.695 1176.911 C
660.599 1192.679 668.807 1215.647 675.503 1229.759 C
680.687 1238.615 686.303 1240.271 699.551 1240.271 C
b
0.000 0.000 0.000 1.000 K
0 j
0 J
0.215 w
[]0 d
0.000 0.000 0.000 0.498 k
373.175 1071.000 m
382.607 1071.144 L
377.711 1099.439 399.311 1118.519 408.743 1118.735 c
436.967 1119.455 l
444.311 1119.599 468.143 1103.831 464.975 1075.679 C
473.615 1076.327 L
474.263 1091.231 471.095 1105.775 463.319 1119.455 C
422.135 1119.455 L
392.039 1119.311 373.175 1113.551 373.175 1071.000 C
b
0.000 0.000 0.000 1.000 K
0 j
0 J
0.215 w
[]0 d
0.000 0.000 0.000 0.498 k
152.207 788.831 m
142.343 789.551 L
146.735 804.311 141.407 822.959 119.375 836.495 C
87.047 837.431 L
66.527 829.223 59.543 810.359 59.975 793.655 C
51.767 794.159 L
51.191 808.991 54.359 823.607 62.135 837.287 C
103.319 837.287 L
133.343 837.143 152.207 831.383 152.207 788.831 C
b
0.000 0.000 0.000 1.000 K
0 j
0 J
0.215 w
[]0 d
0.000 0.000 0.000 0.498 k
19.367 1067.471 m
26.351 1067.903 L
11.663 1133.423 114.551 1143.863 107.999 1070.351 C
119.951 1070.639 L
119.951 1107.863 113.615 1129.895 67.536 1129.895 C
31.103 1129.175 16.991 1112.111 19.367 1067.471 C
b
0.000 0.000 0.000 1.000 K
0 j
0 J
0.215 w
[]0 d
0.000 0.000 0.000 0.498 k
505.943 785.231 m
498.815 784.943 L
512.639 855.791 408.815 858.023 418.103 788.327 C
405.287 788.471 L
405.287 825.695 411.695 847.727 457.703 847.727 C
494.207 846.935 508.391 829.943 505.943 785.231 C
b
0.000 0.000 0.000 1.000 K
0 j
0 J
0.863 w
[]0 d
0.000 0.000 0.000 0.000 k
-22.967 1068.407 m
19.295 1067.471 L
19.439 1095.192 18.215 1129.463 67.896 1129.967 c
118.079 1130.399 119.591 1101.959 120.311 1070.423 C
373.463 1071.000 L
374.687 1102.319 378.359 1118.375 419.975 1119.599 c
432.719 1119.959 451.439 1119.599 463.175 1119.455 C
471.527 1106.279 473.975 1091.231 473.975 1076.327 C
547.775 1079.783 L
551.447 1079.783 556.775 1085.255 558.144 1090.727 C
563.183 1101.959 L
563.471 1119.167 L
558.144 1122.192 L
553.751 1165.823 L
547.199 1185.407 538.559 1207.151 529.127 1225.223 C
525.455 1231.775 519.695 1235.375 511.775 1235.375 C
420.767 1241.207 330.767 1241.207 244.655 1239.048 C
228.095 1237.535 216.503 1234.655 202.823 1226.735 C
126.143 1174.607 L
82.512 1169.495 38.735 1163.375 -3.815 1153.511 c
-12.599 1151.495 -21.743 1146.815 -25.991 1138.895 c
-29.807 1132.199 -31.607 1124.063 -32.832 1115.855 c
-32.832 1115.639 -37.512 1113.839 -37.512 1113.839 c
-38.015 1101.096 L
-35.855 1096.199 L
-28.727 1081.295 L
-28.871 1075.103 -28.295 1068.407 -22.967 1068.407 C
b
0.000 0.000 0.000 1.000 K
0 j
0 J
0.863 w
[]0 d
0.000 0.000 0.000 0.000 k
548.279 786.239 m
506.015 785.303 L
505.871 812.951 507.095 847.295 457.415 847.799 c
407.231 848.231 405.719 819.791 404.927 788.183 C
151.847 788.831 L
150.623 820.079 146.951 836.207 105.335 837.431 c
92.519 837.719 73.871 837.431 62.135 837.287 C
53.783 824.039 51.407 808.991 51.407 794.159 C
-22.463 797.615 L
-26.135 797.615 -31.463 803.087 -32.832 808.559 C
-37.799 819.791 L
-38.087 836.999 L
-32.832 840.023 L
-28.367 883.655 L
-21.887 903.239 -13.175 924.983 -3.815 943.055 C
-0.143 949.607 5.615 953.207 13.535 953.207 C
104.543 958.967 194.543 958.967 280.656 956.879 C
297.215 955.367 308.807 952.487 322.487 944.567 C
399.167 892.439 L
442.799 887.255 486.575 881.207 529.127 871.343 c
537.983 869.327 547.055 864.647 551.303 856.727 c
555.120 850.031 556.919 841.823 558.144 833.615 c
558.144 833.471 562.895 831.671 562.895 831.671 c
563.327 818.927 L
561.168 814.031 L
554.039 799.127 L
554.183 792.935 553.607 786.239 548.279 786.239 C
b
0.000 0.000 0.000 1.000 K
0 j
0 J
0.215 w
[]0 d
0.000 0.000 0.000 1.000 k
66.599 1121.687 m
89.495 1121.687 108.359 1102.823 108.359 1079.927 c
108.359 1056.959 89.495 1038.096 66.599 1038.096 c
43.631 1038.096 24.767 1056.959 24.767 1079.927 c
24.767 1102.823 43.631 1121.687 66.599 1121.687 c
b
0.000 0.000 0.000 1.000 K
0 j
0 J
0.215 w
[]0 d
0.000 0.000 0.000 1.000 k
458.711 839.519 m
435.743 839.519 416.951 820.655 416.951 797.687 c
416.951 774.791 435.743 755.927 458.711 755.927 c
481.679 755.927 500.543 774.791 500.543 797.687 c
500.543 820.655 481.679 839.519 458.711 839.519 c
b
u
u
0.000 0.000 0.000 1.000 K
0 j
0 J
0.215 w
[]0 d
508.751 1227.959 m
463.895 1229.759 419.039 1231.127 374.255 1231.559 c
329.903 1231.847 284.759 1231.559 240.047 1231.271 C
231.119 1230.336 224.279 1224.719 219.887 1221.263 c
215.423 1217.735 204.839 1209.384 191.159 1198.583 c
177.623 1188.144 162.287 1175.831 153.000 1167.911 C
146.807 1153.295 144.215 1137.672 143.567 1122.336 c
142.991 1107.144 144.359 1091.951 146.015 1078.415 C
S
U
U
u
u
0.000 0.000 0.000 1.000 K
0 j
0 J
0.215 w
[]0 d
16.631 945.719 m
61.487 947.591 106.343 948.959 151.127 949.391 c
195.479 949.679 240.623 949.391 285.335 949.103 C
294.263 948.167 301.103 942.551 305.495 939.023 c
309.959 935.567 320.543 927.215 334.223 916.415 c
347.759 905.903 363.095 893.591 372.383 885.743 C
378.575 871.127 381.167 855.503 381.815 840.167 c
382.391 824.975 381.023 809.783 379.367 796.247 C
S
U
U
u
u
0.000 0.000 0.000 1.000 K
0 j
0 J
0.215 w
[]0 d
512.063 1230.839 m
467.135 1233.863 419.039 1234.007 374.255 1234.511 c
329.903 1234.799 275.327 1234.511 230.615 1234.223 C
221.687 1233.288 214.847 1227.671 210.455 1224.144 C
S
U
U
u
u
0.000 0.000 0.000 1.000 K
0 j
0 J
0.215 w
[]0 d
13.319 948.671 m
58.319 951.695 106.343 951.839 151.127 952.343 c
195.479 952.631 250.055 952.343 294.767 951.983 C
303.695 951.119 310.536 945.503 314.927 941.975 C
S
U
U
0.000 0.000 0.000 1.000 K
0 j
0 J
0.215 w
[]0 d
0.000 0.000 0.000 0.498 k
416.303 1226.375 m
430.631 1226.375 445.175 1225.871 459.503 1225.583 c
473.831 1225.079 488.375 1224.071 502.991 1223.927 c
504.647 1223.927 506.663 1219.895 506.663 1219.895 c
507.383 1215.719 508.463 1211.903 509.183 1207.871 c
509.975 1204.055 511.199 1199.663 511.919 1195.847 c
512.711 1192.175 513.791 1187.639 514.511 1184.111 c
515.303 1180.079 516.384 1175.903 517.247 1172.231 c
517.247 1172.231 515.735 1168.703 513.791 1168.703 c
498.239 1168.559 482.903 1168.559 467.855 1168.559 c
452.663 1168.559 437.327 1168.343 422.135 1168.055 c
420.623 1168.055 418.751 1171.439 418.751 1171.727 c
418.319 1176.263 417.527 1180.439 417.095 1184.759 c
416.663 1188.791 416.015 1193.111 415.583 1197.432 c
415.295 1201.463 414.359 1205.783 414.071 1209.815 c
413.567 1213.847 412.847 1218.311 412.559 1222.631 c
412.559 1223.495 414.935 1226.375 416.303 1226.375 c
b
0.000 0.000 0.000 1.000 K
0 j
0 J
0.215 w
[]0 d
0.000 0.000 0.000 0.498 k
109.079 944.135 m
94.751 944.135 80.207 943.703 65.879 943.343 c
51.623 942.911 37.007 941.903 22.463 941.759 c
20.735 941.759 18.791 937.727 18.791 937.727 c
18.000 933.551 16.991 929.735 16.199 925.703 c
15.479 921.815 14.255 917.495 13.463 913.679 c
12.743 909.935 11.663 905.471 10.871 901.943 c
10.151 897.911 9.071 893.735 8.135 890.063 c
8.135 890.063 9.647 886.535 11.663 886.535 c
27.143 886.319 42.479 886.319 57.527 886.319 c
72.719 886.319 88.055 886.175 103.247 885.887 c
104.831 885.887 106.631 889.271 106.631 889.559 c
107.063 894.023 107.855 898.199 108.287 902.591 c
108.719 906.551 109.367 910.943 109.799 915.263 c
110.087 919.295 111.023 923.615 111.311 927.647 c
111.815 931.607 112.535 936.143 112.823 940.463 c
112.823 941.255 110.447 944.135 109.079 944.135 c
b
0.000 0.000 0.000 1.000 K
0 j
0 J
0.215 w
[]0 d
0.000 0.000 0.000 0.200 k
418.175 1225.079 m
445.391 1225.079 473.687 1223.495 501.479 1222.631 c
503.423 1222.631 504.791 1220.543 505.079 1218.815 c
505.871 1215.144 506.807 1211.111 507.671 1207.223 c
508.607 1203.407 509.687 1199.375 510.407 1195.847 c
511.199 1192.175 512.063 1188.000 512.855 1184.399 c
513.647 1180.583 514.655 1176.551 515.447 1173.023 c
515.735 1171.295 513.935 1169.639 511.775 1169.639 c
497.087 1169.639 482.183 1169.639 467.567 1169.639 c
452.807 1169.639 438.047 1169.495 423.503 1169.351 c
421.487 1169.351 420.623 1171.079 420.407 1173.023 c
420.263 1177.055 419.399 1181.231 418.895 1185.048 c
418.463 1189.079 417.671 1193.111 417.383 1196.927 c
417.095 1200.959 416.303 1205.135 416.015 1209.167 c
415.583 1213.199 414.791 1217.231 414.503 1221.407 c
414.359 1223.495 416.303 1225.079 418.175 1225.079 c
b
0.000 0.000 0.000 1.000 K
0 j
0 J
0.215 w
[]0 d
0.000 0.000 0.000 0.200 k
107.207 942.911 m
80.063 942.911 51.767 941.255 23.975 940.463 c
21.959 940.463 20.591 938.375 20.303 936.647 c
19.583 932.903 18.647 928.871 17.711 925.055 c
16.847 921.167 15.767 917.207 14.975 913.679 c
14.255 909.935 13.319 905.759 12.599 902.231 c
11.807 898.415 10.727 894.383 10.007 890.855 c
9.647 889.055 11.519 887.471 13.607 887.471 c
28.367 887.471 43.271 887.471 57.815 887.471 c
72.575 887.471 87.335 887.327 101.879 887.183 c
103.895 887.183 104.831 888.911 104.975 890.855 c
105.119 894.887 105.983 899.063 106.487 902.879 c
106.919 906.911 107.711 910.943 107.999 914.759 c
108.287 918.791 109.079 922.967 109.367 926.999 c
109.799 930.959 110.591 934.991 110.879 939.167 c
111.023 941.255 109.079 942.911 107.207 942.911 c
b
0.000 0.000 0.000 1.000 K
0 j
0 J
0.215 w
[]0 d
0.000 0.000 0.000 0.498 k
301.463 1227.455 m
317.879 1227.455 334.439 1227.455 350.855 1227.455 c
367.271 1227.455 383.831 1226.807 400.103 1226.663 c
400.679 1226.663 403.703 1222.631 403.703 1222.631 c
404.207 1218.311 404.639 1213.991 404.927 1209.959 c
405.215 1205.783 406.007 1201.463 406.295 1197.288 c
406.583 1193.255 407.087 1188.791 407.375 1184.615 c
407.663 1180.223 408.095 1175.903 408.599 1171.583 c
408.599 1171.583 406.439 1167.911 405.215 1167.911 c
386.855 1167.695 367.991 1167.263 349.919 1166.903 c
331.703 1166.471 313.343 1165.607 294.911 1165.463 c
293.399 1165.463 291.455 1169.495 291.455 1169.495 c
292.031 1173.815 292.823 1178.495 293.111 1182.815 c
293.399 1187.351 294.191 1191.959 294.479 1196.351 c
294.767 1200.815 295.560 1205.279 295.991 1209.455 c
296.423 1213.991 297.072 1218.455 297.647 1222.847 c
297.647 1222.847 300.527 1227.455 301.463 1227.455 c
b
0.000 0.000 0.000 1.000 K
0 j
0 J
0.215 w
[]0 d
0.000 0.000 0.000 0.498 k
223.919 945.287 m
207.503 945.287 190.943 945.287 174.527 945.287 c
158.111 945.287 141.551 944.639 125.279 944.495 c
124.703 944.495 121.679 940.463 121.679 940.463 c
121.175 936.143 120.743 931.823 120.455 927.791 c
120.167 923.615 119.375 919.295 119.087 915.119 c
118.799 911.087 118.295 906.551 118.007 902.375 c
117.719 898.055 117.287 893.735 116.783 889.415 c
116.783 889.415 118.943 885.671 120.167 885.671 c
138.527 885.527 157.391 885.095 175.463 884.735 c
193.679 884.231 212.039 883.439 230.471 883.295 c
231.983 883.295 233.927 887.327 233.927 887.327 c
233.351 891.647 232.559 896.327 232.271 900.647 c
231.983 905.111 231.191 909.791 230.903 914.111 c
230.615 918.647 229.823 923.111 229.391 927.287 c
228.959 931.823 228.311 936.287 227.735 940.607 c
227.735 940.607 224.855 945.287 223.919 945.287 c
b
0.000 0.000 0.000 1.000 K
0 j
0 J
0.215 w
[]0 d
0.000 0.000 0.000 0.200 k
303.263 1225.727 m
319.103 1225.727 335.159 1225.871 351.000 1225.871 c
366.983 1225.871 382.895 1225.583 398.879 1225.583 c
400.535 1225.583 402.479 1221.551 402.479 1221.551 c
402.623 1217.375 403.271 1213.343 403.559 1209.311 c
403.847 1205.279 404.639 1201.103 404.783 1197.144 c
404.927 1193.399 405.575 1189.223 405.863 1185.048 c
406.151 1181.231 406.439 1176.695 406.943 1172.879 c
406.943 1172.879 404.927 1168.847 403.271 1168.847 c
385.631 1168.559 367.559 1168.199 349.775 1167.911 c
331.991 1167.407 313.919 1167.119 296.279 1166.759 c
294.479 1166.759 293.111 1170.432 293.111 1170.432 c
293.687 1174.607 294.335 1179.288 294.767 1183.319 c
295.199 1187.639 295.847 1191.959 296.279 1195.991 c
296.783 1200.311 297.503 1204.703 297.935 1209.023 c
298.439 1213.199 299.015 1217.519 299.663 1221.839 c
299.663 1221.839 301.751 1225.727 303.263 1225.727 c
b
0.000 0.000 0.000 1.000 K
0 j
0 J
0.215 w
[]0 d
0.000 0.000 0.000 0.200 k
222.119 943.487 m
206.279 943.487 190.223 943.703 174.383 943.703 c
158.471 943.703 142.487 943.343 126.503 943.343 c
124.847 943.343 122.903 939.311 122.903 939.311 c
122.759 935.135 122.111 931.175 121.823 927.143 c
121.535 923.111 120.743 918.935 120.599 914.903 c
120.455 911.231 119.807 907.055 119.519 902.879 c
119.231 899.063 118.943 894.527 118.439 890.711 c
118.439 890.711 120.455 886.679 122.111 886.679 c
139.751 886.319 157.823 886.031 175.607 885.671 c
193.391 885.239 211.463 884.879 229.103 884.591 c
230.903 884.591 232.271 888.263 232.271 888.263 c
231.695 892.439 231.047 897.119 230.615 901.151 c
230.183 905.471 229.535 909.791 229.103 913.823 c
228.671 918.143 227.879 922.463 227.447 926.783 c
226.943 930.959 226.367 935.351 225.719 939.671 c
225.719 939.671 223.631 943.487 222.119 943.487 c
b
0.000 0.000 0.000 1.000 K
0 j
0 J
0.215 w
[]0 d
0.000 0.000 0.000 0.498 k
277.632 1165.031 m
260.855 1165.031 243.431 1163.375 226.367 1162.943 c
209.519 1162.439 184.607 1161.647 167.759 1160.351 c
163.367 1159.991 164.231 1164.384 164.231 1164.384 c
183.239 1183.823 208.295 1204.487 227.951 1221.695 c
232.343 1225.583 237.671 1226.015 242.639 1226.159 C
256.463 1226.375 270.287 1227.167 284.111 1227.167 c
288.719 1227.167 287.783 1222.847 287.783 1222.847 c
287.207 1218.311 286.560 1213.991 286.127 1209.311 c
285.623 1205.135 285.048 1200.311 284.615 1195.847 c
284.111 1191.528 283.536 1186.847 283.103 1182.671 c
282.599 1178.135 282.024 1173.671 281.375 1169.207 c
281.375 1169.207 278.783 1165.031 277.632 1165.031 c
b
0.000 0.000 0.000 1.000 K
0 j
0 J
0.215 w
[]0 d
0.000 0.000 0.000 0.498 k
247.751 882.791 m
264.527 882.791 281.951 881.207 299.015 880.703 c
315.863 880.271 340.775 879.407 357.623 878.183 c
362.015 877.823 361.151 882.143 361.151 882.143 c
342.143 901.583 317.087 922.319 297.503 939.527 c
293.039 943.343 287.711 943.847 282.743 943.991 C
268.919 944.135 255.095 944.999 241.271 944.999 c
236.663 944.999 237.599 940.607 237.599 940.607 c
238.175 936.143 238.823 931.823 239.255 927.143 c
239.759 922.967 240.335 918.143 240.767 913.679 c
241.271 909.287 241.847 904.679 242.279 900.503 c
242.783 895.967 243.359 891.503 244.007 886.967 c
244.007 886.967 246.599 882.791 247.751 882.791 c
b
0.000 0.000 0.000 1.000 K
0 j
0 J
0.215 w
[]0 d
0.000 0.000 0.000 0.200 k
276.407 1166.111 m
259.704 1165.967 242.639 1164.672 226.583 1164.167 c
209.951 1163.735 185.399 1162.583 168.839 1161.288 c
165.455 1161.000 166.391 1164.815 166.391 1164.815 c
184.175 1183.607 209.231 1203.048 229.607 1220.543 c
233.711 1224.071 237.455 1224.719 242.351 1224.935 c
258.120 1225.583 267.263 1225.727 282.887 1226.015 c
286.991 1226.159 286.127 1221.695 286.127 1221.695 c
285.479 1217.375 284.903 1213.055 284.471 1208.879 c
283.967 1204.487 282.887 1200.167 282.599 1195.847 c
282.311 1191.815 281.735 1187.495 281.231 1183.175 c
280.799 1178.783 280.151 1174.463 279.719 1170.288 c
279.719 1170.288 277.271 1166.111 276.407 1166.111 c
b
0.000 0.000 0.000 1.000 K
0 j
0 J
0.215 w
[]0 d
0.000 0.000 0.000 0.200 k
248.975 883.943 m
265.680 883.799 282.743 882.503 298.871 881.999 c
315.431 881.495 339.983 880.415 356.543 879.119 c
359.927 878.831 358.991 882.647 358.991 882.647 c
341.207 901.439 316.151 920.879 295.775 938.375 c
291.671 941.903 287.927 942.551 283.031 942.695 c
267.263 943.343 258.120 943.487 242.495 943.847 c
238.391 943.991 239.255 939.527 239.255 939.527 c
239.903 935.135 240.479 930.815 240.911 926.639 c
241.415 922.319 242.495 917.999 242.783 913.679 c
243.071 909.647 243.647 905.327 244.151 900.935 c
244.583 896.615 245.231 892.295 245.663 888.119 c
245.663 888.119 248.111 883.943 248.975 883.943 c
b
u
u
0.000 0.000 0.000 1.000 K
0 j
0 J
0.215 w
[]0 d
551.951 1163.663 m
283.751 1159.199 L
148.463 1155.096 L
94.247 1152.863 -1.367 1144.655 -11.519 1136.303 C
S
U
U
u
u
0.000 0.000 0.000 1.000 K
0 j
0 J
0.215 w
[]0 d
-26.639 881.423 m
241.559 877.031 L
376.775 872.927 L
431.063 870.623 526.679 862.415 536.831 854.063 C
S
U
U
0.000 0.000 0.000 1.000 K
0 j
0 J
0.215 w
[]0 d
0.000 0.000 0.000 0.498 k
120.599 1112.111 m
374.975 1112.111 L
374.975 1101.959 L
123.695 1101.959 L
120.599 1112.111 L
b
0.000 0.000 0.000 1.000 K
0 j
0 J
0.215 w
[]0 d
0.000 0.000 0.000 0.498 k
404.639 829.943 m
150.335 829.943 L
150.335 819.791 L
401.615 819.791 L
404.639 829.943 L
b
0.000 0.000 0.000 1.000 K
0 j
0 J
0.215 w
[]0 d
0.000 0.000 0.000 0.498 k
-34.199 1112.111 m
23.039 1112.111 L
19.439 1101.959 L
-34.199 1101.959 L
-34.199 1112.111 L
b
0.000 0.000 0.000 1.000 K
0 j
0 J
0.215 w
[]0 d
0.000 0.000 0.000 0.498 k
559.583 829.943 m
502.271 829.943 L
505.943 819.791 L
559.583 819.791 L
559.583 829.943 L
b
0.000 0.000 0.000 1.000 K
0 j
0 J
0.215 w
[]0 d
0.000 0.000 0.000 0.498 k
468.431 1112.615 m
562.823 1112.111 L
562.823 1101.959 L
471.023 1102.895 L
468.431 1112.615 L
b
0.000 0.000 0.000 1.000 K
0 j
0 J
0.215 w
[]0 d
0.000 0.000 0.000 0.498 k
56.951 830.375 m
-37.367 829.943 L
-37.367 819.791 L
54.359 820.655 L
56.951 830.375 L
b
0.000 0.000 0.000 1.000 K
0 j
0 J
0.215 w
[]0 d
0.000 0.000 0.000 0.498 k
656.495 831.095 m
632.951 831.311 L
635.183 821.087 L
657.863 821.087 L
656.495 831.095 L
b
0.000 0.000 0.000 1.000 K
0 j
0 J
0.215 w
[]0 d
0.000 0.000 0.000 0.498 k
838.799 831.095 m
862.343 831.311 L
860.111 821.087 L
837.431 821.087 L
838.799 831.095 L
b
u
u
0.000 0.000 0.000 1.000 K
0 j
0 J
0.215 w
[]0 d
293.975 1231.703 m
283.175 1164.240 L
279.863 1135.943 279.215 1106.927 283.823 1079.423 C
S
U
U
u
u
0.000 0.000 0.000 1.000 K
0 j
0 J
0.215 w
[]0 d
231.407 949.535 m
242.207 881.999 L
245.519 853.775 246.167 824.759 241.559 797.255 C
S
U
U
u
u
0.000 0.000 0.000 1.000 K
0 j
0 J
0.215 w
[]0 d
406.295 1230.911 m
414.287 1164.167 L
414.143 1121.471 L
S
U
U
u
u
0.000 0.000 0.000 1.000 K
0 j
0 J
0.215 w
[]0 d
119.087 948.671 m
111.095 881.999 L
111.239 839.303 L
S
U
U
u
u
0.000 0.000 0.000 1.000 K
0 j
0 J
0.215 w
[]0 d
515.951 1235.159 m
513.719 1232.423 512.783 1230.119 514.295 1227.240 C
521.567 1208.231 527.543 1188.791 532.367 1168.631 C
534.024 1152.647 535.391 1137.311 534.527 1121.975 C
S
U
U
u
u
0.000 0.000 0.000 1.000 K
0 j
0 J
0.215 w
[]0 d
9.359 952.991 m
11.663 950.255 12.527 947.951 11.016 945.071 C
3.743 926.063 -2.159 906.623 -7.055 886.391 C
-8.711 870.479 -10.080 855.143 -9.144 839.735 C
S
U
U
u
u
0.000 0.000 0.000 1.000 K
0 j
0 J
0.215 w
[]0 d
123.119 1080.288 m
123.119 1081.079 370.655 1080.576 370.655 1080.576 c
372.455 1118.447 399.815 1122.192 419.399 1121.903 C
558.935 1121.903 L
S
U
U
u
u
0.000 0.000 0.000 1.000 K
0 j
0 J
0.215 w
[]0 d
402.191 798.119 m
402.191 798.839 154.655 798.407 154.655 798.407 c
152.855 836.207 125.495 840.023 105.911 839.735 C
-33.623 839.735 L
S
U
U
u
u
0.000 0.000 0.000 1.000 K
0 j
0 J
0.215 w
[]0 d
122.327 1077.336 m
372.095 1077.336 L
S
U
U
u
u
0.000 0.000 0.000 1.000 K
0 j
0 J
0.215 w
[]0 d
402.983 795.167 m
153.215 795.167 L
S
U
U
u
u
0.000 0.000 0.000 1.000 K
0 j
0 J
0.215 w
[]0 d
-27.647 1081.583 m
19.439 1081.583 L
S
U
U
u
u
0.000 0.000 0.000 1.000 K
0 j
0 J
0.215 w
[]0 d
553.031 799.415 m
505.943 799.415 L
S
U
U
u
u
0.000 0.000 0.000 1.000 K
0 j
0 J
0.215 w
[]0 d
-32.111 1115.711 m
25.343 1116.144 L
29.303 1122.839 38.087 1134.359 67.896 1134.359 c
103.463 1134.359 110.879 1122.839 119.087 1114.487 C
S
U
U
u
u
0.000 0.000 0.000 1.000 K
0 j
0 J
0.215 w
[]0 d
557.423 833.471 m
499.967 833.975 L
496.079 840.599 487.223 852.191 457.415 852.191 c
421.847 852.191 414.431 840.599 406.223 832.247 C
S
U
U
u
u
0.000 0.000 0.000 1.000 K
0 j
0 J
0.215 w
[]0 d
463.175 1119.455 m
563.327 1119.455 L
S
U
U
u
u
0.000 0.000 0.000 1.000 K
0 j
0 J
0.215 w
[]0 d
62.207 837.287 m
-37.943 837.287 L
S
U
U
0.000 0.000 0.000 1.000 K
0 j
0 J
0.215 w
[]0 d
0.000 0.000 0.000 0.498 k
126.143 1174.319 m
139.031 1167.695 L
213.479 1226.447 L
202.535 1226.447 L
126.143 1174.319 L
b
0.000 0.000 0.000 1.000 K
0 j
0 J
0.215 w
[]0 d
0.000 0.000 0.000 0.498 k
399.167 892.151 m
386.279 885.455 L
311.831 944.279 L
322.775 944.279 L
399.167 892.151 L
b
0.000 0.000 0.000 1.000 K
0 j
0 J
0.215 w
[]0 d
0.000 0.000 0.000 0.200 k
128.735 1175.111 m
139.031 1169.351 L
210.023 1225.583 L
203.615 1225.223 L
128.735 1175.111 L
b
0.000 0.000 0.000 1.000 K
0 j
0 J
0.215 w
[]0 d
0.000 0.000 0.000 0.098 k
396.575 892.943 m
386.279 887.183 L
315.287 943.343 L
321.695 943.055 L
396.575 892.943 L
b
u
u
0.000 0.000 0.000 1.000 K
0 j
0 J
0.215 w
[]0 d
-18.215 1138.967 m
2.159 1152.000 34.055 1157.183 138.455 1167.983 C
S
U
U
u
u
0.000 0.000 0.000 1.000 K
0 j
0 J
0.215 w
[]0 d
543.527 856.799 m
523.151 869.831 491.255 875.015 386.855 885.815 C
S
U
U
0.000 0.000 0.000 1.000 K
0 j
0 J
0.215 w
[]0 d
0.000 0.000 0.000 0.098 k
-30.671 1117.295 m
-25.199 1118.087 -23.111 1117.007 -17.639 1117.655 C
-16.416 1121.759 -14.399 1127.231 -13.031 1131.480 C
-11.807 1134.215 -11.807 1136.159 -15.911 1136.447 C
-18.791 1136.591 -21.743 1136.951 -24.479 1137.240 C
-27.791 1130.831 -29.447 1124.135 -30.671 1117.295 C
b
0.000 0.000 0.000 1.000 K
0 j
0 J
0.215 w
[]0 d
0.000 0.000 0.000 0.098 k
555.983 835.127 m
550.511 835.919 548.423 834.839 542.951 835.415 C
541.727 839.519 539.783 844.991 538.415 849.239 C
537.192 851.975 537.192 853.991 541.295 854.279 C
544.175 854.423 547.055 854.711 549.791 855.071 C
553.103 848.663 554.759 841.967 555.983 835.127 C
b
0.000 0.000 0.000 1.000 K
0 j
0 J
0.215 w
[]0 d
0.000 0.000 0.000 0.298 k
549.360 1160.567 m
554.183 1160.567 l
554.975 1160.567 555.551 1159.919 555.623 1159.055 c
555.983 1154.159 l
556.055 1153.223 555.551 1152.647 554.759 1152.647 c
550.007 1152.647 l
549.144 1152.647 548.567 1153.223 548.495 1154.159 c
548.135 1159.055 l
548.135 1159.919 548.567 1160.567 549.360 1160.567 c
b
0.000 0.000 0.000 1.000 K
0 j
0 J
0.215 w
[]0 d
0.000 0.000 0.000 0.298 k
-24.047 878.327 m
-28.871 878.327 l
-29.663 878.327 -30.239 877.751 -30.311 876.815 c
-30.671 871.991 l
-30.743 871.055 -30.239 870.479 -29.447 870.479 c
-24.623 870.479 l
-23.831 870.479 -23.255 871.055 -23.183 871.991 c
-22.823 876.815 l
-22.751 877.751 -23.255 878.327 -24.047 878.327 c
b
0.000 0.000 0.000 1.000 K
0 j
0 J
0.215 w
[]0 d
0.000 0.000 0.000 0.298 k
550.007 1152.144 m
554.831 1152.144 l
555.623 1152.144 556.199 1151.495 556.271 1150.631 c
556.631 1145.735 l
556.703 1144.871 556.199 1144.223 555.407 1144.223 c
550.583 1144.223 l
549.791 1144.223 549.216 1144.871 549.144 1145.735 c
548.783 1150.631 l
548.711 1151.495 549.216 1152.144 550.007 1152.144 c
b
0.000 0.000 0.000 1.000 K
0 j
0 J
0.215 w
[]0 d
0.000 0.000 0.000 0.298 k
-24.695 869.975 m
-29.447 869.975 l
-30.239 869.975 -30.815 869.327 -30.887 868.463 c
-31.247 863.567 l
-31.319 862.631 -30.887 862.055 -30.023 862.055 c
-25.271 862.055 l
-24.479 862.055 -23.903 862.631 -23.831 863.567 c
-23.471 868.463 l
-23.399 869.327 -23.903 869.975 -24.695 869.975 c
b
0.000 0.000 0.000 1.000 K
0 j
0 J
0.215 w
[]0 d
0.000 0.000 0.000 0.298 k
550.511 1144.295 m
555.336 1144.295 l
556.127 1144.295 556.703 1143.647 556.775 1142.711 c
557.135 1137.887 l
557.207 1136.951 556.703 1136.375 555.911 1136.375 c
551.087 1136.375 l
550.295 1136.375 549.719 1136.951 549.647 1137.887 c
549.288 1142.711 l
549.288 1143.647 549.719 1144.295 550.511 1144.295 c
b
0.000 0.000 0.000 1.000 K
0 j
0 J
0.215 w
[]0 d
0.000 0.000 0.000 0.298 k
-25.199 862.055 m
-30.023 862.055 l
-30.815 862.055 -31.391 861.479 -31.463 860.543 c
-31.823 855.719 l
-31.895 854.783 -31.391 854.207 -30.599 854.207 c
-25.775 854.207 l
-24.983 854.207 -24.407 854.783 -24.335 855.719 c
-23.975 860.543 l
-23.903 861.479 -24.407 862.055 -25.199 862.055 c
b
0.000 0.000 0.000 1.000 K
0 j
0 J
0.215 w
[]0 d
0.000 0.000 0.000 0.298 k
551.159 1136.015 m
555.983 1136.015 l
556.775 1136.015 557.351 1135.439 557.423 1134.503 c
557.783 1129.679 l
557.855 1128.743 557.351 1128.096 556.559 1128.096 c
551.735 1128.096 l
550.943 1128.096 550.367 1128.743 550.295 1129.679 c
549.935 1134.503 l
549.863 1135.439 550.367 1136.015 551.159 1136.015 c
b
0.000 0.000 0.000 1.000 K
0 j
0 J
0.215 w
[]0 d
0.000 0.000 0.000 0.298 k
-25.847 853.847 m
-30.599 853.847 l
-31.391 853.847 -31.967 853.271 -32.039 852.335 c
-32.399 847.439 l
-32.471 846.575 -32.039 845.927 -31.175 845.927 c
-26.423 845.927 l
-25.631 845.927 -25.055 846.575 -24.983 847.439 c
-24.623 852.335 l
-24.551 853.271 -25.055 853.847 -25.847 853.847 c
b
u
u
0.000 0.000 0.000 1.000 K
0 j
0 J
0.215 w
[]0 d
646.127 855.071 m
647.927 855.071 649.583 855.071 651.599 855.071 c
653.255 855.071 654.911 855.071 656.927 855.071 c
658.583 855.071 659.807 854.351 659.807 853.703 c
659.807 852.047 659.303 850.535 659.303 848.879 c
659.303 848.087 658.295 847.367 656.567 847.367 c
654.767 847.367 653.399 847.367 651.599 847.367 c
649.943 847.367 648.215 847.367 646.559 847.367 c
644.903 847.367 643.679 847.943 643.679 848.879 c
643.535 850.391 643.391 852.047 643.391 853.703 c
643.391 854.351 644.327 855.071 646.127 855.071 c
s
0.000 0.000 0.000 1.000 K
0 j
0 J
0.215 w
[]0 d
646.559 863.279 m
648.431 863.279 650.231 863.279 652.031 863.279 c
653.831 863.279 655.559 863.279 657.503 863.279 c
659.303 863.279 660.383 862.559 660.383 861.911 c
660.383 860.255 660.096 858.455 660.096 857.087 c
660.096 856.151 658.583 855.287 656.927 855.287 c
654.911 855.287 653.255 855.287 651.599 855.287 c
649.583 855.287 647.927 855.287 646.127 855.287 c
644.327 855.287 643.391 856.151 643.391 857.087 c
643.391 858.599 643.535 860.399 643.679 861.911 c
643.679 862.703 644.759 863.279 646.559 863.279 c
s
0.000 0.000 0.000 1.000 K
0 j
0 J
0.215 w
[]0 d
647.351 871.199 m
649.151 871.199 650.807 871.199 652.823 871.199 c
654.479 871.199 656.279 871.199 658.151 871.199 c
659.951 871.199 661.031 870.479 661.031 869.831 c
661.031 868.175 660.527 866.663 660.527 865.007 c
660.527 864.215 659.303 863.279 657.503 863.279 c
655.559 863.279 653.831 863.279 652.031 863.279 c
650.231 863.279 648.431 863.279 646.559 863.279 c
644.759 863.279 643.823 864.215 643.823 865.007 c
643.967 866.663 644.111 868.319 644.471 869.831 c
644.471 870.623 645.479 871.199 647.351 871.199 c
s
0.000 0.000 0.000 1.000 K
0 j
0 J
0.215 w
[]0 d
649.151 879.839 m
650.951 879.839 652.463 879.839 654.192 879.839 c
655.703 879.839 657.359 879.839 659.015 879.839 c
660.671 879.839 661.607 878.975 661.607 878.327 c
661.607 876.671 661.319 874.871 661.319 873.503 c
661.319 872.423 659.951 871.631 658.151 871.631 c
656.135 871.631 654.623 871.631 652.823 871.631 c
650.951 871.631 649.295 871.631 647.351 871.631 c
645.695 871.631 644.903 872.423 645.048 873.503 c
645.335 874.871 645.839 876.815 646.127 878.327 c
646.271 879.119 647.495 879.839 649.151 879.839 c
s
U
U
u
u
0.000 0.000 0.000 1.000 K
0 j
0 J
0.215 w
[]0 d
849.599 855.071 m
847.799 855.071 846.143 855.071 844.127 855.071 c
842.471 855.071 840.815 855.071 838.799 855.071 c
837.143 855.071 835.919 854.351 835.919 853.703 c
835.919 852.047 836.423 850.535 836.423 848.879 c
836.423 848.087 837.431 847.367 839.159 847.367 c
840.959 847.367 842.327 847.367 844.127 847.367 c
845.783 847.367 847.511 847.367 849.167 847.367 c
850.823 847.367 852.047 847.943 852.047 848.879 c
852.191 850.391 852.335 852.047 852.335 853.703 c
852.335 854.351 851.399 855.071 849.599 855.071 c
s
0.000 0.000 0.000 1.000 K
0 j
0 J
0.215 w
[]0 d
849.167 863.279 m
847.367 863.279 845.495 863.279 843.695 863.279 c
841.895 863.279 840.167 863.279 838.223 863.279 c
836.423 863.279 835.343 862.559 835.343 861.911 c
835.343 860.255 835.631 858.455 835.631 857.087 c
835.631 856.151 837.143 855.287 838.799 855.287 c
840.815 855.287 842.471 855.287 844.127 855.287 c
846.143 855.287 847.799 855.287 849.599 855.287 c
851.399 855.287 852.335 856.151 852.335 857.087 c
852.335 858.599 852.191 860.399 852.047 861.911 c
852.047 862.703 850.967 863.279 849.167 863.279 c
s
0.000 0.000 0.000 1.000 K
0 j
0 J
0.215 w
[]0 d
848.375 871.199 m
846.575 871.199 844.919 871.199 842.903 871.199 c
841.247 871.199 839.447 871.199 837.575 871.199 c
835.775 871.199 834.695 870.479 834.695 869.831 c
834.695 868.175 835.199 866.663 835.199 865.007 c
835.199 864.215 836.423 863.279 838.223 863.279 c
840.167 863.279 841.895 863.279 843.695 863.279 c
845.495 863.279 847.367 863.279 849.167 863.279 c
850.967 863.279 851.903 864.215 851.903 865.007 c
851.759 866.663 851.615 868.319 851.255 869.831 c
851.255 870.623 850.247 871.199 848.375 871.199 c
s
0.000 0.000 0.000 1.000 K
0 j
0 J
0.215 w
[]0 d
846.575 879.839 m
844.775 879.839 843.263 879.839 841.535 879.839 c
840.023 879.839 838.367 879.839 836.711 879.839 c
835.055 879.839 834.119 878.975 834.119 878.327 c
834.119 876.671 834.407 874.871 834.407 873.503 c
834.407 872.423 835.775 871.631 837.575 871.631 c
839.591 871.631 841.103 871.631 842.903 871.631 c
844.775 871.631 846.431 871.631 848.375 871.631 c
850.031 871.631 850.823 872.423 850.679 873.503 c
850.391 874.871 849.887 876.815 849.599 878.327 c
849.455 879.119 848.231 879.839 846.575 879.839 c
s
U
U
0.000 0.000 0.000 1.000 K
0 j
0 J
0.215 w
[]0 d
0.000 0.000 0.000 0.098 k
263.303 1150.631 m
274.751 1150.631 l
276.120 1150.631 276.983 1149.695 276.983 1148.327 c
276.983 1144.079 l
276.983 1142.711 276.120 1141.847 274.751 1141.847 c
263.303 1141.847 l
261.935 1141.847 261.072 1142.711 261.072 1144.079 c
261.072 1148.327 l
261.072 1149.695 261.935 1150.631 263.303 1150.631 c
b
0.000 0.000 0.000 1.000 K
0 j
0 J
0.215 w
[]0 d
0.000 0.000 0.000 0.098 k
262.079 868.463 m
250.631 868.463 l
249.263 868.463 248.399 867.527 248.399 866.159 c
248.399 861.911 l
248.399 860.543 249.263 859.607 250.631 859.607 c
262.079 859.607 l
263.447 859.607 264.311 860.543 264.311 861.911 c
264.311 866.159 l
264.311 867.527 263.447 868.463 262.079 868.463 c
b
0.000 0.000 0.000 1.000 K
0 j
0 J
0.215 w
[]0 d
0.000 0.000 0.000 0.498 k
263.303 1150.631 m
274.751 1150.631 l
276.120 1150.631 276.983 1150.199 276.983 1149.480 c
276.983 1147.391 l
276.983 1146.672 276.120 1146.240 274.751 1146.240 c
263.303 1146.240 l
261.935 1146.240 261.072 1146.672 261.072 1147.391 c
261.072 1149.480 l
261.072 1150.199 261.935 1150.631 263.303 1150.631 c
b
0.000 0.000 0.000 1.000 K
0 j
0 J
0.215 w
[]0 d
0.000 0.000 0.000 0.498 k
262.079 868.463 m
250.631 868.463 l
249.263 868.463 248.399 867.959 248.399 867.311 c
248.399 865.151 l
248.399 864.503 249.263 864.071 250.631 864.071 c
262.079 864.071 l
263.447 864.071 264.311 864.503 264.311 865.151 c
264.311 867.311 l
264.311 867.959 263.447 868.463 262.079 868.463 c
b
0.000 0.000 0.000 1.000 K
0 j
0 J
0.215 w
[]0 d
0.000 0.000 0.000 0.098 k
380.735 1151.927 m
392.183 1151.927 l
393.551 1151.927 394.415 1151.063 394.415 1149.695 c
394.415 1145.447 l
394.415 1144.079 393.551 1143.144 392.183 1143.144 c
380.735 1143.144 l
379.367 1143.144 378.503 1144.079 378.503 1145.447 c
378.503 1149.695 l
378.503 1151.063 379.367 1151.927 380.735 1151.927 c
b
0.000 0.000 0.000 1.000 K
0 j
0 J
0.215 w
[]0 d
0.000 0.000 0.000 0.098 k
144.647 869.759 m
133.199 869.759 l
131.831 869.759 130.967 868.895 130.967 867.527 c
130.967 863.207 l
130.967 861.839 131.831 860.975 133.199 860.975 c
144.647 860.975 l
146.015 860.975 146.879 861.839 146.879 863.207 c
146.879 867.527 l
146.879 868.895 146.015 869.759 144.647 869.759 c
b
0.000 0.000 0.000 1.000 K
0 j
0 J
0.215 w
[]0 d
0.000 0.000 0.000 1.000 k
380.735 1151.927 m
392.183 1151.927 l
393.551 1151.927 394.415 1151.495 394.415 1150.775 c
394.415 1148.471 l
394.415 1147.751 393.551 1147.247 392.183 1147.247 c
380.735 1147.247 l
379.367 1147.247 378.503 1147.751 378.503 1148.471 c
378.503 1150.775 l
378.503 1151.495 379.367 1151.927 380.735 1151.927 c
b
0.000 0.000 0.000 1.000 K
0 j
0 J
0.215 w
[]0 d
0.000 0.000 0.000 0.498 k
144.647 869.759 m
133.199 869.759 l
131.831 869.759 130.967 869.255 130.967 868.535 c
130.967 866.303 l
130.967 865.583 131.831 865.079 133.199 865.079 c
144.647 865.079 l
146.015 865.079 146.879 865.583 146.879 866.303 c
146.879 868.535 l
146.879 869.255 146.015 869.759 144.647 869.759 c
b
0.000 0.000 0.000 1.000 K
0 j
0 J
0.215 w
[]0 d
0.000 0.000 0.000 1.000 k
437.903 1119.240 m
453.815 1113.336 465.407 1097.855 465.407 1079.927 c
465.407 1056.816 446.543 1038.096 423.575 1038.096 c
400.679 1038.096 381.815 1056.816 381.815 1079.927 c
381.815 1097.207 392.327 1112.111 407.519 1118.519 C
417.527 1119.384 427.391 1119.743 437.903 1119.240 C
b
0.000 0.000 0.000 1.000 K
0 j
0 J
0.215 w
[]0 d
0.000 0.000 0.000 1.000 k
87.479 837.071 m
71.567 831.167 59.975 815.687 59.975 797.687 c
59.975 774.647 78.839 755.927 101.807 755.927 c
124.703 755.927 143.567 774.647 143.567 797.687 c
143.567 815.039 133.055 829.943 117.863 836.351 C
107.855 837.215 97.991 837.503 87.479 837.071 C
b
0.000 0.000 0.000 1.000 K
0 j
0 J
0.215 w
[]0 d
0.000 0.000 0.000 0.200 k
523.727 1227.023 m
527.687 1227.023 L
537.264 1208.879 545.615 1190.231 551.735 1169.855 C
550.367 1169.855 549.000 1169.855 547.775 1169.855 C
541.367 1189.943 533.159 1208.735 523.727 1227.023 C
b
0.000 0.000 0.000 1.000 K
0 j
0 J
0.215 w
[]0 d
0.000 0.000 0.000 0.200 k
1.583 944.783 m
-2.375 944.783 L
-11.951 926.711 -20.303 908.063 -26.351 887.687 C
-24.983 887.687 -23.615 887.687 -22.391 887.687 C
-16.055 907.703 -7.847 926.567 1.583 944.783 C
b
u
u
0.000 0.000 0.000 1.000 K
0 j
0 J
0.215 w
[]0 d
512.063 1168.343 m
552.024 1168.343 L
S
U
U
u
u
0.000 0.000 0.000 1.000 K
0 j
0 J
0.215 w
[]0 d
13.319 886.175 m
-26.639 886.175 L
S
U
U
0.000 0.000 0.000 1.000 K
0 j
0 J
0.215 w
[]0 d
0.000 0.000 0.000 0.498 k
385.631 1225.439 m
387.575 1225.439 L
379.655 1168.271 L
377.711 1168.271 L
385.631 1225.439 L
b
0.000 0.000 0.000 1.000 K
0 j
0 J
0.215 w
[]0 d
0.000 0.000 0.000 0.498 k
139.751 943.199 m
137.807 943.199 L
145.727 886.103 L
147.671 886.103 L
139.751 943.199 L
b
0.000 0.000 0.000 0.000 K
0 j
0 J
0.215 w
[]0 d
0.000 0.000 0.000 0.098 k
423.863 1105.703 m
437.831 1105.703 449.279 1094.255 449.279 1080.215 C
449.279 1066.103 437.831 1054.799 423.863 1054.799 C
409.751 1054.799 398.519 1066.103 398.519 1080.215 C
398.519 1094.255 409.751 1105.703 423.863 1105.703 C
b
0.000 0.000 0.000 0.000 K
0 j
0 J
0.215 w
[]0 d
0.000 0.000 0.000 0.098 k
101.375 823.535 m
87.479 823.535 75.959 812.087 75.959 798.047 C
75.959 783.935 87.479 772.631 101.375 772.631 C
115.559 772.631 126.791 783.935 126.791 798.047 C
126.791 812.087 115.559 823.535 101.375 823.535 C
b
0.000 0.000 0.000 0.000 K
0 j
0 J
0.215 w
[]0 d
0.000 0.000 0.000 0.098 k
66.311 1105.703 m
80.207 1105.703 91.727 1094.255 91.727 1080.215 C
91.727 1066.103 80.207 1054.799 66.311 1054.799 C
52.199 1054.799 40.895 1066.103 40.895 1080.215 C
40.895 1094.255 52.199 1105.703 66.311 1105.703 C
b
0.000 0.000 0.000 0.000 K
0 j
0 J
0.215 w
[]0 d
0.000 0.000 0.000 0.098 k
458.999 823.535 m
445.031 823.535 433.583 812.087 433.583 798.047 C
433.583 783.935 445.031 772.631 458.999 772.631 C
473.111 772.631 484.415 783.935 484.415 798.047 C
484.415 812.087 473.111 823.535 458.999 823.535 C
b
0.000 0.000 0.000 1.000 k
429.767 1093.967 m
430.487 1094.615 432.359 1095.695 434.735 1094.759 c
437.903 1093.391 444.599 1085.327 445.103 1082.375 C
439.775 1090.871 435.959 1089.359 433.079 1090.079 c
430.703 1090.655 429.191 1093.247 429.767 1093.967 C
f
0.000 0.000 0.000 1.000 k
95.471 811.727 m
94.823 812.447 92.951 813.455 90.503 812.591 c
87.407 811.223 80.640 803.087 80.135 800.135 C
85.535 808.703 89.279 807.191 92.231 807.911 c
94.607 808.487 96.119 811.007 95.471 811.727 C
f
0.000 0.000 0.000 1.000 k
72.215 1093.967 m
72.935 1094.615 74.735 1095.695 77.183 1094.759 c
80.351 1093.391 87.047 1085.327 87.551 1082.375 C
82.151 1090.871 78.407 1089.359 75.455 1090.079 c
73.152 1090.655 71.567 1093.247 72.215 1093.967 C
f
0.000 0.000 0.000 1.000 k
453.095 811.727 m
452.375 812.447 450.575 813.455 448.127 812.591 c
444.959 811.223 438.263 803.087 437.759 800.135 C
443.159 808.703 446.903 807.191 449.855 807.911 c
452.159 808.487 453.671 811.007 453.095 811.727 C
f
0.000 0.000 0.000 1.000 k
438.767 1081.943 m
437.831 1082.159 436.319 1079.639 436.895 1077.192 c
437.687 1074.311 440.999 1071.791 436.319 1062.864 C
438.623 1064.735 442.295 1074.743 441.791 1078.055 c
441.359 1080.503 439.631 1081.727 438.767 1081.943 C
f
0.000 0.000 0.000 1.000 k
86.543 799.775 m
87.479 799.991 88.991 797.399 88.415 794.951 c
87.551 792.143 84.311 789.623 88.991 780.623 C
86.687 782.567 83.015 792.575 83.519 795.887 c
83.951 798.335 85.679 799.559 86.543 799.775 C
f
0.000 0.000 0.000 1.000 k
81.143 1081.943 m
80.207 1082.159 78.695 1079.639 79.343 1077.192 c
80.135 1074.311 83.375 1071.791 78.695 1062.864 C
81.071 1064.735 84.743 1074.743 84.167 1078.055 c
83.807 1080.503 82.079 1081.727 81.143 1081.943 C
f
0.000 0.000 0.000 1.000 k
444.167 799.775 m
445.031 799.991 446.615 797.399 445.967 794.951 c
445.175 792.143 441.935 789.623 446.615 780.623 C
444.239 782.567 440.567 792.575 441.071 795.887 c
441.503 798.335 443.231 799.559 444.167 799.775 C
f
0.000 0.000 0.000 1.000 k
432.719 1068.119 m
432.935 1067.327 432.863 1065.167 430.991 1063.583 c
428.183 1061.495 417.815 1059.695 414.935 1060.703 C
425.087 1061.207 425.591 1065.167 427.751 1067.399 c
429.479 1069.127 432.431 1069.055 432.719 1068.119 C
f
0.000 0.000 0.000 1.000 k
92.591 785.951 m
92.375 785.087 92.447 782.999 94.319 781.343 c
97.127 779.327 107.495 777.527 110.375 778.535 C
100.151 779.039 99.647 782.999 97.559 785.231 c
95.831 786.959 92.879 786.815 92.591 785.951 C
f
0.000 0.000 0.000 1.000 k
75.167 1068.119 m
75.384 1067.327 75.239 1065.167 73.439 1063.583 c
70.559 1061.495 60.191 1059.695 57.383 1060.703 C
67.536 1061.207 68.039 1065.167 70.199 1067.399 c
71.927 1069.127 74.879 1069.055 75.167 1068.119 C
f
0.000 0.000 0.000 1.000 k
450.143 785.951 m
449.927 785.087 450.071 782.999 451.871 781.343 c
454.679 779.327 465.119 777.527 467.927 778.535 C
457.775 779.039 457.271 782.999 455.111 785.231 c
453.383 786.959 450.431 786.815 450.143 785.951 C
f
0.000 0.000 0.000 1.000 k
417.815 1066.463 m
418.535 1067.183 417.023 1069.847 414.647 1070.495 c
411.695 1071.144 407.951 1069.631 402.551 1078.199 C
402.983 1075.247 409.751 1067.111 412.919 1065.816 c
415.367 1064.879 417.167 1065.887 417.815 1066.463 C
f
0.000 0.000 0.000 1.000 k
107.495 784.295 m
106.775 785.015 108.287 787.679 110.663 788.255 c
113.615 788.975 117.359 787.463 122.759 796.031 C
122.327 793.079 115.559 784.943 112.391 783.575 c
109.943 782.711 108.071 783.719 107.495 784.295 C
f
0.000 0.000 0.000 1.000 k
60.191 1066.463 m
60.911 1067.183 59.399 1069.847 57.095 1070.495 c
54.143 1071.144 50.399 1069.631 45.000 1078.199 C
45.359 1075.247 52.199 1067.111 55.367 1065.816 c
57.815 1064.879 59.615 1065.887 60.191 1066.463 C
f
0.000 0.000 0.000 1.000 k
465.119 784.295 m
464.399 785.015 465.911 787.679 468.287 788.255 c
471.239 788.975 474.983 787.463 480.383 796.031 C
479.951 793.079 473.111 784.943 470.015 783.575 c
467.567 782.711 465.695 783.719 465.119 784.295 C
f
0.000 0.000 0.000 1.000 k
408.959 1078.559 m
408.023 1078.775 406.223 1080.000 405.935 1082.447 c
405.431 1085.831 409.031 1095.768 411.407 1097.711 C
406.727 1088.783 409.895 1086.192 410.759 1083.384 c
411.263 1080.935 409.895 1078.415 408.959 1078.559 C
f
0.000 0.000 0.000 1.000 k
116.351 796.391 m
117.287 796.607 119.087 797.831 119.375 800.279 c
119.879 803.591 116.207 813.599 113.903 815.471 C
118.583 806.543 115.415 804.023 114.479 801.143 c
113.975 798.767 115.415 796.175 116.351 796.391 C
f
0.000 0.000 0.000 1.000 k
51.407 1078.559 m
50.471 1078.775 48.671 1080.000 48.311 1082.447 c
47.807 1085.831 51.479 1095.768 53.783 1097.711 C
49.175 1088.783 52.271 1086.192 53.207 1083.384 c
53.711 1080.935 52.271 1078.415 51.407 1078.559 C
f
0.000 0.000 0.000 1.000 k
473.975 796.391 m
474.839 796.607 476.711 797.831 476.999 800.279 c
477.503 803.591 473.831 813.599 471.527 815.471 C
476.207 806.543 473.039 804.023 472.103 801.143 c
471.599 798.767 473.039 796.175 473.975 796.391 C
f
0.000 0.000 0.000 1.000 k
414.935 1092.384 m
415.295 1091.519 418.175 1091.375 419.903 1093.103 c
422.063 1095.336 422.567 1099.295 432.719 1099.727 C
429.911 1100.879 419.543 1099.007 416.663 1096.991 c
414.863 1095.336 414.647 1093.247 414.935 1092.384 C
f
0.000 0.000 0.000 1.000 k
110.375 810.215 m
110.015 809.279 107.063 809.207 105.335 810.935 c
103.247 813.167 102.743 817.127 92.591 817.559 C
95.399 818.639 105.767 816.839 108.647 814.823 c
110.447 813.167 110.663 811.007 110.375 810.215 C
f
0.000 0.000 0.000 1.000 k
57.383 1092.384 m
57.671 1091.519 60.623 1091.375 62.351 1093.103 c
64.512 1095.336 65.015 1099.295 75.167 1099.727 C
72.287 1100.879 61.919 1099.007 59.111 1096.991 c
57.239 1095.336 57.095 1093.247 57.383 1092.384 C
f
0.000 0.000 0.000 1.000 k
467.927 810.215 m
467.639 809.279 464.687 809.207 462.959 810.935 c
460.799 813.167 460.295 817.127 450.143 817.559 C
452.951 818.639 463.391 816.839 466.199 814.823 c
468.071 813.167 468.287 811.007 467.927 810.215 C
f
0.000 0.000 0.000 0.098 k
430.487 1093.031 m
430.271 1092.743 431.207 1091.807 432.215 1091.879 c
433.439 1092.096 434.591 1093.103 437.831 1090.655 C
437.183 1091.807 433.583 1093.823 432.215 1093.823 c
431.207 1093.967 430.631 1093.247 430.487 1093.031 C
f
0.000 0.000 0.000 0.098 k
94.823 810.863 m
94.967 810.503 94.103 809.639 93.095 809.711 c
91.871 809.927 90.719 810.935 87.479 808.487 C
88.055 809.639 91.727 811.655 93.095 811.655 c
94.103 811.727 94.679 811.007 94.823 810.863 C
f
0.000 0.000 0.000 0.098 k
72.935 1093.031 m
72.719 1092.743 73.655 1091.807 74.663 1091.879 c
75.887 1092.096 76.967 1093.103 80.207 1090.655 C
79.631 1091.807 75.959 1093.823 74.663 1093.823 c
73.655 1093.967 73.007 1093.247 72.935 1093.031 C
f
0.000 0.000 0.000 0.098 k
452.375 810.863 m
452.591 810.503 451.655 809.639 450.647 809.711 c
449.423 809.927 448.343 810.935 445.031 808.487 C
445.679 809.639 449.351 811.655 450.647 811.655 c
451.655 811.727 452.303 811.007 452.375 810.863 C
f
0.000 0.000 0.000 0.098 k
438.119 1080.791 m
438.551 1080.791 439.343 1080.720 439.847 1079.927 c
440.567 1078.703 440.567 1074.455 439.919 1073.375 C
440.495 1077.336 438.839 1077.911 438.119 1078.919 c
437.543 1079.711 437.831 1080.791 438.119 1080.791 C
f
0.000 0.000 0.000 0.098 k
87.191 798.623 m
86.759 798.623 85.967 798.551 85.463 797.687 c
84.743 796.535 84.743 792.215 85.319 791.207 C
84.815 795.167 86.471 795.671 87.191 796.679 c
87.767 797.543 87.479 798.623 87.191 798.623 C
f
0.000 0.000 0.000 0.098 k
80.567 1080.791 m
80.927 1080.791 81.791 1080.720 82.295 1079.927 c
83.015 1078.703 83.015 1074.455 82.367 1073.375 C
82.871 1077.336 81.287 1077.911 80.567 1078.919 c
79.919 1079.711 80.207 1080.791 80.567 1080.791 C
f
0.000 0.000 0.000 0.098 k
444.743 798.623 m
444.311 798.623 443.519 798.551 443.015 797.687 c
442.295 796.535 442.295 792.215 442.943 791.207 C
442.439 795.167 444.023 795.671 444.743 796.679 c
445.391 797.543 445.031 798.623 444.743 798.623 C
f
0.000 0.000 0.000 0.098 k
431.495 1068.119 m
431.351 1068.407 430.199 1068.048 429.767 1067.183 c
429.263 1066.103 429.623 1064.447 425.951 1062.935 C
427.175 1062.935 430.775 1065.096 431.495 1066.319 c
431.999 1067.111 431.855 1067.831 431.495 1068.119 C
f
0.000 0.000 0.000 0.098 k
93.743 785.951 m
93.959 786.239 95.111 785.807 95.471 785.015 c
96.047 783.935 95.687 782.279 99.359 780.767 C
98.135 780.767 94.463 782.855 93.743 784.079 c
93.239 784.943 93.455 785.663 93.743 785.951 C
f
0.000 0.000 0.000 0.098 k
73.943 1068.119 m
73.727 1068.407 72.647 1068.048 72.215 1067.183 c
71.711 1066.103 72.000 1064.447 68.327 1062.935 C
69.551 1062.935 73.223 1065.096 73.943 1066.319 c
74.447 1067.111 74.231 1067.831 73.943 1068.119 C
f
0.000 0.000 0.000 0.098 k
451.367 785.951 m
451.583 786.239 452.663 785.807 453.095 785.015 c
453.599 783.935 453.311 782.279 456.911 780.767 C
455.759 780.767 452.087 782.855 451.367 784.079 c
450.863 784.943 451.079 785.663 451.367 785.951 C
f
0.000 0.000 0.000 0.098 k
417.167 1067.615 m
417.095 1067.327 416.447 1066.607 415.439 1066.679 c
414.143 1066.679 410.471 1068.768 409.895 1069.847 C
412.991 1067.399 414.215 1068.407 415.439 1068.551 c
416.375 1068.624 417.383 1067.831 417.167 1067.615 C
f
0.000 0.000 0.000 0.098 k
108.071 785.447 m
108.215 785.087 108.791 784.439 109.799 784.511 c
111.167 784.511 114.839 786.527 115.415 787.679 C
112.247 785.231 111.023 786.239 109.799 786.311 c
108.935 786.455 107.927 785.663 108.071 785.447 C
f
0.000 0.000 0.000 0.098 k
59.615 1067.615 m
59.543 1067.327 58.895 1066.607 57.887 1066.679 c
56.591 1066.679 52.919 1068.768 52.271 1069.847 C
55.439 1067.399 56.663 1068.407 57.887 1068.551 c
58.823 1068.624 59.831 1067.831 59.615 1067.615 C
f
0.000 0.000 0.000 0.098 k
465.695 785.447 m
465.839 785.087 466.415 784.439 467.423 784.511 c
468.791 784.511 472.463 786.527 473.039 787.679 C
469.871 785.231 468.647 786.239 467.423 786.311 c
466.559 786.455 465.551 785.663 465.695 785.447 C
f
0.000 0.000 0.000 0.098 k
409.535 1079.711 m
409.895 1079.711 410.183 1080.791 409.535 1081.655 c
408.887 1082.663 407.231 1083.167 407.735 1087.127 C
407.159 1086.119 407.159 1081.871 407.807 1080.647 c
408.383 1079.783 409.175 1079.639 409.535 1079.711 C
f
0.000 0.000 0.000 0.098 k
115.703 797.543 m
115.415 797.543 115.127 798.623 115.703 799.415 c
116.423 800.495 118.079 800.999 117.575 804.959 C
118.151 803.951 118.151 799.631 117.431 798.407 c
116.927 797.615 116.135 797.399 115.703 797.543 C
f
0.000 0.000 0.000 0.098 k
51.983 1079.711 m
52.271 1079.711 52.631 1080.791 51.983 1081.655 c
51.263 1082.663 49.679 1083.167 50.183 1087.127 C
49.535 1086.119 49.535 1081.871 50.255 1080.647 c
50.759 1079.783 51.551 1079.639 51.983 1079.711 C
f
0.000 0.000 0.000 0.098 k
473.327 797.543 m
473.039 797.543 472.751 798.623 473.327 799.415 c
474.047 800.495 475.703 800.999 475.199 804.959 C
475.775 803.951 475.775 799.631 475.055 798.407 c
474.551 797.615 473.759 797.399 473.327 797.543 C
f
0.000 0.000 0.000 0.098 k
416.159 1092.384 m
415.871 1092.743 415.655 1093.391 416.159 1094.327 c
416.879 1095.551 420.551 1097.567 421.775 1097.567 C
418.103 1096.055 418.391 1094.471 417.887 1093.319 c
417.527 1092.528 416.375 1092.096 416.159 1092.384 C
f
0.000 0.000 0.000 0.098 k
109.151 810.215 m
109.439 810.503 109.655 811.223 109.151 812.159 c
108.431 813.383 104.759 815.399 103.535 815.399 C
107.207 813.887 106.919 812.231 107.423 811.151 c
107.783 810.359 108.935 809.927 109.151 810.215 C
f
0.000 0.000 0.000 0.098 k
58.607 1092.384 m
58.319 1092.743 58.103 1093.391 58.607 1094.327 c
59.327 1095.551 62.999 1097.567 64.152 1097.567 C
60.551 1096.055 60.839 1094.471 60.335 1093.319 c
59.903 1092.528 58.823 1092.096 58.607 1092.384 C
f
0.000 0.000 0.000 0.098 k
466.703 810.215 m
467.063 810.503 467.279 811.223 466.703 812.159 c
466.055 813.383 462.311 815.399 461.087 815.399 C
464.831 813.887 464.471 812.231 464.975 811.151 c
465.407 810.359 466.559 809.927 466.703 810.215 C
f
0.000 0.000 0.000 1.000 k
423.863 1085.327 m
426.671 1085.327 428.903 1083.096 428.903 1080.288 C
428.903 1077.480 426.671 1075.247 423.863 1075.247 C
421.055 1075.247 418.823 1077.480 418.823 1080.288 C
418.823 1083.096 421.055 1085.327 423.863 1085.327 C
f
0.000 0.000 0.000 1.000 k
101.375 803.087 m
98.639 803.087 96.407 800.855 96.407 798.119 C
96.407 795.311 98.639 793.079 101.375 793.079 C
104.255 793.079 106.487 795.311 106.487 798.119 C
106.487 800.855 104.255 803.087 101.375 803.087 C
f
0.000 0.000 0.000 1.000 k
66.311 1085.327 m
69.048 1085.327 71.280 1083.096 71.280 1080.288 C
71.280 1077.480 69.048 1075.247 66.311 1075.247 C
63.503 1075.247 61.271 1077.480 61.271 1080.288 C
61.271 1083.096 63.503 1085.327 66.311 1085.327 C
f
0.000 0.000 0.000 1.000 k
458.999 803.087 m
456.263 803.087 454.031 800.855 454.031 798.119 C
454.031 795.311 456.263 793.079 458.999 793.079 C
461.807 793.079 464.111 795.311 464.111 798.119 C
464.111 800.855 461.807 803.087 458.999 803.087 C
f
0.000 0.000 0.000 0.098 k
423.863 1084.679 m
421.343 1084.679 419.399 1082.735 419.399 1080.288 C
419.399 1077.768 421.343 1075.823 423.863 1075.823 C
426.311 1075.823 428.255 1077.768 428.255 1080.288 C
428.255 1082.735 426.311 1084.679 423.863 1084.679 C
f
0.000 0.000 0.000 0.098 k
101.375 802.511 m
103.967 802.511 105.839 800.567 105.839 798.119 C
105.839 795.599 103.967 793.655 101.375 793.655 C
98.927 793.655 97.055 795.599 97.055 798.119 C
97.055 800.567 98.927 802.511 101.375 802.511 C
f
0.000 0.000 0.000 0.098 k
66.311 1084.679 m
63.791 1084.679 61.847 1082.735 61.847 1080.288 C
61.847 1077.768 63.791 1075.823 66.311 1075.823 C
68.759 1075.823 70.703 1077.768 70.703 1080.288 C
70.703 1082.735 68.759 1084.679 66.311 1084.679 C
f
0.000 0.000 0.000 0.098 k
458.999 802.511 m
461.519 802.511 463.463 800.567 463.463 798.119 C
463.463 795.599 461.519 793.655 458.999 793.655 C
456.551 793.655 454.607 795.599 454.607 798.119 C
454.607 800.567 456.551 802.511 458.999 802.511 C
f
0.000 0.000 0.000 1.000 K
0 j
0 J
0.215 w
[]0 d
0.000 0.000 0.000 0.200 k
673.127 887.903 m
698.039 887.903 723.095 887.903 748.151 887.903 c
772.919 887.903 797.975 887.903 822.887 887.903 c
827.351 887.903 829.439 891.431 828.215 895.679 c
826.127 903.023 823.823 913.247 821.663 920.447 c
819.719 927.359 817.271 934.991 815.039 941.831 c
813.671 946.367 809.999 950.039 806.471 950.039 c
787.031 950.039 767.447 950.039 748.007 950.039 c
728.567 950.039 709.127 950.039 689.471 950.039 c
686.303 950.039 682.487 946.151 681.120 941.831 c
679.031 934.847 676.583 927.143 674.639 920.447 c
672.623 913.103 670.031 903.023 667.943 895.679 c
666.719 891.431 668.807 887.903 673.127 887.903 c
b
0.000 0.000 0.000 1.000 K
0 j
0 J
0.215 w
[]0 d
665.783 822.311 m
691.631 822.311 722.015 822.311 747.935 822.311 c
773.639 822.311 804.023 822.311 829.871 822.311 c
834.407 822.311 835.055 825.695 835.487 830.231 c
839.879 868.535 830.015 906.335 817.271 943.415 c
815.903 948.023 812.087 951.623 808.415 951.623 c
788.399 951.623 768.023 951.623 747.791 951.623 c
727.631 951.623 707.543 951.623 687.167 951.623 c
683.855 951.623 680.039 947.879 678.527 943.415 c
661.535 896.759 658.295 867.599 660.455 830.231 c
660.743 825.695 661.391 822.311 665.783 822.311 c
s
0.000 0.000 0.000 1.000 K
0 j
0 J
0.215 w
[]0 d
706.535 865.799 m
789.191 865.799 l
793.583 865.799 797.111 862.271 797.111 857.879 c
797.111 824.471 L
698.615 824.471 L
698.615 857.879 l
698.615 862.271 702.143 865.799 706.535 865.799 c
s
0.000 0.000 0.000 1.000 K
0 j
0 J
0.215 w
[]0 d
0.000 0.000 0.000 0.498 k
706.535 865.799 m
789.191 865.799 l
793.583 865.799 797.111 862.271 797.111 857.879 c
797.111 857.879 L
698.615 857.879 L
698.615 857.879 l
698.615 862.271 702.143 865.799 706.535 865.799 c
b
u
u
0.000 0.000 0.000 1.000 K
0 j
0 J
0.215 w
[]0 d
665.063 880.991 m
829.295 880.991 L
S
U
U
u
u
0.000 0.000 0.000 1.000 K
0 j
0 J
0.215 w
[]0 d
639.647 885.671 m
854.639 885.671 L
S
U
U
u
u
0.000 0.000 0.000 1.000 K
0 j
0 J
0.215 w
[]0 d
864.287 843.119 m
862.415 845.567 858.311 846.071 854.711 846.071 C
837.647 845.135 L
837.647 832.679 L
837.647 827.495 836.279 821.591 830.663 820.655 C
743.471 820.655 L
664.559 820.655 L
658.943 821.591 657.575 827.495 657.575 832.679 C
657.575 845.135 L
640.583 846.071 L
636.479 845.567 633.311 845.135 631.007 843.119 C
S
U
U
u
u
0.000 0.000 0.000 1.000 K
0 j
0 J
0.215 w
[]0 d
643.391 845.495 m
641.447 879.983 657.072 913.175 669.527 946.295 C
672.767 953.567 681.120 957.815 690.695 957.815 C
747.791 957.815 L
804.527 957.815 L
814.031 957.815 822.455 953.567 825.623 946.295 C
838.079 913.175 853.703 879.983 851.759 845.495 C
S
U
U
0.000 0.000 0.000 1.000 K
0 j
0 J
0.215 w
[]0 d
0.000 0.000 0.000 0.498 k
631.151 902.591 m
644.687 902.591 l
647.423 902.591 649.367 900.647 649.367 897.911 c
649.367 892.583 l
649.367 889.847 647.423 887.831 644.687 887.831 c
631.151 887.831 l
628.415 887.831 626.471 889.847 626.471 892.583 c
626.471 897.911 l
626.471 900.647 628.415 902.591 631.151 902.591 c
b
0.000 0.000 0.000 1.000 K
0 j
0 J
0.215 w
[]0 d
0.000 0.000 0.000 0.498 k
849.887 902.591 m
863.423 902.591 l
866.159 902.591 868.175 900.647 868.175 897.911 c
868.175 892.583 l
868.175 889.847 866.159 887.831 863.423 887.831 c
849.887 887.831 l
847.151 887.831 845.207 889.847 845.207 892.583 c
845.207 897.911 l
845.207 900.647 847.151 902.591 849.887 902.591 c
b
0.000 0.000 0.000 1.000 k
642.599 757.367 m
660.815 757.367 l
664.127 757.367 666.863 760.103 666.863 763.487 c
666.863 799.199 L
652.319 799.199 L
646.343 799.055 639.647 804.167 636.479 814.247 C
636.479 763.487 l
636.479 760.103 639.216 757.367 642.599 757.367 c
f
0.000 0.000 0.000 1.000 k
853.847 757.367 m
835.631 757.367 l
832.319 757.367 829.583 760.103 829.583 763.487 c
829.583 799.199 L
844.127 799.199 L
850.103 799.055 856.727 804.167 859.967 814.247 C
859.967 763.487 l
859.967 760.103 857.231 757.367 853.847 757.367 c
f
0.000 0.000 0.000 1.000 k
864.791 1036.583 m
846.503 1036.583 l
843.191 1036.583 840.455 1039.319 840.455 1042.631 c
840.455 1067.543 L
858.959 1065.311 L
864.431 1068.768 870.695 1083.384 870.839 1093.391 C
870.839 1042.631 l
870.839 1039.319 868.103 1036.583 864.791 1036.583 c
f
0.000 0.000 0.000 1.000 k
647.855 1036.871 m
666.072 1036.871 l
669.455 1036.871 672.191 1039.607 672.191 1042.919 c
672.191 1067.831 L
651.815 1065.528 L
646.343 1069.055 643.031 1083.672 641.807 1093.679 C
641.807 1042.919 l
641.807 1039.607 644.543 1036.871 647.855 1036.871 c
f
0.000 0.000 0.000 1.000 K
0 j
0 J
0.215 w
[]0 d
643.247 818.567 m
647.711 810.359 654.335 807.119 660.743 807.119 C
838.367 807.479 L
845.999 807.479 854.351 810.647 858.095 818.567 C
855.863 809.999 849.455 803.663 841.535 801.503 C
657.215 801.503 L
650.231 801.503 645.120 809.135 643.247 818.567 C
s
u
u
0.000 0.000 0.000 1.000 K
0 j
0 J
0.215 w
[]0 d
654.479 885.671 m
658.295 905.759 666.215 925.847 673.055 944.351 C
676.511 952.271 683.855 954.215 692.639 954.719 C
802.799 955.151 L
812.087 954.719 818.927 951.767 821.375 944.927 C
828.791 925.343 835.055 905.759 839.447 885.671 C
S
U
U
0.000 0.000 0.000 1.000 K
0 j
0 J
0.504 w
[]0 d
711.791 836.423 m
784.151 836.423 l
786.455 836.423 788.111 838.079 788.111 840.383 c
788.111 849.023 l
788.111 851.327 786.455 852.983 784.151 852.983 c
711.791 852.983 l
709.559 852.983 707.903 851.327 707.903 849.023 c
707.903 840.383 l
707.903 838.079 709.559 836.423 711.791 836.423 c
s
0.000 0.000 0.000 1.000 K
0 j
0 J
0.504 w
[]0 d
0.000 0.000 0.000 0.200 k
662.975 1166.903 m
724.823 1167.695 787.607 1168.343 850.607 1166.975 C
845.207 1183.247 836.495 1204.127 829.295 1218.599 C
825.479 1225.007 825.263 1227.167 811.727 1228.319 C
770.975 1229.831 741.527 1229.399 699.335 1228.319 C
686.375 1226.231 684.503 1224.144 681.695 1218.887 C
675.000 1203.623 667.871 1183.247 662.975 1166.903 C
b
0.000 0.000 0.000 1.000 K
0 j
0 J
0.215 w
[]0 d
0.000 0.000 0.000 0.498 k
639.359 1112.687 m
706.175 1112.687 L
707.903 1111.391 710.567 1110.528 713.231 1110.528 C
800.063 1110.528 L
802.655 1110.528 805.391 1111.391 806.471 1112.687 C
872.207 1112.759 L
870.551 1096.199 872.567 1077.480 859.103 1065.096 C
852.911 1066.247 848.879 1066.607 843.911 1067.327 C
786.527 1067.327 729.143 1067.327 671.831 1067.327 C
665.135 1066.607 658.367 1065.887 651.671 1065.096 C
647.207 1070.711 644.687 1076.399 643.319 1084.823 c
641.807 1094.903 639.791 1102.751 639.359 1112.687 C
b
0.000 0.000 0.000 1.000 K
0 j
0 J
0.215 w
[]0 d
0.000 0.000 0.000 0.498 k
636.407 1184.327 m
656.135 1184.471 L
649.799 1165.031 L
629.855 1167.551 L
628.271 1167.551 627.263 1168.919 626.975 1170.576 C
628.631 1182.671 L
630.791 1183.751 633.743 1184.255 636.407 1184.327 C
b
0.000 0.000 0.000 1.000 K
0 j
0 J
0.215 w
[]0 d
0.000 0.000 0.000 0.498 k
875.375 1184.327 m
855.575 1184.471 L
863.351 1165.535 L
881.855 1167.551 L
883.511 1167.551 884.519 1168.919 884.807 1170.576 C
883.151 1182.671 L
880.991 1183.751 877.967 1184.255 875.375 1184.327 C
b
0.000 0.000 0.000 1.000 K
0 j
0 J
0.215 w
[]0 d
663.048 1164.096 m
725.183 1166.903 787.391 1166.903 849.599 1164.096 C
843.983 1134.647 L
842.543 1112.687 L
806.183 1112.687 L
805.967 1111.607 802.871 1110.455 800.279 1110.455 C
712.223 1110.455 L
709.199 1110.743 707.615 1111.751 705.887 1112.687 C
670.463 1112.687 L
668.951 1134.647 L
663.048 1164.096 L
s
0.000 0.000 0.000 1.000 K
0 j
0 J
0.215 w
[]0 d
0.000 0.000 0.000 0.000 k
669.024 1133.711 m
702.359 1133.711 L
708.263 1118.663 L
708.623 1116.432 707.255 1115.567 705.815 1115.567 C
670.391 1115.567 L
669.024 1133.711 L
b
0.000 0.000 0.000 1.000 K
0 j
0 J
0.215 w
[]0 d
0.000 0.000 0.000 0.000 k
844.271 1133.711 m
810.863 1133.711 L
804.959 1118.663 L
804.599 1116.432 805.967 1115.567 807.407 1115.567 C
842.903 1115.567 L
844.271 1133.711 L
b
0.000 0.000 0.000 1.000 K
0 j
0 J
0.215 w
[]0 d
0.000 0.000 0.000 0.098 k
842.831 1115.567 m
856.223 1115.567 L
853.199 1133.639 L
852.407 1133.711 L
844.127 1133.711 L
842.831 1115.567 L
b
0.000 0.000 0.000 1.000 K
0 j
0 J
0.215 w
[]0 d
0.000 0.000 0.000 0.098 k
670.463 1115.567 m
657.000 1115.567 L
658.655 1133.711 L
660.815 1133.711 L
669.096 1133.711 L
670.463 1115.567 L
b
0.000 0.000 0.000 0.498 k
710.207 1126.511 m
803.663 1126.511 L
802.223 1122.695 L
798.479 1116.000 L
797.039 1113.911 794.591 1112.903 792.791 1112.831 C
721.223 1112.831 L
718.415 1112.903 716.615 1114.559 715.535 1116.000 C
711.935 1122.695 L
710.207 1126.511 L
f
0.000 0.000 0.000 1.000 K
0 j
0 J
0.215 w
[]0 d
0.000 0.000 0.000 0.000 k
714.095 1125.359 m
800.423 1125.359 L
798.479 1120.463 L
715.967 1120.463 L
714.095 1125.359 L
b
0.000 0.000 0.000 1.000 K
0 j
0 J
0.215 w
[]0 d
0.000 0.000 0.000 0.000 k
716.615 1119.240 m
798.119 1119.240 L
795.311 1114.343 L
719.495 1114.343 L
716.615 1119.240 L
b
0.000 0.000 0.000 1.000 K
0 j
0 J
0.215 w
[]0 d
0.000 0.000 0.000 0.000 k
758.447 1128.528 m
761.831 1128.528 764.495 1130.975 764.495 1133.927 c
764.495 1136.951 761.831 1139.399 758.447 1139.399 c
755.063 1139.399 752.399 1136.951 752.399 1133.927 c
752.399 1130.975 755.063 1128.528 758.447 1128.528 c
b
0.000 0.000 0.000 1.000 k
758.519 1129.247 m
761.399 1129.247 763.703 1131.263 763.703 1133.855 c
763.703 1136.447 761.399 1138.463 758.519 1138.463 c
755.639 1138.463 753.335 1136.447 753.335 1133.855 c
753.335 1131.263 755.639 1129.247 758.519 1129.247 c
f
0.000 0.000 0.000 1.000 K
0 j
0 J
0.215 w
[]0 d
0.000 0.000 0.000 0.000 k
750.671 1135.151 m
760.607 1135.151 L
759.599 1133.927 L
766.583 1133.639 L
766.583 1132.703 L
756.287 1132.703 L
757.439 1133.927 L
750.671 1134.215 L
750.671 1135.151 L
b
u
u
0.000 0.000 0.000 1.000 K
0 j
0 J
0.504 w
[]0 d
639.791 1108.943 m
644.975 1108.223 650.159 1106.927 655.343 1106.927 c
855.359 1106.927 l
860.543 1106.927 865.799 1107.791 871.055 1108.367 C
S
U
U
0.000 0.000 0.000 1.000 K
0 j
0 J
0.215 w
[]0 d
0.000 0.000 0.000 0.200 k
702.503 1093.751 m
812.375 1093.751 L
811.439 1078.199 L
703.655 1078.199 L
702.503 1093.751 L
b
0.000 0.000 0.000 1.000 K
0 j
0 J
0.215 w
[]0 d
0.000 0.000 0.000 0.498 k
703.151 1084.679 m
811.655 1084.679 L
811.655 1087.055 L
703.151 1087.055 L
703.151 1084.679 L
b
u
u
0.000 0.000 0.000 1.000 K
0 j
0 J
0.215 w
[]0 d
668.951 1134.791 m
706.319 1134.791 L
710.495 1126.727 L
803.807 1126.655 L
807.191 1134.863 L
844.127 1134.791 L
S
U
U
u
u
0.000 0.000 0.000 1.000 K
0 j
0 J
0.215 w
[]0 d
658.007 1132.343 m
652.895 1137.455 648.719 1142.783 645.767 1147.391 C
S
U
U
u
u
0.000 0.000 0.000 1.000 K
0 j
0 J
0.215 w
[]0 d
854.783 1131.911 m
860.903 1138.103 863.279 1140.767 865.295 1146.672 C
S
U
U
u
u
0.000 0.000 0.000 1.000 K
0 j
0 J
0.215 w
[]0 d
663.120 1166.471 m
656.279 1166.183 653.111 1165.391 648.647 1161.576 C
S
U
U
u
u
0.000 0.000 0.000 1.000 K
0 j
0 J
0.215 w
[]0 d
850.679 1167.048 m
857.447 1166.759 861.551 1164.815 866.015 1161.000 C
S
U
U
u
u
0.000 0.000 0.000 1.000 K
0 j
0 J
0.215 w
[]0 d
662.759 1165.823 m
658.367 1165.823 654.335 1163.159 651.599 1160.423 C
644.759 1149.192 644.399 1137.167 642.096 1124.927 C
S
U
U
u
u
0.000 0.000 0.000 1.000 K
0 j
0 J
0.215 w
[]0 d
851.255 1167.048 m
855.647 1167.048 858.095 1163.735 860.831 1161.071 C
867.599 1149.767 867.599 1137.167 869.615 1124.711 C
S
U
U
0.000 0.000 0.000 1.000 K
0 j
0 J
0.215 w
[]0 d
0.000 0.000 0.000 0.498 k
688.031 1238.471 m
693.000 1240.343 L
693.000 1227.599 L
688.031 1225.727 L
688.031 1238.471 L
b
0.000 0.000 0.000 1.000 K
0 j
0 J
0.215 w
[]0 d
0.000 0.000 0.000 0.498 k
824.903 1238.471 m
820.079 1239.767 L
820.079 1227.743 L
824.903 1225.223 L
824.903 1238.471 L
b
u
u
0.000 0.000 0.000 1.000 K
0 j
0 J
0.215 w
[]0 d
676.655 1225.007 m
666.503 1205.423 659.879 1185.336 653.255 1164.959 C
S
U
U
u
u
0.000 0.000 0.000 1.000 K
0 j
0 J
0.215 w
[]0 d
835.199 1225.007 m
845.351 1205.423 852.983 1184.903 859.607 1164.528 C
S
U
U
u
u
0.000 0.000 0.000 1.000 K
0 j
0 J
0.504 w
[]0 d
643.391 1084.607 m
652.823 1088.495 661.247 1090.223 671.255 1089.071 C
672.551 1084.823 670.751 1076.831 675.215 1076.255 C
841.103 1076.831 L
845.135 1077.336 843.335 1084.967 844.487 1089.071 C
852.911 1088.495 860.687 1087.991 868.535 1084.607 C
S
U
U
0.000 0.000 0.000 1.000 K
0 j
0 J
0.215 w
[]0 d
0.000 0.000 0.000 0.498 k
722.663 1078.271 m
722.663 1093.751 L
720.287 1093.751 L
720.287 1078.271 L
722.663 1078.271 L
b
0.000 0.000 0.000 1.000 K
0 j
0 J
0.215 w
[]0 d
0.000 0.000 0.000 0.498 k
760.103 1078.271 m
760.103 1093.751 L
757.727 1093.751 L
757.727 1078.271 L
760.103 1078.271 L
b
0.000 0.000 0.000 1.000 K
0 j
0 J
0.215 w
[]0 d
0.000 0.000 0.000 0.498 k
741.671 1078.343 m
741.671 1093.751 L
739.295 1093.751 L
739.295 1078.343 L
741.671 1078.343 L
b
0.000 0.000 0.000 1.000 K
0 j
0 J
0.215 w
[]0 d
0.000 0.000 0.000 0.498 k
779.183 1078.343 m
779.183 1093.751 L
776.807 1093.751 L
776.807 1078.343 L
779.183 1078.343 L
b
0.000 0.000 0.000 1.000 K
0 j
0 J
0.215 w
[]0 d
0.000 0.000 0.000 0.498 k
794.591 1078.343 m
794.591 1093.751 L
792.215 1093.751 L
792.215 1078.343 L
794.591 1078.343 L
b
0.000 0.000 0.000 1.000 K
0 j
0 J
0.504 w
[]0 d
0.000 0.000 0.000 0.000 k
720.215 1088.855 m
792.575 1088.855 l
794.807 1088.855 796.535 1090.511 796.535 1092.816 c
796.535 1101.455 l
796.535 1103.759 794.807 1105.415 792.575 1105.415 c
720.215 1105.415 l
717.911 1105.415 716.255 1103.759 716.255 1101.455 c
716.255 1092.816 l
716.255 1090.511 717.911 1088.855 720.215 1088.855 c
b
0.000 0.000 0.000 1.000 K
0 j
0 J
0.215 w
[]0 d
47.879 847.295 m
51.695 847.295 54.863 850.463 54.863 854.351 c
54.863 858.167 51.695 861.335 47.879 861.335 c
43.991 861.335 40.823 858.167 40.823 854.351 c
40.823 850.463 43.991 847.295 47.879 847.295 c
s
0.000 0.000 0.000 1.000 k
47.735 848.447 m
47.375 851.543 49.823 852.695 51.767 850.103 C
52.847 851.111 53.567 852.623 53.567 854.207 C
50.543 854.207 50.183 856.439 51.767 858.239 C
50.831 859.391 49.319 860.039 47.735 860.039 C
48.527 857.879 46.223 855.791 43.703 858.239 C
42.767 857.231 41.975 855.791 41.975 854.207 C
44.711 854.999 47.087 852.335 43.703 850.103 C
44.711 849.167 46.223 848.447 47.735 848.447 C
f
0.000 0.000 0.000 0.000 k
273.887 735.767 m
277.055 740.519 L
277.127 740.519 L
277.127 735.767 L
273.887 735.767 L
f
0.000 0.000 0.000 0.000 k
260.279 735.767 m
263.447 740.519 L
263.519 740.519 L
263.519 735.767 L
260.279 735.767 L
f
%%Trailer
_E end