%!PS-Adobe-2.0 EPSF-1.2
%%Creator: Adobe Illustrator exported from Corel Draw 3.0
%%Title:6
%%BoundingBox:-5 295 1888 1632
%%CreationDate:(Unknown)
%%ColorUsage:
%%TemplateBox:-5 295 1888 1632
%%EndComments
%%BeginProcSet:Adobe_Illustrator_1.1 0 0
% Version 1.0 3/27/1990 $nokeywords$
% Copyright (C) 1990,1991,1992
% Corel Corporation
% All Rights Reserved

/wPmsDict 150 dict def 
wPmsDict begin 

/$debug 25 string def 

/bd {bind def} bind def 
/ld {load def} bd 
/xd {exch def} bd 
/_ null def 

/$c 0 def 
/$m 0 def 
/$y 0 def 
/$k 0 def 
/$t 1 def 
/$n _ def 
/$o 0 def 
/$pf false def 

/$C 0 def 
/$M 0 def 
/$Y 0 def 
/$K 0 def 
/$T 1 def 
/$N _ def 
/$O 0 def 
/$PF false def 

/$h false def 

/$al 0 def 
/$tr 0 def 
/$le 0 def 
/$lx 0 def 
/$ly 0 def 

/$ctm matrix currentmatrix def 
/$ptm matrix def 

/$pn () def 
/$pm matrix def 
/$px 0 def 
/$py 0 def 
/$pxf 0 def 
/$pyf 0 def 
/$psx 10 def 
/$psy 0 def 

/$llx 0 def 
/$lly 0 def 
/$urx 0 def 
/$ury 0 def 


/$Bbllx 0 def 
/$Bblly 0 def 
/$Bburx 0 def 
/$Bbury 0 def 

/$tllx 0 def 
/$tlly 0 def 
/$turx 0 def 
/$tury 0 def 

/$pd [] def 
/$tx 0 def 
/$ty 0 def 

/$sv 0 def 
/@cp /closepath ld 
/@gs /gsave ld 
/@gr /grestore ld 
/@np /newpath ld 
/@sv {/$sv save def}bd 
/@rs {$sv restore}bd 

/@MN { 
2 copy le{pop}{exch pop}ifelse 
}bd 

/setcmykcolor where {pop} 
{ 
/setcmykcolor 
{ 
4 1 roll 
3 {3 index add 1 @MN 1 exch sub 3 1 roll} repeat 
setrgbcolor 
pop 
}bd 
}ifelse 

/@tc 
{ 
dup 1 ge 
{pop} 
{ 
4 { 
dup 
6 -1 roll 
mul 
exch 
}repeat 
pop 
}ifelse 
}bd 

/@scc 
{ 
$c $m $y $k $t @tc 
setcmykcolor 
true 
}bd 
/@SCC 
{ 
$C $M $Y $K $T @tc 
setcmykcolor 
true 
}bd 

/@sft 
{ 
(setfirsttile sft )print 
/$tx $tllx $pxf add dup $tllx gt {$pwid $psx add sub}if def 
/$ty $tury $pyf sub dup $tury lt {$phei $psy add add}if def 
(setfirsttile exit )print 
}bd 

/@stb 
{ 
pathbbox /$ury xd /$urx xd /$lly xd /$llx xd 
}bd 

/@ep 
{ 
{ 
cvx exec 
}forall 
}bd 

/@tp 
{ 

(tile pattern tp )print 
@sv 
/$in true def 
2 copy 
dup $lly le {/$in false def}if 
$phei sub $ury ge {/$in false def}if 
dup $urx ge {/$in false def}if 
$pwid add $llx le {/$in false def}if 
$in 
{ 
@np 
2 copy moveto 
$pwid 0 rlineto 
0 $phei neg rlineto 
$pwid neg 0 rlineto 
0 $phei rlineto 
clip @np 

$pn cvlit load aload pop 
7 -1 roll 
5 index sub 
7 -1 roll 
3 index sub 
translate 
@ep 
pop pop pop pop 
} 
{pop pop}ifelse 
@rs 
(tile pattern exit )print 
}bd 

/@th 
{ 
(tile horizontal th)print 
@sft 
0 1 $tly 1 sub 
{ 
dup $psx mul $tx add 
{ 
dup $llx gt {$pwid sub}{exit}ifelse 
}loop 
exch $phei mul $ty exch sub 

0 1 $tlx 1 sub 
{ 
$pwid mul 
3 copy 
3 -1 roll add exch 
@tp 
pop 
}for 
pop pop 
} for 
(tile horizontal exiting )print 
}bd 

/@tv 
{ 
(tile vertical tv)print 
@sft 
0 1 $tlx 1 sub 
{ 
dup $pwid mul $tx add 
exch $psy mul $ty exch sub 
{ 
dup $ury lt {$phei add}{exit}ifelse 
}loop 

0 1 $tly 1 sub 
{ 
$phei mul 
3 copy sub 
@tp 
pop 
}for 
pop pop 
} for 
(tile vertical exit )print 
}bd 

/@pf 
{ 
(pattern fill pf)print 
@gs 
$pm concat 
@stb 
@gs 1 setgray eofill @gr 
eoclip 
$Bburx $Bbury $pm itransform /$tury xd /$turx xd 
$Bbllx $Bblly $pm itransform /$tlly xd /$tllx xd 
/$wid $turx $tllx sub def 
/$hei $tury $tlly sub def 
$wid 0 gt $hei 0 gt and 
{ 
$pn cvlit load aload pop 
$pd xd 
3 -1 roll sub /$phei xd 
exch sub /$pwid xd 
/$tlx $wid $pwid div ceiling 1 add def 
/$tly $hei $phei div ceiling 1 add def 
$psx 0 eq 
{ 
@tv 
} 
{ 
@th 
}ifelse 
}if 

@gr 
@np 
(pattern fill exit)print 
}bd 

/@xp 
{ 
{ 
dup (text Character is:) print == 
usertime (time before is:)print == 
(0) dup 3 -1 roll 0 exch put 
@gs 
true charpath currentpoint 
$ctm setmatrix 
@pf 
@gr 
@np 
moveto $tr 0 rmoveto 
usertime (time after is:)print == 
}forall 
pop 
}bd 

/@sm 
{ 
/$ctm $ctm currentmatrix def 
}bd 

%--@lorg  move to line origin   length string @torg length string
/@lorg    % moves currentpoint to line origin according to current alignment
  {      
  $lx $ly moveto    
  /$ly $ly $le sub def      % - prepare for next line(tracking)
  $al 0 ne
    {dup      % ->len str len str
    stringwidth   % ->len str len dx dy
    exch 3 index  % ->len str dy len dx
    1 sub         % ->len str dy len dx (len-1)
    $tr mul add   % ->len str dy len dx+(len-1)*$tr
    neg
    exch neg      % ->len str -dx_total dy len
    $al 1 eq      % check for centered alignment
    {2 div exch 2 div exch} if  
    rmoveto} if
  }bd

/@ft 
{ 
$pf 
{@xp} 
{ 
@scc 
{$tr exch 0 exch ashow pop} 
{pop pop}ifelse 
}ifelse 
}bd 

/@st 
{ 
$PF 
{} 
{ 
@SCC 
{ 
{ 
(0) dup 3 -1 roll 0 exch put 
@gs 
true charpath currentpoint 
$ctm setmatrix $ptm concat 
stroke 
@gr 
moveto $tr 0 rmoveto 
}forall 
pop 
} 
{pop pop}ifelse 
}ifelse 
}bd 
/@pt 
{ 
dup length exch 
}bd 
/@te 
{ 
@pt 
@lorg 
@ft 
}bd 

/@tr 
{ 
@pt 
@lorg 
@st 
}bd 
/@ta 
{ 
@pt 
@lorg 
2 copy 
@gs @ft @gr 
/$lx 0 def 
/$ly 0 def 
@st 
}bd 















/g { 
1 exch sub /$k xd 
/$c 0 def /$m 0 def /$y 0 def /$t 1 def /$n _ def /$pf false def 
}bd 

/G { 
1 exch sub /$K xd 
/$C 0 def /$M 0 def /$Y 0 def /$T 1 def /$N _ def /$PF false def 
}bd 

/k { 
/$k xd /$y xd /$m xd /$c xd 
/$t 1 def /$n _ def /$pf false def 
}bd 

/K { 
/$K xd /$Y xd /$M xd /$C xd 
/$T 1 def /$N _ def /$PF false def 
}bd 

/x { 
/$t xd /$n xd 
/$k xd /$y xd /$m xd /$c xd /$pf false def 
}bd 

/X { 
/$T xd /$N xd 
/$K xd /$Y xd /$M xd /$C xd /$PF false def 
}bd 

/d /setdash ld 

/i { 
dup 0 ne {setflat} {pop} ifelse 
}bd 

/j /setlinejoin ld 

/J /setlinecap ld 

/M /setmiterlimit ld 

/w /setlinewidth ld 

/O { 
/$o xd 
}bd 

/R { 
/$O xd 
}bd 


/c /curveto ld 

/C /c ld 

/v { 
currentpoint
6 2 roll 
curveto 
}bd

/V /v ld 

/y { 
2 copy curveto 
}bd 

/Y /y ld 

/l /lineto ld 

/L /l ld 

/m /moveto ld 



/n /newpath ld 

/N /newpath ld 

/F { 
$pf 
{@pf} 
{ 
@scc 
{eofill}if 
}ifelse 
}bd 

/f { 
@cp F 
}bd 
/S { 
$PF 
{} 
{ 
@SCC 
{ 
@sm 
$ptm concat 
stroke 
$ctm setmatrix 
}if 
}ifelse 
}bd 
/s { 
@cp 
S 
}bd 

/B { 
@gs F @gr 
S 
}bd 
/b { 
@cp 
B 
}bd 

/W { 
oeclip 
@np 
}bd 

/p { 
/$pm xd 
7 {pop} repeat 
/$pyf xd /$pxf xd 
/$pn xd 
/$pf true def 
}bd 

/P { 
11 {pop} repeat 
}bd 

/@p { 
/$pm xd 
/$psy xd 
/$psx xd 
/$pyf xd /$pxf xd 
/$pn xd 
/$pf true def 
}bd 

/@b { 
/$Bbury xd /$Bburx xd 
/$Bblly xd /$Bbllx xd 
}bd 


/z { 
/$al xd 
/$tr xd 
/$le xd 
exch findfont exch scalefont setfont 
}bd 

/Z { 
dup type 0 type eq { /$bDir xd } if
findfont 
dup maxlength 1 add dict exch 



dup 
{1 index /FID ne 
{ 
3 index 
3 1 roll put 
} 
{pop pop}ifelse 
} forall 



pop 
dup dup /Encoding get 
256 array copy 
dup /$fe xd
/Encoding exch put 

dup /Fontname 3 index put 

}bd 

/e { 
@sm 
concat 
[ 
/t {@te}def 
}bd 

/r { 
@sm 
concat 
[ 
/t {@tr}def 
}bd 

/o { 
@sm 
concat 
[ 
/t {pop}def 
}bd 

/a { 
@sm 
concat 
[ 
/t {@ta}def 
}bd 

/@o{
@sm 
concat 
[ 
/t {@t@a}def 
}bd 

/I { 
@sm 
concat 
[ 
/t {pop}def 
}bd 

/t {@te}def 

/T { 
cleartomark 
/$lx 0 def 
/$ly 0 def 
$ctm setmatrix 
}bd 


/u {}bd 

/U {}bd 

/A {pop}bd 

/h { 
$h true def 
}bd 

/h { 
$h true def 
}bd 

/q /@gs ld 

/Q /@gr ld 



/E { 
5 array astore 
exch cvlit exch def 
}bd 

/` {}bd 

/~ {}bd 

/@ {}bd 

/& {}bd 

/CorelDrawRencodeVect [ 
16#80/grave 
16#81/circumflex 
16#82/tilde 
16#83/dotlessi 
16#84/florin 
16#85/quotedblleft 
16#86/quotedblright 
16#87/guilsinglleft 
16#88/guilsinglright 
16#89/fi 
16#8a/fl 
16#8b/dagger 
16#8c/daggerdbl 
16#8d/endash 
16#8e/periodcentered 
16#8f/breve 
16#90/quotedblbase 
16#91/ellipsis 
16#92/perthousand 
16#a1/exclamdown 
16#a2/cent 
16#a3/sterling 
16#a4/currency 
16#a5/yen 
16#a6/bar 
16#a7/section 
16#a8/dieresis 
16#a9/copyright 
16#aa/ordfeminine 
16#ab/guillemotleft 
16#ac/logicalnot 
16#ad/emdash 
16#ae/registered 
16#af/spac 
16#b0/ring 
16#b1/spac 
16#b2/spac 
16#b3/spac 
16#b4/acute 
16#b5/spac 
16#b6/paragraph 
16#b7/bullet 
16#b8/cedilla 
16#b9/spac 
16#ba/ordmasculine 
16#bb/guillemotright 
16#bc/spac 
16#bd/spac 
16#be/spac 
16#bf/questiondown 
16#c0/Agrave 
16#c1/Aacute 
16#c2/Acircumflex 
16#c3/Atilde 
16#c4/Adieresis 
16#c5/Aring 
16#c6/AE 
16#c7/Ccedilla 
16#c8/Egrave 
16#c9/Eacute 
16#ca/Ecircumflex 
16#cb/Edieresis 
16#cc/Igrave 
16#cd/Iacute 
16#ce/Icircumflex 
16#cf/Idieresis 
16#d0/spac 
16#d1/Ntilde 
16#d2/Ograve 
16#d3/Oacute 
16#d4/Ocircumflex 
16#d5/Otilde 
16#d6/Odieresis 
16#d7/OE 
16#d8/Oslash 
16#d9/Ugrave 
16#da/Uacute 
16#db/Ucircumflex 
16#dc/Udieresis 
16#dd/space 
16#de/spac 
16#df/germandbls 
16#e0/agrave 
16#e1/aacute 
16#e2/acircumflex 
16#e3/atilde 
16#e4/adieresis 
16#e5/aring 
16#e6/ae 
16#e7/ccedilla 
16#e8/egrave 
16#e9/eacute 
16#ea/ecircumflex 
16#eb/edieresis 
16#ec/igrave 
16#ed/iacute 
16#ee/icircumflex 
16#ef/idieresis 
16#f0/space 
16#f1/ntilde 
16#f2/ograve 
16#f3/oacute 
16#f4/ocircumflex 
16#f5/otilde 
16#f6/odieresis 
16#f7/oe 
16#f8/oslash 
16#f9/ugrave 
16#fa/uacute 
16#fb/ucircumflex 
16#fc/udieresis 
16#fd/spac 
16#fe/spac 
16#ff/ydieresis 
] def
%%EndProlog
%%BeginSetup
%%BeginEncoding:_Times-Bold Times-Bold
[
]/_Times-Bold/Times-Bold Z
%%EndEncoding
%%EndSetup
0.000 0.000 0.000 1.000 K
0 j
2 J
0.215 w
[]0 d
0.000 0.000 0.000 0.400 k
1856.087 1239.336 m
1827.719 1239.336 L
1824.191 1237.607 1821.095 1233.503 1818.719 1228.823 C
1806.263 1159.487 L
1831.247 1159.487 L
1841.183 1165.319 1843.919 1196.207 1849.391 1208.303 C
1852.703 1220.831 1859.975 1217.879 1861.343 1229.183 C
1861.343 1233.288 1859.975 1235.879 1858.175 1238.975 C
1857.599 1238.975 1857.023 1238.975 1856.087 1239.336 C
b
0.000 0.000 0.000 1.000 K
0 j
2 J
0.215 w
[]0 d
0.000 0.000 0.000 0.498 k
1349.135 1239.336 m
1377.431 1239.336 L
1380.959 1237.607 1384.055 1233.503 1386.431 1228.823 C
1398.959 1159.487 L
1373.903 1159.487 L
1363.967 1165.319 1361.231 1196.207 1355.759 1208.303 C
1352.447 1220.831 1345.247 1217.879 1343.879 1229.183 C
1343.879 1233.288 1345.247 1235.879 1346.975 1238.975 C
1347.551 1238.975 1348.127 1238.975 1349.135 1239.336 C
b
0.000 0.000 0.000 1.000 K
0 j
2 J
0.215 w
[]0 d
0.000 0.000 0.000 1.000 k
1356.839 365.183 m
1396.439 365.183 l
1401.119 365.183 1405.079 371.807 1405.079 375.479 c
1405.655 481.967 L
1352.519 481.967 L
1347.048 490.751 L
1348.199 373.751 l
1348.199 369.863 1352.087 365.183 1356.839 365.183 c
b
0.000 0.000 0.000 1.000 K
0 j
2 J
0.215 w
[]0 d
0.000 0.000 0.000 1.000 k
1846.655 366.695 m
1805.255 366.695 l
1800.359 366.695 1796.615 371.231 1796.615 375.335 c
1796.039 481.391 L
1849.967 481.535 L
1855.007 490.751 L
1855.223 375.335 l
1855.223 371.231 1851.551 366.695 1846.655 366.695 c
b
0.000 0.000 0.000 1.000 K
0 j
2 J
0.215 w
[]0 d
0.000 0.000 0.000 0.000 k
1766.591 910.079 m
1778.759 904.175 1778.759 889.343 1789.847 884.087 C
1791.071 884.087 1792.223 884.087 1793.375 883.295 C
1841.255 760.463 L
1854.719 713.375 L
1856.303 700.271 1859.183 685.871 1859.183 670.823 C
1862.711 653.831 1861.559 618.479 1862.495 604.223 C
1858.031 597.959 L
1864.295 592.487 L
1864.295 533.735 L
1865.087 513.000 1858.823 498.743 1849.823 481.391 C
1352.375 481.967 L
1341.431 497.951 1338.335 511.631 1336.175 534.671 C
1336.175 592.487 L
1340.639 600.695 L
1336.391 605.735 L
1336.391 626.255 1334.807 628.631 1337.111 653.255 C
1339.703 667.871 1342.007 682.343 1344.383 695.807 C
1345.751 702.863 1346.687 709.055 1347.335 715.319 C
1359.215 764.927 L
1405.295 882.143 L
1417.247 888.191 L
1433.231 912.383 L
1506.671 928.583 1685.735 928.583 1766.591 910.079 C
b
0.000 0.000 0.000 1.000 K
0 j
0 J
0.215 w
[]0 d
0.000 0.000 0.000 0.498 k
1336.751 533.663 m
1380.096 533.663 L
1396.295 514.727 L
1396.295 481.895 L
1352.159 482.111 L
1341.215 499.679 1336.751 516.240 1336.751 533.663 C
b
0.000 0.000 0.000 1.000 K
0 j
0 J
0.215 w
[]0 d
0.000 0.000 0.000 0.498 k
1865.159 533.663 m
1821.815 533.663 L
1805.615 514.727 L
1805.615 481.319 L
1849.751 481.319 L
1860.695 498.887 1865.159 516.240 1865.159 533.663 C
b
0.000 0.000 0.000 1.000 K
0 j
0 J
0.215 w
[]0 d
0.000 0.000 0.000 0.200 k
1352.087 594.863 m
1376.423 594.863 l
1379.231 594.863 1381.391 596.951 1381.391 599.687 c
1381.391 608.903 l
1381.391 611.639 1379.231 613.799 1376.423 613.799 c
1352.087 613.799 l
1349.351 613.799 1347.192 611.639 1347.192 608.903 c
1347.192 599.687 l
1347.192 596.951 1349.351 594.863 1352.087 594.863 c
b
0.000 0.000 0.000 1.000 K
0 j
0 J
0.215 w
[]0 d
0.000 0.000 0.000 0.200 k
1849.175 595.727 m
1824.839 595.727 l
1822.031 595.727 1819.871 597.887 1819.871 600.623 c
1819.871 609.983 l
1819.871 612.791 1822.031 614.951 1824.839 614.951 c
1849.175 614.951 l
1851.911 614.951 1854.071 612.791 1854.071 609.983 c
1854.071 600.623 l
1854.071 597.887 1851.911 595.727 1849.175 595.727 c
b
0.000 0.000 0.000 1.000 K
0 j
0 J
0.215 w
[]0 d
0.000 0.000 0.000 0.098 k
1352.087 575.351 m
1376.423 575.351 l
1379.231 575.351 1381.391 577.439 1381.391 580.175 c
1381.391 589.391 l
1381.391 592.127 1379.231 594.288 1376.423 594.288 c
1352.087 594.288 l
1349.351 594.288 1347.192 592.127 1347.192 589.391 c
1347.192 580.175 l
1347.192 577.439 1349.351 575.351 1352.087 575.351 c
b
0.000 0.000 0.000 1.000 K
0 j
0 J
0.215 w
[]0 d
0.000 0.000 0.000 0.098 k
1849.175 575.783 m
1824.839 575.783 l
1822.031 575.783 1819.871 577.871 1819.871 580.679 c
1819.871 590.039 l
1819.871 592.775 1822.031 594.935 1824.839 594.935 c
1849.175 594.935 l
1851.911 594.935 1854.071 592.775 1854.071 590.039 c
1854.071 580.679 l
1854.071 577.871 1851.911 575.783 1849.175 575.783 c
b
0.000 0.000 0.000 1.000 K
0 j
0 J
0.215 w
[]0 d
0.000 0.000 0.000 0.298 k
1352.087 555.551 m
1376.423 555.551 l
1379.231 555.551 1381.391 557.711 1381.391 560.447 c
1381.391 569.663 l
1381.391 572.399 1379.231 574.487 1376.423 574.487 c
1352.087 574.487 l
1349.351 574.487 1347.192 572.399 1347.192 569.663 c
1347.192 560.447 l
1347.192 557.711 1349.351 555.551 1352.087 555.551 c
b
0.000 0.000 0.000 1.000 K
0 j
0 J
0.215 w
[]0 d
0.000 0.000 0.000 0.298 k
1849.175 555.767 m
1824.839 555.767 l
1822.031 555.767 1819.871 557.927 1819.871 560.735 c
1819.871 570.096 l
1819.871 572.831 1822.031 574.991 1824.839 574.991 c
1849.175 574.991 l
1851.911 574.991 1854.071 572.831 1854.071 570.096 c
1854.071 560.735 l
1854.071 557.927 1851.911 555.767 1849.175 555.767 c
b
0.000 0.000 0.000 1.000 K
0 j
0 J
0.215 w
[]0 d
0.000 0.000 0.000 0.298 k
1352.087 535.823 m
1376.423 535.823 l
1379.231 535.823 1381.391 537.911 1381.391 540.647 c
1381.391 549.935 l
1381.391 552.671 1379.231 554.759 1376.423 554.759 c
1352.087 554.759 l
1349.351 554.759 1347.192 552.671 1347.192 549.935 c
1347.192 540.647 l
1347.192 537.911 1349.351 535.823 1352.087 535.823 c
b
0.000 0.000 0.000 1.000 K
0 j
0 J
0.215 w
[]0 d
0.000 0.000 0.000 0.298 k
1849.175 535.823 m
1824.839 535.823 l
1822.031 535.823 1819.871 537.983 1819.871 540.719 c
1819.871 550.079 l
1819.871 552.887 1822.031 555.048 1824.839 555.048 c
1849.175 555.048 l
1851.911 555.048 1854.071 552.887 1854.071 550.079 c
1854.071 540.719 l
1854.071 537.983 1851.911 535.823 1849.175 535.823 c
b
0.000 0.000 0.000 1.000 K
0 j
2 J
0.215 w
[]0 d
0.000 0.000 0.000 0.000 k
285.120 573.479 m
333.863 568.727 349.199 506.087 348.911 466.415 C
798.191 466.415 L
805.895 521.639 822.527 553.031 880.487 569.879 C
961.847 581.903 991.439 532.223 1007.927 472.895 C
1192.103 473.471 L
1194.983 474.479 1195.919 477.503 1198.727 480.239 C
1215.647 480.743 L
1216.367 480.743 1224.000 482.543 1225.079 487.367 C
1227.096 498.743 1229.615 535.103 1222.271 544.535 C
1218.887 547.775 1213.847 549.072 1207.151 547.775 C
1203.192 553.319 1203.983 554.975 1203.623 572.327 C
1205.351 588.168 1202.039 605.303 1198.367 617.327 C
1197.719 632.375 1192.103 643.175 1183.535 651.527 C
1122.048 735.767 1034.207 838.367 942.623 890.279 C
768.599 946.799 323.135 943.127 120.167 921.095 C
67.176 853.703 36.863 763.199 6.767 673.991 C
10.295 615.240 L
13.247 613.079 13.247 611.567 10.511 609.479 C
4.967 596.231 4.967 580.391 7.703 566.279 C
7.703 557.279 15.695 542.807 16.991 535.463 C
5.327 537.192 2.591 533.951 -3.311 529.487 C
-2.159 521.783 8.711 493.271 5.183 493.271 C
119.447 480.455 L
121.679 521.279 126.071 573.479 185.759 573.479 c
285.120 573.479 L
b
0.000 0.000 0.000 1.000 K
0 j
2 J
0.215 w
[]0 d
0.000 0.000 0.000 0.000 k
936.143 1269.863 m
887.399 1265.111 872.063 1202.471 872.351 1162.799 C
423.071 1162.799 L
415.367 1218.023 398.735 1249.415 340.775 1266.263 C
259.415 1278.288 229.823 1228.607 213.335 1169.279 C
29.159 1169.855 L
26.279 1170.863 25.343 1173.887 22.535 1176.624 C
5.615 1177.127 L
4.895 1177.127 -2.735 1178.927 -3.815 1183.751 C
-5.831 1195.127 -8.351 1231.487 -1.008 1240.919 C
2.303 1244.159 7.415 1245.455 14.111 1244.159 C
18.071 1249.703 17.279 1251.359 17.639 1268.711 C
15.911 1284.551 19.151 1301.687 22.895 1313.711 C
23.543 1328.759 29.159 1339.559 37.727 1347.911 C
99.215 1432.151 187.055 1534.751 278.639 1586.663 C
452.663 1643.183 898.127 1639.511 1101.096 1617.479 C
1154.087 1550.087 1184.399 1459.583 1214.495 1370.375 C
1210.967 1311.623 L
1208.015 1309.463 1208.015 1307.951 1210.751 1305.863 C
1216.295 1292.615 1216.295 1276.775 1213.559 1262.663 C
1213.559 1253.663 1205.567 1239.192 1204.271 1231.847 C
1215.935 1233.575 1218.671 1230.263 1224.575 1225.871 C
1223.423 1218.167 1212.551 1189.583 1216.079 1189.583 C
1101.815 1176.839 L
1099.583 1217.663 1095.192 1269.863 1035.503 1269.863 c
936.143 1269.863 L
b
0.000 0.000 0.000 1.000 K
0 j
0 J
0.215 w
[]0 d
0.000 0.000 0.000 0.498 k
1410.119 1159.703 m
1794.887 1159.703 L
1794.887 1128.023 L
1706.759 1128.023 L
1687.607 1130.111 1673.207 1137.743 1664.783 1144.439 C
1554.983 1144.439 L
1538.999 1137.743 1524.743 1131.983 1501.919 1128.023 C
1410.119 1128.023 L
1410.119 1159.703 L
b
u
u
U
u
0.000 0.000 0.000 1.000 K
0 j
0 J
0.215 w
[]0 d
-2.807 322.271 m
559.151 322.271 L
S
U
U
u
u
U
u
0.000 0.000 0.000 1.000 K
0 j
0 J
0.215 w
[]0 d
728.855 319.895 m
1226.735 319.895 L
S
U
U
0.000 0.000 0.000 1.000 k
699.479 322.271 m
701.207 326.447 707.759 325.512 708.407 322.055 C
710.135 326.231 717.695 326.447 717.695 319.895 c
717.695 309.887 L
715.967 309.887 L
715.967 320.975 l
715.967 324.431 708.839 324.431 708.839 318.167 c
708.839 309.887 L
706.895 309.887 L
706.895 320.975 l
706.895 324.431 699.479 324.431 699.479 318.167 c
699.479 309.887 L
697.751 309.887 L
697.751 324.647 L
699.479 324.647 L
699.479 322.271 L
f
0.000 0.000 0.000 1.000 k
675.863 322.271 m
677.591 326.447 684.072 325.512 684.719 322.055 C
686.447 326.231 694.079 326.447 694.079 319.895 c
694.079 309.887 L
692.351 309.887 L
692.351 320.975 l
692.351 324.431 685.151 324.431 685.151 318.167 c
685.151 309.887 L
683.207 309.887 L
683.207 320.975 l
683.207 324.431 675.863 324.431 675.863 318.167 c
675.863 309.887 L
674.135 309.887 L
674.135 324.647 L
675.863 324.647 L
675.863 322.271 L
f
0.000 0.000 0.000 1.000 k
645.263 321.623 m
648.719 324.215 656.063 322.919 656.063 316.223 c
655.847 307.079 642.887 307.727 642.455 314.927 C
644.399 314.927 L
645.479 309.239 654.120 310.319 654.120 316.007 c
654.120 320.543 648.287 323.351 644.831 318.815 C
643.103 319.031 L
644.831 329.903 L
654.983 329.903 L
654.983 328.175 L
646.343 328.175 L
645.263 321.623 L
f
0.000 0.000 0.000 1.000 k
628.775 319.247 m
632.015 324.000 638.063 323.135 639.791 319.247 c
642.671 312.767 636.983 307.295 630.935 310.103 c
627.048 311.903 626.831 317.951 627.048 320.975 c
628.343 333.791 640.223 330.983 640.223 324.863 C
638.279 324.863 L
638.279 326.663 636.120 328.391 634.823 328.391 c
630.287 328.607 629.207 324.000 628.775 319.247 C
f
0.000 0.000 0.000 1.000 k
621.144 320.543 m
625.031 319.463 625.463 314.711 624.168 312.551 c
621.359 308.159 611.639 307.512 610.991 315.791 C
612.935 315.791 L
612.935 308.807 624.383 309.887 622.655 316.871 c
622.007 319.463 618.551 319.463 616.391 319.463 C
616.391 320.975 L
619.415 321.407 622.439 321.623 622.223 325.079 c
621.791 329.471 613.367 329.687 613.799 324.000 C
611.855 324.000 L
611.423 330.335 620.063 331.847 623.303 327.959 c
624.383 326.231 624.599 321.839 621.144 320.543 C
f
0.000 0.000 0.000 1.000 k
604.439 314.711 m
595.295 314.711 L
595.295 316.655 L
604.655 329.903 L
606.599 329.903 L
606.599 316.655 L
609.407 316.655 L
609.407 314.711 L
606.599 314.711 L
606.599 309.887 L
604.439 309.887 L
604.439 314.711 L
f
0.000 0.000 0.000 1.000 K
0 j
2 J
0.215 w
[]0 d
0.000 0.000 0.000 0.498 k
1201.967 545.615 m
1180.511 546.192 L
1181.519 473.903 L
1191.815 473.903 L
1197.576 481.031 L
1217.303 481.895 l
1231.991 482.543 1229.759 542.519 1217.303 547.415 C
1206.719 547.127 L
1202.975 557.567 1205.927 528.336 1201.967 545.615 C
b
0.000 0.000 0.000 1.000 K
0 j
2 J
0.215 w
[]0 d
0.000 0.000 0.000 0.498 k
19.295 1241.927 m
40.751 1242.575 L
39.743 1170.288 L
29.447 1170.288 L
23.687 1177.415 L
3.959 1178.279 l
-10.727 1178.927 -8.495 1238.903 3.959 1243.799 C
14.543 1243.511 L
18.288 1253.951 15.335 1224.719 19.295 1241.927 C
b
0.000 0.000 0.000 1.000 K
0 j
2 J
0.215 w
[]0 d
0.000 0.000 0.000 0.000 k
1771.199 1606.463 m
1783.295 1600.559 1783.295 1585.727 1794.455 1580.471 C
1795.607 1580.471 1796.759 1580.471 1797.911 1579.679 C
1845.791 1456.847 L
1859.255 1409.759 L
1860.839 1396.655 1863.719 1382.255 1863.719 1367.207 C
1867.247 1350.215 1866.095 1314.863 1867.103 1300.607 C
1863.935 1298.807 L
1343.087 1299.240 L
1340.927 1302.119 L
1340.927 1322.639 1339.343 1325.015 1341.719 1349.639 C
1344.240 1364.255 1346.615 1378.727 1348.919 1392.192 C
1350.288 1399.247 1351.295 1405.439 1351.871 1411.703 C
1363.751 1461.311 L
1409.831 1578.527 L
1421.783 1584.575 L
1437.767 1608.767 L
1511.207 1624.967 1690.343 1624.967 1771.199 1606.463 C
b
0.000 0.000 0.000 1.000 K
0 j
2 J
0.215 w
[]0 d
1366.559 1392.048 m
1421.639 1392.048 1476.719 1391.471 1531.799 1391.471 C
1627.343 1376.423 L
1629.503 1380.527 L
1634.759 1391.255 L
1729.655 1391.039 L
1797.263 1377.000 L
1805.831 1390.679 L
1842.551 1390.679 L
1848.815 1394.567 1863.431 1312.919 1851.551 1299.455 C
1355.471 1299.455 L
1343.375 1307.447 1354.103 1389.455 1366.559 1392.048 C
s
u
u
0.000 0.000 0.000 1.000 K
0 j
0 J
0.215 w
[]0 d
1821.311 1390.391 m
1828.007 1369.151 1833.047 1321.631 1832.471 1299.167 C
S
U
U
u
u
0.000 0.000 0.000 1.000 K
0 j
0 J
0.215 w
[]0 d
1383.623 1392.119 m
1377.000 1372.391 1372.319 1323.215 1373.831 1299.167 C
S
U
U
0.000 0.000 0.000 1.000 K
0 j
2 J
0.215 w
[]0 d
0.000 0.000 0.000 0.498 k
1396.655 515.663 m
1806.335 515.447 L
1804.535 481.607 L
1396.655 482.183 L
1396.655 515.663 L
b
0.000 0.000 0.000 1.000 K
0 j
0 J
0.215 w
[]0 d
0.000 0.000 0.000 0.498 k
1406.159 481.967 m
1796.327 481.607 L
1796.327 443.519 L
1785.959 443.519 1775.087 440.783 1765.511 443.519 c
1756.583 446.039 1751.615 457.127 1742.399 458.495 c
1719.719 462.023 1695.815 471.239 1673.279 467.495 c
1658.735 465.191 1653.335 445.463 1641.455 441.359 c
1622.735 434.735 1600.631 439.199 1581.263 443.519 c
1565.855 446.831 1554.407 461.879 1538.999 464.399 c
1514.231 468.719 1487.591 460.295 1462.823 455.399 c
1453.679 453.671 1452.383 442.295 1443.023 442.295 c
1405.727 442.295 L
1406.159 481.967 L
b
u
u
0.000 0.000 0.000 0.498 k
1198.007 615.383 m
1160.927 618.335 L
1152.935 622.439 L
1104.839 683.207 L
1039.607 759.959 L
1066.391 718.343 L
1073.807 707.615 1060.343 704.303 1051.919 705.024 C
789.839 715.391 L
767.015 882.791 L
874.007 877.535 L
893.735 875.159 911.087 866.951 924.191 856.799 C
1018.943 769.679 L
1020.671 771.047 1021.247 774.791 1023.839 777.311 C
927.143 868.751 L
914.471 876.311 899.207 884.375 886.535 885.671 C
745.343 892.511 L
757.007 618.911 L
760.175 469.511 L
S
U
u
0.000 0.000 0.000 1.000 K
0 j
2 J
0.215 w
[]0 d
1198.007 615.383 m
1160.927 618.335 L
1152.935 622.439 L
1104.839 683.207 L
1039.607 759.959 L
1066.391 718.343 L
1073.807 707.615 1060.343 704.303 1051.919 705.024 C
789.839 715.391 L
767.015 882.791 L
874.007 877.535 L
893.735 875.159 911.087 866.951 924.191 856.799 C
1018.943 769.679 L
1020.671 771.047 1021.247 774.791 1023.839 777.311 C
927.143 868.751 L
914.471 876.311 899.207 884.375 886.535 885.671 C
745.343 892.511 L
757.007 618.911 L
760.175 469.511 L
S
U
U
u
u
0.000 0.000 0.000 1.000 K
0 j
2 J
0.215 w
[]0 d
23.255 1311.767 m
60.335 1314.719 L
68.327 1318.823 L
116.423 1379.519 L
181.655 1456.343 L
154.871 1414.727 L
147.455 1404.000 160.919 1400.615 169.343 1401.407 C
431.423 1411.775 L
454.247 1579.175 L
347.255 1573.847 L
327.527 1571.543 310.103 1563.335 297.072 1553.183 C
202.319 1466.063 L
200.591 1467.431 200.015 1471.175 197.423 1473.695 C
294.120 1565.063 L
306.791 1572.695 322.055 1580.687 334.727 1582.055 C
475.919 1588.895 L
464.255 1315.295 L
461.087 1165.895 L
S
U
U
0.000 0.000 0.000 1.000 K
0 j
2 J
0.215 w
[]0 d
0.000 0.000 0.000 0.200 k
1137.240 709.127 m
1096.919 764.207 1024.487 838.871 965.951 873.647 C
945.863 867.239 L
984.527 843.983 1076.471 757.007 1110.384 710.639 C
1110.743 710.639 1137.240 709.127 1137.240 709.127 C
b
0.000 0.000 0.000 1.000 K
0 j
2 J
0.215 w
[]0 d
0.000 0.000 0.000 0.200 k
84.023 1405.511 m
124.343 1460.591 196.775 1535.255 255.311 1570.031 C
275.399 1563.623 L
236.735 1540.367 144.792 1453.391 110.879 1406.951 C
110.519 1406.951 84.023 1405.511 84.023 1405.511 C
b
0.000 0.000 0.000 1.000 K
0 j
2 J
0.215 w
[]0 d
0.000 0.000 0.000 0.498 k
1033.631 777.095 m
1025.927 776.807 L
1025.927 707.327 L
1033.631 707.327 L
1047.096 726.839 1051.703 755.423 1033.631 777.095 C
b
0.000 0.000 0.000 1.000 K
0 j
2 J
0.215 w
[]0 d
0.000 0.000 0.000 0.498 k
187.631 1473.479 m
195.335 1473.191 L
195.335 1403.711 L
187.631 1403.711 L
174.167 1423.223 169.559 1451.807 187.631 1473.479 C
b
0.000 0.000 0.000 1.000 K
0 j
2 J
0.215 w
[]0 d
0.000 0.000 0.000 0.200 k
1020.887 730.295 m
1019.951 765.431 L
920.663 855.359 L
909.431 862.919 888.767 873.647 872.567 872.711 C
773.783 876.527 L
793.151 736.919 L
1020.887 730.295 L
b
0.000 0.000 0.000 1.000 K
0 j
2 J
0.215 w
[]0 d
0.000 0.000 0.000 0.200 k
200.375 1426.679 m
201.311 1461.815 L
300.599 1551.743 L
311.831 1559.303 332.495 1569.959 348.695 1569.095 C
447.479 1572.911 L
428.111 1433.303 L
200.375 1426.679 L
b
0.000 0.000 0.000 1.000 K
0 j
2 J
0.215 w
[]0 d
421.055 871.775 m
415.295 884.519 418.103 884.519 405.935 884.519 C
139.103 883.871 L
130.823 886.103 126.575 883.871 122.759 877.463 C
102.095 831.455 78.479 774.143 60.983 724.319 C
58.823 717.048 62.135 706.967 72.215 703.943 C
400.751 703.943 L
402.623 704.951 420.263 703.295 421.559 715.031 C
421.055 871.775 L
s
0.000 0.000 0.000 1.000 K
0 j
2 J
0.215 w
[]0 d
800.207 1568.159 m
805.967 1580.903 803.159 1580.903 815.327 1580.903 C
1082.159 1580.255 L
1090.439 1582.487 1094.687 1580.255 1098.503 1573.847 C
1119.167 1527.839 1142.783 1470.527 1160.279 1420.703 C
1162.439 1413.431 1159.127 1403.351 1149.048 1400.327 C
820.511 1400.327 L
818.639 1401.335 800.999 1399.679 799.703 1411.415 C
800.207 1568.159 L
s
0.000 0.000 0.000 1.000 K
0 j
2 J
0.215 w
[]0 d
0.000 0.000 0.000 0.498 k
49.319 480.887 m
11.951 480.887 L
9.503 479.375 9.719 471.455 11.159 469.655 C
25.199 469.655 40.823 468.143 54.863 470.951 C
62.423 469.655 81.575 480.887 83.231 483.119 c
85.607 486.575 64.799 485.495 63.863 483.983 C
63.863 483.983 49.319 480.887 49.319 480.887 C
b
0.000 0.000 0.000 1.000 K
0 j
2 J
0.215 w
[]0 d
0.000 0.000 0.000 1.000 k
1171.943 1177.271 m
1209.311 1177.271 L
1211.759 1175.759 1211.543 1167.839 1210.103 1166.039 C
1196.063 1166.039 1180.439 1164.528 1166.399 1167.336 C
1158.839 1166.039 1139.687 1177.271 1138.031 1179.432 c
1135.655 1182.959 1156.463 1181.879 1157.399 1180.367 C
1157.399 1180.367 1171.943 1177.271 1171.943 1177.271 C
b
0.000 0.000 0.000 1.000 K
0 j
2 J
0.215 w
[]0 d
0.000 0.000 0.000 0.498 k
32.256 490.463 m
18.431 535.967 L
11.303 535.463 7.055 535.247 -1.583 532.295 C
-2.520 531.575 -2.520 529.559 -3.815 527.687 C
6.335 493.055 L
32.256 490.463 L
b
0.000 0.000 0.000 1.000 K
0 j
2 J
0.215 w
[]0 d
0.000 0.000 0.000 0.400 k
1189.007 1186.847 m
1202.831 1232.351 L
1209.959 1231.847 1214.207 1231.631 1222.847 1228.679 C
1223.783 1227.959 1223.783 1225.943 1225.079 1224.071 C
1214.927 1189.439 L
1189.007 1186.847 L
b
0.000 0.000 0.000 1.000 K
0 j
0 J
0.215 w
[]0 d
719.639 704.087 m
447.047 703.943 l
442.655 703.943 437.687 709.343 437.687 714.311 c
438.407 871.127 l
438.407 875.879 444.095 881.135 448.631 881.135 c
721.511 881.279 l
726.048 881.279 731.735 876.239 731.735 871.271 c
730.655 715.751 l
730.655 710.783 723.743 704.087 719.639 704.087 c
s
0.000 0.000 0.000 1.000 K
0 j
0 J
0.215 w
[]0 d
500.471 1400.255 m
773.063 1400.111 l
777.671 1400.111 782.495 1405.367 782.495 1410.479 c
782.855 1567.511 l
782.855 1572.335 777.311 1577.519 772.631 1577.519 c
499.751 1577.663 l
495.071 1577.663 489.527 1572.695 489.527 1567.655 c
489.527 1411.847 l
489.527 1406.807 496.295 1400.255 500.471 1400.255 c
s
0.000 0.000 0.000 1.000 K
0 j
0 J
0.215 w
[]0 d
0.000 0.000 0.000 0.298 k
838.655 664.055 m
801.935 664.055 l
798.551 664.055 795.959 666.719 795.959 670.103 c
795.959 682.271 l
795.959 685.655 798.551 688.247 801.935 688.247 c
838.655 688.247 l
842.039 688.247 844.703 685.655 844.703 682.271 c
844.703 670.103 l
844.703 666.719 842.039 664.055 838.655 664.055 c
b
0.000 0.000 0.000 1.000 K
0 j
0 J
0.215 w
[]0 d
0.000 0.000 0.000 0.298 k
382.607 1360.439 m
419.327 1360.439 l
422.711 1360.439 425.303 1363.103 425.303 1366.487 c
425.303 1378.655 l
425.303 1381.967 422.711 1384.631 419.327 1384.631 c
382.607 1384.631 l
379.223 1384.631 376.559 1381.967 376.559 1378.655 c
376.559 1366.487 l
376.559 1363.103 379.223 1360.439 382.607 1360.439 c
b
0.000 0.000 0.000 1.000 K
0 j
0 J
0.215 w
[]0 d
0.000 0.000 0.000 0.498 k
844.487 674.711 m
796.175 674.711 L
796.175 678.527 L
844.487 678.527 L
844.487 674.711 L
b
0.000 0.000 0.000 1.000 K
0 j
0 J
0.215 w
[]0 d
0.000 0.000 0.000 0.498 k
376.775 1371.096 m
425.087 1371.096 L
425.087 1374.911 L
376.775 1374.911 L
376.775 1371.096 L
b
0.000 0.000 0.000 1.000 K
0 j
0 J
0.215 w
[]0 d
0.000 0.000 0.000 0.298 k
709.703 689.471 m
675.215 689.471 l
672.263 689.471 670.031 687.167 670.031 684.287 c
670.031 664.703 l
670.031 661.823 672.263 659.519 675.215 659.519 c
709.703 659.519 l
712.583 659.519 714.887 661.823 714.887 664.703 c
714.887 684.287 l
714.887 687.167 712.583 689.471 709.703 689.471 c
b
0.000 0.000 0.000 1.000 K
0 j
0 J
0.215 w
[]0 d
0.000 0.000 0.000 0.298 k
511.559 1385.855 m
546.048 1385.855 l
548.927 1385.855 551.231 1383.551 551.231 1380.671 c
551.231 1361.087 l
551.231 1358.135 548.927 1355.903 546.048 1355.903 c
511.559 1355.903 l
508.679 1355.903 506.375 1358.135 506.375 1361.087 c
506.375 1380.671 l
506.375 1383.551 508.679 1385.855 511.559 1385.855 c
b
0.000 0.000 0.000 1.000 K
0 j
0 J
0.215 w
[]0 d
0.000 0.000 0.000 0.498 k
704.087 688.607 m
694.295 688.607 L
694.295 659.807 L
704.087 659.807 L
704.087 688.607 L
b
0.000 0.000 0.000 1.000 K
0 j
0 J
0.215 w
[]0 d
0.000 0.000 0.000 0.498 k
517.391 1384.991 m
527.183 1384.991 L
527.183 1356.192 L
517.391 1356.192 L
517.391 1384.991 L
b
0.000 0.000 0.000 1.000 K
0 j
0 J
0.215 w
[]0 d
0.000 0.000 0.000 0.498 k
694.295 688.607 m
685.151 688.607 L
685.151 659.807 L
694.295 659.807 L
694.295 688.607 L
b
0.000 0.000 0.000 1.000 K
0 j
0 J
0.215 w
[]0 d
0.000 0.000 0.000 0.498 k
527.183 1384.991 m
536.327 1384.991 L
536.327 1356.192 L
527.183 1356.192 L
527.183 1384.991 L
b
u
u
U
u
0.000 0.000 0.000 1.000 K
0 j
0 J
0.215 w
[]0 d
800.639 510.191 m
354.024 510.191 L
S
U
U
u
u
U
u
0.000 0.000 0.000 1.000 K
0 j
0 J
0.215 w
[]0 d
420.623 1206.576 m
867.239 1206.576 L
S
U
U
u
u
U
u
0.000 0.000 0.000 1.000 K
0 j
0 J
0.215 w
[]0 d
-5.543 336.815 m
-5.543 297.431 L
S
U
U
u
u
U
u
0.000 0.000 0.000 1.000 K
0 j
0 J
0.215 w
[]0 d
1225.727 334.007 m
1225.727 295.127 L
S
U
U
0.000 0.000 0.000 1.000 K
0 j
0 J
0.215 w
[]0 d
0.000 0.000 0.000 0.498 k
799.775 468.791 m
347.687 468.503 L
346.895 458.495 L
362.951 445.535 L
596.231 445.535 L
612.431 447.695 623.735 451.151 629.855 455.687 C
710.279 455.687 L
713.447 445.535 L
761.327 445.535 L
795.023 452.231 L
799.775 468.791 L
b
0.000 0.000 0.000 1.000 K
0 j
0 J
0.215 w
[]0 d
0.000 0.000 0.000 0.498 k
421.487 1165.103 m
873.575 1164.887 L
874.367 1154.879 L
858.311 1141.919 L
625.031 1141.919 L
608.831 1144.079 597.527 1147.535 591.407 1152.000 C
510.983 1152.000 L
507.815 1141.919 L
459.935 1141.919 L
426.239 1148.615 L
421.487 1165.103 L
b
0.000 0.000 0.000 1.000 K
0 j
2 J
0.215 w
[]0 d
0.000 0.000 0.000 0.498 k
1385.567 1232.855 m
1819.295 1233.215 L
1806.047 1159.559 L
1398.599 1159.415 L
1385.567 1232.855 L
b
0.000 0.000 0.000 1.000 K
0 j
2 J
0.215 w
[]0 d
0.000 0.000 0.000 0.000 k
1513.079 1221.551 m
1691.999 1221.551 L
1691.999 1216.511 L
1727.135 1216.511 L
1729.871 1214.927 1726.703 1205.783 1723.391 1203.983 C
1691.999 1203.983 L
1691.999 1197.144 L
1729.439 1197.144 L
1730.447 1193.039 1726.127 1188.359 1722.023 1186.055 C
1691.999 1186.055 L
1691.999 1177.271 L
1727.711 1177.271 L
1727.711 1170.791 1720.295 1170.791 1715.975 1169.063 C
1487.663 1169.063 L
1483.559 1170.791 1479.311 1171.583 1479.311 1177.415 C
1513.079 1177.271 L
1513.079 1186.055 L
1482.191 1186.199 L
1479.311 1187.423 1475.351 1193.615 1476.575 1197.144 C
1512.647 1197.144 L
1512.647 1203.983 L
1482.191 1203.983 L
1478.663 1204.559 1476.000 1212.407 1477.295 1216.511 C
1513.079 1216.511 L
1513.079 1221.551 L
b
u
u
0.000 0.000 0.000 1.000 K
0 j
0 J
0.215 w
[]0 d
13.031 612.647 m
756.575 612.647 L
1195.199 600.551 L
S
U
U
u
u
0.000 0.000 0.000 1.000 K
0 j
0 J
0.215 w
[]0 d
1208.231 1309.031 m
464.687 1309.031 L
26.063 1296.935 L
S
U
U
u
u
0.000 0.000 0.000 1.000 K
0 j
0 J
0.215 w
[]0 d
13.031 627.407 m
756.575 627.407 L
1195.199 615.311 L
S
U
U
u
u
0.000 0.000 0.000 1.000 K
0 j
0 J
0.215 w
[]0 d
1208.231 1323.791 m
464.687 1323.791 L
26.063 1311.695 L
S
U
U
0.000 0.000 0.000 1.000 K
0 j
0 J
0.215 w
[]0 d
0.000 0.000 0.000 0.000 k
1515.599 573.551 m
1679.255 573.551 L
1679.255 538.415 L
1515.599 538.415 L
1515.599 573.551 L
b
0.000 0.000 0.000 1.000 K
0 j
0 J
0.215 w
[]0 d
1402.919 681.839 m
1796.255 681.839 L
1805.255 682.055 1812.671 689.687 1810.727 698.255 C
1761.119 872.135 L
1758.743 881.927 1748.951 885.959 1736.639 885.959 C
1645.631 889.775 1550.951 890.711 1457.567 885.959 C
1444.319 886.175 1435.535 879.767 1432.223 872.135 C
1384.127 698.975 L
1381.031 686.951 1390.391 682.055 1402.919 681.839 C
s
0.000 0.000 0.000 1.000 K
0 j
2 J
0.215 w
[]0 d
1416.455 685.799 m
1781.279 685.799 L
1796.903 685.943 1802.375 692.855 1799.711 704.303 C
1757.159 863.495 L
1752.983 878.543 1741.535 882.287 1722.887 883.079 C
1639.583 885.383 1554.263 885.383 1469.015 883.079 C
1450.727 883.079 1443.743 878.903 1438.487 869.039 C
1394.927 700.775 L
1392.119 688.967 1396.727 685.799 1416.455 685.799 C
s
0.000 0.000 0.000 1.000 K
0 j
0 J
0.215 w
[]0 d
1384.919 616.967 m
1816.487 616.967 L
1816.487 599.183 L
1695.671 599.183 L
1693.727 604.367 L
1503.863 604.295 L
1500.047 599.183 L
1384.919 599.183 L
1384.919 616.967 L
s
0.000 0.000 0.000 1.000 K
0 j
0 J
0.215 w
[]0 d
1520.135 1338.983 m
1686.311 1338.983 L
1686.311 1370.447 L
1520.135 1370.447 L
1520.135 1338.983 L
s
0.000 0.000 0.000 1.000 K
0 j
0 J
0.215 w
[]0 d
1530.791 1341.791 m
1675.727 1341.791 l
1679.975 1341.791 1683.287 1345.103 1683.287 1349.423 c
1683.287 1359.791 l
1683.287 1364.039 1679.975 1367.351 1675.727 1367.351 c
1530.791 1367.351 l
1526.471 1367.351 1523.159 1364.039 1523.159 1359.791 c
1523.159 1349.423 l
1523.159 1345.103 1526.471 1341.791 1530.791 1341.791 c
s
u
u
0.000 0.000 0.000 1.000 K
0 j
0 J
0.215 w
[]0 d
1523.159 1354.607 m
1683.287 1354.607 L
S
U
U
u
u
0.000 0.000 0.000 1.000 K
0 j
0 J
0.215 w
[]0 d
1555.703 1367.423 m
1555.703 1341.791 L
S
U
U
u
u
0.000 0.000 0.000 1.000 K
0 j
0 J
0.215 w
[]0 d
1649.447 1367.423 m
1649.447 1341.791 L
S
U
U
u
u
0.000 0.000 0.000 1.000 K
0 j
0 J
0.215 w
[]0 d
1352.159 1333.799 m
1358.855 1324.223 1365.623 1319.327 1377.215 1318.319 C
1832.471 1318.319 L
1847.879 1318.319 1854.287 1329.839 1855.295 1336.679 C
S
U
U
0.000 0.000 0.000 1.000 K
0 j
0 J
0.215 w
[]0 d
0.000 0.000 0.000 0.000 k
1502.495 603.935 m
1692.503 603.935 L
1697.831 590.111 L
1496.231 590.111 L
1502.495 603.935 L
b
0.000 0.000 0.000 1.000 K
0 j
0 J
0.215 w
[]0 d
0.000 0.000 0.000 0.098 k
1201.751 550.583 m
1182.959 550.583 l
1182.023 550.583 1181.231 551.735 1181.231 553.319 c
1181.231 598.823 l
1181.231 600.407 1182.023 601.559 1182.959 601.559 c
1200.167 601.559 l
1201.175 601.559 1201.751 600.192 1201.823 598.823 c
1203.480 553.319 l
1203.551 551.951 1202.831 550.583 1201.751 550.583 c
b
0.000 0.000 0.000 1.000 K
0 j
0 J
0.215 w
[]0 d
0.000 0.000 0.000 0.098 k
19.439 1246.967 m
38.303 1246.967 l
39.239 1246.967 40.031 1248.119 40.031 1249.703 c
40.031 1295.207 l
40.031 1296.791 39.239 1297.943 38.303 1297.943 c
21.096 1297.943 l
20.087 1297.943 19.439 1296.575 19.439 1295.207 c
17.783 1249.703 l
17.711 1248.336 18.431 1246.967 19.439 1246.967 c
b
0.000 0.000 0.000 1.000 K
0 j
0 J
0.215 w
[]0 d
1528.847 1173.599 m
1677.095 1173.599 l
1681.199 1173.599 1684.511 1176.911 1684.511 1181.015 c
1684.511 1207.583 l
1684.511 1211.687 1681.199 1215.000 1677.095 1215.000 c
1528.847 1215.000 l
1524.743 1215.000 1521.431 1211.687 1521.431 1207.583 c
1521.431 1181.015 l
1521.431 1176.911 1524.743 1173.599 1528.847 1173.599 c
s
0.000 0.000 0.000 1.000 K
0 j
0 J
0.215 w
[]0 d
0.000 0.000 0.000 0.498 k
1329.839 1409.399 m
1346.039 1409.399 l
1350.719 1409.399 1353.455 1418.183 1354.391 1422.431 c
1363.823 1464.048 l
1364.759 1468.583 1360.079 1472.471 1355.399 1472.471 c
1329.839 1472.471 l
1325.087 1472.471 1321.415 1468.727 1321.415 1464.048 c
1321.415 1422.431 l
1321.415 1417.751 1325.087 1409.399 1329.839 1409.399 c
b
0.000 0.000 0.000 1.000 K
0 j
0 J
0.215 w
[]0 d
0.000 0.000 0.000 0.498 k
1325.231 713.015 m
1341.431 713.015 l
1346.183 713.015 1348.847 721.799 1349.855 726.048 c
1359.215 767.663 l
1360.223 772.199 1355.543 776.087 1350.863 776.087 c
1325.231 776.087 l
1320.551 776.087 1316.879 772.343 1316.879 767.663 c
1316.879 726.048 l
1316.879 721.367 1320.551 713.015 1325.231 713.015 c
b
0.000 0.000 0.000 1.000 K
0 j
0 J
0.215 w
[]0 d
0.000 0.000 0.000 0.498 k
1879.703 1409.399 m
1863.503 1409.399 l
1858.823 1409.399 1856.087 1418.183 1855.079 1422.431 c
1845.719 1464.048 l
1844.711 1468.583 1849.463 1472.471 1854.143 1472.471 c
1879.703 1472.471 l
1884.383 1472.471 1888.127 1468.727 1888.127 1464.048 c
1888.127 1422.431 l
1888.127 1417.751 1884.383 1409.399 1879.703 1409.399 c
b
0.000 0.000 0.000 1.000 K
0 j
0 J
0.215 w
[]0 d
0.000 0.000 0.000 0.498 k
1875.167 713.015 m
1858.967 713.015 l
1854.287 713.015 1851.551 721.799 1850.543 726.048 c
1841.183 767.663 l
1840.175 772.199 1844.855 776.087 1849.535 776.087 c
1875.167 776.087 l
1879.847 776.087 1883.519 772.343 1883.519 767.663 c
1883.519 726.048 l
1883.519 721.367 1879.847 713.015 1875.167 713.015 c
b
u
u
0.000 0.000 0.000 1.000 K
0 j
0 J
0.215 w
[]0 d
1420.487 1581.839 m
1382.831 1496.087 1350.791 1404.431 1346.903 1299.023 C
S
U
U
u
u
0.000 0.000 0.000 1.000 K
0 j
0 J
0.215 w
[]0 d
1415.735 885.455 m
1378.079 799.703 1346.039 708.119 1342.079 602.639 C
S
U
U
u
u
0.000 0.000 0.000 1.000 K
0 j
0 J
0.215 w
[]0 d
1786.391 1581.839 m
1824.119 1496.087 1856.087 1404.431 1860.047 1299.023 C
S
U
U
u
u
0.000 0.000 0.000 1.000 K
0 j
0 J
0.215 w
[]0 d
1783.583 889.127 m
1819.511 807.335 1848.599 716.471 1854.503 616.895 C
S
U
U
u
u
0.000 0.000 0.000 1.000 K
0 j
0 J
0.215 w
[]0 d
1370.447 1391.471 m
1377.144 1455.551 1399.751 1513.151 1424.159 1564.919 C
S
U
U
u
u
0.000 0.000 0.000 1.000 K
0 j
0 J
0.215 w
[]0 d
1356.911 617.183 m
1361.591 727.127 1408.895 860.759 1433.303 912.455 C
S
U
U
u
u
0.000 0.000 0.000 1.000 K
0 j
0 J
0.215 w
[]0 d
1836.431 1391.471 m
1829.807 1455.551 1807.127 1513.151 1782.719 1564.919 C
S
U
U
u
u
0.000 0.000 0.000 1.000 K
0 j
0 J
0.215 w
[]0 d
1843.199 617.399 m
1841.399 698.615 1792.583 856.439 1768.751 906.983 C
S
U
U
u
u
0.000 0.000 0.000 1.000 K
0 j
0 J
0.215 w
[]0 d
1421.351 1581.839 m
1424.087 1569.527 L
1424.519 1566.575 1425.887 1562.471 1428.839 1562.831 C
1487.231 1570.679 1544.399 1573.775 1605.383 1574.207 C
1662.407 1573.775 1708.703 1573.775 1773.143 1564.847 C
1777.823 1563.623 1781.495 1564.415 1782.503 1569.527 C
1787.399 1583.783 L
S
U
U
0.000 0.000 0.000 1.000 K
0 j
0 J
0.215 w
[]0 d
0.000 0.000 0.000 0.498 k
1342.079 1288.655 m
1864.727 1288.655 L
1859.687 1239.695 L
1828.367 1239.695 L
1825.703 1239.695 1823.327 1236.023 1820.807 1233.000 C
1383.695 1233.000 L
1382.111 1236.167 1379.591 1237.823 1377.215 1239.480 C
1344.599 1239.695 L
1342.079 1288.655 L
b
0.000 0.000 0.000 1.000 K
0 j
0 J
0.215 w
[]0 d
0.000 0.000 0.000 0.200 k
1479.815 1246.103 m
1726.055 1246.103 l
1729.223 1246.103 1731.743 1248.623 1731.743 1251.791 c
1731.743 1257.407 l
1731.743 1260.575 1729.223 1263.096 1726.055 1263.096 c
1479.815 1263.096 l
1476.647 1263.096 1474.127 1260.575 1474.127 1257.407 c
1474.127 1251.791 l
1474.127 1248.623 1476.647 1246.103 1479.815 1246.103 c
b
0.000 0.000 0.000 1.000 K
0 j
0 J
0.215 w
[]0 d
0.000 0.000 0.000 0.000 k
1342.151 1288.655 m
1864.799 1288.655 L
1864.799 1299.959 L
1342.151 1299.959 L
1342.151 1288.655 L
b
0.000 0.000 0.000 1.000 K
0 j
0 J
0.215 w
[]0 d
0.000 0.000 0.000 0.000 k
1398.455 1234.151 m
1446.119 1234.151 l
1451.231 1234.151 1455.119 1238.039 1455.119 1243.151 c
1455.119 1279.655 l
1455.119 1284.767 1451.231 1288.655 1446.119 1288.655 c
1398.455 1288.655 l
1393.415 1288.655 1389.455 1284.767 1389.455 1279.655 c
1389.455 1243.151 l
1389.455 1238.039 1393.415 1234.151 1398.455 1234.151 c
b
0.000 0.000 0.000 1.000 K
0 j
0 J
0.215 w
[]0 d
0.000 0.000 0.000 0.000 k
1808.855 1234.151 m
1760.399 1234.151 l
1755.503 1234.151 1751.831 1237.895 1751.831 1242.719 c
1751.831 1280.087 l
1751.831 1284.911 1755.503 1288.655 1760.399 1288.655 c
1808.855 1288.655 l
1813.679 1288.655 1817.423 1284.911 1817.423 1280.087 c
1817.423 1242.719 l
1817.423 1237.895 1813.679 1234.151 1808.855 1234.151 c
b
0.000 0.000 0.000 1.000 K
0 j
0 J
0.215 w
[]0 d
0.000 0.000 0.000 0.200 k
1862.639 1287.431 m
1818.503 1286.855 L
1818.503 1259.135 L
1859.687 1259.135 L
1862.639 1287.431 L
b
0.000 0.000 0.000 1.000 K
0 j
0 J
0.215 w
[]0 d
0.000 0.000 0.000 0.200 k
1343.591 1287.431 m
1385.783 1286.855 L
1385.783 1259.135 L
1344.599 1259.135 L
1343.591 1287.431 L
b
0.000 0.000 0.000 1.000 K
0 j
0 J
0.215 w
[]0 d
0.000 0.000 0.000 0.098 k
1859.687 1256.399 m
1818.503 1256.399 L
1818.503 1240.127 L
1858.031 1240.127 L
1859.687 1256.399 L
b
0.000 0.000 0.000 1.000 K
0 j
0 J
0.215 w
[]0 d
0.000 0.000 0.000 0.098 k
1344.599 1256.399 m
1385.783 1256.399 L
1385.783 1240.703 L
1346.255 1240.703 L
1344.599 1256.399 L
b
0.000 0.000 0.000 1.000 K
0 j
0 J
0.215 w
[]0 d
0.000 0.000 0.000 0.098 k
1400.255 1242.863 m
1444.031 1242.863 l
1446.551 1242.863 1448.495 1244.807 1448.495 1247.327 c
1448.495 1275.479 l
1448.495 1278.000 1446.551 1279.943 1444.031 1279.943 c
1400.255 1279.943 l
1397.735 1279.943 1395.791 1278.000 1395.791 1275.479 c
1395.791 1247.327 l
1395.791 1244.807 1397.735 1242.863 1400.255 1242.863 c
b
0.000 0.000 0.000 1.000 K
0 j
0 J
0.215 w
[]0 d
0.000 0.000 0.000 0.098 k
1806.623 1242.863 m
1762.919 1242.863 l
1760.327 1242.863 1758.383 1244.807 1758.383 1247.327 c
1758.383 1275.479 l
1758.383 1278.000 1760.327 1279.943 1762.919 1279.943 c
1806.623 1279.943 l
1809.143 1279.943 1811.159 1278.000 1811.159 1275.479 c
1811.159 1247.327 l
1811.159 1244.807 1809.143 1242.863 1806.623 1242.863 c
b
u
u
0.000 0.000 0.000 1.000 K
0 j
0 J
0.215 w
[]0 d
924.551 882.791 m
1018.655 805.463 1090.511 733.823 1166.903 636.767 C
1174.319 628.127 1186.631 628.127 1195.199 628.127 C
S
U
U
u
u
0.000 0.000 0.000 1.000 K
0 j
0 J
0.215 w
[]0 d
296.711 1579.175 m
202.607 1501.847 130.751 1430.207 54.359 1333.151 C
46.943 1324.511 34.631 1324.511 26.063 1324.511 C
S
U
U
u
u
0.000 0.000 0.000 1.000 K
0 j
0 J
0.215 w
[]0 d
131.183 922.319 m
88.775 841.247 51.047 762.191 28.223 673.127 C
30.383 613.511 L
51.047 487.727 L
S
U
U
u
u
0.000 0.000 0.000 1.000 K
0 j
0 J
0.215 w
[]0 d
1090.079 1618.703 m
1132.487 1537.631 1170.215 1458.575 1193.039 1369.511 C
1190.879 1309.895 L
1170.215 1184.111 L
S
U
U
u
u
0.000 0.000 0.000 1.000 K
0 j
0 J
0.215 w
[]0 d
926.063 882.359 m
912.383 888.263 900.863 890.423 886.031 891.575 C
645.767 908.783 415.943 908.783 180.143 906.407 C
166.319 905.255 159.479 915.623 153.792 923.615 C
S
U
U
u
u
0.000 0.000 0.000 1.000 K
0 j
0 J
0.215 w
[]0 d
295.199 1578.743 m
308.879 1584.647 320.399 1586.807 335.231 1587.959 C
575.495 1605.167 805.319 1605.167 1041.048 1602.791 C
1054.943 1601.639 1061.783 1611.935 1067.471 1619.999 C
S
U
U
u
u
0.000 0.000 0.000 1.000 K
0 j
0 J
0.215 w
[]0 d
745.271 892.583 m
115.991 893.735 L
S
U
U
u
u
0.000 0.000 0.000 1.000 K
0 j
0 J
0.215 w
[]0 d
475.991 1588.967 m
1105.271 1590.119 L
S
U
U
u
u
0.000 0.000 0.000 1.000 K
0 j
0 J
0.215 w
[]0 d
1176.480 552.959 m
984.311 551.807 L
956.159 563.543 930.383 586.583 899.783 587.375 c
861.839 588.312 847.799 563.543 821.807 551.807 C
382.607 552.959 L
336.671 587.375 L
6.047 587.375 L
S
U
U
u
u
0.000 0.000 0.000 1.000 K
0 j
0 J
0.215 w
[]0 d
44.783 1249.343 m
236.951 1248.192 L
265.031 1259.927 290.879 1282.967 321.479 1283.687 c
359.423 1284.695 373.463 1259.927 399.455 1248.192 C
838.655 1249.343 L
884.591 1283.687 L
1215.215 1283.687 L
S
U
U
u
u
0.000 0.000 0.000 1.000 K
0 j
0 J
0.215 w
[]0 d
1176.480 562.247 m
984.311 562.247 L
956.159 573.911 930.383 597.743 899.783 597.743 c
871.271 597.743 847.799 573.911 821.807 562.247 C
382.607 563.399 L
336.671 597.743 L
6.047 597.743 L
S
U
U
u
u
0.000 0.000 0.000 1.000 K
0 j
0 J
0.215 w
[]0 d
44.783 1258.559 m
236.951 1258.559 L
265.031 1270.295 290.879 1294.127 321.479 1294.127 c
349.991 1294.127 373.463 1270.295 399.455 1258.559 C
838.655 1259.783 L
884.591 1294.127 L
1215.215 1294.127 L
S
U
U
u
u
0.000 0.000 0.000 1.000 K
0 j
0 J
0.215 w
[]0 d
430.847 891.503 m
430.847 468.287 L
S
U
U
u
u
0.000 0.000 0.000 1.000 K
0 j
0 J
0.215 w
[]0 d
790.415 1587.887 m
790.415 1164.672 L
S
U
U
0.000 0.000 0.000 1.000 K
0 j
0 J
0.215 w
[]0 d
0.000 0.000 0.000 0.498 k
428.687 612.431 m
14.399 612.431 L
14.399 626.327 L
428.687 626.327 L
428.687 612.431 L
b
0.000 0.000 0.000 1.000 K
0 j
0 J
0.215 w
[]0 d
0.000 0.000 0.000 0.498 k
792.575 1308.815 m
1206.863 1308.815 L
1206.863 1322.711 L
792.575 1322.711 L
792.575 1308.815 L
b
0.000 0.000 0.000 1.000 K
0 j
0 J
0.215 w
[]0 d
1348.559 533.663 m
1380.527 533.663 l
1383.048 533.663 1384.991 536.399 1384.991 540.072 c
1384.991 609.407 l
1384.991 613.079 1383.048 615.887 1380.527 615.887 c
1348.559 615.887 l
1346.039 615.887 1344.096 613.079 1344.096 609.407 c
1344.096 540.072 l
1344.096 536.399 1346.039 533.663 1348.559 533.663 c
s
0.000 0.000 0.000 1.000 K
0 j
0 J
0.215 w
[]0 d
1852.775 533.663 m
1820.735 533.663 l
1818.215 533.663 1816.343 536.471 1816.343 540.216 c
1816.343 610.487 l
1816.343 614.231 1818.215 617.039 1820.735 617.039 c
1852.775 617.039 l
1855.223 617.039 1857.167 614.231 1857.167 610.487 c
1857.167 540.216 l
1857.167 536.471 1855.223 533.663 1852.775 533.663 c
s
0.000 0.000 0.000 1.000 K
0 j
0 J
0.215 w
[]0 d
1511.783 530.207 m
1684.223 530.207 l
1692.431 530.207 1699.055 536.831 1699.055 545.039 c
1699.055 565.703 l
1699.055 573.911 1692.431 580.607 1684.223 580.607 c
1511.783 580.607 l
1503.575 580.607 1496.879 573.911 1496.879 565.703 c
1496.879 545.039 l
1496.879 536.831 1503.575 530.207 1511.783 530.207 c
s
0.000 0.000 0.000 1.000 K
0 j
0 J
0.215 w
[]0 d
0.000 0.000 0.000 0.498 k
1192.319 473.975 m
1007.351 473.687 L
1014.407 454.895 L
1130.039 454.895 L
1155.815 454.463 1174.175 463.247 1192.319 473.975 C
b
0.000 0.000 0.000 1.000 K
0 j
0 J
0.215 w
[]0 d
0.000 0.000 0.000 0.498 k
28.943 1170.359 m
213.839 1170.071 L
206.855 1151.279 L
91.223 1151.279 L
65.447 1150.847 47.087 1159.631 28.943 1170.359 C
b
0.000 0.000 0.000 1.000 K
0 j
0 J
0.215 w
[]0 d
0.000 0.000 0.000 1.000 k
903.095 357.479 m
846.575 357.479 800.711 403.343 800.711 459.863 c
800.711 516.312 846.575 562.247 903.095 562.247 c
959.543 562.247 1005.479 516.312 1005.479 459.863 c
1005.479 403.343 959.543 357.479 903.095 357.479 c
b
0.000 0.000 0.000 1.000 K
0 j
0 J
0.215 w
[]0 d
0.000 0.000 0.000 1.000 k
318.167 1053.791 m
374.687 1053.791 420.551 1099.727 420.551 1156.247 c
420.551 1212.695 374.687 1258.631 318.167 1258.631 c
261.719 1258.631 215.783 1212.695 215.783 1156.247 c
215.783 1099.727 261.719 1053.791 318.167 1053.791 c
b
0.000 0.000 0.000 0.000 K
0 j
0 J
0.215 w
[]0 d
0.000 0.000 0.000 0.000 k
903.599 393.263 m
940.391 393.263 970.055 422.927 970.055 460.367 c
970.055 497.231 940.391 526.895 903.599 526.895 c
866.159 526.895 836.423 497.231 836.423 460.367 c
836.423 422.927 866.159 393.263 903.599 393.263 c
b
0.000 0.000 0.000 0.000 K
0 j
0 J
0.215 w
[]0 d
0.000 0.000 0.000 0.000 k
317.663 1089.647 m
280.871 1089.647 251.207 1119.311 251.207 1156.751 c
251.207 1193.543 280.871 1223.279 317.663 1223.279 c
355.103 1223.279 384.839 1193.543 384.839 1156.751 c
384.839 1119.311 355.103 1089.647 317.663 1089.647 c
b
0.000 0.000 0.000 1.000 K
0 j
0 J
0.215 w
[]0 d
0.000 0.000 0.000 1.000 k
903.527 397.367 m
938.087 397.367 965.951 425.231 965.951 460.367 c
965.951 494.855 938.087 522.719 903.527 522.719 c
868.391 522.719 840.527 494.855 840.527 460.367 c
840.527 425.231 868.391 397.367 903.527 397.367 c
b
0.000 0.000 0.000 1.000 K
0 j
0 J
0.215 w
[]0 d
0.000 0.000 0.000 1.000 k
317.735 1093.751 m
283.175 1093.751 255.311 1121.615 255.311 1156.751 c
255.311 1191.240 283.175 1219.103 317.735 1219.103 c
352.871 1219.103 380.735 1191.240 380.735 1156.751 c
380.735 1121.615 352.871 1093.751 317.735 1093.751 c
b
u
u
0.000 0.000 0.000 0.000 k
905.471 397.151 m
899.423 397.151 L
899.423 419.111 L
905.471 419.111 L
905.471 397.151 L
f
0.000 0.000 0.000 0.000 k
905.471 499.895 m
899.423 499.895 L
899.423 521.855 L
905.471 521.855 L
905.471 499.895 L
f
U
u
0.000 0.000 0.000 1.000 K
0 j
0 J
0.215 w
[]0 d
905.471 397.151 m
899.423 397.151 L
899.423 419.111 L
905.471 419.111 L
905.471 397.151 L
s
0.000 0.000 0.000 1.000 K
0 j
0 J
0.215 w
[]0 d
905.471 499.895 m
899.423 499.895 L
899.423 521.855 L
905.471 521.855 L
905.471 499.895 L
s
U
U
u
u
0.000 0.000 0.000 0.000 k
315.791 1093.535 m
321.839 1093.535 L
321.839 1115.495 L
315.791 1115.495 L
315.791 1093.535 L
f
0.000 0.000 0.000 0.000 k
315.791 1196.279 m
321.839 1196.279 L
321.839 1218.240 L
315.791 1218.240 L
315.791 1196.279 L
f
U
u
0.000 0.000 0.000 1.000 K
0 j
0 J
0.215 w
[]0 d
315.791 1093.535 m
321.839 1093.535 L
321.839 1115.495 L
315.791 1115.495 L
315.791 1093.535 L
s
0.000 0.000 0.000 1.000 K
0 j
0 J
0.215 w
[]0 d
315.791 1196.279 m
321.839 1196.279 L
321.839 1218.240 L
315.791 1218.240 L
315.791 1196.279 L
s
U
U
u
u
0.000 0.000 0.000 0.000 k
931.895 404.567 m
926.495 401.975 L
917.063 421.775 L
922.463 424.367 L
931.895 404.567 L
f
0.000 0.000 0.000 0.000 k
887.831 497.303 m
882.431 494.783 L
872.999 514.583 L
878.399 517.175 L
887.831 497.303 L
f
U
u
0.000 0.000 0.000 1.000 K
0 j
0 J
0.215 w
[]0 d
931.895 404.567 m
926.495 401.975 L
917.063 421.775 L
922.463 424.367 L
931.895 404.567 L
s
0.000 0.000 0.000 1.000 K
0 j
0 J
0.215 w
[]0 d
887.831 497.303 m
882.431 494.783 L
872.999 514.583 L
878.399 517.175 L
887.831 497.303 L
s
U
U
u
u
0.000 0.000 0.000 0.000 k
289.367 1100.879 m
294.767 1098.359 L
304.199 1118.159 L
298.799 1120.751 L
289.367 1100.879 L
f
0.000 0.000 0.000 0.000 k
333.431 1193.687 m
338.831 1191.096 L
348.263 1210.967 L
342.791 1213.559 L
333.431 1193.687 L
f
U
u
0.000 0.000 0.000 1.000 K
0 j
0 J
0.215 w
[]0 d
289.367 1100.879 m
294.767 1098.359 L
304.199 1118.159 L
298.799 1120.751 L
289.367 1100.879 L
s
0.000 0.000 0.000 1.000 K
0 j
0 J
0.215 w
[]0 d
333.431 1193.687 m
338.831 1191.096 L
348.263 1210.967 L
342.791 1213.559 L
333.431 1193.687 L
s
U
U
u
u
0.000 0.000 0.000 0.000 k
952.775 422.783 m
948.959 418.103 L
931.895 431.927 L
935.711 436.607 L
952.775 422.783 L
f
0.000 0.000 0.000 0.000 k
872.999 487.583 m
869.255 482.903 L
852.191 496.727 L
856.007 501.407 L
872.999 487.583 L
f
U
u
0.000 0.000 0.000 1.000 K
0 j
0 J
0.215 w
[]0 d
952.775 422.783 m
948.959 418.103 L
931.895 431.927 L
935.711 436.607 L
952.775 422.783 L
s
0.000 0.000 0.000 1.000 K
0 j
0 J
0.215 w
[]0 d
872.999 487.583 m
869.255 482.903 L
852.191 496.727 L
856.007 501.407 L
872.999 487.583 L
s
U
U
u
u
0.000 0.000 0.000 0.000 k
268.487 1119.167 m
272.303 1114.487 L
289.367 1128.311 L
285.551 1132.991 L
268.487 1119.167 L
f
0.000 0.000 0.000 0.000 k
348.263 1183.895 m
352.007 1179.288 L
369.071 1193.111 L
365.255 1197.791 L
348.263 1183.895 L
f
U
u
0.000 0.000 0.000 1.000 K
0 j
0 J
0.215 w
[]0 d
268.487 1119.167 m
272.303 1114.487 L
289.367 1128.311 L
285.551 1132.991 L
268.487 1119.167 L
s
0.000 0.000 0.000 1.000 K
0 j
0 J
0.215 w
[]0 d
348.263 1183.895 m
352.007 1179.288 L
369.071 1193.111 L
365.255 1197.791 L
348.263 1183.895 L
s
U
U
u
u
0.000 0.000 0.000 0.000 k
963.575 447.047 m
962.063 441.287 L
940.823 446.759 L
942.335 452.591 L
963.575 447.047 L
f
0.000 0.000 0.000 0.000 k
864.215 472.967 m
862.703 467.135 L
841.463 472.679 L
842.975 478.511 L
864.215 472.967 L
f
U
u
0.000 0.000 0.000 1.000 K
0 j
0 J
0.215 w
[]0 d
963.575 447.047 m
962.063 441.287 L
940.823 446.759 L
942.335 452.591 L
963.575 447.047 L
s
0.000 0.000 0.000 1.000 K
0 j
0 J
0.215 w
[]0 d
864.215 472.967 m
862.703 467.135 L
841.463 472.679 L
842.975 478.511 L
864.215 472.967 L
s
U
U
u
u
0.000 0.000 0.000 0.000 k
257.687 1143.432 m
259.199 1137.599 L
280.439 1143.144 L
278.927 1148.975 L
257.687 1143.432 L
f
0.000 0.000 0.000 0.000 k
357.047 1169.351 m
358.559 1163.519 L
379.799 1169.063 L
378.287 1174.895 L
357.047 1169.351 L
f
U
u
0.000 0.000 0.000 1.000 K
0 j
0 J
0.215 w
[]0 d
257.687 1143.432 m
259.199 1137.599 L
280.439 1143.144 L
278.927 1148.975 L
257.687 1143.432 L
s
0.000 0.000 0.000 1.000 K
0 j
0 J
0.215 w
[]0 d
357.047 1169.351 m
358.559 1163.519 L
379.799 1169.063 L
378.287 1174.895 L
357.047 1169.351 L
s
U
U
u
u
0.000 0.000 0.000 0.000 k
963.143 474.407 m
964.223 468.503 L
942.623 464.543 L
941.543 470.519 L
963.143 474.407 L
f
0.000 0.000 0.000 0.000 k
862.127 456.047 m
863.207 450.143 L
841.607 446.183 L
840.527 452.159 L
862.127 456.047 L
f
U
u
0.000 0.000 0.000 1.000 K
0 j
0 J
0.215 w
[]0 d
963.143 474.407 m
964.223 468.503 L
942.623 464.543 L
941.543 470.519 L
963.143 474.407 L
s
0.000 0.000 0.000 1.000 K
0 j
0 J
0.215 w
[]0 d
862.127 456.047 m
863.207 450.143 L
841.607 446.183 L
840.527 452.159 L
862.127 456.047 L
s
U
U
u
u
0.000 0.000 0.000 0.000 k
258.120 1170.791 m
257.039 1164.887 L
278.639 1160.927 L
279.719 1166.831 L
258.120 1170.791 L
f
0.000 0.000 0.000 0.000 k
359.135 1152.432 m
358.055 1146.528 L
379.655 1142.567 L
380.735 1148.471 L
359.135 1152.432 L
f
U
u
0.000 0.000 0.000 1.000 K
0 j
0 J
0.215 w
[]0 d
258.120 1170.791 m
257.039 1164.887 L
278.639 1160.927 L
279.719 1166.831 L
258.120 1170.791 L
s
0.000 0.000 0.000 1.000 K
0 j
0 J
0.215 w
[]0 d
359.135 1152.432 m
358.055 1146.528 L
379.655 1142.567 L
380.735 1148.471 L
359.135 1152.432 L
s
U
U
u
u
0.000 0.000 0.000 0.000 k
950.975 499.823 m
954.575 494.927 L
936.791 482.039 L
933.263 486.863 L
950.975 499.823 L
f
0.000 0.000 0.000 0.000 k
868.031 439.271 m
871.559 434.447 L
853.847 421.487 L
850.247 426.383 L
868.031 439.271 L
f
U
u
0.000 0.000 0.000 1.000 K
0 j
0 J
0.215 w
[]0 d
950.975 499.823 m
954.575 494.927 L
936.791 482.039 L
933.263 486.863 L
950.975 499.823 L
s
0.000 0.000 0.000 1.000 K
0 j
0 J
0.215 w
[]0 d
868.031 439.271 m
871.559 434.447 L
853.847 421.487 L
850.247 426.383 L
868.031 439.271 L
s
U
U
u
u
0.000 0.000 0.000 0.000 k
270.287 1196.207 m
266.687 1191.311 L
284.471 1178.423 L
288.000 1183.247 L
270.287 1196.207 L
f
0.000 0.000 0.000 0.000 k
353.231 1135.655 m
349.703 1130.831 L
367.415 1117.871 L
371.015 1122.767 L
353.231 1135.655 L
f
U
u
0.000 0.000 0.000 1.000 K
0 j
0 J
0.215 w
[]0 d
270.287 1196.207 m
266.687 1191.311 L
284.471 1178.423 L
288.000 1183.247 L
270.287 1196.207 L
s
0.000 0.000 0.000 1.000 K
0 j
0 J
0.215 w
[]0 d
353.231 1135.655 m
349.703 1130.831 L
367.415 1117.871 L
371.015 1122.767 L
353.231 1135.655 L
s
U
U
u
u
0.000 0.000 0.000 0.000 k
929.087 517.175 m
934.343 514.295 L
923.903 494.999 L
918.647 497.879 L
929.087 517.175 L
f
0.000 0.000 0.000 0.000 k
880.055 426.887 m
885.383 424.007 L
874.871 404.711 L
869.615 407.591 L
880.055 426.887 L
f
U
u
0.000 0.000 0.000 1.000 K
0 j
0 J
0.215 w
[]0 d
929.087 517.175 m
934.343 514.295 L
923.903 494.999 L
918.647 497.879 L
929.087 517.175 L
s
0.000 0.000 0.000 1.000 K
0 j
0 J
0.215 w
[]0 d
880.055 426.887 m
885.383 424.007 L
874.871 404.711 L
869.615 407.591 L
880.055 426.887 L
s
U
U
u
u
0.000 0.000 0.000 0.000 k
292.175 1213.559 m
286.919 1210.679 L
297.359 1191.384 L
302.615 1194.263 L
292.175 1213.559 L
f
0.000 0.000 0.000 0.000 k
341.207 1123.271 m
335.879 1120.391 L
346.391 1101.096 L
351.647 1103.975 L
341.207 1123.271 L
f
U
u
0.000 0.000 0.000 1.000 K
0 j
0 J
0.215 w
[]0 d
292.175 1213.559 m
286.919 1210.679 L
297.359 1191.384 L
302.615 1194.263 L
292.175 1213.559 L
s
0.000 0.000 0.000 1.000 K
0 j
0 J
0.215 w
[]0 d
341.207 1123.271 m
335.879 1120.391 L
346.391 1101.096 L
351.647 1103.975 L
341.207 1123.271 L
s
U
U
0.000 0.000 0.000 1.000 K
0 j
0 J
0.215 w
[]0 d
0.000 0.000 0.000 0.098 k
903.167 418.823 m
925.775 418.823 943.991 437.039 943.991 460.007 c
943.991 482.543 925.775 500.759 903.167 500.759 c
880.271 500.759 862.055 482.543 862.055 460.007 c
862.055 437.039 880.271 418.823 903.167 418.823 c
b
0.000 0.000 0.000 1.000 K
0 j
0 J
0.215 w
[]0 d
0.000 0.000 0.000 0.098 k
318.096 1115.207 m
295.487 1115.207 277.271 1133.423 277.271 1156.391 c
277.271 1178.927 295.487 1197.144 318.096 1197.144 c
340.991 1197.144 359.207 1178.927 359.207 1156.391 c
359.207 1133.423 340.991 1115.207 318.096 1115.207 c
b
0.000 0.000 0.000 1.000 K
0 j
0 J
0.215 w
[]0 d
0.000 0.000 0.000 0.000 k
902.663 442.079 m
893.303 442.079 885.455 449.927 885.455 459.575 c
885.455 469.007 893.303 476.855 902.663 476.855 c
912.383 476.855 920.159 469.007 920.159 459.575 c
920.159 449.927 912.383 442.079 902.663 442.079 c
b
0.000 0.000 0.000 1.000 K
0 j
0 J
0.215 w
[]0 d
0.000 0.000 0.000 0.000 k
318.599 1138.463 m
327.959 1138.463 335.807 1146.311 335.807 1155.959 c
335.807 1165.391 327.959 1173.240 318.599 1173.240 c
308.879 1173.240 301.103 1165.391 301.103 1155.959 c
301.103 1146.311 308.879 1138.463 318.599 1138.463 c
b
0.000 0.000 0.000 1.000 K
0 j
0 J
0.215 w
[]0 d
0.000 0.000 0.000 0.000 k
902.951 448.559 m
896.975 448.559 892.223 453.311 892.223 459.287 c
892.223 465.335 896.975 470.015 902.951 470.015 c
908.999 470.015 913.679 465.335 913.679 459.287 c
913.679 453.311 908.999 448.559 902.951 448.559 c
b
0.000 0.000 0.000 1.000 K
0 j
0 J
0.215 w
[]0 d
0.000 0.000 0.000 0.000 k
318.311 1144.943 m
324.287 1144.943 329.039 1149.695 329.039 1155.672 c
329.039 1161.719 324.287 1166.399 318.311 1166.399 c
312.263 1166.399 307.584 1161.719 307.584 1155.672 c
307.584 1149.695 312.263 1144.943 318.311 1144.943 c
b
0.000 0.000 0.000 0.000 K
0 j
0 J
0.215 w
[]0 d
903.599 413.639 m
929.087 413.639 949.679 434.231 949.679 460.151 c
949.679 485.711 929.087 506.231 903.599 506.231 c
877.607 506.231 857.015 485.711 857.015 460.151 c
857.015 434.231 877.607 413.639 903.599 413.639 c
s
0.000 0.000 0.000 0.000 K
0 j
0 J
0.215 w
[]0 d
317.663 1110.023 m
292.175 1110.023 271.584 1130.615 271.584 1156.535 c
271.584 1182.096 292.175 1202.615 317.663 1202.615 c
343.655 1202.615 364.247 1182.096 364.247 1156.535 c
364.247 1130.615 343.655 1110.023 317.663 1110.023 c
s
0.000 0.000 0.000 1.000 K
0 j
0 J
0.215 w
[]0 d
0.000 0.000 0.000 1.000 k
234.071 357.479 m
177.551 357.479 131.687 403.343 131.687 459.863 c
131.687 516.312 177.551 562.247 234.071 562.247 c
290.519 562.247 336.455 516.312 336.455 459.863 c
336.455 403.343 290.519 357.479 234.071 357.479 c
b
0.000 0.000 0.000 1.000 K
0 j
0 J
0.215 w
[]0 d
0.000 0.000 0.000 1.000 k
987.191 1053.791 m
1043.711 1053.791 1089.576 1099.727 1089.576 1156.247 c
1089.576 1212.695 1043.711 1258.631 987.191 1258.631 c
930.743 1258.631 884.807 1212.695 884.807 1156.247 c
884.807 1099.727 930.743 1053.791 987.191 1053.791 c
b
0.000 0.000 0.000 0.000 K
0 j
0 J
0.215 w
[]0 d
0.000 0.000 0.000 0.000 k
234.719 393.263 m
271.584 393.263 301.247 422.927 301.247 460.367 c
301.247 497.231 271.584 526.895 234.719 526.895 c
197.279 526.895 167.615 497.231 167.615 460.367 c
167.615 422.927 197.279 393.263 234.719 393.263 c
b
0.000 0.000 0.000 0.000 K
0 j
0 J
0.215 w
[]0 d
0.000 0.000 0.000 0.000 k
986.471 1089.647 m
949.679 1089.647 920.015 1119.311 920.015 1156.751 c
920.015 1193.543 949.679 1223.279 986.471 1223.279 c
1023.983 1223.279 1053.647 1193.543 1053.647 1156.751 c
1053.647 1119.311 1023.983 1089.647 986.471 1089.647 c
b
0.000 0.000 0.000 1.000 K
0 j
0 J
0.215 w
[]0 d
0.000 0.000 0.000 1.000 k
234.719 397.367 m
269.279 397.367 297.144 425.231 297.144 460.367 c
297.144 494.855 269.279 522.719 234.719 522.719 c
199.583 522.719 171.719 494.855 171.719 460.367 c
171.719 425.231 199.583 397.367 234.719 397.367 c
b
0.000 0.000 0.000 1.000 K
0 j
0 J
0.215 w
[]0 d
0.000 0.000 0.000 1.000 k
986.543 1093.751 m
951.983 1093.751 924.119 1121.615 924.119 1156.751 c
924.119 1191.240 951.983 1219.103 986.543 1219.103 c
1021.679 1219.103 1049.543 1191.240 1049.543 1156.751 c
1049.543 1121.615 1021.679 1093.751 986.543 1093.751 c
b
u
u
0.000 0.000 0.000 0.000 k
236.375 397.151 m
230.399 397.151 L
230.399 419.111 L
236.375 419.111 L
236.375 397.151 L
f
0.000 0.000 0.000 0.000 k
236.375 499.895 m
230.399 499.895 L
230.399 521.855 L
236.375 521.855 L
236.375 499.895 L
f
U
u
0.000 0.000 0.000 1.000 K
0 j
0 J
0.215 w
[]0 d
236.375 397.151 m
230.399 397.151 L
230.399 419.111 L
236.375 419.111 L
236.375 397.151 L
s
0.000 0.000 0.000 1.000 K
0 j
0 J
0.215 w
[]0 d
236.375 499.895 m
230.399 499.895 L
230.399 521.855 L
236.375 521.855 L
236.375 499.895 L
s
U
U
u
u
0.000 0.000 0.000 0.000 k
984.887 1093.535 m
990.863 1093.535 L
990.863 1115.495 L
984.887 1115.495 L
984.887 1093.535 L
f
0.000 0.000 0.000 0.000 k
984.887 1196.279 m
990.863 1196.279 L
990.863 1218.240 L
984.887 1218.240 L
984.887 1196.279 L
f
U
u
0.000 0.000 0.000 1.000 K
0 j
0 J
0.215 w
[]0 d
984.887 1093.535 m
990.863 1093.535 L
990.863 1115.495 L
984.887 1115.495 L
984.887 1093.535 L
s
0.000 0.000 0.000 1.000 K
0 j
0 J
0.215 w
[]0 d
984.887 1196.279 m
990.863 1196.279 L
990.863 1218.240 L
984.887 1218.240 L
984.887 1196.279 L
s
U
U
u
u
0.000 0.000 0.000 0.000 k
262.871 404.567 m
257.471 401.975 L
248.039 421.775 L
253.439 424.367 L
262.871 404.567 L
f
0.000 0.000 0.000 0.000 k
218.807 497.303 m
213.407 494.783 L
203.975 514.583 L
209.375 517.175 L
218.807 497.303 L
f
U
u
0.000 0.000 0.000 1.000 K
0 j
0 J
0.215 w
[]0 d
262.871 404.567 m
257.471 401.975 L
248.039 421.775 L
253.439 424.367 L
262.871 404.567 L
s
0.000 0.000 0.000 1.000 K
0 j
0 J
0.215 w
[]0 d
218.807 497.303 m
213.407 494.783 L
203.975 514.583 L
209.375 517.175 L
218.807 497.303 L
s
U
U
u
u
0.000 0.000 0.000 0.000 k
958.391 1100.879 m
963.791 1098.359 L
973.223 1118.159 L
967.823 1120.751 L
958.391 1100.879 L
f
0.000 0.000 0.000 0.000 k
1002.455 1193.687 m
1007.855 1191.096 L
1017.287 1210.967 L
1011.887 1213.559 L
1002.455 1193.687 L
f
U
u
0.000 0.000 0.000 1.000 K
0 j
0 J
0.215 w
[]0 d
958.391 1100.879 m
963.791 1098.359 L
973.223 1118.159 L
967.823 1120.751 L
958.391 1100.879 L
s
0.000 0.000 0.000 1.000 K
0 j
0 J
0.215 w
[]0 d
1002.455 1193.687 m
1007.855 1191.096 L
1017.287 1210.967 L
1011.887 1213.559 L
1002.455 1193.687 L
s
U
U
u
u
0.000 0.000 0.000 0.000 k
283.895 422.783 m
280.151 418.103 L
263.087 431.927 L
266.903 436.607 L
283.895 422.783 L
f
0.000 0.000 0.000 0.000 k
204.191 487.583 m
200.447 482.903 L
183.383 496.727 L
187.199 501.407 L
204.191 487.583 L
f
U
u
0.000 0.000 0.000 1.000 K
0 j
0 J
0.215 w
[]0 d
283.895 422.783 m
280.151 418.103 L
263.087 431.927 L
266.903 436.607 L
283.895 422.783 L
s
0.000 0.000 0.000 1.000 K
0 j
0 J
0.215 w
[]0 d
204.191 487.583 m
200.447 482.903 L
183.383 496.727 L
187.199 501.407 L
204.191 487.583 L
s
U
U
u
u
0.000 0.000 0.000 0.000 k
937.367 1119.167 m
941.111 1114.487 L
958.175 1128.311 L
954.359 1132.991 L
937.367 1119.167 L
f
0.000 0.000 0.000 0.000 k
1017.071 1183.895 m
1020.815 1179.288 L
1037.879 1193.111 L
1034.063 1197.791 L
1017.071 1183.895 L
f
U
u
0.000 0.000 0.000 1.000 K
0 j
0 J
0.215 w
[]0 d
937.367 1119.167 m
941.111 1114.487 L
958.175 1128.311 L
954.359 1132.991 L
937.367 1119.167 L
s
0.000 0.000 0.000 1.000 K
0 j
0 J
0.215 w
[]0 d
1017.071 1183.895 m
1020.815 1179.288 L
1037.879 1193.111 L
1034.063 1197.791 L
1017.071 1183.895 L
s
U
U
u
u
0.000 0.000 0.000 0.000 k
294.767 447.047 m
293.255 441.287 L
272.015 446.759 L
273.527 452.591 L
294.767 447.047 L
f
0.000 0.000 0.000 0.000 k
195.407 472.967 m
193.895 467.135 L
172.583 472.679 L
174.095 478.511 L
195.407 472.967 L
f
U
u
0.000 0.000 0.000 1.000 K
0 j
0 J
0.215 w
[]0 d
294.767 447.047 m
293.255 441.287 L
272.015 446.759 L
273.527 452.591 L
294.767 447.047 L
s
0.000 0.000 0.000 1.000 K
0 j
0 J
0.215 w
[]0 d
195.407 472.967 m
193.895 467.135 L
172.583 472.679 L
174.095 478.511 L
195.407 472.967 L
s
U
U
u
u
0.000 0.000 0.000 0.000 k
926.495 1143.432 m
928.007 1137.599 L
949.247 1143.144 L
947.735 1148.975 L
926.495 1143.432 L
f
0.000 0.000 0.000 0.000 k
1025.855 1169.351 m
1027.367 1163.519 L
1048.679 1169.063 L
1047.096 1174.895 L
1025.855 1169.351 L
f
U
u
0.000 0.000 0.000 1.000 K
0 j
0 J
0.215 w
[]0 d
926.495 1143.432 m
928.007 1137.599 L
949.247 1143.144 L
947.735 1148.975 L
926.495 1143.432 L
s
0.000 0.000 0.000 1.000 K
0 j
0 J
0.215 w
[]0 d
1025.855 1169.351 m
1027.367 1163.519 L
1048.679 1169.063 L
1047.096 1174.895 L
1025.855 1169.351 L
s
U
U
u
u
0.000 0.000 0.000 0.000 k
294.335 474.407 m
295.415 468.503 L
273.815 464.543 L
272.735 470.519 L
294.335 474.407 L
f
0.000 0.000 0.000 0.000 k
193.247 456.047 m
194.327 450.143 L
172.727 446.183 L
171.647 452.159 L
193.247 456.047 L
f
U
u
0.000 0.000 0.000 1.000 K
0 j
0 J
0.215 w
[]0 d
294.335 474.407 m
295.415 468.503 L
273.815 464.543 L
272.735 470.519 L
294.335 474.407 L
s
0.000 0.000 0.000 1.000 K
0 j
0 J
0.215 w
[]0 d
193.247 456.047 m
194.327 450.143 L
172.727 446.183 L
171.647 452.159 L
193.247 456.047 L
s
U
U
u
u
0.000 0.000 0.000 0.000 k
926.927 1170.791 m
925.847 1164.887 L
947.447 1160.927 L
948.527 1166.831 L
926.927 1170.791 L
f
0.000 0.000 0.000 0.000 k
1028.015 1152.432 m
1026.935 1146.528 L
1048.535 1142.567 L
1049.615 1148.471 L
1028.015 1152.432 L
f
U
u
0.000 0.000 0.000 1.000 K
0 j
0 J
0.215 w
[]0 d
926.927 1170.791 m
925.847 1164.887 L
947.447 1160.927 L
948.527 1166.831 L
926.927 1170.791 L
s
0.000 0.000 0.000 1.000 K
0 j
0 J
0.215 w
[]0 d
1028.015 1152.432 m
1026.935 1146.528 L
1048.535 1142.567 L
1049.615 1148.471 L
1028.015 1152.432 L
s
U
U
u
u
0.000 0.000 0.000 0.000 k
281.951 499.823 m
285.479 494.927 L
267.767 482.039 L
264.239 486.863 L
281.951 499.823 L
f
0.000 0.000 0.000 0.000 k
199.007 439.271 m
202.535 434.447 L
184.751 421.487 L
181.223 426.383 L
199.007 439.271 L
f
U
u
0.000 0.000 0.000 1.000 K
0 j
0 J
0.215 w
[]0 d
281.951 499.823 m
285.479 494.927 L
267.767 482.039 L
264.239 486.863 L
281.951 499.823 L
s
0.000 0.000 0.000 1.000 K
0 j
0 J
0.215 w
[]0 d
199.007 439.271 m
202.535 434.447 L
184.751 421.487 L
181.223 426.383 L
199.007 439.271 L
s
U
U
u
u
0.000 0.000 0.000 0.000 k
939.311 1196.207 m
935.711 1191.311 L
953.495 1178.423 L
957.023 1183.247 L
939.311 1196.207 L
f
0.000 0.000 0.000 0.000 k
1022.255 1135.655 m
1018.727 1130.831 L
1036.511 1117.871 L
1040.039 1122.767 L
1022.255 1135.655 L
f
U
u
0.000 0.000 0.000 1.000 K
0 j
0 J
0.215 w
[]0 d
939.311 1196.207 m
935.711 1191.311 L
953.495 1178.423 L
957.023 1183.247 L
939.311 1196.207 L
s
0.000 0.000 0.000 1.000 K
0 j
0 J
0.215 w
[]0 d
1022.255 1135.655 m
1018.727 1130.831 L
1036.511 1117.871 L
1040.039 1122.767 L
1022.255 1135.655 L
s
U
U
u
u
0.000 0.000 0.000 0.000 k
260.279 517.175 m
265.536 514.295 L
255.095 494.999 L
249.767 497.879 L
260.279 517.175 L
f
0.000 0.000 0.000 0.000 k
211.247 426.887 m
216.575 424.007 L
206.063 404.711 L
200.807 407.591 L
211.247 426.887 L
f
U
u
0.000 0.000 0.000 1.000 K
0 j
0 J
0.215 w
[]0 d
260.279 517.175 m
265.536 514.295 L
255.095 494.999 L
249.767 497.879 L
260.279 517.175 L
s
0.000 0.000 0.000 1.000 K
0 j
0 J
0.215 w
[]0 d
211.247 426.887 m
216.575 424.007 L
206.063 404.711 L
200.807 407.591 L
211.247 426.887 L
s
U
U
u
u
0.000 0.000 0.000 0.000 k
960.983 1213.559 m
955.727 1210.679 L
966.167 1191.384 L
971.495 1194.263 L
960.983 1213.559 L
f
0.000 0.000 0.000 0.000 k
1010.015 1123.271 m
1004.687 1120.391 L
1015.199 1101.096 L
1020.455 1103.975 L
1010.015 1123.271 L
f
U
u
0.000 0.000 0.000 1.000 K
0 j
0 J
0.215 w
[]0 d
960.983 1213.559 m
955.727 1210.679 L
966.167 1191.384 L
971.495 1194.263 L
960.983 1213.559 L
s
0.000 0.000 0.000 1.000 K
0 j
0 J
0.215 w
[]0 d
1010.015 1123.271 m
1004.687 1120.391 L
1015.199 1101.096 L
1020.455 1103.975 L
1010.015 1123.271 L
s
U
U
0.000 0.000 0.000 1.000 K
0 j
0 J
0.215 w
[]0 d
0.000 0.000 0.000 0.098 k
234.359 418.823 m
256.967 418.823 275.111 437.039 275.111 460.007 c
275.111 482.543 256.967 500.759 234.359 500.759 c
211.391 500.759 193.247 482.543 193.247 460.007 c
193.247 437.039 211.391 418.823 234.359 418.823 c
b
0.000 0.000 0.000 1.000 K
0 j
0 J
0.215 w
[]0 d
0.000 0.000 0.000 0.098 k
986.903 1115.207 m
964.295 1115.207 946.151 1133.423 946.151 1156.391 c
946.151 1178.927 964.295 1197.144 986.903 1197.144 c
1009.871 1197.144 1028.015 1178.927 1028.015 1156.391 c
1028.015 1133.423 1009.871 1115.207 986.903 1115.207 c
b
0.000 0.000 0.000 1.000 K
0 j
0 J
0.215 w
[]0 d
0.000 0.000 0.000 0.000 k
233.855 442.079 m
224.423 442.079 216.575 449.927 216.575 459.575 c
216.575 469.007 224.423 476.855 233.855 476.855 c
243.503 476.855 251.351 469.007 251.351 459.575 c
251.351 449.927 243.503 442.079 233.855 442.079 c
b
0.000 0.000 0.000 1.000 K
0 j
0 J
0.215 w
[]0 d
0.000 0.000 0.000 0.000 k
987.407 1138.463 m
996.839 1138.463 1004.615 1146.311 1004.615 1155.959 c
1004.615 1165.391 996.839 1173.240 987.407 1173.240 c
977.759 1173.240 969.911 1165.391 969.911 1155.959 c
969.911 1146.311 977.759 1138.463 987.407 1138.463 c
b
0.000 0.000 0.000 1.000 K
0 j
0 J
0.215 w
[]0 d
0.000 0.000 0.000 0.000 k
234.143 448.559 m
228.167 448.559 223.415 453.311 223.415 459.287 c
223.415 465.335 228.167 470.015 234.143 470.015 c
240.191 470.015 244.871 465.335 244.871 459.287 c
244.871 453.311 240.191 448.559 234.143 448.559 c
b
0.000 0.000 0.000 1.000 K
0 j
0 J
0.215 w
[]0 d
0.000 0.000 0.000 0.000 k
987.119 1144.943 m
993.095 1144.943 997.847 1149.695 997.847 1155.672 c
997.847 1161.719 993.095 1166.399 987.119 1166.399 c
981.071 1166.399 976.391 1161.719 976.391 1155.672 c
976.391 1149.695 981.071 1144.943 987.119 1144.943 c
b
0.000 0.000 0.000 0.000 K
0 j
0 J
0.215 w
[]0 d
234.503 413.639 m
260.063 413.639 280.656 434.231 280.656 460.151 c
280.656 485.711 260.063 506.231 234.503 506.231 c
208.583 506.231 187.991 485.711 187.991 460.151 c
187.991 434.231 208.583 413.639 234.503 413.639 c
s
0.000 0.000 0.000 0.000 K
0 j
0 J
0.215 w
[]0 d
986.687 1110.023 m
961.199 1110.023 940.607 1130.615 940.607 1156.535 c
940.607 1182.096 961.199 1202.615 986.687 1202.615 c
1012.679 1202.615 1033.271 1182.096 1033.271 1156.535 c
1033.271 1130.615 1012.679 1110.023 986.687 1110.023 c
s
0.000 0.000 0.000 1.000 K
0 j
0 J
0.215 w
[]0 d
0.000 0.000 0.000 0.498 k
1844.567 1058.831 m
1803.167 1058.831 l
1798.271 1058.831 1794.527 1062.503 1794.527 1067.399 c
1794.527 1159.559 L
1830.311 1159.775 L
1840.031 1160.783 1843.415 1196.279 1851.191 1213.271 c
1851.767 1214.495 1853.135 1209.384 1853.135 1207.655 c
1853.135 1067.399 l
1853.135 1062.503 1849.463 1058.831 1844.567 1058.831 c
b
0.000 0.000 0.000 1.000 K
0 j
0 J
0.215 w
[]0 d
0.000 0.000 0.000 1.000 k
1360.223 1058.831 m
1401.623 1058.831 l
1406.447 1058.831 1410.191 1062.503 1410.191 1067.399 c
1410.191 1159.559 L
1374.479 1159.775 L
1364.687 1160.783 1361.375 1196.279 1353.527 1213.271 c
1352.951 1214.495 1351.583 1209.384 1351.583 1207.655 c
1351.583 1067.399 l
1351.583 1062.503 1355.327 1058.831 1360.223 1058.831 c
b
0.000 0.000 0.000 1.000 K
0 j
2 J
0.215 w
[]0 d
0.000 0.000 0.000 0.200 k
1602.143 1570.031 m
1608.407 1569.887 L
1668.311 1572.407 1728.287 1569.095 1778.471 1560.887 C
1789.199 1531.583 1802.735 1475.711 1813.031 1431.000 C
1667.591 1430.063 L
1660.751 1422.575 L
1390.031 1422.791 L
1401.767 1470.815 1419.551 1523.015 1433.591 1560.887 C
1484.351 1567.511 1548.215 1571.255 1602.143 1570.031 C
b
0.000 0.000 0.000 1.000 K
0 j
0 J
0.215 w
[]0 d
0.000 0.000 0.000 0.200 k
1382.327 1391.903 m
1532.879 1391.543 L
1627.631 1376.279 L
1634.255 1390.535 L
1729.367 1390.967 L
1797.119 1376.711 L
1805.327 1390.751 L
1820.375 1390.535 L
1812.599 1431.359 L
1667.303 1430.207 L
1660.463 1422.791 L
1389.527 1423.151 L
1382.327 1391.903 L
b
0.000 0.000 0.000 1.000 K
0 j
0 J
0.215 w
[]0 d
771.983 601.559 m
804.095 601.559 l
809.279 601.559 813.239 597.671 813.239 592.487 c
813.239 565.127 l
813.239 559.943 809.279 555.983 804.095 555.983 c
771.983 555.983 l
766.799 555.983 762.839 559.943 762.839 565.127 c
762.839 592.487 l
762.839 597.671 766.799 601.559 771.983 601.559 c
s
0.000 0.000 0.000 0.000 k
629.639 316.223 m
629.207 309.455 638.495 309.239 638.711 316.007 c
638.711 322.271 629.855 322.271 629.639 316.223 c
f
0.000 0.000 0.000 0.000 k
604.439 326.663 m
597.527 316.655 L
604.439 316.655 L
604.439 326.663 L
f
%%Trailer
_E end