%!PS-Adobe-2.0 EPSF-1.2
%%Creator: Adobe Illustrator exported from Corel Draw 3.0
%%Title:6
%%BoundingBox:75 744 1032 1239
%%CreationDate:(Unknown)
%%ColorUsage:
%%TemplateBox:75 744 1032 1239
%%EndComments
%%BeginProcSet:Adobe_Illustrator_1.1 0 0
% Version 1.0 3/27/1990 $nokeywords$
% Copyright (C) 1990,1991,1992
% Corel Corporation
% All Rights Reserved

/wPmsDict 150 dict def 
wPmsDict begin 

/$debug 25 string def 

/bd {bind def} bind def 
/ld {load def} bd 
/xd {exch def} bd 
/_ null def 

/$c 0 def 
/$m 0 def 
/$y 0 def 
/$k 0 def 
/$t 1 def 
/$n _ def 
/$o 0 def 
/$pf false def 

/$C 0 def 
/$M 0 def 
/$Y 0 def 
/$K 0 def 
/$T 1 def 
/$N _ def 
/$O 0 def 
/$PF false def 

/$h false def 

/$al 0 def 
/$tr 0 def 
/$le 0 def 
/$lx 0 def 
/$ly 0 def 

/$ctm matrix currentmatrix def 
/$ptm matrix def 

/$pn () def 
/$pm matrix def 
/$px 0 def 
/$py 0 def 
/$pxf 0 def 
/$pyf 0 def 
/$psx 10 def 
/$psy 0 def 

/$llx 0 def 
/$lly 0 def 
/$urx 0 def 
/$ury 0 def 


/$Bbllx 0 def 
/$Bblly 0 def 
/$Bburx 0 def 
/$Bbury 0 def 

/$tllx 0 def 
/$tlly 0 def 
/$turx 0 def 
/$tury 0 def 

/$pd [] def 
/$tx 0 def 
/$ty 0 def 

/$sv 0 def 
/@cp /closepath ld 
/@gs /gsave ld 
/@gr /grestore ld 
/@np /newpath ld 
/@sv {/$sv save def}bd 
/@rs {$sv restore}bd 

/@MN { 
2 copy le{pop}{exch pop}ifelse 
}bd 

/setcmykcolor where {pop} 
{ 
/setcmykcolor 
{ 
4 1 roll 
3 {3 index add 1 @MN 1 exch sub 3 1 roll} repeat 
setrgbcolor 
pop 
}bd 
}ifelse 

/@tc 
{ 
dup 1 ge 
{pop} 
{ 
4 { 
dup 
6 -1 roll 
mul 
exch 
}repeat 
pop 
}ifelse 
}bd 

/@scc 
{ 
$c $m $y $k $t @tc 
setcmykcolor 
true 
}bd 
/@SCC 
{ 
$C $M $Y $K $T @tc 
setcmykcolor 
true 
}bd 

/@sft 
{ 
(setfirsttile sft )print 
/$tx $tllx $pxf add dup $tllx gt {$pwid $psx add sub}if def 
/$ty $tury $pyf sub dup $tury lt {$phei $psy add add}if def 
(setfirsttile exit )print 
}bd 

/@stb 
{ 
pathbbox /$ury xd /$urx xd /$lly xd /$llx xd 
}bd 

/@ep 
{ 
{ 
cvx exec 
}forall 
}bd 

/@tp 
{ 

(tile pattern tp )print 
@sv 
/$in true def 
2 copy 
dup $lly le {/$in false def}if 
$phei sub $ury ge {/$in false def}if 
dup $urx ge {/$in false def}if 
$pwid add $llx le {/$in false def}if 
$in 
{ 
@np 
2 copy moveto 
$pwid 0 rlineto 
0 $phei neg rlineto 
$pwid neg 0 rlineto 
0 $phei rlineto 
clip @np 

$pn cvlit load aload pop 
7 -1 roll 
5 index sub 
7 -1 roll 
3 index sub 
translate 
@ep 
pop pop pop pop 
} 
{pop pop}ifelse 
@rs 
(tile pattern exit )print 
}bd 

/@th 
{ 
(tile horizontal th)print 
@sft 
0 1 $tly 1 sub 
{ 
dup $psx mul $tx add 
{ 
dup $llx gt {$pwid sub}{exit}ifelse 
}loop 
exch $phei mul $ty exch sub 

0 1 $tlx 1 sub 
{ 
$pwid mul 
3 copy 
3 -1 roll add exch 
@tp 
pop 
}for 
pop pop 
} for 
(tile horizontal exiting )print 
}bd 

/@tv 
{ 
(tile vertical tv)print 
@sft 
0 1 $tlx 1 sub 
{ 
dup $pwid mul $tx add 
exch $psy mul $ty exch sub 
{ 
dup $ury lt {$phei add}{exit}ifelse 
}loop 

0 1 $tly 1 sub 
{ 
$phei mul 
3 copy sub 
@tp 
pop 
}for 
pop pop 
} for 
(tile vertical exit )print 
}bd 

/@pf 
{ 
(pattern fill pf)print 
@gs 
$pm concat 
@stb 
@gs 1 setgray eofill @gr 
eoclip 
$Bburx $Bbury $pm itransform /$tury xd /$turx xd 
$Bbllx $Bblly $pm itransform /$tlly xd /$tllx xd 
/$wid $turx $tllx sub def 
/$hei $tury $tlly sub def 
$wid 0 gt $hei 0 gt and 
{ 
$pn cvlit load aload pop 
$pd xd 
3 -1 roll sub /$phei xd 
exch sub /$pwid xd 
/$tlx $wid $pwid div ceiling 1 add def 
/$tly $hei $phei div ceiling 1 add def 
$psx 0 eq 
{ 
@tv 
} 
{ 
@th 
}ifelse 
}if 

@gr 
@np 
(pattern fill exit)print 
}bd 

/@xp 
{ 
{ 
dup (text Character is:) print == 
usertime (time before is:)print == 
(0) dup 3 -1 roll 0 exch put 
@gs 
true charpath currentpoint 
$ctm setmatrix 
@pf 
@gr 
@np 
moveto $tr 0 rmoveto 
usertime (time after is:)print == 
}forall 
pop 
}bd 

/@sm 
{ 
/$ctm $ctm currentmatrix def 
}bd 

%--@lorg  move to line origin   length string @torg length string
/@lorg    % moves currentpoint to line origin according to current alignment
  {      
  $lx $ly moveto    
  /$ly $ly $le sub def      % - prepare for next line(tracking)
  $al 0 ne
    {dup      % ->len str len str
    stringwidth   % ->len str len dx dy
    exch 3 index  % ->len str dy len dx
    1 sub         % ->len str dy len dx (len-1)
    $tr mul add   % ->len str dy len dx+(len-1)*$tr
    neg
    exch neg      % ->len str -dx_total dy len
    $al 1 eq      % check for centered alignment
    {2 div exch 2 div exch} if  
    rmoveto} if
  }bd

/@ft 
{ 
$pf 
{@xp} 
{ 
@scc 
{$tr exch 0 exch ashow pop} 
{pop pop}ifelse 
}ifelse 
}bd 

/@st 
{ 
$PF 
{} 
{ 
@SCC 
{ 
{ 
(0) dup 3 -1 roll 0 exch put 
@gs 
true charpath currentpoint 
$ctm setmatrix $ptm concat 
stroke 
@gr 
moveto $tr 0 rmoveto 
}forall 
pop 
} 
{pop pop}ifelse 
}ifelse 
}bd 
/@pt 
{ 
dup length exch 
}bd 
/@te 
{ 
@pt 
@lorg 
@ft 
}bd 

/@tr 
{ 
@pt 
@lorg 
@st 
}bd 
/@ta 
{ 
@pt 
@lorg 
2 copy 
@gs @ft @gr 
/$lx 0 def 
/$ly 0 def 
@st 
}bd 















/g { 
1 exch sub /$k xd 
/$c 0 def /$m 0 def /$y 0 def /$t 1 def /$n _ def /$pf false def 
}bd 

/G { 
1 exch sub /$K xd 
/$C 0 def /$M 0 def /$Y 0 def /$T 1 def /$N _ def /$PF false def 
}bd 

/k { 
/$k xd /$y xd /$m xd /$c xd 
/$t 1 def /$n _ def /$pf false def 
}bd 

/K { 
/$K xd /$Y xd /$M xd /$C xd 
/$T 1 def /$N _ def /$PF false def 
}bd 

/x { 
/$t xd /$n xd 
/$k xd /$y xd /$m xd /$c xd /$pf false def 
}bd 

/X { 
/$T xd /$N xd 
/$K xd /$Y xd /$M xd /$C xd /$PF false def 
}bd 

/d /setdash ld 

/i { 
dup 0 ne {setflat} {pop} ifelse 
}bd 

/j /setlinejoin ld 

/J /setlinecap ld 

/M /setmiterlimit ld 

/w /setlinewidth ld 

/O { 
/$o xd 
}bd 

/R { 
/$O xd 
}bd 


/c /curveto ld 

/C /c ld 

/v { 
currentpoint
6 2 roll 
curveto 
}bd

/V /v ld 

/y { 
2 copy curveto 
}bd 

/Y /y ld 

/l /lineto ld 

/L /l ld 

/m /moveto ld 



/n /newpath ld 

/N /newpath ld 

/F { 
$pf 
{@pf} 
{ 
@scc 
{eofill}if 
}ifelse 
}bd 

/f { 
@cp F 
}bd 
/S { 
$PF 
{} 
{ 
@SCC 
{ 
@sm 
$ptm concat 
stroke 
$ctm setmatrix 
}if 
}ifelse 
}bd 
/s { 
@cp 
S 
}bd 

/B { 
@gs F @gr 
S 
}bd 
/b { 
@cp 
B 
}bd 

/W { 
oeclip 
@np 
}bd 

/p { 
/$pm xd 
7 {pop} repeat 
/$pyf xd /$pxf xd 
/$pn xd 
/$pf true def 
}bd 

/P { 
11 {pop} repeat 
}bd 

/@p { 
/$pm xd 
/$psy xd 
/$psx xd 
/$pyf xd /$pxf xd 
/$pn xd 
/$pf true def 
}bd 

/@b { 
/$Bbury xd /$Bburx xd 
/$Bblly xd /$Bbllx xd 
}bd 


/z { 
/$al xd 
/$tr xd 
/$le xd 
exch findfont exch scalefont setfont 
}bd 

/Z { 
dup type 0 type eq { /$bDir xd } if
findfont 
dup maxlength 1 add dict exch 



dup 
{1 index /FID ne 
{ 
3 index 
3 1 roll put 
} 
{pop pop}ifelse 
} forall 



pop 
dup dup /Encoding get 
256 array copy 
dup /$fe xd
/Encoding exch put 

dup /Fontname 3 index put 

}bd 

/e { 
@sm 
concat 
[ 
/t {@te}def 
}bd 

/r { 
@sm 
concat 
[ 
/t {@tr}def 
}bd 

/o { 
@sm 
concat 
[ 
/t {pop}def 
}bd 

/a { 
@sm 
concat 
[ 
/t {@ta}def 
}bd 

/@o{
@sm 
concat 
[ 
/t {@t@a}def 
}bd 

/I { 
@sm 
concat 
[ 
/t {pop}def 
}bd 

/t {@te}def 

/T { 
cleartomark 
/$lx 0 def 
/$ly 0 def 
$ctm setmatrix 
}bd 


/u {}bd 

/U {}bd 

/A {pop}bd 

/h { 
$h true def 
}bd 

/h { 
$h true def 
}bd 

/q /@gs ld 

/Q /@gr ld 



/E { 
5 array astore 
exch cvlit exch def 
}bd 

/` {}bd 

/~ {}bd 

/@ {}bd 

/& {}bd 

/CorelDrawRencodeVect [ 
16#80/grave 
16#81/circumflex 
16#82/tilde 
16#83/dotlessi 
16#84/florin 
16#85/quotedblleft 
16#86/quotedblright 
16#87/guilsinglleft 
16#88/guilsinglright 
16#89/fi 
16#8a/fl 
16#8b/dagger 
16#8c/daggerdbl 
16#8d/endash 
16#8e/periodcentered 
16#8f/breve 
16#90/quotedblbase 
16#91/ellipsis 
16#92/perthousand 
16#a1/exclamdown 
16#a2/cent 
16#a3/sterling 
16#a4/currency 
16#a5/yen 
16#a6/bar 
16#a7/section 
16#a8/dieresis 
16#a9/copyright 
16#aa/ordfeminine 
16#ab/guillemotleft 
16#ac/logicalnot 
16#ad/emdash 
16#ae/registered 
16#af/spac 
16#b0/ring 
16#b1/spac 
16#b2/spac 
16#b3/spac 
16#b4/acute 
16#b5/spac 
16#b6/paragraph 
16#b7/bullet 
16#b8/cedilla 
16#b9/spac 
16#ba/ordmasculine 
16#bb/guillemotright 
16#bc/spac 
16#bd/spac 
16#be/spac 
16#bf/questiondown 
16#c0/Agrave 
16#c1/Aacute 
16#c2/Acircumflex 
16#c3/Atilde 
16#c4/Adieresis 
16#c5/Aring 
16#c6/AE 
16#c7/Ccedilla 
16#c8/Egrave 
16#c9/Eacute 
16#ca/Ecircumflex 
16#cb/Edieresis 
16#cc/Igrave 
16#cd/Iacute 
16#ce/Icircumflex 
16#cf/Idieresis 
16#d0/spac 
16#d1/Ntilde 
16#d2/Ograve 
16#d3/Oacute 
16#d4/Ocircumflex 
16#d5/Otilde 
16#d6/Odieresis 
16#d7/OE 
16#d8/Oslash 
16#d9/Ugrave 
16#da/Uacute 
16#db/Ucircumflex 
16#dc/Udieresis 
16#dd/space 
16#de/spac 
16#df/germandbls 
16#e0/agrave 
16#e1/aacute 
16#e2/acircumflex 
16#e3/atilde 
16#e4/adieresis 
16#e5/aring 
16#e6/ae 
16#e7/ccedilla 
16#e8/egrave 
16#e9/eacute 
16#ea/ecircumflex 
16#eb/edieresis 
16#ec/igrave 
16#ed/iacute 
16#ee/icircumflex 
16#ef/idieresis 
16#f0/space 
16#f1/ntilde 
16#f2/ograve 
16#f3/oacute 
16#f4/ocircumflex 
16#f5/otilde 
16#f6/odieresis 
16#f7/oe 
16#f8/oslash 
16#f9/ugrave 
16#fa/uacute 
16#fb/ucircumflex 
16#fc/udieresis 
16#fd/spac 
16#fe/spac 
16#ff/ydieresis 
] def
%%EndProlog
%%BeginSetup
%%BeginEncoding:_Times-Bold Times-Bold
[
]/_Times-Bold/Times-Bold Z
%%EndEncoding
%%EndSetup
0.000 0.000 0.000 1.000 K
0 j
0 J
0.215 w
[]0 d
0.000 0.000 0.000 0.000 k
645.551 1138.679 m
645.551 1131.767 L
625.895 1131.767 L
625.823 1132.055 L
625.751 1131.839 625.751 1131.839 625.751 1131.839 C
625.751 1131.767 591.695 1128.599 578.807 1127.447 C
569.735 1135.151 558.072 1139.687 545.255 1139.687 C
528.479 1139.687 513.647 1131.767 504.143 1119.455 C
497.087 1110.528 492.983 1099.439 492.983 1087.343 C
492.983 1084.463 493.199 1081.655 493.631 1078.991 C
493.631 1078.847 493.631 1078.775 493.631 1078.559 C
492.335 1078.559 L
492.335 1078.415 492.335 1078.055 492.551 1077.839 C
492.551 1077.624 492.335 1077.624 492.119 1077.624 C
492.119 1077.263 491.975 1077.119 491.975 1077.119 C
491.975 1077.119 482.399 1076.903 468.143 1076.687 C
453.383 1076.327 434.879 1076.183 422.783 1076.183 C
398.231 1076.183 372.815 1075.607 348.551 1075.607 C
314.495 1075.607 279.719 1075.247 245.735 1075.247 C
245.303 1075.247 245.159 1075.247 244.943 1075.607 C
243.071 1076.903 241.199 1079.135 239.543 1081.943 C
239.759 1084.031 239.759 1086.048 239.759 1087.919 C
239.759 1116.000 216.935 1138.751 188.711 1138.751 C
174.599 1138.751 161.567 1132.991 152.351 1123.559 C
151.919 1123.199 151.487 1122.767 151.127 1122.336 C
148.895 1122.336 145.655 1122.336 142.703 1122.336 C
142.703 1122.263 142.631 1122.119 142.631 1122.048 C
138.383 1122.048 134.639 1122.048 134.855 1122.263 C
134.639 1121.975 84.095 1121.975 84.167 1122.263 C
84.095 1121.975 86.831 1133.567 89.423 1137.311 C
89.423 1137.311 93.455 1141.775 97.199 1144.223 C
101.015 1146.455 106.127 1148.327 106.991 1148.615 C
120.095 1152.719 125.495 1154.663 151.127 1159.631 C
173.663 1164.023 214.055 1169.063 221.471 1169.711 C
227.735 1170.215 233.639 1171.367 236.447 1175.687 C
237.959 1177.775 240.407 1177.199 241.703 1176.048 C
243.071 1175.111 243.431 1170.935 243.431 1170.935 C
243.287 1170.719 257.759 1174.607 257.759 1174.607 C
257.759 1174.607 279.000 1190.375 299.663 1203.911 C
316.655 1214.783 333.935 1223.567 333.935 1223.567 C
333.863 1223.351 337.607 1226.375 337.319 1228.535 C
366.551 1237.607 401.687 1237.895 411.047 1237.895 C
424.871 1238.255 440.783 1238.687 453.023 1238.903 C
466.055 1238.687 479.447 1237.319 492.551 1237.031 C
503.855 1236.671 515.735 1236.023 526.823 1234.655 c
549.360 1231.847 572.255 1220.687 592.847 1211.255 c
609.983 1203.407 618.407 1197.503 633.024 1188.432 C
633.024 1188.432 636.767 1188.791 639.216 1189.151 C
641.447 1189.511 639.719 1192.535 648.000 1190.663 C
648.000 1190.663 649.079 1186.703 649.079 1183.895 C
649.079 1180.943 648.503 1178.351 648.503 1178.351 C
648.503 1177.919 647.567 1174.751 647.567 1174.967 C
647.567 1174.751 647.207 1171.583 647.207 1168.775 C
644.759 1168.415 L
646.271 1168.415 647.567 1165.823 647.567 1165.391 C
647.567 1161.503 L
647.567 1159.991 645.911 1158.480 644.759 1158.480 C
644.615 1158.336 L
646.271 1158.336 647.783 1156.247 647.783 1154.951 C
647.783 1141.847 L
647.783 1140.336 645.911 1138.319 644.615 1138.319 C
645.551 1138.679 L
b
0.000 0.000 0.000 1.000 K
0 j
0 J
0.215 w
[]0 d
0.000 0.000 0.000 0.000 k
84.959 893.015 m
84.959 886.103 L
104.615 886.103 L
104.687 886.391 L
104.831 886.175 104.831 886.175 104.831 886.175 C
104.831 886.103 138.816 882.935 151.703 881.783 C
160.775 889.487 172.512 894.023 185.255 894.023 C
202.031 894.023 216.863 886.103 226.439 873.791 C
233.423 864.863 237.527 853.775 237.527 841.679 C
237.527 838.799 237.383 835.991 236.879 833.255 C
236.879 833.183 236.879 833.111 236.879 832.895 C
238.175 832.895 L
238.175 832.751 238.175 832.391 238.031 832.175 C
238.031 831.959 238.175 831.959 238.391 831.959 C
238.391 831.599 238.535 831.455 238.535 831.455 C
238.535 831.455 248.111 831.239 262.295 831.023 C
277.055 830.663 295.560 830.519 307.727 830.519 C
332.207 830.519 357.623 829.943 381.959 829.943 C
415.943 829.943 450.719 829.583 484.847 829.583 C
485.207 829.583 485.351 829.583 485.567 829.943 C
487.439 831.239 489.311 833.471 490.967 836.279 C
490.823 838.367 490.823 840.383 490.823 842.255 C
490.823 870.335 513.575 893.087 541.799 893.087 C
555.983 893.087 568.943 887.327 578.159 877.895 C
578.591 877.535 579.024 877.103 579.383 876.671 C
581.687 876.671 584.855 876.671 587.807 876.671 C
587.807 876.599 587.951 876.455 587.951 876.383 C
592.127 876.383 595.871 876.383 595.655 876.599 C
595.871 876.311 646.415 876.311 646.343 876.599 C
646.415 876.311 643.751 887.903 641.087 891.647 C
641.087 891.647 637.055 896.111 633.311 898.559 C
629.495 900.791 624.383 902.663 623.519 902.951 C
610.415 907.055 605.015 908.999 579.383 913.967 C
556.847 918.359 516.527 923.399 509.039 924.047 C
502.775 924.551 496.871 925.703 494.063 930.023 C
492.551 932.111 490.175 931.535 488.807 930.383 C
487.439 929.447 487.079 925.271 487.079 925.271 C
487.223 925.055 472.751 928.943 472.751 928.943 C
472.751 928.943 451.511 944.711 430.847 958.247 C
413.855 969.119 396.503 977.903 396.503 977.903 C
396.647 977.687 392.903 980.711 393.191 982.871 C
363.887 991.943 328.751 992.231 319.391 992.231 C
305.567 992.591 289.727 993.023 277.415 993.239 C
264.455 993.023 251.063 991.655 238.031 991.367 C
226.727 991.007 214.847 990.359 203.687 988.991 c
181.151 986.183 158.256 975.023 137.735 965.591 c
120.527 957.671 112.103 951.839 97.487 942.767 C
97.487 942.767 93.743 943.127 91.367 943.487 C
89.063 943.847 90.791 946.871 82.583 944.999 C
82.583 944.999 81.431 941.039 81.431 938.231 C
81.431 935.279 82.007 932.687 82.007 932.687 C
82.007 932.255 82.943 929.087 82.943 929.303 C
82.943 929.087 83.303 925.919 83.303 923.111 C
85.751 922.751 L
84.239 922.751 82.943 920.159 82.943 919.727 C
82.943 915.839 L
82.943 914.327 84.599 912.815 85.751 912.815 C
85.895 912.671 L
84.239 912.671 82.727 910.583 82.727 909.287 C
82.727 896.183 L
82.727 894.671 84.599 892.655 85.895 892.655 C
84.959 893.015 L
b
u
u
0.000 0.788 0.909 0.000 (PANTONE Warm Red CV) -0.000 x
528.695 1233.935 m
548.567 1225.871 566.351 1217.591 585.863 1208.519 C
585.863 1208.519 599.975 1201.751 608.759 1195.991 C
618.120 1190.015 624.455 1183.463 624.455 1183.463 C
624.455 1183.463 627.479 1179.359 628.559 1174.679 C
628.991 1172.807 629.351 1170.863 629.495 1168.991 c
629.711 1167.119 629.135 1140.551 625.895 1131.695 C
S
U
u
0.000 0.000 0.000 1.000 K
0 j
0 J
0.215 w
[]0 d
528.695 1233.935 m
548.567 1225.871 566.351 1217.591 585.863 1208.519 C
585.863 1208.519 599.975 1201.751 608.759 1195.991 C
618.120 1190.015 624.455 1183.463 624.455 1183.463 C
624.455 1183.463 627.479 1179.359 628.559 1174.679 C
628.991 1172.807 629.351 1170.863 629.495 1168.991 c
629.711 1167.119 629.135 1140.551 625.895 1131.695 C
S
U
U
u
u
0.000 0.788 0.909 0.000 (PANTONE Warm Red CV) -0.000 x
201.887 988.271 m
181.943 980.207 164.159 971.927 144.647 962.855 C
144.647 962.855 130.536 956.087 121.751 950.327 C
112.391 944.351 106.055 937.799 106.055 937.799 C
106.055 937.799 103.031 933.695 101.951 929.015 C
101.519 927.143 101.159 925.127 101.015 923.327 c
100.799 921.455 101.375 894.887 104.615 886.031 C
S
U
u
0.000 0.000 0.000 1.000 K
0 j
0 J
0.215 w
[]0 d
201.887 988.271 m
181.943 980.207 164.159 971.927 144.647 962.855 C
144.647 962.855 130.536 956.087 121.751 950.327 C
112.391 944.351 106.055 937.799 106.055 937.799 C
106.055 937.799 103.031 933.695 101.951 929.015 C
101.519 927.143 101.159 925.127 101.015 923.327 c
100.799 921.455 101.375 894.887 104.615 886.031 C
S
U
U
u
u
0.000 0.788 0.909 0.000 (PANTONE Warm Red CV) -0.000 x
528.695 1234.079 m
528.408 1234.151 528.120 1234.367 527.903 1234.511 C
S
U
u
0.000 0.000 0.000 1.000 K
0 j
0 J
0.215 w
[]0 d
528.695 1234.079 m
528.408 1234.151 528.120 1234.367 527.903 1234.511 C
S
U
U
u
u
0.000 0.788 0.909 0.000 (PANTONE Warm Red CV) -0.000 x
201.743 988.271 m
202.031 988.343 202.247 988.559 202.463 988.775 C
S
U
u
0.000 0.000 0.000 1.000 K
0 j
0 J
0.215 w
[]0 d
201.743 988.271 m
202.031 988.343 202.247 988.559 202.463 988.775 C
S
U
U
0.000 0.000 0.000 1.000 K
0 j
0 J
0.215 w
[]0 d
0.000 0.000 0.000 0.298 k
627.551 1138.463 m
628.631 1144.439 629.135 1152.144 629.423 1158.407 C
644.471 1158.407 L
646.271 1158.407 647.783 1155.743 647.783 1154.951 C
647.783 1141.919 L
647.783 1141.127 645.120 1138.463 644.471 1138.463 C
627.551 1138.463 L
627.120 1135.799 626.543 1133.495 625.967 1131.911 C
645.407 1131.911 L
645.407 1138.751 L
627.551 1138.463 L
b
0.000 0.000 0.000 1.000 K
0 j
0 J
0.215 w
[]0 d
0.000 0.000 0.000 0.298 k
102.815 892.655 m
101.807 898.631 101.231 906.407 100.943 912.671 C
85.895 912.671 L
84.095 912.671 82.655 909.935 82.655 909.215 C
82.655 896.111 L
82.655 895.391 85.247 892.655 85.895 892.655 C
102.815 892.655 L
103.319 890.063 103.823 887.687 104.399 886.103 C
84.959 886.103 L
84.959 892.943 L
102.815 892.655 L
b
0.000 0.000 0.000 1.000 K
0 j
0 J
0.215 w
[]0 d
0.000 0.000 0.000 0.298 k
629.423 1158.624 m
629.639 1163.087 629.711 1166.831 629.711 1168.559 C
644.687 1168.559 L
646.271 1168.559 647.567 1166.183 647.567 1165.535 C
647.567 1161.503 L
647.567 1160.783 645.120 1158.624 644.687 1158.624 C
629.423 1158.624 L
b
0.000 0.000 0.000 1.000 K
0 j
0 J
0.215 w
[]0 d
0.000 0.000 0.000 0.298 k
100.943 912.815 m
100.799 917.351 100.655 921.095 100.655 922.751 C
85.751 922.751 L
84.095 922.751 82.799 920.447 82.799 919.727 C
82.799 915.767 L
82.799 914.975 85.247 912.815 85.751 912.815 C
100.943 912.815 L
b
0.000 0.000 0.000 1.000 K
0 j
0 J
0.215 w
[]0 d
0.000 0.000 0.000 0.650 (PANTONE Cool Gray 9 CV) -0.000 x
492.191 1078.487 m
493.631 1078.487 L
493.271 1081.511 493.055 1084.319 493.055 1087.271 C
493.055 1116.071 516.456 1139.615 545.255 1139.615 C
573.983 1139.615 597.168 1116.071 597.168 1087.271 C
597.168 1086.624 597.168 1084.535 597.024 1082.159 C
633.959 1081.871 L
636.479 1081.079 635.039 1076.543 633.168 1075.391 C
631.007 1074.096 622.439 1076.975 621.863 1074.384 C
620.783 1070.351 L
586.367 1070.351 L
587.087 1072.151 587.735 1073.519 587.735 1074.816 C
588.887 1078.847 589.463 1083.096 589.463 1087.343 C
589.463 1111.679 569.807 1131.839 545.111 1131.839 C
520.631 1131.839 500.831 1111.679 500.831 1087.343 C
500.831 1080.720 502.343 1074.455 504.863 1068.839 C
505.151 1068.048 505.367 1067.183 505.871 1066.535 C
505.871 1066.535 232.919 1065.887 229.247 1065.816 C
228.527 1065.672 227.735 1065.672 227.159 1065.816 C
230.831 1072.223 232.919 1079.711 232.919 1087.775 C
232.919 1112.255 213.263 1131.839 188.567 1131.839 C
164.087 1131.839 144.072 1112.255 144.072 1087.775 C
144.072 1080.359 145.943 1073.375 149.256 1067.183 C
142.487 1067.183 130.967 1067.255 126.719 1067.255 C
125.279 1067.255 124.559 1069.703 124.559 1069.703 C
124.343 1069.703 119.015 1070.063 119.015 1070.063 C
113.615 1067.831 108.287 1072.511 108.359 1072.511 C
108.287 1072.511 96.695 1072.799 97.055 1072.799 C
96.695 1072.799 89.855 1078.271 90.071 1078.271 C
89.855 1078.271 122.039 1086.336 122.183 1086.336 C
116.063 1112.039 135.792 1105.127 137.159 1101.023 C
139.103 1101.023 135.287 1109.591 138.024 1114.199 C
139.103 1116.359 140.903 1119.311 142.703 1122.263 C
145.584 1122.263 148.751 1122.263 151.127 1122.263 C
160.415 1132.343 173.879 1138.679 188.639 1138.679 C
216.935 1138.679 239.687 1115.855 239.687 1087.847 C
239.687 1085.975 239.687 1083.887 239.543 1081.871 C
241.127 1079.135 243.071 1076.831 244.871 1075.535 C
245.015 1075.247 245.303 1075.103 245.663 1075.103 C
279.647 1075.103 314.423 1075.607 348.479 1075.535 C
372.815 1075.535 398.159 1076.183 422.711 1076.183 C
434.879 1076.183 453.311 1076.327 468.071 1076.687 C
482.327 1076.903 491.975 1076.975 491.975 1076.975 C
491.975 1076.975 492.047 1077.263 492.047 1077.624 C
492.191 1077.624 492.407 1077.624 492.407 1077.768 C
492.335 1078.055 492.191 1078.271 492.191 1078.559 C
492.191 1078.487 L
b
0.000 0.000 0.000 1.000 K
0 j
0 J
0.215 w
[]0 d
0.000 0.000 0.000 0.650 (PANTONE Cool Gray 9 CV) -0.000 x
238.319 832.823 m
236.879 832.823 L
237.239 835.847 237.455 838.655 237.455 841.607 C
237.455 870.407 214.055 893.951 185.327 893.951 C
156.527 893.951 133.343 870.407 133.343 841.607 C
133.343 840.959 133.343 838.871 133.487 836.495 C
96.623 836.207 L
94.103 835.415 95.471 830.879 97.343 829.727 C
99.503 828.431 108.071 831.311 108.647 828.719 C
109.799 824.687 L
144.143 824.687 L
143.423 826.487 142.775 827.855 142.775 829.151 C
141.623 833.183 141.119 837.431 141.119 841.679 C
141.119 866.015 160.703 886.175 185.399 886.175 C
209.879 886.175 229.679 866.015 229.679 841.679 C
229.679 835.055 228.239 828.791 225.647 823.175 C
225.431 822.383 225.143 821.519 224.639 820.871 C
224.639 820.871 497.663 820.223 501.263 820.079 C
502.055 820.007 502.775 820.007 503.351 820.079 C
499.679 826.559 497.663 834.047 497.663 842.111 C
497.663 866.591 517.247 886.175 541.943 886.175 C
566.423 886.175 586.439 866.591 586.439 842.111 C
586.439 834.695 584.567 827.711 581.327 821.519 C
588.024 821.519 599.543 821.591 603.791 821.591 C
605.231 821.591 605.951 824.039 605.951 824.039 C
606.168 824.039 611.495 824.399 611.495 824.399 C
616.895 822.167 622.223 826.847 622.151 826.847 C
622.223 826.847 633.815 827.135 633.455 827.135 C
633.815 827.135 640.655 832.607 640.439 832.607 C
640.655 832.607 608.471 840.671 608.327 840.671 C
614.447 866.375 594.791 859.463 593.351 855.359 C
591.407 855.359 595.223 863.927 592.487 868.535 C
591.407 870.695 589.607 873.647 587.807 876.599 C
584.927 876.599 581.759 876.599 579.455 876.599 C
570.096 886.679 556.631 893.015 541.871 893.015 C
513.647 893.015 490.823 870.191 490.823 842.183 C
490.823 840.311 490.823 838.223 490.967 836.207 C
489.383 833.471 487.439 831.167 485.639 829.799 C
485.495 829.583 485.207 829.439 484.847 829.439 C
450.863 829.439 416.087 829.943 381.959 829.799 C
357.695 829.799 332.351 830.519 307.727 830.519 C
295.632 830.519 277.199 830.663 262.439 831.023 C
248.183 831.239 238.607 831.311 238.607 831.311 C
238.607 831.311 238.463 831.599 238.463 831.959 C
238.319 831.959 238.103 831.959 238.103 832.103 C
238.175 832.391 238.319 832.607 238.319 832.895 C
238.319 832.823 L
b
0.000 0.000 0.000 1.000 K
0 j
0 J
0.215 w
[]0 d
0.000 0.000 0.000 0.498 k
781.919 926.279 m
783.503 928.367 784.295 930.167 784.439 930.239 C
784.295 930.167 784.727 936.503 784.943 937.871 C
784.151 938.807 783.215 940.175 783.215 940.175 C
783.143 942.479 781.127 944.855 778.175 944.639 C
762.263 943.847 L
758.447 943.703 755.351 941.903 755.783 937.943 C
756.359 933.839 L
756.863 929.951 759.167 927.503 762.911 927.215 C
778.175 926.279 L
779.759 926.063 780.983 926.135 781.919 926.279 C
b
0.000 0.000 0.000 1.000 K
0 j
0 J
0.215 w
[]0 d
0.000 0.000 0.000 0.498 k
1003.031 926.495 m
1001.447 928.583 1000.655 930.455 1000.511 930.527 C
1000.655 930.455 1002.959 936.935 1002.671 938.231 C
1003.535 939.167 1004.471 940.535 1004.471 940.535 C
1004.543 942.839 1006.487 945.215 1009.511 944.999 C
1025.423 944.207 L
1029.240 944.063 1032.336 942.263 1031.831 938.303 C
1031.255 934.199 L
1030.823 930.311 1028.447 927.863 1024.703 927.575 C
1009.511 926.639 L
1007.927 926.423 1003.967 926.423 1003.031 926.495 C
b
0.000 0.000 0.000 1.000 K
0 j
0 J
0.215 w
[]0 d
0.000 0.000 0.000 1.000 k
773.279 842.183 m
783.647 842.183 l
788.471 842.183 791.999 839.159 791.999 835.055 c
791.999 803.735 l
791.999 799.631 788.471 796.607 783.647 796.607 c
773.279 796.607 l
768.455 796.607 764.927 799.631 764.927 803.735 c
764.927 835.055 l
764.927 839.159 768.455 842.183 773.279 842.183 c
b
0.000 0.000 0.000 1.000 K
0 j
0 J
0.215 w
[]0 d
0.000 0.000 0.000 1.000 k
1001.375 842.183 m
1011.455 842.183 l
1016.351 842.183 1020.239 838.943 1020.239 834.767 c
1020.239 803.951 l
1020.239 799.847 1016.351 796.607 1011.455 796.607 c
1001.375 796.607 l
996.479 796.607 992.591 799.847 992.591 803.951 c
992.591 834.767 l
992.591 838.943 996.479 842.183 1001.375 842.183 c
b
0.000 0.000 0.000 1.000 K
0 j
0 J
0.215 w
[]0 d
0.000 0.000 0.000 1.000 k
188.711 1131.983 m
213.263 1131.983 233.063 1112.183 233.063 1087.631 c
233.063 1063.079 213.263 1043.207 188.711 1043.207 c
164.159 1043.207 144.287 1063.079 144.287 1087.631 c
144.287 1112.183 164.159 1131.983 188.711 1131.983 c
b
0.000 0.000 0.000 1.000 K
0 j
0 J
0.215 w
[]0 d
0.000 0.000 0.000 1.000 k
541.727 886.319 m
517.175 886.319 497.303 866.519 497.303 841.967 c
497.303 817.415 517.175 797.543 541.727 797.543 c
566.279 797.543 586.079 817.415 586.079 841.967 c
586.079 866.519 566.279 886.319 541.727 886.319 c
b
0.000 0.000 0.000 0.000 k
187.775 1116.647 m
203.543 1116.647 216.431 1103.759 216.431 1087.775 c
216.431 1072.007 203.543 1059.192 187.775 1059.192 c
171.791 1059.192 158.903 1072.007 158.903 1087.775 c
158.903 1103.759 171.791 1116.647 187.775 1116.647 c
f
0.000 0.000 0.000 0.000 k
542.735 870.983 m
526.967 870.983 514.151 858.095 514.151 842.111 c
514.151 826.343 526.967 813.527 542.735 813.527 c
558.719 813.527 571.607 826.343 571.607 842.111 c
571.607 858.095 558.719 870.983 542.735 870.983 c
f
0.000 0.000 0.000 1.000 K
0 j
0 J
0.215 w
[]0 d
0.000 0.000 0.000 0.498 k
138.743 1076.471 m
137.879 1080.071 137.447 1083.887 137.447 1087.775 C
137.447 1101.023 142.703 1113.192 151.055 1122.263 C
129.527 1122.551 105.191 1121.903 84.095 1121.903 C
83.663 1120.535 83.591 1119.887 83.015 1118.231 C
81.791 1118.591 79.128 1116.720 78.479 1116.359 C
76.391 1114.559 76.391 1111.607 76.463 1111.751 C
76.391 1111.607 75.095 1091.591 76.751 1089.647 C
78.335 1087.847 78.839 1087.919 78.839 1087.847 C
78.839 1087.631 78.335 1084.319 78.911 1085.615 C
79.271 1085.759 76.896 1083.240 77.183 1083.743 C
76.896 1083.240 77.399 1078.847 78.911 1078.415 C
78.911 1078.415 128.951 1076.327 138.743 1076.471 C
b
0.000 0.000 0.000 1.000 K
0 j
0 J
0.215 w
[]0 d
0.000 0.000 0.000 0.498 k
591.623 830.807 m
592.487 834.407 592.991 838.223 592.991 842.111 C
592.991 855.359 587.735 867.527 579.312 876.599 C
600.911 876.887 625.175 876.167 646.343 876.167 C
646.703 874.871 646.775 874.223 647.351 872.567 C
648.575 872.927 651.311 871.055 651.959 870.695 C
653.975 868.895 653.975 865.943 653.903 866.087 C
653.975 865.943 655.271 845.927 653.615 843.983 C
652.031 842.183 651.599 842.255 651.599 842.183 C
651.599 841.967 652.031 838.655 651.455 839.951 C
651.096 840.095 653.543 837.575 653.255 838.079 C
653.543 837.575 652.967 833.183 651.455 832.751 C
651.455 832.751 601.487 830.663 591.623 830.807 C
b
0.000 0.000 0.000 1.000 K
0 j
0 J
0.215 w
[]0 d
0.000 0.000 0.000 0.298 k
92.735 1140.551 m
90.863 1138.751 89.495 1137.240 89.495 1137.240 C
86.831 1133.495 84.239 1121.903 84.239 1122.263 C
84.239 1122.192 96.767 1122.119 109.295 1122.119 C
110.519 1122.119 111.311 1122.119 111.311 1122.192 C
111.311 1121.903 120.023 1129.391 120.023 1129.607 C
120.023 1129.391 123.839 1136.591 123.839 1136.591 C
123.191 1140.551 123.983 1141.199 120.023 1141.199 C
112.031 1140.695 101.375 1140.624 92.735 1140.551 C
b
0.000 0.000 0.000 1.000 K
0 j
0 J
0.215 w
[]0 d
0.000 0.000 0.000 0.298 k
637.631 894.887 m
639.503 893.087 640.943 891.575 640.943 891.575 C
643.535 887.831 646.199 876.239 646.199 876.599 C
646.199 876.527 633.671 876.455 621.144 876.455 C
619.919 876.455 619.055 876.455 619.055 876.527 C
619.055 876.239 610.343 883.727 610.343 883.943 C
610.343 883.727 606.527 890.927 606.527 890.927 C
607.175 894.887 606.455 895.535 610.343 895.535 C
618.407 895.031 629.063 894.959 637.631 894.887 C
b
u
u
0.000 0.000 0.000 1.000 K
0 j
0 J
0.215 w
[]0 d
111.455 1138.895 m
100.583 1123.559 L
S
U
U
u
u
0.000 0.000 0.000 1.000 K
0 j
0 J
0.215 w
[]0 d
618.911 893.231 m
629.783 877.895 L
S
U
U
0.000 0.000 0.000 1.000 K
0 j
0 J
0.215 w
[]0 d
83.375 1115.279 m
87.623 1115.279 93.599 1115.063 99.359 1113.983 c
100.223 1113.768 100.655 1104.192 98.063 1104.192 c
95.543 1104.192 87.839 1103.759 81.287 1104.192 c
78.263 1104.407 78.479 1115.279 83.375 1115.279 c
s
0.000 0.000 0.000 1.000 K
0 j
0 J
0.215 w
[]0 d
646.991 869.615 m
642.743 869.615 636.767 869.399 631.007 868.319 c
630.216 868.103 629.783 858.527 632.303 858.527 c
634.895 858.527 642.527 858.095 649.151 858.527 c
652.103 858.743 651.887 869.615 646.991 869.615 c
s
0.000 0.000 0.000 1.000 K
0 j
0 J
0.215 w
[]0 d
238.607 1146.384 m
243.935 1146.384 l
245.231 1146.384 246.095 1145.519 246.095 1144.223 c
246.095 1141.271 l
246.095 1139.975 245.231 1139.111 243.935 1139.111 c
238.607 1139.111 l
237.311 1139.111 236.447 1139.975 236.447 1141.271 c
236.447 1144.223 l
236.447 1145.519 237.311 1146.384 238.607 1146.384 c
s
0.000 0.000 0.000 1.000 K
0 j
0 J
0.215 w
[]0 d
491.903 900.719 m
486.575 900.719 l
485.279 900.719 484.487 899.855 484.487 898.559 c
484.487 895.607 l
484.487 894.311 485.279 893.447 486.575 893.447 c
491.903 893.447 l
493.199 893.447 494.063 894.311 494.063 895.607 c
494.063 898.559 l
494.063 899.855 493.199 900.719 491.903 900.719 c
s
0.000 0.000 0.000 1.000 K
0 j
0 J
0.215 w
[]0 d
0.000 0.000 0.000 0.098 k
337.319 1228.607 m
331.127 1226.663 323.927 1222.415 317.951 1219.463 c
308.591 1214.711 298.151 1207.943 290.231 1203.263 c
283.031 1198.799 271.295 1191.743 264.311 1187.063 c
256.608 1181.951 250.631 1178.135 242.351 1173.240 C
243.863 1170.863 L
257.903 1173.887 l
257.903 1173.887 266.399 1180.439 277.271 1188.359 c
283.031 1192.391 290.879 1197.935 297.072 1201.967 c
315.143 1213.271 336.455 1224.575 336.455 1224.575 c
336.455 1224.359 337.319 1228.823 337.319 1228.607 C
b
0.000 0.000 0.000 1.000 K
0 j
0 J
0.215 w
[]0 d
0.000 0.000 0.000 0.098 k
393.191 982.943 m
399.311 980.999 406.583 976.751 412.559 973.799 c
421.919 969.047 432.359 962.279 440.207 957.599 c
447.479 953.135 459.143 946.079 466.199 941.399 c
473.903 936.287 479.879 932.471 488.159 927.575 C
486.647 925.199 L
472.607 928.223 l
472.607 928.223 464.039 934.775 453.239 942.695 c
447.479 946.727 439.559 952.271 433.439 956.303 c
415.295 967.607 393.983 978.911 393.983 978.911 c
393.983 978.695 393.191 983.159 393.191 982.943 C
b
u
u
0.000 0.000 0.000 1.000 K
0 j
0 J
0.215 w
[]0 d
153.215 1147.103 m
257.327 1156.895 L
623.159 1169.927 L
S
U
U
u
u
0.000 0.000 0.000 1.000 K
0 j
0 J
0.215 w
[]0 d
577.295 901.439 m
473.183 911.231 L
107.351 924.191 L
S
U
U
u
u
0.000 0.000 0.000 1.000 K
0 j
0 J
0.215 w
[]0 d
256.031 1165.967 m
212.831 1164.240 173.663 1161.288 131.687 1152.359 C
S
U
U
u
u
0.000 0.000 0.000 1.000 K
0 j
0 J
0.215 w
[]0 d
474.407 920.303 m
517.679 918.575 556.847 915.623 598.823 906.695 C
S
U
U
u
u
0.000 0.000 0.000 1.000 K
0 j
0 J
0.215 w
[]0 d
240.047 1085.471 m
494.351 1089.144 L
S
U
U
u
u
0.000 0.000 0.000 1.000 K
0 j
0 J
0.215 w
[]0 d
490.463 839.807 m
236.159 843.479 L
S
U
U
0.000 0.000 0.000 1.000 K
0 j
0 J
0.215 w
[]0 d
0.000 0.000 0.000 0.498 k
574.055 1131.048 m
588.168 1121.543 597.383 1105.487 597.383 1087.199 C
597.383 1082.951 597.383 1084.103 597.240 1082.159 C
634.031 1081.727 L
634.103 1081.727 634.247 1081.727 634.247 1081.727 C
637.271 1081.727 639.359 1081.727 639.359 1081.871 C
639.359 1081.871 646.271 1083.167 649.655 1085.975 C
653.039 1089.144 654.335 1093.895 654.335 1093.895 C
654.335 1093.751 653.039 1103.255 653.039 1103.327 C
653.039 1103.327 654.911 1104.551 654.767 1107.432 C
655.343 1111.319 655.631 1121.471 655.271 1124.063 c
654.911 1126.367 653.255 1128.599 650.087 1127.447 C
647.855 1127.735 645.983 1127.807 645.983 1127.807 C
645.983 1128.311 645.983 1130.471 645.407 1131.839 C
622.799 1131.263 596.807 1131.048 574.055 1131.048 C
b
0.000 0.000 0.000 1.000 K
0 j
0 J
0.215 w
[]0 d
0.000 0.000 0.000 0.498 k
156.527 885.311 m
142.415 875.879 133.127 859.823 133.127 841.535 C
133.127 837.287 133.127 838.439 133.343 836.495 C
96.479 836.063 L
96.407 836.063 96.335 836.063 96.335 836.063 C
93.239 836.063 91.151 836.063 91.151 836.207 C
91.151 836.207 84.239 837.503 80.855 840.311 C
77.543 843.479 76.175 848.231 76.175 848.231 C
76.175 848.015 77.543 857.591 77.543 857.663 C
77.543 857.663 75.671 858.887 75.743 861.767 C
75.167 865.655 74.879 875.807 75.239 878.399 c
75.671 880.703 77.256 882.935 80.423 881.783 C
82.655 882.071 84.527 882.143 84.527 882.143 C
84.527 882.647 84.527 884.807 85.103 886.175 C
107.711 885.599 133.703 885.311 156.527 885.311 C
b
0.000 0.000 0.000 1.000 K
0 j
0 J
0.215 w
[]0 d
596.591 1094.831 m
596.159 1097.711 595.583 1100.519 594.647 1103.255 C
613.511 1102.751 633.599 1102.463 652.679 1102.463 C
653.399 1101.672 653.687 1098.000 653.687 1095.119 C
653.255 1094.255 606.671 1095.048 596.591 1094.831 C
s
0.000 0.000 0.000 1.000 K
0 j
0 J
0.215 w
[]0 d
133.775 849.167 m
134.280 852.047 134.855 854.855 135.792 857.591 C
116.855 857.087 96.767 856.799 77.687 856.799 C
76.967 856.007 76.679 852.335 76.679 849.455 C
77.183 848.591 123.695 849.383 133.775 849.167 C
s
u
u
0.000 0.000 0.000 1.000 K
0 j
0 J
0.215 w
[]0 d
76.751 1090.439 m
119.951 1091.015 L
S
U
U
u
u
0.000 0.000 0.000 1.000 K
0 j
0 J
0.215 w
[]0 d
653.615 844.775 m
610.415 845.351 L
S
U
U
u
u
0.000 0.000 0.000 1.000 K
0 j
0 J
0.215 w
[]0 d
80.567 1084.679 m
136.727 1084.679 L
S
U
U
u
u
0.000 0.000 0.000 1.000 K
0 j
0 J
0.215 w
[]0 d
649.871 839.015 m
593.639 839.015 L
S
U
U
u
u
0.000 0.000 0.000 1.000 K
0 j
0 J
0.215 w
[]0 d
643.751 1184.759 m
636.551 1177.559 L
S
U
U
u
u
0.000 0.000 0.000 1.000 K
0 j
0 J
0.215 w
[]0 d
86.615 939.095 m
93.887 931.895 L
S
U
U
u
u
0.000 0.000 0.000 1.000 K
0 j
0 J
0.215 w
[]0 d
637.055 1166.615 m
637.055 1165.319 637.055 1162.151 637.055 1162.151 C
S
U
U
u
u
0.000 0.000 0.000 1.000 K
0 j
0 J
0.215 w
[]0 d
93.311 920.951 m
93.311 919.655 93.311 916.487 93.311 916.487 C
S
U
U
u
u
0.000 0.000 0.000 1.000 K
0 j
0 J
0.215 w
[]0 d
637.775 1155.528 m
637.775 1145.303 L
S
U
U
u
u
0.000 0.000 0.000 1.000 K
0 j
0 J
0.215 w
[]0 d
92.591 909.863 m
92.591 899.639 L
S
U
U
u
u
0.000 0.000 0.000 1.000 K
0 j
0 J
0.215 w
[]0 d
639.000 1127.807 m
640.727 1127.447 643.031 1127.447 644.327 1126.151 c
645.839 1124.639 645.839 1121.903 646.271 1119.743 c
646.271 1119.743 646.271 1113.119 646.271 1113.119 C
S
U
U
u
u
0.000 0.000 0.000 1.000 K
0 j
0 J
0.215 w
[]0 d
91.367 882.143 m
89.711 881.783 87.335 881.783 86.039 880.487 c
84.599 878.975 84.599 876.239 84.167 874.079 c
84.167 874.079 84.167 867.455 84.167 867.455 C
S
U
U
u
u
0.000 0.000 0.000 1.000 K
0 j
0 J
0.215 w
[]0 d
404.639 1154.879 m
427.175 1154.879 L
S
U
U
u
u
0.000 0.000 0.000 1.000 K
0 j
0 J
0.215 w
[]0 d
325.871 909.215 m
303.263 909.215 L
S
U
U
0.000 0.000 0.000 1.000 K
0 j
0 J
0.215 w
[]0 d
0.000 0.000 0.000 0.498 k
238.103 1116.576 m
503.495 1122.336 L
506.231 1127.015 L
238.103 1121.255 L
238.103 1116.576 L
b
0.000 0.000 0.000 1.000 K
0 j
0 J
0.215 w
[]0 d
0.000 0.000 0.000 0.498 k
492.407 870.911 m
227.015 876.671 L
224.279 881.351 L
492.407 875.591 L
492.407 870.911 L
b
0.000 0.000 0.000 1.000 K
0 j
0 J
0.215 w
[]0 d
0.000 0.000 0.000 1.000 k
545.111 1131.480 m
569.663 1131.480 589.535 1111.679 589.535 1087.127 c
589.535 1062.576 569.663 1042.703 545.111 1042.703 c
520.559 1042.703 500.759 1062.576 500.759 1087.127 c
500.759 1111.679 520.559 1131.480 545.111 1131.480 c
b
0.000 0.000 0.000 1.000 K
0 j
0 J
0.215 w
[]0 d
0.000 0.000 0.000 1.000 k
185.399 885.815 m
160.847 885.815 141.048 866.015 141.048 841.463 c
141.048 816.911 160.847 797.039 185.399 797.039 c
209.951 797.039 229.751 816.911 229.751 841.463 c
229.751 866.015 209.951 885.815 185.399 885.815 c
b
0.000 0.000 0.000 0.000 k
546.551 1116.647 m
562.319 1116.647 575.135 1103.759 575.135 1087.775 c
575.135 1072.007 562.319 1059.192 546.551 1059.192 c
530.567 1059.192 517.679 1072.007 517.679 1087.775 c
517.679 1103.759 530.567 1116.647 546.551 1116.647 c
f
0.000 0.000 0.000 0.000 k
183.959 870.983 m
168.263 870.983 155.375 858.095 155.375 842.111 c
155.375 826.343 168.263 813.527 183.959 813.527 c
199.943 813.527 212.831 826.343 212.831 842.111 c
212.831 858.095 199.943 870.983 183.959 870.983 c
f
0.000 0.000 0.000 1.000 K
0 j
0 J
0.215 w
[]0 d
0.000 0.000 0.000 1.000 k
551.303 1062.503 m
548.279 1061.927 545.183 1062.000 542.087 1062.503 c
539.567 1062.864 539.783 1065.023 540.719 1065.959 C
542.807 1072.583 L
543.887 1073.663 549.000 1073.663 550.079 1072.583 C
551.375 1070.639 551.231 1067.903 552.599 1065.959 C
553.535 1065.023 553.535 1062.864 551.303 1062.503 c
b
0.000 0.000 0.000 1.000 K
0 j
0 J
0.215 w
[]0 d
0.000 0.000 0.000 1.000 k
179.207 816.839 m
182.303 816.263 185.327 816.335 188.423 816.839 c
190.943 817.199 190.727 819.359 189.791 820.295 C
187.703 826.919 L
186.623 827.999 181.512 827.999 180.431 826.919 C
179.135 824.975 179.279 822.239 177.911 820.295 C
176.975 819.359 176.975 817.199 179.207 816.839 c
b
0.000 0.000 0.000 1.000 K
0 j
0 J
0.215 w
[]0 d
0.000 0.000 0.000 1.000 k
532.223 1066.319 m
529.631 1068.119 527.543 1070.279 525.671 1072.799 c
524.159 1074.887 525.815 1076.255 527.183 1076.183 C
533.303 1079.423 L
534.815 1079.423 538.487 1075.823 538.415 1074.311 C
537.983 1072.007 535.967 1070.207 535.535 1067.831 C
535.535 1066.535 534.024 1064.951 532.223 1066.319 c
b
0.000 0.000 0.000 1.000 K
0 j
0 J
0.215 w
[]0 d
0.000 0.000 0.000 1.000 k
198.359 820.655 m
200.879 822.455 202.967 824.615 204.839 827.135 c
206.351 829.223 204.695 830.591 203.327 830.519 C
197.207 833.759 L
195.695 833.759 192.023 830.159 192.095 828.647 C
192.527 826.343 194.543 824.543 194.975 822.167 C
194.975 820.871 196.487 819.287 198.359 820.655 c
b
0.000 0.000 0.000 1.000 K
0 j
0 J
0.215 w
[]0 d
0.000 0.000 0.000 1.000 k
521.495 1082.519 m
520.919 1085.615 520.991 1088.639 521.495 1091.735 c
521.855 1094.255 524.015 1094.039 524.951 1093.103 C
531.575 1091.015 L
532.655 1089.935 532.655 1084.823 531.575 1083.743 C
529.631 1082.447 526.895 1082.591 524.951 1081.223 C
524.015 1080.288 521.783 1080.288 521.495 1082.519 c
b
0.000 0.000 0.000 1.000 K
0 j
0 J
0.215 w
[]0 d
0.000 0.000 0.000 1.000 k
209.015 836.855 m
209.591 839.951 209.519 842.975 209.015 846.071 c
208.655 848.591 206.567 848.375 205.559 847.439 C
198.935 845.351 L
197.855 844.271 197.855 839.159 198.935 838.079 C
200.951 836.783 203.615 836.927 205.559 835.559 C
206.567 834.623 208.727 834.623 209.015 836.855 c
b
0.000 0.000 0.000 1.000 K
0 j
0 J
0.215 w
[]0 d
0.000 0.000 0.000 1.000 k
525.240 1101.528 m
527.039 1104.048 529.271 1106.207 531.791 1108.079 c
533.879 1109.591 535.247 1107.935 535.175 1106.567 C
538.415 1100.375 L
538.415 1098.863 534.815 1095.263 533.303 1095.263 C
531.000 1095.768 529.199 1097.711 526.823 1098.215 C
525.527 1098.215 523.943 1099.655 525.240 1101.528 c
b
0.000 0.000 0.000 1.000 K
0 j
0 J
0.215 w
[]0 d
0.000 0.000 0.000 1.000 k
205.271 855.863 m
203.471 858.383 201.239 860.543 198.719 862.415 c
196.631 863.927 195.335 862.271 195.335 860.903 C
192.095 854.711 L
192.095 853.199 195.695 849.599 197.207 849.599 C
199.511 850.103 201.383 852.047 203.687 852.551 C
205.055 852.551 206.567 853.991 205.271 855.863 c
b
0.000 0.000 0.000 1.000 K
0 j
0 J
0.215 w
[]0 d
0.000 0.000 0.000 1.000 k
541.511 1112.327 m
544.607 1112.903 547.631 1112.831 550.727 1112.327 c
553.247 1111.967 553.031 1109.879 552.096 1108.871 C
550.007 1102.247 L
548.927 1101.167 543.815 1101.167 542.735 1102.247 C
541.439 1104.192 541.583 1106.927 540.216 1108.871 C
539.279 1109.879 539.279 1112.039 541.511 1112.327 c
b
0.000 0.000 0.000 1.000 K
0 j
0 J
0.215 w
[]0 d
0.000 0.000 0.000 1.000 k
188.999 866.663 m
185.975 867.239 182.879 867.167 179.783 866.663 c
177.263 866.303 177.479 864.215 178.415 863.207 C
180.503 856.583 L
181.583 855.503 186.695 855.503 187.775 856.583 C
189.071 858.527 188.927 861.263 190.295 863.207 C
191.231 864.215 191.231 866.375 188.999 866.663 c
b
0.000 0.000 0.000 1.000 K
0 j
0 J
0.215 w
[]0 d
0.000 0.000 0.000 1.000 k
560.519 1108.439 m
563.039 1106.639 565.199 1104.480 567.072 1101.887 c
568.583 1099.871 566.927 1098.503 565.559 1098.503 C
559.367 1095.336 L
557.855 1095.263 554.255 1098.935 554.255 1100.447 C
554.759 1102.679 556.703 1104.551 557.135 1106.855 C
557.135 1108.223 558.647 1109.735 560.519 1108.439 c
b
0.000 0.000 0.000 1.000 K
0 j
0 J
0.215 w
[]0 d
0.000 0.000 0.000 1.000 k
169.991 862.775 m
167.471 860.975 165.383 858.815 163.512 856.223 c
162.000 854.207 163.655 852.839 164.951 852.839 C
171.143 849.671 L
172.655 849.599 176.256 853.271 176.256 854.783 C
175.823 857.015 173.807 858.887 173.375 861.191 C
173.375 862.559 171.863 864.071 169.991 862.775 c
b
0.000 0.000 0.000 1.000 K
0 j
0 J
0.215 w
[]0 d
0.000 0.000 0.000 1.000 k
571.319 1092.311 m
571.895 1089.288 571.823 1086.192 571.319 1083.096 c
570.959 1080.576 568.799 1080.791 567.863 1081.727 C
561.240 1083.816 L
560.159 1084.895 560.159 1090.007 561.240 1091.087 C
563.183 1092.384 565.919 1092.240 567.863 1093.607 C
568.799 1094.543 571.031 1094.543 571.319 1092.311 c
b
0.000 0.000 0.000 1.000 K
0 j
0 J
0.215 w
[]0 d
0.000 0.000 0.000 1.000 k
159.191 846.647 m
158.615 843.623 158.687 840.527 159.191 837.431 c
159.551 834.911 161.711 835.127 162.647 836.063 C
169.271 838.151 L
170.351 839.231 170.351 844.343 169.271 845.423 C
167.327 846.719 164.591 846.575 162.647 847.943 C
161.711 848.879 159.551 848.879 159.191 846.647 c
b
0.000 0.000 0.000 1.000 K
0 j
0 J
0.215 w
[]0 d
0.000 0.000 0.000 1.000 k
567.431 1073.303 m
565.631 1070.783 563.471 1068.695 560.879 1066.823 c
558.863 1065.311 557.495 1066.967 557.495 1068.263 C
554.255 1074.455 L
554.255 1075.967 557.927 1079.567 559.367 1079.567 C
561.671 1079.135 563.543 1077.119 565.847 1076.687 C
567.216 1076.687 568.727 1075.175 567.431 1073.303 c
b
0.000 0.000 0.000 1.000 K
0 j
0 J
0.215 w
[]0 d
0.000 0.000 0.000 1.000 k
163.079 827.639 m
164.879 825.119 167.039 823.031 169.631 821.087 c
171.719 819.647 173.015 821.303 173.015 822.599 C
176.256 828.791 L
176.256 830.303 172.655 833.903 171.143 833.903 C
168.839 833.471 166.967 831.455 164.663 831.023 C
163.295 831.023 161.783 829.511 163.079 827.639 c
b
0.000 0.000 0.000 1.000 K
0 j
0 J
0.215 w
[]0 d
546.336 1096.631 m
551.375 1096.631 555.551 1092.528 555.551 1087.487 c
555.551 1082.447 551.375 1078.271 546.336 1078.271 c
541.295 1078.271 537.192 1082.447 537.192 1087.487 c
537.192 1092.528 541.295 1096.631 546.336 1096.631 c
s
0.000 0.000 0.000 1.000 K
0 j
0 J
0.215 w
[]0 d
184.175 850.967 m
179.135 850.967 175.031 846.863 175.031 841.823 c
175.031 836.783 179.135 832.607 184.175 832.607 c
189.215 832.607 193.319 836.783 193.319 841.823 c
193.319 846.863 189.215 850.967 184.175 850.967 c
s
0.000 0.000 0.000 1.000 K
0 j
0 J
0.215 w
[]0 d
546.408 1090.511 m
548.063 1090.511 549.503 1089.144 549.503 1087.415 c
549.503 1085.759 548.063 1084.391 546.408 1084.391 c
544.679 1084.391 543.312 1085.759 543.312 1087.415 c
543.312 1089.144 544.679 1090.511 546.408 1090.511 c
s
0.000 0.000 0.000 1.000 K
0 j
0 J
0.215 w
[]0 d
184.103 844.847 m
182.447 844.847 181.079 843.479 181.079 841.751 c
181.079 840.095 182.447 838.727 184.103 838.727 c
185.831 838.727 187.199 840.095 187.199 841.751 c
187.199 843.479 185.831 844.847 184.103 844.847 c
s
0.000 0.000 0.000 1.000 K
0 j
0 J
0.215 w
[]0 d
0.000 0.000 0.000 0.000 k
763.055 881.351 m
763.199 882.503 762.623 889.271 762.911 892.799 C
762.911 895.679 766.439 898.703 767.087 899.783 C
770.111 906.047 771.551 906.335 773.063 912.311 C
773.927 915.407 779.687 924.047 780.335 924.047 C
782.855 926.999 784.223 929.879 784.511 930.023 C
784.223 929.879 784.727 937.583 785.015 937.799 C
784.727 937.583 802.727 971.495 803.807 972.935 c
804.959 974.375 811.943 987.623 822.887 989.351 C
826.847 987.335 831.959 989.423 833.615 991.151 C
834.983 991.223 836.927 991.223 839.159 991.223 c
849.887 991.223 869.759 992.015 883.151 992.015 c
907.055 992.015 932.615 992.303 956.447 989.135 C
957.383 986.831 961.703 986.255 963.863 987.983 C
976.463 985.895 978.695 979.631 984.311 969.335 c
987.191 963.791 999.647 935.855 999.647 935.927 C
999.215 936.143 1002.671 926.423 1004.327 925.559 C
1004.327 925.415 1007.999 922.175 1009.439 918.071 C
1010.951 913.823 1013.471 909.935 1014.767 907.199 C
1015.991 904.319 1022.471 894.959 1022.471 894.959 C
1022.687 893.663 1023.983 893.951 1023.983 889.775 C
1023.983 886.103 1023.983 884.375 1023.983 881.351 C
763.055 881.351 L
b
0.000 0.000 0.000 1.000 K
0 j
0 J
0.215 w
[]0 d
0.000 0.000 0.000 0.298 k
771.551 881.783 m
769.607 885.959 770.471 899.855 775.583 900.287 c
792.791 902.447 810.935 901.151 829.007 898.343 c
833.039 897.623 835.847 893.519 837.719 890.711 C
839.879 887.687 841.175 884.447 841.391 881.783 C
817.919 881.783 794.735 881.783 771.551 881.783 C
b
0.000 0.000 0.000 1.000 K
0 j
0 J
0.215 w
[]0 d
0.000 0.000 0.000 0.298 k
1013.183 881.783 m
1015.127 885.959 1014.263 899.855 1009.151 900.287 c
991.871 902.447 973.799 901.151 955.727 898.343 c
951.695 897.623 948.887 893.519 946.943 890.711 C
944.855 887.687 943.559 884.447 943.343 881.783 C
966.743 881.783 989.999 881.783 1013.183 881.783 C
b
u
u
0.000 0.000 0.000 1.000 K
0 j
0 J
0.215 w
[]0 d
793.007 882.143 m
793.007 882.143 794.303 900.791 791.135 904.679 c
787.967 908.567 787.463 912.167 787.463 915.983 C
787.463 920.087 788.255 922.031 788.255 925.559 C
S
U
U
u
u
0.000 0.000 0.000 1.000 K
0 j
0 J
0.215 w
[]0 d
998.783 925.487 m
999.431 921.815 999.215 923.111 999.431 917.423 C
999.431 912.671 997.487 905.471 995.399 902.879 c
993.239 900.287 993.887 887.903 994.319 882.503 C
S
U
U
0.000 0.000 0.000 1.000 K
0 j
0 J
0.215 w
[]0 d
954.575 897.695 m
951.479 895.823 948.815 893.375 947.159 890.567 C
944.999 887.831 943.703 884.663 943.487 881.999 C
841.463 881.999 L
841.103 884.591 840.167 887.759 837.863 890.711 C
836.207 893.159 833.903 895.607 830.807 897.551 C
830.951 897.623 831.095 897.695 831.239 897.839 C
871.415 897.839 913.895 897.479 954.575 897.839 C
954.575 897.695 954.575 897.695 954.575 897.695 C
s
0.000 0.000 0.000 1.000 K
0 j
0 J
0.215 w
[]0 d
840.887 893.735 m
844.631 890.567 846.503 887.111 846.575 883.439 C
939.527 883.511 L
938.375 885.239 942.767 893.231 945.287 893.591 C
840.887 893.735 L
s
0.000 0.000 0.000 1.000 K
0 j
0 J
0.215 w
[]0 d
846.287 886.103 m
845.855 888.119 844.703 889.991 843.047 891.719 C
942.695 891.503 L
941.399 889.775 940.103 887.615 939.599 886.103 C
907.703 886.031 877.823 886.031 846.287 886.103 C
s
0.000 0.000 0.000 1.000 K
0 j
0 J
0.215 w
[]0 d
0.000 0.000 0.000 0.498 k
767.735 881.567 m
1018.295 881.567 L
1019.951 881.567 1021.823 881.423 1023.695 881.423 C
1023.839 881.351 1023.983 881.279 1024.055 881.135 C
1024.127 876.023 1022.687 849.743 1022.687 849.887 C
1022.687 849.887 1021.607 844.775 1020.671 840.167 C
1019.663 835.631 1014.695 828.071 1014.695 828.071 C
1011.527 829.799 986.399 828.575 985.823 830.015 C
984.959 829.151 983.519 833.255 983.519 833.399 C
983.519 833.255 893.015 832.391 891.863 832.391 C
890.855 832.391 805.247 833.039 806.255 833.399 C
807.407 833.903 801.215 829.439 800.207 828.935 C
790.919 830.015 780.119 830.015 771.767 828.143 C
769.247 828.863 769.535 830.879 764.783 840.167 C
761.759 854.639 763.343 866.879 763.055 881.351 C
764.567 881.423 766.151 881.567 767.735 881.567 C
b
0.000 0.000 0.000 1.000 K
0 j
0 J
0.215 w
[]0 d
775.511 872.567 m
805.463 872.567 l
809.063 872.567 811.439 871.991 811.439 868.391 c
811.439 864.719 808.775 860.183 805.463 860.183 c
774.287 860.183 l
772.055 860.183 771.335 863.711 771.335 867.311 c
771.335 870.623 773.639 872.567 775.511 872.567 c
s
0.000 0.000 0.000 1.000 K
0 j
0 J
0.215 w
[]0 d
0.000 0.000 0.000 0.098 k
775.367 872.567 m
804.383 872.567 l
807.911 872.567 810.143 871.991 810.143 868.679 c
810.143 865.295 807.623 861.119 804.383 861.119 c
774.215 861.119 l
771.983 861.119 771.263 864.359 771.263 867.671 c
771.263 870.767 773.567 872.567 775.367 872.567 c
b
0.000 0.000 0.000 1.000 K
0 j
0 J
0.215 w
[]0 d
1010.879 872.567 m
980.999 872.567 l
977.327 872.567 975.023 871.991 975.023 868.391 c
975.023 864.719 977.615 860.183 980.999 860.183 c
1012.103 860.183 l
1014.335 860.183 1015.127 863.711 1015.127 867.311 c
1015.127 870.623 1012.751 872.567 1010.879 872.567 c
s
0.000 0.000 0.000 1.000 K
0 j
0 J
0.215 w
[]0 d
793.295 855.863 m
801.287 855.863 l
802.871 855.863 803.951 854.207 803.951 851.903 c
803.951 847.943 l
803.951 845.639 802.871 843.983 801.287 843.983 c
793.295 843.983 l
791.783 843.983 790.703 845.639 790.703 847.943 c
790.703 851.903 l
790.703 854.207 791.783 855.863 793.295 855.863 c
s
0.000 0.000 0.000 1.000 K
0 j
0 J
0.215 w
[]0 d
991.511 855.863 m
983.519 855.863 l
982.007 855.863 980.927 854.207 980.927 851.903 c
980.927 847.943 l
980.927 845.639 982.007 843.983 983.519 843.983 c
991.511 843.983 l
993.095 843.983 994.175 845.639 994.175 847.943 c
994.175 851.903 l
994.175 854.207 993.095 855.863 991.511 855.863 c
s
0.000 0.000 0.000 1.000 K
0 j
0 J
0.215 w
[]0 d
0.000 0.000 0.000 0.470 (PANTONE Cool Gray 7 CV) -0.000 x
792.863 856.223 m
796.319 856.223 799.271 853.415 799.271 849.671 c
799.271 846.215 796.319 843.407 792.863 843.407 c
789.263 843.407 786.311 846.215 786.311 849.671 c
786.311 853.415 789.263 856.223 792.863 856.223 c
b
0.000 0.000 0.000 1.000 K
0 j
0 J
0.215 w
[]0 d
0.000 0.000 0.000 0.470 (PANTONE Cool Gray 7 CV) -0.000 x
992.087 856.223 m
988.703 856.223 985.679 853.415 985.679 849.671 c
985.679 846.215 988.703 843.407 992.087 843.407 c
995.687 843.407 998.711 846.215 998.711 849.671 c
998.711 853.415 995.687 856.223 992.087 856.223 c
b
u
u
0.000 0.000 0.000 1.000 K
0 j
0 J
0.215 w
[]0 d
770.543 838.439 m
796.967 837.503 L
893.447 836.639 l
893.663 836.639 977.111 837.071 986.687 837.287 c
1015.631 838.439 L
S
U
U
u
u
0.000 0.000 0.000 1.000 K
0 j
0 J
0.215 w
[]0 d
770.183 845.711 m
779.543 845.711 L
S
U
U
u
u
0.000 0.000 0.000 1.000 K
0 j
0 J
0.215 w
[]0 d
1007.495 845.711 m
1016.855 845.711 L
S
U
U
u
u
0.000 0.000 0.000 1.000 K
0 j
0 J
0.215 w
[]0 d
807.695 843.623 m
814.535 843.623 L
S
U
U
u
u
0.000 0.000 0.000 1.000 K
0 j
0 J
0.215 w
[]0 d
971.207 843.623 m
978.047 843.623 L
S
U
U
0.000 0.000 0.000 1.000 K
0 j
0 J
0.215 w
[]0 d
831.527 868.247 m
823.319 868.247 817.487 858.959 817.487 853.487 c
817.487 850.751 817.415 845.567 818.135 844.199 c
818.135 844.199 820.943 841.103 824.327 841.103 c
957.383 841.103 l
960.551 841.103 968.183 840.959 968.903 843.911 c
969.695 846.575 970.271 850.823 969.623 853.199 c
967.823 859.967 962.423 868.463 955.583 868.463 c
831.527 868.247 l
s
0.000 0.000 0.000 1.000 K
0 j
0 J
0.215 w
[]0 d
0.000 0.000 0.000 0.650 (PANTONE Cool Gray 9 CV) -0.000 x
992.735 829.151 m
988.847 829.223 985.967 829.439 985.823 830.087 C
985.535 829.799 985.103 830.231 984.743 830.735 C
984.167 830.663 983.519 832.031 983.159 833.183 C
983.015 833.255 982.871 833.471 982.799 833.543 C
974.231 833.255 893.087 832.391 891.935 832.391 C
891.935 832.391 891.935 832.391 891.935 832.463 C
891.935 832.463 891.935 832.391 891.935 832.463 C
891.935 832.463 891.935 832.463 891.935 832.463 C
890.783 832.463 808.631 832.967 806.327 833.327 C
806.327 833.471 806.399 833.471 806.399 833.471 C
806.615 833.471 802.655 830.447 800.783 829.439 C
800.495 829.223 800.351 829.079 800.135 828.935 C
800.135 829.079 800.135 829.079 800.135 829.079 C
800.135 829.079 800.135 829.079 800.135 829.079 C
797.543 829.367 794.807 829.511 791.999 829.655 C
791.999 818.567 L
799.199 818.567 808.343 818.567 814.535 818.495 C
817.559 819.143 820.727 819.791 823.967 820.367 C
869.975 820.223 915.983 820.007 961.919 819.791 C
965.807 818.927 972.215 817.631 973.439 817.631 C
974.375 817.631 987.263 817.415 992.735 817.703 C
992.735 829.151 L
b
u
u
U
u
0.000 0.000 0.000 1.000 K
0 j
0 J
0.215 w
[]0 d
78.335 768.167 m
324.287 768.167 L
S
U
U
u
u
U
u
0.000 0.000 0.000 1.000 K
0 j
0 J
0.215 w
[]0 d
441.359 766.799 m
650.231 766.799 L
S
U
U
u
u
U
u
0.000 0.000 0.000 1.000 K
0 j
0 J
0.215 w
[]0 d
75.384 786.095 m
75.384 746.207 L
S
U
U
0.000 0.000 0.000 1.000 k
75.167 768.311 m
88.343 764.423 L
88.343 772.199 L
75.167 768.311 L
f
u
u
U
u
0.000 0.000 0.000 1.000 K
0 j
0 J
0.215 w
[]0 d
654.263 783.431 m
654.263 744.047 L
S
U
U
0.000 0.000 0.000 1.000 k
654.407 768.311 m
641.231 764.423 L
641.231 772.199 L
654.407 768.311 L
f
0.000 0.000 0.000 1.000 k
409.535 763.271 m
410.615 763.271 L
410.615 768.167 L
410.615 769.967 411.335 771.335 413.135 771.335 C
414.503 771.335 415.007 770.399 415.007 769.175 C
415.007 763.271 L
416.087 763.271 L
416.087 768.167 L
416.087 769.751 416.591 771.335 418.391 771.335 C
419.975 771.335 420.479 770.615 420.479 769.175 C
420.479 763.271 L
421.559 763.271 L
421.559 769.175 L
421.559 771.191 420.623 772.199 418.679 772.199 C
417.527 772.199 416.447 771.695 415.871 770.471 C
415.583 771.695 414.503 772.199 413.423 772.199 C
411.911 772.199 411.119 771.551 410.471 770.471 C
410.471 770.471 L
410.471 771.983 L
409.535 771.983 L
409.535 763.271 L
409.535 763.271 L
f
0.000 0.000 0.000 1.000 k
395.351 763.271 m
396.431 763.271 L
396.431 768.167 L
396.431 769.967 397.223 771.335 399.023 771.335 C
400.391 771.335 400.823 770.399 400.823 769.175 C
400.823 763.271 L
401.975 763.271 L
401.975 768.167 L
401.975 769.751 402.407 771.335 404.279 771.335 C
405.863 771.335 406.367 770.615 406.367 769.175 C
406.367 763.271 L
407.447 763.271 L
407.447 769.175 L
407.447 771.191 406.439 772.199 404.495 772.199 C
403.415 772.199 402.335 771.695 401.687 770.471 C
401.471 771.695 400.391 772.199 399.239 772.199 C
397.799 772.199 396.935 771.551 396.359 770.471 C
396.359 770.471 L
396.359 771.983 L
395.351 771.983 L
395.351 763.271 L
395.351 763.271 L
f
0.000 0.000 0.000 1.000 K
0 j
0 J
0.215 w
[]0 d
969.119 856.223 m
818.063 856.223 L
969.119 856.223 L
s
0.000 0.000 0.000 1.000 K
0 j
0 J
0.215 w
[]0 d
969.623 852.335 m
817.631 852.335 L
969.623 852.335 L
s
u
u
0.000 0.000 0.000 1.000 K
0 j
0 J
0.215 w
[]0 d
772.271 909.215 m
772.631 904.463 L
S
U
U
u
u
0.000 0.000 0.000 1.000 K
0 j
0 J
0.215 w
[]0 d
1013.183 909.215 m
1012.103 904.463 L
S
U
U
u
u
u
0.000 0.000 0.000 1.000 k
893.375 885.239 m
893.375 884.663 L
897.551 884.663 900.935 886.535 900.935 888.911 C
900.935 891.287 897.551 893.231 893.375 893.231 C
893.375 892.799 L
896.759 892.799 899.495 891.071 899.495 889.055 C
899.495 886.967 896.759 885.239 893.375 885.239 C
f
0.000 0.000 0.000 1.000 k
893.375 892.799 m
893.375 893.231 L
893.375 893.231 893.375 893.303 893.375 893.303 C
889.127 893.303 885.743 891.359 885.743 888.911 C
885.743 886.535 889.127 884.663 893.375 884.663 C
893.375 884.663 893.375 884.663 893.375 884.663 C
893.375 885.239 L
893.375 885.239 893.375 885.239 893.375 885.239 C
889.991 885.239 887.255 886.967 887.255 889.055 C
887.255 891.143 889.991 892.871 893.375 892.871 C
893.375 892.871 893.375 892.799 893.375 892.799 C
f
U
U
u
u
0.000 0.000 0.000 1.000 k
893.303 888.983 m
893.303 888.695 L
893.303 888.695 893.303 888.695 893.375 888.695 C
896.039 888.695 898.199 889.703 898.199 890.999 C
898.199 892.223 896.039 893.303 893.375 893.303 C
893.303 893.303 893.303 893.231 893.303 893.231 C
893.303 893.015 L
893.303 893.015 893.303 893.087 893.375 893.087 C
895.535 893.087 897.263 892.151 897.263 890.999 C
897.263 889.919 895.535 888.983 893.375 888.983 C
893.303 888.983 893.303 888.983 893.303 888.983 C
f
0.000 0.000 0.000 1.000 k
893.303 893.015 m
893.303 893.231 L
890.567 893.231 888.479 892.151 888.479 890.999 C
888.479 889.703 890.567 888.695 893.303 888.695 C
893.303 888.983 L
891.143 888.983 889.415 889.919 889.415 890.999 C
889.415 892.079 891.143 893.015 893.303 893.015 C
f
U
U
u
u
0.000 0.000 0.000 1.000 k
893.447 886.463 m
893.447 885.239 L
894.167 885.239 894.671 886.895 894.671 889.055 C
894.671 890.999 894.167 892.727 893.447 892.727 C
893.447 891.575 L
893.879 891.575 894.311 890.423 894.311 889.055 C
894.311 887.615 893.879 886.463 893.447 886.463 C
f
0.000 0.000 0.000 1.000 k
893.447 891.575 m
893.447 892.727 L
893.447 892.727 893.447 892.799 893.447 892.799 C
892.799 892.799 892.223 891.071 892.223 889.055 C
892.223 886.895 892.799 885.239 893.447 885.239 C
893.447 885.239 893.447 885.239 893.447 885.239 C
893.447 886.463 L
893.447 886.463 893.447 886.463 893.447 886.463 C
893.015 886.463 892.655 887.615 892.655 889.055 C
892.655 890.495 893.015 891.647 893.447 891.647 C
893.447 891.647 893.447 891.575 893.447 891.575 C
f
U
U
U
0.000 0.000 0.000 1.000 K
0 j
0 J
0.215 w
[]0 d
0.000 0.000 0.000 0.098 k
1011.311 872.567 m
982.295 872.567 l
978.767 872.567 976.535 871.991 976.535 868.679 c
976.535 865.295 979.055 861.119 982.295 861.119 c
1012.463 861.119 l
1014.695 861.119 1015.415 864.359 1015.415 867.671 c
1015.415 870.767 1013.111 872.567 1011.311 872.567 c
b
u
u
0.000 0.000 0.000 1.000 K
0 j
0 J
0.215 w
[]0 d
824.111 989.135 m
824.111 985.391 L
S
U
U
u
u
0.000 0.000 0.000 1.000 K
0 j
0 J
0.215 w
[]0 d
827.711 988.775 m
827.927 985.895 L
S
U
U
u
u
0.000 0.000 0.000 1.000 K
0 j
0 J
0.215 w
[]0 d
960.407 986.903 m
960.407 985.175 L
S
U
U
u
u
0.000 0.000 0.000 1.000 K
0 j
0 J
0.215 w
[]0 d
963.791 987.767 m
963.791 984.023 L
S
U
U
0.000 0.000 0.000 1.000 K
0 j
0 J
0.215 w
[]0 d
0.000 0.000 0.000 0.498 k
789.263 931.823 m
786.959 932.183 804.023 967.823 810.863 975.599 c
814.391 979.559 815.543 981.287 821.591 982.367 c
827.711 983.375 860.111 984.167 891.143 984.167 c
922.175 984.167 956.159 983.447 960.119 982.871 c
964.151 982.367 971.279 980.999 975.383 976.319 c
979.487 971.639 998.135 934.847 998.135 932.327 c
998.135 929.735 999.503 927.935 996.479 927.935 c
993.527 927.935 929.879 933.335 894.743 933.335 c
859.607 933.335 797.039 930.023 793.655 929.447 C
790.343 928.871 789.263 931.823 789.263 931.823 c
b
0.000 0.000 0.000 1.000 K
0 j
0 J
0.215 w
[]0 d
0.000 0.000 0.000 0.098 k
891.071 982.223 m
909.647 981.647 943.919 982.727 962.423 980.639 C
966.959 980.063 972.143 977.687 974.807 973.943 C
982.151 962.135 988.775 948.815 994.679 936.215 C
995.543 933.839 999.503 927.935 996.479 927.935 c
993.527 927.935 928.871 933.335 894.743 933.335 c
859.607 933.335 797.039 930.023 793.655 929.447 C
790.343 928.871 790.487 931.535 792.431 937.079 C
797.327 949.103 803.663 961.919 810.935 972.647 C
815.831 978.983 818.279 980.207 826.415 980.927 C
852.767 982.655 864.719 982.223 891.071 982.223 C
b
u
u
0.000 0.000 0.000 1.000 K
0 j
0 J
0.215 w
[]0 d
785.447 924.983 m
785.447 924.983 810.647 927.647 814.535 927.647 C
S
U
U
u
u
0.000 0.000 0.000 1.000 K
0 j
0 J
0.215 w
[]0 d
1001.159 925.559 m
1001.159 925.559 976.103 927.647 972.359 927.647 C
S
U
U
0.000 0.000 0.000 1.000 K
0 j
0 J
0.215 w
[]0 d
0.000 0.000 0.000 0.000 k
852.839 867.527 m
932.615 867.527 l
933.479 867.527 934.127 866.879 934.127 866.015 c
934.127 850.607 l
934.127 849.743 933.479 849.095 932.615 849.095 c
852.839 849.095 l
852.047 849.095 851.399 849.743 851.399 850.607 c
851.399 866.015 l
851.399 866.879 852.047 867.527 852.839 867.527 c
b
u
u
0.000 0.000 0.000 1.000 K
0 j
0 J
0.215 w
[]0 d
83.231 1114.415 m
83.303 1103.975 L
S
U
U
u
u
0.000 0.000 0.000 1.000 K
0 j
0 J
0.215 w
[]0 d
647.207 868.751 m
647.135 858.311 L
S
U
U
0.000 0.000 0.000 1.000 K
0 j
0 J
0.215 w
[]0 d
0.000 0.000 0.000 1.000 k
192.527 1062.503 m
189.503 1061.927 186.479 1062.000 183.311 1062.503 c
180.791 1062.864 181.007 1065.023 181.943 1065.959 C
184.103 1072.583 L
185.111 1073.663 190.223 1073.663 191.303 1072.583 C
192.599 1070.639 192.455 1067.903 193.823 1065.959 C
194.759 1065.023 194.759 1062.864 192.527 1062.503 c
b
0.000 0.000 0.000 1.000 K
0 j
0 J
0.215 w
[]0 d
0.000 0.000 0.000 1.000 k
537.983 816.839 m
541.007 816.263 544.103 816.335 547.199 816.839 c
549.719 817.199 549.503 819.359 548.567 820.295 C
546.479 826.919 L
545.399 827.999 540.288 827.999 539.207 826.919 C
537.911 824.975 538.055 822.239 536.687 820.295 C
535.751 819.359 535.751 817.199 537.983 816.839 c
b
0.000 0.000 0.000 1.000 K
0 j
0 J
0.215 w
[]0 d
0.000 0.000 0.000 1.000 k
173.591 1066.319 m
171.000 1068.119 168.911 1070.279 167.039 1072.799 c
165.527 1074.887 167.183 1076.255 168.551 1076.183 C
174.671 1079.423 L
176.183 1079.423 179.855 1075.823 179.783 1074.311 C
179.351 1072.007 177.335 1070.207 176.903 1067.831 C
176.903 1066.535 175.391 1064.951 173.591 1066.319 c
b
0.000 0.000 0.000 1.000 K
0 j
0 J
0.215 w
[]0 d
0.000 0.000 0.000 1.000 k
556.991 820.655 m
559.511 822.455 561.599 824.615 563.471 827.135 c
564.983 829.223 563.327 830.591 562.031 830.519 C
555.839 833.759 L
554.327 833.759 550.727 830.159 550.727 828.647 C
551.159 826.343 553.175 824.543 553.607 822.167 C
553.607 820.871 555.120 819.287 556.991 820.655 c
b
0.000 0.000 0.000 1.000 K
0 j
0 J
0.215 w
[]0 d
0.000 0.000 0.000 1.000 k
162.863 1082.519 m
162.287 1085.615 162.359 1088.639 162.863 1091.735 c
163.223 1094.255 165.311 1094.039 166.319 1093.103 C
172.943 1091.015 L
174.024 1089.935 174.024 1084.823 172.943 1083.743 C
171.000 1082.447 168.263 1082.591 166.319 1081.223 C
165.311 1080.288 163.151 1080.288 162.863 1082.519 c
b
0.000 0.000 0.000 1.000 K
0 j
0 J
0.215 w
[]0 d
0.000 0.000 0.000 1.000 k
567.719 836.855 m
568.223 839.951 568.151 842.975 567.719 846.071 c
567.288 848.591 565.199 848.375 564.264 847.439 C
557.567 845.351 L
556.487 844.271 556.487 839.159 557.567 838.079 C
559.583 836.783 562.247 836.927 564.264 835.559 C
565.199 834.623 567.360 834.623 567.719 836.855 c
b
0.000 0.000 0.000 1.000 K
0 j
0 J
0.215 w
[]0 d
0.000 0.000 0.000 1.000 k
166.607 1101.528 m
168.407 1104.048 170.639 1106.207 173.159 1108.079 c
175.247 1109.591 176.615 1107.935 176.543 1106.567 C
179.783 1100.375 L
179.783 1098.863 176.183 1095.263 174.671 1095.263 C
172.367 1095.768 170.567 1097.711 168.191 1098.215 C
166.823 1098.215 165.311 1099.655 166.607 1101.528 c
b
0.000 0.000 0.000 1.000 K
0 j
0 J
0.215 w
[]0 d
0.000 0.000 0.000 1.000 k
563.903 855.863 m
562.103 858.383 559.943 860.543 557.351 862.415 c
555.264 863.927 553.967 862.271 553.967 860.903 C
550.727 854.711 L
550.727 853.199 554.327 849.599 555.839 849.599 C
558.144 850.103 560.015 852.047 562.319 852.551 C
563.687 852.551 565.199 853.991 563.903 855.863 c
b
0.000 0.000 0.000 1.000 K
0 j
0 J
0.215 w
[]0 d
0.000 0.000 0.000 1.000 k
182.735 1112.327 m
185.831 1112.903 188.855 1112.831 192.023 1112.327 c
194.471 1111.967 194.327 1109.879 193.319 1108.871 C
191.231 1102.247 L
190.151 1101.167 185.039 1101.167 184.031 1102.247 C
182.735 1104.192 182.807 1106.927 181.512 1108.871 C
180.575 1109.879 180.503 1112.039 182.735 1112.327 c
b
0.000 0.000 0.000 1.000 K
0 j
0 J
0.215 w
[]0 d
0.000 0.000 0.000 1.000 k
547.775 866.663 m
544.679 867.239 541.655 867.167 538.559 866.663 c
536.039 866.303 536.255 864.215 537.192 863.207 C
539.279 856.583 L
540.360 855.503 545.471 855.503 546.551 856.583 C
547.847 858.527 547.703 861.263 549.072 863.207 C
550.007 864.215 550.007 866.375 547.775 866.663 c
b
0.000 0.000 0.000 1.000 K
0 j
0 J
0.215 w
[]0 d
0.000 0.000 0.000 1.000 k
201.887 1108.439 m
204.407 1106.639 206.495 1104.480 208.439 1101.887 c
209.879 1099.871 208.223 1098.503 206.927 1098.503 C
200.735 1095.336 L
199.223 1095.263 195.623 1098.935 195.623 1100.447 C
196.055 1102.679 198.071 1104.551 198.503 1106.855 C
198.503 1108.223 200.015 1109.735 201.887 1108.439 c
b
0.000 0.000 0.000 1.000 K
0 j
0 J
0.215 w
[]0 d
0.000 0.000 0.000 1.000 k
528.623 862.775 m
526.103 860.975 524.015 858.815 522.144 856.223 c
520.631 854.207 522.288 852.839 523.655 852.839 C
529.775 849.671 L
531.288 849.599 534.959 853.271 534.887 854.783 C
534.455 857.015 532.439 858.887 532.007 861.191 C
532.007 862.559 530.495 864.071 528.623 862.775 c
b
0.000 0.000 0.000 1.000 K
0 j
0 J
0.215 w
[]0 d
0.000 0.000 0.000 1.000 k
212.615 1092.311 m
213.119 1089.288 213.047 1086.192 212.615 1083.096 c
212.183 1080.576 210.095 1080.791 209.159 1081.727 C
202.463 1083.816 L
201.383 1084.895 201.383 1090.007 202.463 1091.087 C
204.479 1092.384 207.143 1092.240 209.159 1093.607 C
210.095 1094.543 212.255 1094.543 212.615 1092.311 c
b
0.000 0.000 0.000 1.000 K
0 j
0 J
0.215 w
[]0 d
0.000 0.000 0.000 1.000 k
517.967 846.647 m
517.391 843.623 517.463 840.527 517.967 837.431 c
518.327 834.911 520.415 835.127 521.423 836.063 C
528.048 838.151 L
529.127 839.231 529.127 844.343 528.048 845.423 C
526.103 846.719 523.367 846.575 521.423 847.943 C
520.415 848.879 518.255 848.879 517.967 846.647 c
b
0.000 0.000 0.000 1.000 K
0 j
0 J
0.215 w
[]0 d
0.000 0.000 0.000 1.000 k
208.799 1073.303 m
206.999 1070.783 204.839 1068.695 202.247 1066.823 c
200.159 1065.311 198.863 1066.967 198.863 1068.263 C
195.623 1074.455 L
195.623 1075.967 199.223 1079.567 200.735 1079.567 C
203.039 1079.135 204.911 1077.119 207.215 1076.687 C
208.583 1076.687 210.095 1075.175 208.799 1073.303 c
b
0.000 0.000 0.000 1.000 K
0 j
0 J
0.215 w
[]0 d
0.000 0.000 0.000 1.000 k
521.711 827.639 m
523.511 825.119 525.743 823.031 528.264 821.087 c
530.351 819.647 531.719 821.303 531.647 822.599 C
534.887 828.791 L
534.887 830.303 531.288 833.903 529.775 833.903 C
527.471 833.471 525.671 831.455 523.295 831.023 C
521.927 831.023 520.415 829.511 521.711 827.639 c
b
0.000 0.000 0.000 1.000 K
0 j
0 J
0.215 w
[]0 d
187.703 1096.631 m
192.743 1096.631 196.919 1092.528 196.919 1087.487 c
196.919 1082.447 192.743 1078.271 187.703 1078.271 c
182.663 1078.271 178.559 1082.447 178.559 1087.487 c
178.559 1092.528 182.663 1096.631 187.703 1096.631 c
s
0.000 0.000 0.000 1.000 K
0 j
0 J
0.215 w
[]0 d
542.807 850.967 m
537.767 850.967 533.663 846.863 533.663 841.823 c
533.663 836.783 537.767 832.607 542.807 832.607 c
547.847 832.607 551.951 836.783 551.951 841.823 c
551.951 846.863 547.847 850.967 542.807 850.967 c
s
0.000 0.000 0.000 1.000 K
0 j
0 J
0.215 w
[]0 d
187.631 1090.511 m
189.287 1090.511 190.727 1089.144 190.727 1087.415 c
190.727 1085.759 189.287 1084.391 187.631 1084.391 c
185.975 1084.391 184.535 1085.759 184.535 1087.415 c
184.535 1089.144 185.975 1090.511 187.631 1090.511 c
s
0.000 0.000 0.000 1.000 K
0 j
0 J
0.215 w
[]0 d
542.879 844.847 m
541.223 844.847 539.783 843.479 539.783 841.751 c
539.783 840.095 541.223 838.727 542.879 838.727 c
544.607 838.727 545.975 840.095 545.975 841.751 c
545.975 843.479 544.607 844.847 542.879 844.847 c
s
0.000 0.000 0.000 1.000 K
0 j
0 J
0.215 w
[]0 d
405.935 1157.831 m
426.167 1157.831 l
428.039 1157.831 429.407 1156.463 429.407 1154.591 c
429.407 1154.591 l
429.407 1152.719 428.039 1151.279 426.167 1151.279 c
405.935 1151.279 l
404.063 1151.279 402.695 1152.719 402.695 1154.591 c
402.695 1154.591 l
402.695 1156.463 404.063 1157.831 405.935 1157.831 c
s
0.000 0.000 0.000 1.000 K
0 j
0 J
0.215 w
[]0 d
324.503 912.167 m
304.343 912.167 l
302.471 912.167 301.103 910.799 301.103 908.927 c
301.103 908.927 l
301.103 907.055 302.471 905.615 304.343 905.615 c
324.503 905.615 l
326.375 905.615 327.815 907.055 327.815 908.927 c
327.815 908.927 l
327.815 910.799 326.375 912.167 324.503 912.167 c
s
0.000 0.000 0.000 1.000 K
0 j
0 J
0.215 w
[]0 d
0.000 0.000 0.000 0.650 (PANTONE Cool Gray 9 CV) -0.000 x
444.887 1233.647 m
447.551 1233.647 449.639 1233.863 452.159 1233.863 c
462.167 1233.863 477.575 1233.071 487.439 1231.127 c
501.839 1228.319 510.263 1225.151 523.151 1218.959 c
531.647 1214.927 545.687 1205.783 552.096 1198.295 c
558.000 1191.023 550.583 1184.687 542.951 1182.167 c
527.615 1177.199 507.815 1175.687 490.967 1174.679 c
472.823 1173.815 455.111 1173.671 436.751 1173.096 C
260.351 1165.967 L
262.871 1175.543 305.207 1202.327 315.647 1208.807 c
330.983 1218.528 350.063 1227.311 367.991 1229.615 c
392.543 1232.711 419.687 1233.647 444.887 1233.647 C
b
0.000 0.000 0.000 1.000 K
0 j
0 J
0.215 w
[]0 d
0.000 0.000 0.000 0.650 (PANTONE Cool Gray 9 CV) -0.000 x
285.623 987.983 m
282.887 987.983 280.871 988.199 278.351 988.199 c
268.343 988.199 252.935 987.407 243.071 985.463 c
228.671 982.655 220.319 979.487 207.359 973.295 c
198.863 969.263 184.895 960.119 178.415 952.631 c
172.512 945.359 179.927 939.023 187.559 936.503 c
202.895 931.535 222.695 930.023 239.543 929.015 c
257.687 928.151 275.327 928.007 293.759 927.431 C
470.159 920.303 L
467.639 929.879 425.303 956.663 414.791 963.143 c
399.455 972.863 380.447 981.647 362.447 983.951 c
337.967 987.047 310.751 987.983 285.623 987.983 C
b
u
u
0.000 0.000 0.000 1.000 K
0 j
0 J
0.215 w
[]0 d
444.959 1233.863 m
445.103 1231.919 435.887 1175.759 436.103 1173.311 C
S
U
U
u
u
0.000 0.000 0.000 1.000 K
0 j
0 J
0.215 w
[]0 d
285.407 988.055 m
285.263 986.111 294.479 929.951 294.263 927.503 C
S
U
U
0.000 0.000 0.000 1.000 K
0 j
0 J
0.215 w
[]0 d
436.103 1173.096 m
436.895 1165.391 438.407 1155.023 438.407 1149.336 c
438.407 1141.487 438.263 1133.351 438.695 1125.720 C
437.831 1119.528 437.399 1110.815 437.399 1105.199 c
437.399 1100.159 434.231 1094.183 433.367 1087.991 C
375.623 1087.991 317.951 1085.831 260.423 1085.831 C
259.632 1093.319 254.951 1099.295 254.951 1105.703 c
254.951 1111.823 254.087 1122.983 254.303 1130.183 C
254.447 1137.672 255.743 1146.311 255.959 1153.007 c
255.959 1156.319 259.632 1163.807 260.279 1165.967 C
284.183 1166.903 436.103 1173.096 436.103 1173.096 c
s
0.000 0.000 0.000 1.000 K
0 j
0 J
0.215 w
[]0 d
294.407 927.431 m
293.543 919.727 292.031 909.359 292.031 903.671 c
292.031 895.823 292.247 887.687 291.815 880.055 C
292.608 873.863 293.111 865.151 293.111 859.535 c
293.111 854.495 296.279 848.519 297.144 842.327 C
354.887 842.327 412.559 840.167 470.015 840.167 C
470.879 847.655 475.559 853.631 475.559 860.039 c
475.559 866.159 476.423 877.319 476.207 884.519 C
475.991 892.007 474.695 900.647 474.551 907.343 c
474.551 910.655 470.879 918.143 470.231 920.303 C
446.327 921.239 294.407 927.431 294.407 927.431 c
s
0.000 0.000 0.000 1.000 K
0 j
0 J
0.215 w
[]0 d
0.000 0.000 0.000 0.650 (PANTONE Cool Gray 9 CV) -0.000 x
447.623 1231.271 m
439.127 1177.055 L
458.351 1177.775 474.767 1178.063 503.567 1179.719 c
516.887 1180.511 529.919 1182.671 535.391 1183.967 c
540.431 1185.192 548.207 1187.711 548.423 1191.743 C
548.567 1195.703 546.623 1198.655 543.743 1201.031 c
537.479 1206.503 527.255 1213.559 520.271 1217.015 c
511.127 1221.480 504.647 1224.359 493.991 1227.311 C
485.207 1229.831 469.727 1231.343 459.575 1231.343 C
455.543 1231.343 451.655 1231.271 447.623 1231.271 C
b
0.000 0.000 0.000 1.000 K
0 j
0 J
0.215 w
[]0 d
0.000 0.000 0.000 0.650 (PANTONE Cool Gray 9 CV) -0.000 x
282.743 985.463 m
291.239 931.247 L
272.015 932.039 255.527 932.255 226.871 933.983 c
213.479 934.703 200.519 936.863 194.975 938.159 c
189.935 939.383 182.159 941.903 182.015 945.935 C
181.799 949.967 183.743 952.847 186.695 955.295 c
192.959 960.695 203.111 967.823 210.167 971.279 c
219.311 975.671 225.719 978.551 236.375 981.575 C
245.159 984.095 260.639 985.535 270.791 985.535 C
274.823 985.535 278.711 985.463 282.743 985.463 C
b
0.000 0.000 0.000 1.000 K
0 j
0 J
0.215 w
[]0 d
0.000 0.000 0.000 0.098 k
449.999 1228.103 m
442.367 1177.055 L
462.455 1177.415 483.263 1177.703 503.135 1179.000 c
517.103 1179.935 547.127 1183.751 546.983 1191.167 c
546.983 1194.623 543.599 1196.855 542.231 1198.727 c
542.231 1198.727 537.839 1203.119 530.567 1208.087 c
519.408 1215.576 513.647 1218.887 492.983 1225.079 c
471.527 1231.415 450.143 1229.327 449.999 1228.103 c
b
0.000 0.000 0.000 1.000 K
0 j
0 J
0.215 w
[]0 d
0.000 0.000 0.000 0.098 k
280.367 982.295 m
288.000 931.247 L
267.911 931.607 247.175 931.895 227.231 933.191 c
213.335 934.127 183.311 938.015 183.383 945.359 c
183.383 948.815 186.767 951.047 188.135 952.919 c
188.135 952.919 192.527 957.311 199.871 962.279 c
210.959 969.767 216.791 973.151 237.455 979.271 c
258.839 985.679 280.223 983.519 280.367 982.295 c
b
0.000 0.000 0.000 1.000 K
0 j
0 J
0.215 w
[]0 d
0.000 0.000 0.000 0.650 (PANTONE Cool Gray 9 CV) -0.000 x
434.015 1176.767 m
442.007 1231.199 L
430.559 1231.055 419.255 1230.911 408.455 1230.911 C
389.735 1230.336 380.735 1229.327 365.399 1226.807 c
355.895 1225.151 344.591 1221.336 336.095 1217.231 C
323.711 1211.687 307.295 1199.591 296.639 1192.391 C
289.223 1187.423 278.135 1178.567 272.159 1171.511 C
272.159 1171.511 283.463 1171.511 287.495 1171.511 C
324.863 1174.391 382.247 1174.967 434.015 1176.767 C
b
0.000 0.000 0.000 1.000 K
0 j
0 J
0.215 w
[]0 d
0.000 0.000 0.000 0.650 (PANTONE Cool Gray 9 CV) -0.000 x
296.351 930.959 m
288.359 985.391 L
299.807 985.319 311.111 985.103 321.911 985.103 C
340.631 984.527 349.631 983.519 364.895 980.999 c
374.471 979.415 385.775 975.527 394.271 971.423 C
406.583 965.951 423.071 953.783 433.727 946.583 C
441.143 941.615 452.231 932.759 458.207 925.775 C
458.207 925.775 446.903 925.775 442.871 925.775 C
405.503 928.655 348.119 929.231 296.351 930.959 C
b
0.000 0.000 0.000 1.000 K
0 j
0 J
0.215 w
[]0 d
0.000 0.000 0.000 0.098 k
437.183 1228.247 m
421.703 1228.247 406.799 1228.031 391.463 1227.167 C
382.031 1226.519 367.343 1224.359 363.311 1223.567 c
352.223 1220.975 340.991 1216.943 331.199 1211.399 c
316.727 1203.551 297.719 1189.007 301.175 1190.951 c
304.560 1192.895 281.735 1175.615 281.951 1175.831 c
281.735 1175.615 277.487 1171.367 277.703 1171.583 c
277.487 1171.367 339.263 1173.887 341.207 1173.887 c
428.255 1176.480 L
437.183 1228.247 L
b
0.000 0.000 0.000 1.000 K
0 j
0 J
0.215 w
[]0 d
0.000 0.000 0.000 0.098 k
293.255 982.583 m
308.807 982.583 323.711 982.367 339.048 981.503 C
348.407 980.855 363.095 978.695 367.127 977.903 c
378.215 975.311 389.519 971.279 399.311 965.735 c
413.783 957.887 432.719 943.343 429.335 945.287 c
425.951 947.231 448.703 929.951 448.487 930.167 c
448.703 929.951 452.951 925.703 452.735 925.919 c
452.951 925.703 391.247 928.223 389.303 928.223 c
302.183 930.815 L
293.255 982.583 L
b
0.000 0.000 0.000 1.000 K
0 j
0 J
0.215 w
[]0 d
593.279 1163.087 m
573.407 1163.087 l
571.391 1163.087 569.735 1161.432 569.735 1159.415 C
569.735 1147.463 l
569.735 1146.815 570.024 1145.807 570.312 1145.303 C
572.471 1143.576 574.199 1142.063 576.647 1140.624 C
577.583 1140.336 578.591 1140.263 579.671 1140.263 c
593.279 1140.263 l
595.367 1140.263 596.951 1141.847 596.951 1143.935 c
596.951 1159.415 l
596.951 1161.503 595.367 1163.087 593.279 1163.087 c
s
0.000 0.000 0.000 1.000 K
0 j
0 J
0.215 w
[]0 d
0.000 0.000 0.000 0.000 k
892.151 1237.895 m
870.911 1238.327 851.543 1238.111 831.743 1236.167 C
827.855 1235.375 823.967 1234.367 819.647 1233.215 c
814.031 1231.631 811.583 1229.255 803.951 1222.343 c
791.999 1211.759 778.391 1188.288 774.287 1176.911 c
771.407 1168.991 767.879 1157.039 767.879 1157.039 c
767.879 1157.039 766.079 1149.551 764.783 1144.223 c
762.767 1136.303 762.551 1129.031 762.551 1129.031 c
769.967 1128.815 L
772.415 1131.192 l
772.415 1131.192 1012.391 1131.192 1012.391 1131.407 c
1012.391 1131.192 1016.351 1128.672 1016.351 1128.815 c
1016.351 1128.672 1022.543 1128.672 1022.543 1128.815 c
1022.543 1128.815 1020.887 1136.159 1020.023 1143.000 c
1019.231 1149.336 1016.567 1157.615 1016.711 1157.615 c
1017.143 1157.615 1012.823 1170.359 1009.295 1179.432 c
1002.743 1195.991 994.319 1211.759 980.711 1225.295 c
980.711 1225.295 975.743 1230.263 971.423 1232.207 c
967.751 1233.791 961.343 1235.735 961.343 1235.735 C
939.095 1238.543 914.759 1237.751 892.151 1237.895 C
b
0.000 0.000 0.000 1.000 K
0 j
0 J
0.215 w
[]0 d
0.000 0.000 0.000 0.298 k
776.735 1167.336 m
776.735 1167.048 776.663 1166.687 776.591 1166.255 C
775.583 1157.687 774.863 1149.048 773.927 1140.407 C
823.751 1140.407 L
817.415 1167.263 L
776.735 1167.336 L
b
0.000 0.000 0.000 1.000 K
0 j
0 J
0.215 w
[]0 d
0.000 0.000 0.000 0.298 k
1009.079 1166.975 m
1009.079 1166.687 1009.151 1166.327 1009.295 1165.895 C
1010.231 1157.327 1010.951 1148.687 1011.887 1140.048 C
962.063 1140.048 L
968.399 1166.903 L
1009.079 1166.975 L
b
0.000 0.000 0.000 1.000 K
0 j
0 J
0.215 w
[]0 d
0.000 0.000 0.000 1.000 k
996.911 1094.687 m
1013.831 1094.687 l
1016.711 1094.687 1018.727 1092.743 1018.727 1089.935 c
1018.727 1047.455 l
1018.727 1044.647 1016.711 1042.703 1013.831 1042.703 c
996.911 1042.703 l
994.031 1042.703 992.015 1044.647 992.015 1047.455 c
992.015 1089.935 l
992.015 1092.743 994.031 1094.687 996.911 1094.687 c
b
0.000 0.000 0.000 1.000 K
0 j
0 J
0.215 w
[]0 d
0.000 0.000 0.000 1.000 k
772.343 1094.687 m
789.191 1094.687 l
792.071 1094.687 794.159 1092.743 794.159 1089.935 c
794.159 1047.455 l
794.159 1044.647 792.071 1042.703 789.191 1042.703 c
772.343 1042.703 l
769.463 1042.703 767.375 1044.647 767.375 1047.455 c
767.375 1089.935 l
767.375 1092.743 769.463 1094.687 772.343 1094.687 c
b
0.000 0.000 0.000 1.000 K
0 j
0 J
0.215 w
[]0 d
0.000 0.000 0.000 0.498 k
762.911 1129.391 m
762.911 1126.151 762.911 1122.839 762.911 1119.599 C
762.911 1116.144 762.911 1112.831 762.911 1109.519 C
762.911 1106.783 763.127 1100.591 763.631 1098.288 c
764.783 1092.167 771.839 1078.199 778.607 1077.768 c
785.231 1077.336 785.087 1084.535 793.007 1083.599 C
992.087 1083.672 l
1004.687 1083.672 1002.527 1073.303 1010.087 1078.343 c
1017.791 1083.455 1023.335 1099.151 1023.335 1099.151 C
1023.335 1099.151 1023.479 1106.783 1023.479 1114.415 C
1023.479 1121.111 1023.119 1128.887 1023.119 1128.887 C
1016.063 1128.887 L
1015.703 1128.887 1014.407 1130.975 1010.447 1131.480 C
1006.847 1131.695 852.191 1130.471 772.991 1131.480 C
772.127 1130.255 771.407 1129.751 770.471 1128.743 C
768.311 1128.887 765.431 1129.391 762.911 1129.391 C
b
0.000 0.000 0.000 1.000 K
0 j
0 J
0.215 w
[]0 d
0.000 0.000 0.000 0.180 (PANTONE Cool Gray 3 CV) -0.000 x
780.767 1190.519 m
777.959 1185.407 775.799 1180.655 774.431 1176.983 C
774.071 1175.903 773.567 1174.535 773.135 1173.167 C
770.831 1173.096 768.455 1173.096 766.871 1173.096 C
758.591 1174.535 757.151 1177.991 758.231 1185.119 C
761.903 1192.679 771.191 1190.735 778.751 1190.663 C
778.751 1190.519 779.543 1190.519 780.767 1190.519 C
b
0.000 0.000 0.000 1.000 K
0 j
0 J
0.215 w
[]0 d
0.000 0.000 0.000 0.180 (PANTONE Cool Gray 3 CV) -0.000 x
1011.887 1173.311 m
1011.023 1175.543 1010.303 1177.703 1009.439 1179.647 C
1007.927 1183.463 1006.343 1187.135 1004.759 1190.735 C
1012.319 1190.879 1021.103 1192.607 1024.775 1185.624 C
1025.279 1178.567 1024.271 1173.455 1016.135 1173.167 C
1014.911 1173.167 1013.471 1173.167 1011.887 1173.311 C
b
0.000 0.000 0.000 1.000 K
0 j
0 J
0.215 w
[]0 d
0.000 0.000 0.000 0.098 k
780.047 1189.295 m
777.599 1184.687 775.655 1180.367 774.431 1177.127 C
774.359 1176.480 774.071 1175.759 773.855 1175.183 C
766.871 1174.751 L
763.127 1174.751 759.959 1176.480 759.959 1180.367 C
759.959 1181.879 759.959 1182.311 759.959 1183.679 C
759.959 1187.495 764.711 1189.799 769.103 1189.799 C
778.751 1189.655 L
778.751 1189.655 779.327 1189.439 780.047 1189.295 C
b
0.000 0.000 0.000 1.000 K
0 j
0 J
0.215 w
[]0 d
0.000 0.000 0.000 0.098 k
1011.383 1174.895 m
1010.735 1176.624 1010.159 1178.207 1009.511 1179.647 C
1008.215 1183.103 1006.847 1186.487 1005.263 1189.799 C
1014.047 1189.871 L
1018.295 1189.871 1023.047 1187.567 1023.047 1183.823 C
1023.047 1182.455 1023.047 1181.951 1023.047 1180.511 C
1023.047 1176.624 1019.879 1174.895 1016.279 1174.895 C
1011.383 1174.895 L
b
0.000 0.000 0.000 1.000 K
0 j
0 J
0.215 w
[]0 d
0.000 0.000 0.000 0.650 (PANTONE Cool Gray 9 CV) -0.000 x
794.159 1060.343 m
794.159 1083.599 L
992.087 1083.672 L
992.015 1060.703 L
988.199 1060.559 976.175 1060.343 976.175 1060.559 C
976.175 1060.343 971.783 1058.111 971.783 1058.111 C
968.471 1058.111 963.503 1058.111 963.503 1058.471 C
963.503 1058.111 954.863 1060.703 954.863 1060.775 C
954.863 1061.351 943.991 1063.079 943.991 1062.864 C
943.991 1062.432 836.063 1062.432 836.063 1062.864 C
836.063 1062.864 830.879 1061.855 827.639 1061.207 C
823.967 1060.343 821.231 1058.543 821.231 1058.543 C
821.231 1058.471 813.671 1058.111 813.671 1058.471 C
813.671 1058.111 810.143 1059.336 808.847 1059.839 C
807.479 1060.487 799.487 1060.487 794.159 1060.343 C
b
u
u
0.000 0.000 0.000 1.000 K
0 j
0 J
0.215 w
[]0 d
775.079 1098.720 m
783.719 1100.303 L
1004.759 1099.871 L
1009.655 1099.079 L
S
U
U
u
u
0.000 0.000 0.000 1.000 K
0 j
0 J
0.215 w
[]0 d
771.263 1117.799 m
771.263 1106.207 l
771.263 1103.039 772.127 1101.240 773.999 1099.295 c
775.799 1097.351 778.103 1096.703 779.759 1095.551 C
S
U
U
u
u
0.000 0.000 0.000 1.000 K
0 j
0 J
0.215 w
[]0 d
1014.767 1116.359 m
1014.767 1105.559 L
1011.671 1100.663 l
1011.455 1100.447 1006.775 1095.480 1006.775 1095.480 C
S
U
U
u
u
0.000 0.000 0.000 1.000 K
0 j
0 J
0.215 w
[]0 d
810.071 1227.959 m
804.095 1219.895 797.327 1212.119 792.143 1203.695 c
786.815 1194.839 778.391 1181.519 776.519 1166.255 c
775.079 1154.735 774.431 1143.144 772.775 1131.407 C
S
U
U
u
u
0.000 0.000 0.000 1.000 K
0 j
0 J
0.215 w
[]0 d
974.519 1229.759 m
983.015 1221.119 1001.519 1191.599 1006.703 1175.255 c
1011.815 1158.911 1011.239 1142.927 1012.247 1131.119 C
S
U
U
0.000 0.000 0.000 1.000 K
0 j
0 J
0.215 w
[]0 d
817.487 1167.407 m
823.679 1140.192 L
962.135 1139.831 l
962.279 1139.831 967.895 1162.439 968.687 1166.975 C
817.487 1167.407 L
s
0.000 0.000 0.000 1.000 K
0 j
0 J
0.215 w
[]0 d
0.000 0.000 0.000 0.180 (PANTONE Cool Gray 3 CV) -0.000 x
985.607 1194.263 m
985.535 1194.263 985.463 1194.263 985.247 1194.263 C
975.887 1196.207 939.671 1196.351 932.615 1196.351 c
925.775 1196.351 868.463 1196.711 852.191 1196.711 c
835.991 1196.711 803.807 1193.903 800.639 1192.967 C
799.991 1193.687 798.911 1196.495 799.271 1197.359 c
804.239 1210.031 808.703 1217.015 814.463 1224.935 c
815.471 1226.231 818.711 1228.607 820.799 1229.471 c
835.199 1235.663 868.823 1234.799 890.351 1234.799 c
911.879 1234.799 949.463 1234.871 961.919 1232.423 c
964.583 1231.847 970.055 1230.119 972.071 1227.240 c
976.895 1219.823 984.671 1208.807 988.415 1199.303 c
989.855 1195.847 987.263 1194.336 987.263 1194.336 C
986.759 1194.263 986.183 1194.263 985.607 1194.263 C
b
0.000 0.000 0.000 1.000 K
0 j
0 J
0.215 w
[]0 d
776.663 1167.624 m
776.663 1167.192 776.591 1166.759 776.519 1166.327 C
776.231 1163.951 775.943 1161.576 775.655 1159.127 C
819.071 1159.199 L
819.143 1159.199 817.127 1167.624 817.127 1167.624 C
776.663 1167.624 L
s
0.000 0.000 0.000 1.000 K
0 j
0 J
0.215 w
[]0 d
1009.151 1167.192 m
1009.151 1166.759 1009.223 1166.327 1009.367 1165.895 C
1009.583 1163.591 1009.871 1161.144 1010.159 1158.767 C
966.743 1158.551 L
966.671 1158.551 968.759 1167.192 968.759 1167.192 C
1009.151 1167.192 L
s
u
u
0.000 0.000 0.000 1.000 K
0 j
0 J
0.215 w
[]0 d
801.503 1167.624 m
801.503 1158.911 L
S
U
U
u
u
0.000 0.000 0.000 1.000 K
0 j
0 J
0.215 w
[]0 d
984.311 1167.192 m
984.311 1158.551 L
S
U
U
u
u
0.000 0.000 0.000 1.000 K
0 j
0 J
0.215 w
[]0 d
772.703 1137.528 m
826.919 1137.528 L
S
U
U
u
u
0.000 0.000 0.000 1.000 K
0 j
0 J
0.215 w
[]0 d
1011.671 1137.743 m
957.455 1137.743 L
S
U
U
0.000 0.000 0.000 1.000 K
0 j
0 J
0.215 w
[]0 d
827.135 1137.743 m
957.527 1137.743 L
958.967 1131.839 L
826.487 1131.839 L
827.135 1137.743 L
s
u
u
0.000 0.000 0.000 1.000 K
0 j
0 J
0.215 w
[]0 d
783.215 1185.983 m
788.039 1190.159 794.807 1190.663 800.423 1192.895 c
802.799 1193.759 835.703 1196.783 852.047 1196.783 c
868.391 1196.783 925.631 1196.495 932.615 1196.495 c
939.599 1196.495 975.815 1196.279 985.247 1194.407 c
994.679 1192.463 999.503 1189.367 1001.951 1187.063 C
S
U
U
u
u
0.000 0.000 0.000 1.000 K
0 j
0 J
0.215 w
[]0 d
778.895 1175.327 m
780.767 1178.855 786.311 1181.663 789.623 1183.967 C
794.375 1185.983 798.695 1186.775 803.807 1188.144 C
808.775 1189.079 815.543 1189.871 820.079 1190.087 c
823.967 1190.087 827.927 1190.303 831.815 1190.519 C
873.215 1190.879 913.823 1190.663 955.223 1190.663 C
962.207 1190.519 969.191 1190.303 976.463 1190.303 C
979.127 1189.727 982.439 1189.295 985.319 1188.935 c
987.983 1188.503 990.647 1187.567 993.095 1187.135 C
995.183 1185.767 998.495 1184.399 1000.295 1183.031 c
1002.599 1181.447 1004.471 1179.071 1006.127 1176.911 C
S
U
U
0.000 0.000 0.000 1.000 K
0 j
0 J
0.215 w
[]0 d
0.000 0.000 0.000 0.650 (PANTONE Cool Gray 9 CV) -0.000 x
776.663 1167.695 m
776.879 1168.775 777.023 1169.855 777.239 1170.791 C
853.775 1170.791 933.119 1170.863 1007.423 1170.863 C
1009.151 1167.048 L
968.471 1166.975 L
957.095 1166.399 942.623 1164.455 934.199 1163.951 C
934.199 1163.735 856.943 1164.167 856.943 1164.240 C
843.695 1164.384 830.663 1167.480 817.271 1167.480 C
776.663 1167.695 L
b
0.000 0.000 0.000 1.000 K
0 j
0 J
0.215 w
[]0 d
791.639 1159.199 m
808.271 1159.199 L
808.271 1140.624 L
791.639 1140.624 L
791.639 1159.199 L
s
0.000 0.000 0.000 1.000 K
0 j
0 J
0.215 w
[]0 d
994.175 1158.551 m
977.543 1158.551 L
977.543 1140.192 L
994.175 1140.192 L
994.175 1158.551 L
s
0.000 0.000 0.000 1.000 K
0 j
0 J
0.215 w
[]0 d
0.000 0.000 0.000 0.000 k
859.823 1165.175 m
931.679 1165.175 l
934.343 1165.175 936.431 1163.159 936.431 1160.639 c
936.431 1151.927 l
936.431 1149.407 934.343 1147.463 931.679 1147.463 c
859.823 1147.463 l
857.087 1147.463 855.071 1149.407 855.071 1151.927 c
855.071 1160.639 l
855.071 1163.159 857.087 1165.175 859.823 1165.175 c
b
u
u
u
0.000 0.000 0.000 1.000 k
894.815 1175.399 m
894.815 1174.895 L
898.847 1174.895 902.159 1176.624 902.159 1178.783 C
902.159 1180.871 898.847 1182.671 894.815 1182.671 C
894.815 1182.240 L
898.055 1182.240 900.719 1180.727 900.719 1178.855 C
900.719 1176.983 898.055 1175.399 894.815 1175.399 C
f
0.000 0.000 0.000 1.000 k
894.815 1182.240 m
894.815 1182.671 L
894.815 1182.671 894.815 1182.743 894.815 1182.743 C
890.783 1182.743 887.399 1180.943 887.399 1178.783 C
887.399 1176.624 890.783 1174.895 894.815 1174.895 C
894.815 1174.895 894.815 1174.895 894.815 1174.895 C
894.815 1175.399 L
894.815 1175.399 894.815 1175.399 894.815 1175.399 C
891.575 1175.399 888.911 1176.983 888.911 1178.855 C
888.911 1180.799 891.575 1182.311 894.815 1182.311 C
894.815 1182.311 894.815 1182.240 894.815 1182.240 C
f
U
U
u
u
0.000 0.000 0.000 1.000 k
894.815 1178.855 m
894.815 1178.567 L
897.407 1178.567 899.567 1179.503 899.567 1180.655 C
899.567 1181.735 897.407 1182.671 894.815 1182.671 C
894.815 1182.455 L
896.903 1182.455 898.631 1181.591 898.631 1180.655 C
898.631 1179.647 896.903 1178.855 894.815 1178.855 C
f
0.000 0.000 0.000 1.000 k
894.815 1182.455 m
894.815 1182.671 L
894.815 1182.671 894.815 1182.743 894.815 1182.743 C
892.223 1182.743 890.063 1181.807 890.063 1180.655 C
890.063 1179.503 892.223 1178.567 894.815 1178.567 C
894.815 1178.567 894.815 1178.567 894.815 1178.567 C
894.815 1178.855 L
894.815 1178.855 894.815 1178.855 894.815 1178.855 C
892.727 1178.855 890.999 1179.647 890.999 1180.655 C
890.999 1181.663 892.727 1182.528 894.815 1182.528 C
894.815 1182.528 894.815 1182.455 894.815 1182.455 C
f
U
U
u
u
0.000 0.000 0.000 1.000 k
894.815 1176.480 m
894.815 1175.399 L
895.463 1175.399 896.039 1176.911 896.039 1178.783 C
896.039 1180.655 895.463 1182.167 894.815 1182.167 C
894.815 1181.087 L
895.247 1181.087 895.607 1180.079 895.607 1178.855 C
895.607 1177.487 895.247 1176.480 894.815 1176.480 C
f
0.000 0.000 0.000 1.000 k
894.815 1181.087 m
894.815 1182.167 L
894.815 1182.167 894.815 1182.240 894.815 1182.240 C
894.167 1182.240 893.591 1180.727 893.591 1178.783 C
893.591 1176.911 894.167 1175.399 894.815 1175.399 C
894.815 1175.399 894.815 1175.399 894.815 1175.399 C
894.815 1176.480 L
894.815 1176.480 894.815 1176.480 894.815 1176.480 C
894.383 1176.480 894.023 1177.487 894.023 1178.855 C
894.023 1180.151 894.383 1181.159 894.815 1181.159 C
894.815 1181.159 894.815 1181.087 894.815 1181.087 C
f
U
U
U
0.000 0.000 0.000 1.000 K
0 j
0 J
0.215 w
[]0 d
0.000 0.000 0.000 1.000 k
968.471 1090.223 m
966.311 1088.711 964.583 1086.551 963.719 1084.031 C
940.463 1083.528 L
940.463 1076.543 L
940.463 1073.231 942.623 1070.639 945.719 1070.639 C
971.351 1070.639 L
972.287 1070.495 973.151 1070.423 974.159 1070.423 C
980.207 1070.423 985.175 1075.175 985.175 1080.935 C
985.175 1086.768 980.207 1091.519 974.159 1091.519 C
972.287 1091.519 970.559 1090.943 969.047 1090.223 C
968.471 1090.223 L
b
0.000 0.000 0.000 0.650 (PANTONE Cool Gray 9 CV) -0.000 x
974.303 1085.687 m
976.967 1085.687 979.055 1083.672 979.055 1081.151 c
979.055 1078.559 976.967 1076.615 974.303 1076.615 c
971.639 1076.615 969.551 1078.559 969.551 1081.151 c
969.551 1083.672 971.639 1085.687 974.303 1085.687 c
f
u
u
0.000 0.000 0.000 1.000 K
0 j
0 J
0.215 w
[]0 d
773.135 1080.863 m
773.135 1080.863 776.663 1085.471 778.967 1086.768 c
781.343 1088.063 786.023 1087.919 791.135 1087.559 c
796.175 1087.199 821.951 1083.743 821.951 1083.743 C
S
U
U
u
u
0.000 0.000 0.000 1.000 K
0 j
0 J
0.215 w
[]0 d
1013.831 1081.007 m
1013.831 1081.007 1009.007 1087.271 1005.479 1087.271 c
1001.951 1087.271 994.103 1085.831 991.655 1085.327 c
989.207 1084.823 984.671 1084.391 984.671 1084.391 C
S
U
U
u
u
0.000 0.000 0.000 1.000 K
0 j
0 J
0.215 w
[]0 d
792.719 855.935 m
787.535 856.655 l
787.535 856.655 783.791 856.079 783.503 854.207 c
783.215 852.263 782.711 845.927 784.151 844.775 c
785.519 843.623 789.695 843.695 792.071 843.695 C
S
U
U
u
u
0.000 0.000 0.000 1.000 K
0 j
0 J
0.215 w
[]0 d
992.087 856.295 m
997.343 856.295 l
997.343 856.295 1001.087 856.079 1001.375 854.207 c
1001.663 852.263 1002.095 845.927 1000.727 844.775 c
999.287 843.623 995.183 843.335 992.735 843.335 C
S
U
U
u
u
0.000 0.000 0.000 1.000 k
371.231 763.991 m
371.231 762.839 L
374.039 762.839 375.335 765.143 375.335 769.247 C
375.335 773.711 373.391 774.935 371.231 774.935 C
371.231 773.711 L
372.815 773.711 373.679 772.343 373.679 770.975 C
373.679 769.535 372.671 768.311 371.231 768.311 C
371.231 767.087 L
372.239 767.087 373.319 767.663 373.895 768.815 C
373.895 768.671 L
373.751 765.575 372.959 763.991 371.231 763.991 C
f
0.000 0.000 0.000 1.000 k
377.063 768.671 m
378.287 768.527 L
378.791 769.247 379.511 769.607 380.519 769.607 c
382.103 769.607 383.183 768.527 383.183 766.943 c
383.183 764.999 382.103 763.991 380.735 763.991 c
379.151 763.991 378.287 764.999 378.143 766.223 C
376.703 766.223 L
376.703 763.991 378.431 762.839 380.519 762.839 c
383.255 762.839 384.623 764.783 384.623 766.799 c
384.623 769.535 382.895 770.975 380.879 770.975 c
380.015 770.975 379.151 770.615 378.503 770.111 C
378.503 770.111 L
379.151 773.567 L
384.047 773.567 L
384.047 774.719 L
378.143 774.719 L
377.063 768.671 L
f
0.000 0.000 0.000 1.000 k
371.231 773.711 m
371.231 774.935 L
371.231 774.935 371.231 775.007 371.231 775.007 C
368.927 775.007 367.343 773.423 367.343 771.119 C
367.343 768.815 368.639 767.087 371.087 767.087 C
371.087 767.087 371.159 767.087 371.231 767.087 C
371.231 768.311 L
371.231 768.311 371.231 768.311 371.231 768.311 C
369.719 768.311 368.783 769.535 368.783 770.831 C
368.783 772.343 369.503 773.783 371.231 773.783 C
371.231 773.783 371.231 773.711 371.231 773.711 C
f
0.000 0.000 0.000 1.000 k
371.231 762.839 m
371.231 763.991 L
371.231 763.991 371.231 763.991 371.231 763.991 C
370.007 763.991 369.143 764.783 369.000 765.863 C
367.559 765.863 L
367.703 763.775 369.143 762.839 371.231 762.839 C
371.231 762.839 371.231 762.767 371.231 762.839 C
f
0.000 0.000 0.000 1.000 k
362.015 763.991 m
362.015 762.839 L
362.015 762.839 362.015 762.839 362.087 762.839 C
365.759 762.839 365.975 766.223 365.975 768.887 C
365.975 771.551 365.759 775.007 362.087 775.007 C
362.015 775.007 362.015 775.007 362.015 774.935 C
362.015 773.711 L
362.015 773.711 362.015 773.783 362.087 773.783 C
364.535 773.783 364.535 770.759 364.535 768.887 C
364.535 767.087 364.535 763.991 362.087 763.991 C
362.015 763.991 362.015 763.991 362.015 763.991 C
f
0.000 0.000 0.000 1.000 k
362.015 773.711 m
362.015 774.935 L
358.199 774.935 358.055 771.479 358.055 768.887 C
358.055 766.223 358.199 762.839 362.015 762.839 C
362.015 763.991 L
359.495 763.991 359.495 767.087 359.495 768.887 C
359.495 770.687 359.495 773.711 362.015 773.711 C
f
0.000 0.000 0.000 1.000 k
351.647 767.087 m
351.647 765.863 L
353.663 765.863 L
353.663 763.055 L
355.031 763.055 L
355.031 765.863 L
356.615 765.863 L
356.615 767.087 L
355.031 767.087 L
355.031 775.007 L
353.879 775.007 L
351.647 771.767 L
351.647 769.967 L
353.663 772.919 L
353.663 772.919 L
353.663 767.087 L
351.647 767.087 L
f
0.000 0.000 0.000 1.000 k
351.647 769.967 m
351.647 771.767 L
348.407 767.159 L
348.407 765.863 L
351.647 765.863 L
351.647 767.087 L
349.631 767.087 L
351.647 769.967 L
f
U
U
0.000 0.000 0.000 1.000 K
0 j
0 J
0.215 w
[]0 d
0.000 0.000 0.000 0.498 k
292.679 1190.447 m
293.975 1191.311 295.487 1191.311 296.927 1191.096 c
298.007 1191.096 301.391 1190.663 301.823 1189.223 C
301.608 1184.327 301.175 1173.023 301.391 1172.591 c
301.391 1172.591 295.703 1171.079 295.055 1172.807 C
293.543 1171.511 291.599 1171.943 288.215 1171.511 C
272.231 1171.511 L
276.048 1175.543 L
278.423 1176.192 284.831 1178.567 286.919 1181.303 c
288.863 1183.463 289.512 1188.791 292.679 1190.447 c
b
0.000 0.000 0.000 1.000 K
0 j
0 J
0.215 w
[]0 d
0.000 0.000 0.000 0.498 k
437.759 944.783 m
436.535 945.647 435.023 945.647 433.511 945.431 c
432.503 945.431 429.047 944.999 428.615 943.559 C
428.831 938.663 429.263 927.359 429.047 926.927 c
429.047 926.927 434.807 925.415 435.455 927.143 C
436.967 925.847 438.839 926.279 442.295 925.847 C
458.207 925.847 L
454.391 929.879 L
452.087 930.527 445.679 932.903 443.519 935.639 c
441.647 937.799 440.999 943.127 437.759 944.783 c
b
%%Trailer
_E end