%!PS-Adobe-2.0 EPSF-1.2
%%Creator: Adobe Illustrator exported from Corel Draw 3.0
%%Title:6
%%BoundingBox:5 306 1028 814
%%CreationDate:(Unknown)
%%ColorUsage:
%%TemplateBox:5 306 1028 814
%%EndComments
%%BeginProcSet:Adobe_Illustrator_1.1 0 0
% Version 1.0 3/27/1990 $nokeywords$
% Copyright (C) 1990,1991,1992
% Corel Corporation
% All Rights Reserved

/wPmsDict 150 dict def 
wPmsDict begin 

/$debug 25 string def 

/bd {bind def} bind def 
/ld {load def} bd 
/xd {exch def} bd 
/_ null def 

/$c 0 def 
/$m 0 def 
/$y 0 def 
/$k 0 def 
/$t 1 def 
/$n _ def 
/$o 0 def 
/$pf false def 

/$C 0 def 
/$M 0 def 
/$Y 0 def 
/$K 0 def 
/$T 1 def 
/$N _ def 
/$O 0 def 
/$PF false def 

/$h false def 

/$al 0 def 
/$tr 0 def 
/$le 0 def 
/$lx 0 def 
/$ly 0 def 

/$ctm matrix currentmatrix def 
/$ptm matrix def 

/$pn () def 
/$pm matrix def 
/$px 0 def 
/$py 0 def 
/$pxf 0 def 
/$pyf 0 def 
/$psx 10 def 
/$psy 0 def 

/$llx 0 def 
/$lly 0 def 
/$urx 0 def 
/$ury 0 def 


/$Bbllx 0 def 
/$Bblly 0 def 
/$Bburx 0 def 
/$Bbury 0 def 

/$tllx 0 def 
/$tlly 0 def 
/$turx 0 def 
/$tury 0 def 

/$pd [] def 
/$tx 0 def 
/$ty 0 def 

/$sv 0 def 
/@cp /closepath ld 
/@gs /gsave ld 
/@gr /grestore ld 
/@np /newpath ld 
/@sv {/$sv save def}bd 
/@rs {$sv restore}bd 

/@MN { 
2 copy le{pop}{exch pop}ifelse 
}bd 

/setcmykcolor where {pop} 
{ 
/setcmykcolor 
{ 
4 1 roll 
3 {3 index add 1 @MN 1 exch sub 3 1 roll} repeat 
setrgbcolor 
pop 
}bd 
}ifelse 

/@tc 
{ 
dup 1 ge 
{pop} 
{ 
4 { 
dup 
6 -1 roll 
mul 
exch 
}repeat 
pop 
}ifelse 
}bd 

/@scc 
{ 
$c $m $y $k $t @tc 
setcmykcolor 
true 
}bd 
/@SCC 
{ 
$C $M $Y $K $T @tc 
setcmykcolor 
true 
}bd 

/@sft 
{ 
(setfirsttile sft )print 
/$tx $tllx $pxf add dup $tllx gt {$pwid $psx add sub}if def 
/$ty $tury $pyf sub dup $tury lt {$phei $psy add add}if def 
(setfirsttile exit )print 
}bd 

/@stb 
{ 
pathbbox /$ury xd /$urx xd /$lly xd /$llx xd 
}bd 

/@ep 
{ 
{ 
cvx exec 
}forall 
}bd 

/@tp 
{ 

(tile pattern tp )print 
@sv 
/$in true def 
2 copy 
dup $lly le {/$in false def}if 
$phei sub $ury ge {/$in false def}if 
dup $urx ge {/$in false def}if 
$pwid add $llx le {/$in false def}if 
$in 
{ 
@np 
2 copy moveto 
$pwid 0 rlineto 
0 $phei neg rlineto 
$pwid neg 0 rlineto 
0 $phei rlineto 
clip @np 

$pn cvlit load aload pop 
7 -1 roll 
5 index sub 
7 -1 roll 
3 index sub 
translate 
@ep 
pop pop pop pop 
} 
{pop pop}ifelse 
@rs 
(tile pattern exit )print 
}bd 

/@th 
{ 
(tile horizontal th)print 
@sft 
0 1 $tly 1 sub 
{ 
dup $psx mul $tx add 
{ 
dup $llx gt {$pwid sub}{exit}ifelse 
}loop 
exch $phei mul $ty exch sub 

0 1 $tlx 1 sub 
{ 
$pwid mul 
3 copy 
3 -1 roll add exch 
@tp 
pop 
}for 
pop pop 
} for 
(tile horizontal exiting )print 
}bd 

/@tv 
{ 
(tile vertical tv)print 
@sft 
0 1 $tlx 1 sub 
{ 
dup $pwid mul $tx add 
exch $psy mul $ty exch sub 
{ 
dup $ury lt {$phei add}{exit}ifelse 
}loop 

0 1 $tly 1 sub 
{ 
$phei mul 
3 copy sub 
@tp 
pop 
}for 
pop pop 
} for 
(tile vertical exit )print 
}bd 

/@pf 
{ 
(pattern fill pf)print 
@gs 
$pm concat 
@stb 
@gs 1 setgray eofill @gr 
eoclip 
$Bburx $Bbury $pm itransform /$tury xd /$turx xd 
$Bbllx $Bblly $pm itransform /$tlly xd /$tllx xd 
/$wid $turx $tllx sub def 
/$hei $tury $tlly sub def 
$wid 0 gt $hei 0 gt and 
{ 
$pn cvlit load aload pop 
$pd xd 
3 -1 roll sub /$phei xd 
exch sub /$pwid xd 
/$tlx $wid $pwid div ceiling 1 add def 
/$tly $hei $phei div ceiling 1 add def 
$psx 0 eq 
{ 
@tv 
} 
{ 
@th 
}ifelse 
}if 

@gr 
@np 
(pattern fill exit)print 
}bd 

/@xp 
{ 
{ 
dup (text Character is:) print == 
usertime (time before is:)print == 
(0) dup 3 -1 roll 0 exch put 
@gs 
true charpath currentpoint 
$ctm setmatrix 
@pf 
@gr 
@np 
moveto $tr 0 rmoveto 
usertime (time after is:)print == 
}forall 
pop 
}bd 

/@sm 
{ 
/$ctm $ctm currentmatrix def 
}bd 

%--@lorg  move to line origin   length string @torg length string
/@lorg    % moves currentpoint to line origin according to current alignment
  {      
  $lx $ly moveto    
  /$ly $ly $le sub def      % - prepare for next line(tracking)
  $al 0 ne
    {dup      % ->len str len str
    stringwidth   % ->len str len dx dy
    exch 3 index  % ->len str dy len dx
    1 sub         % ->len str dy len dx (len-1)
    $tr mul add   % ->len str dy len dx+(len-1)*$tr
    neg
    exch neg      % ->len str -dx_total dy len
    $al 1 eq      % check for centered alignment
    {2 div exch 2 div exch} if  
    rmoveto} if
  }bd

/@ft 
{ 
$pf 
{@xp} 
{ 
@scc 
{$tr exch 0 exch ashow pop} 
{pop pop}ifelse 
}ifelse 
}bd 

/@st 
{ 
$PF 
{} 
{ 
@SCC 
{ 
{ 
(0) dup 3 -1 roll 0 exch put 
@gs 
true charpath currentpoint 
$ctm setmatrix $ptm concat 
stroke 
@gr 
moveto $tr 0 rmoveto 
}forall 
pop 
} 
{pop pop}ifelse 
}ifelse 
}bd 
/@pt 
{ 
dup length exch 
}bd 
/@te 
{ 
@pt 
@lorg 
@ft 
}bd 

/@tr 
{ 
@pt 
@lorg 
@st 
}bd 
/@ta 
{ 
@pt 
@lorg 
2 copy 
@gs @ft @gr 
/$lx 0 def 
/$ly 0 def 
@st 
}bd 















/g { 
1 exch sub /$k xd 
/$c 0 def /$m 0 def /$y 0 def /$t 1 def /$n _ def /$pf false def 
}bd 

/G { 
1 exch sub /$K xd 
/$C 0 def /$M 0 def /$Y 0 def /$T 1 def /$N _ def /$PF false def 
}bd 

/k { 
/$k xd /$y xd /$m xd /$c xd 
/$t 1 def /$n _ def /$pf false def 
}bd 

/K { 
/$K xd /$Y xd /$M xd /$C xd 
/$T 1 def /$N _ def /$PF false def 
}bd 

/x { 
/$t xd /$n xd 
/$k xd /$y xd /$m xd /$c xd /$pf false def 
}bd 

/X { 
/$T xd /$N xd 
/$K xd /$Y xd /$M xd /$C xd /$PF false def 
}bd 

/d /setdash ld 

/i { 
dup 0 ne {setflat} {pop} ifelse 
}bd 

/j /setlinejoin ld 

/J /setlinecap ld 

/M /setmiterlimit ld 

/w /setlinewidth ld 

/O { 
/$o xd 
}bd 

/R { 
/$O xd 
}bd 


/c /curveto ld 

/C /c ld 

/v { 
currentpoint
6 2 roll 
curveto 
}bd

/V /v ld 

/y { 
2 copy curveto 
}bd 

/Y /y ld 

/l /lineto ld 

/L /l ld 

/m /moveto ld 



/n /newpath ld 

/N /newpath ld 

/F { 
$pf 
{@pf} 
{ 
@scc 
{eofill}if 
}ifelse 
}bd 

/f { 
@cp F 
}bd 
/S { 
$PF 
{} 
{ 
@SCC 
{ 
@sm 
$ptm concat 
stroke 
$ctm setmatrix 
}if 
}ifelse 
}bd 
/s { 
@cp 
S 
}bd 

/B { 
@gs F @gr 
S 
}bd 
/b { 
@cp 
B 
}bd 

/W { 
oeclip 
@np 
}bd 

/p { 
/$pm xd 
7 {pop} repeat 
/$pyf xd /$pxf xd 
/$pn xd 
/$pf true def 
}bd 

/P { 
11 {pop} repeat 
}bd 

/@p { 
/$pm xd 
/$psy xd 
/$psx xd 
/$pyf xd /$pxf xd 
/$pn xd 
/$pf true def 
}bd 

/@b { 
/$Bbury xd /$Bburx xd 
/$Bblly xd /$Bbllx xd 
}bd 


/z { 
/$al xd 
/$tr xd 
/$le xd 
exch findfont exch scalefont setfont 
}bd 

/Z { 
dup type 0 type eq { /$bDir xd } if
findfont 
dup maxlength 1 add dict exch 



dup 
{1 index /FID ne 
{ 
3 index 
3 1 roll put 
} 
{pop pop}ifelse 
} forall 



pop 
dup dup /Encoding get 
256 array copy 
dup /$fe xd
/Encoding exch put 

dup /Fontname 3 index put 

}bd 

/e { 
@sm 
concat 
[ 
/t {@te}def 
}bd 

/r { 
@sm 
concat 
[ 
/t {@tr}def 
}bd 

/o { 
@sm 
concat 
[ 
/t {pop}def 
}bd 

/a { 
@sm 
concat 
[ 
/t {@ta}def 
}bd 

/@o{
@sm 
concat 
[ 
/t {@t@a}def 
}bd 

/I { 
@sm 
concat 
[ 
/t {pop}def 
}bd 

/t {@te}def 

/T { 
cleartomark 
/$lx 0 def 
/$ly 0 def 
$ctm setmatrix 
}bd 


/u {}bd 

/U {}bd 

/A {pop}bd 

/h { 
$h true def 
}bd 

/h { 
$h true def 
}bd 

/q /@gs ld 

/Q /@gr ld 



/E { 
5 array astore 
exch cvlit exch def 
}bd 

/` {}bd 

/~ {}bd 

/@ {}bd 

/& {}bd 

/CorelDrawRencodeVect [ 
16#80/grave 
16#81/circumflex 
16#82/tilde 
16#83/dotlessi 
16#84/florin 
16#85/quotedblleft 
16#86/quotedblright 
16#87/guilsinglleft 
16#88/guilsinglright 
16#89/fi 
16#8a/fl 
16#8b/dagger 
16#8c/daggerdbl 
16#8d/endash 
16#8e/periodcentered 
16#8f/breve 
16#90/quotedblbase 
16#91/ellipsis 
16#92/perthousand 
16#a1/exclamdown 
16#a2/cent 
16#a3/sterling 
16#a4/currency 
16#a5/yen 
16#a6/bar 
16#a7/section 
16#a8/dieresis 
16#a9/copyright 
16#aa/ordfeminine 
16#ab/guillemotleft 
16#ac/logicalnot 
16#ad/emdash 
16#ae/registered 
16#af/spac 
16#b0/ring 
16#b1/spac 
16#b2/spac 
16#b3/spac 
16#b4/acute 
16#b5/spac 
16#b6/paragraph 
16#b7/bullet 
16#b8/cedilla 
16#b9/spac 
16#ba/ordmasculine 
16#bb/guillemotright 
16#bc/spac 
16#bd/spac 
16#be/spac 
16#bf/questiondown 
16#c0/Agrave 
16#c1/Aacute 
16#c2/Acircumflex 
16#c3/Atilde 
16#c4/Adieresis 
16#c5/Aring 
16#c6/AE 
16#c7/Ccedilla 
16#c8/Egrave 
16#c9/Eacute 
16#ca/Ecircumflex 
16#cb/Edieresis 
16#cc/Igrave 
16#cd/Iacute 
16#ce/Icircumflex 
16#cf/Idieresis 
16#d0/spac 
16#d1/Ntilde 
16#d2/Ograve 
16#d3/Oacute 
16#d4/Ocircumflex 
16#d5/Otilde 
16#d6/Odieresis 
16#d7/OE 
16#d8/Oslash 
16#d9/Ugrave 
16#da/Uacute 
16#db/Ucircumflex 
16#dc/Udieresis 
16#dd/space 
16#de/spac 
16#df/germandbls 
16#e0/agrave 
16#e1/aacute 
16#e2/acircumflex 
16#e3/atilde 
16#e4/adieresis 
16#e5/aring 
16#e6/ae 
16#e7/ccedilla 
16#e8/egrave 
16#e9/eacute 
16#ea/ecircumflex 
16#eb/edieresis 
16#ec/igrave 
16#ed/iacute 
16#ee/icircumflex 
16#ef/idieresis 
16#f0/space 
16#f1/ntilde 
16#f2/ograve 
16#f3/oacute 
16#f4/ocircumflex 
16#f5/otilde 
16#f6/odieresis 
16#f7/oe 
16#f8/oslash 
16#f9/ugrave 
16#fa/uacute 
16#fb/ucircumflex 
16#fc/udieresis 
16#fd/spac 
16#fe/spac 
16#ff/ydieresis 
] def
%%EndProlog
%%BeginSetup
%%BeginEncoding:_Times-Bold Times-Bold
[
]/_Times-Bold/Times-Bold Z
%%EndEncoding
%%EndSetup
0.000 0.000 0.000 1.000 K
0 j
0 J
0.863 w
[]0 d
0.000 0.000 0.000 0.000 k
1018.439 676.511 m
1018.655 687.167 1019.231 701.567 1016.711 712.295 C
1013.543 716.471 1008.863 720.719 1007.711 726.048 C
1001.015 752.255 990.647 786.455 976.751 806.759 C
973.223 810.287 968.543 811.871 962.999 811.871 C
941.111 812.663 919.223 813.023 898.703 813.023 C
878.183 813.023 856.295 812.663 834.335 811.871 C
828.863 811.871 824.111 810.287 820.583 806.759 C
806.759 786.455 796.391 752.255 789.623 726.048 C
788.543 720.719 783.791 716.471 780.695 712.295 C
778.103 701.567 778.751 687.167 778.895 676.511 C
1018.439 676.511 L
b
0.000 0.000 0.000 1.000 K
0 j
0 J
0.863 w
[]0 d
0.000 0.000 0.000 0.000 k
1018.439 428.903 m
1020.311 439.343 1019.231 453.959 1016.711 464.687 C
1013.543 468.863 1008.863 473.111 1007.711 478.439 C
1001.015 504.647 990.647 538.847 976.751 559.151 C
973.223 562.679 968.543 564.264 962.999 564.264 C
941.111 565.055 919.223 565.415 898.703 565.415 C
878.183 565.415 856.295 565.055 834.335 564.264 C
828.863 564.264 824.111 562.679 820.583 559.151 C
806.759 538.847 796.391 504.647 789.623 478.439 C
788.543 473.111 783.791 468.863 780.695 464.687 C
778.103 453.959 776.879 439.343 778.895 428.903 c
781.055 417.887 779.615 397.295 790.847 397.295 c
1007.639 397.295 l
1018.799 397.295 1016.495 417.959 1018.439 428.903 c
b
0.000 0.000 0.000 1.000 K
0 j
0 J
0.287 w
[]0 d
0.000 0.000 0.000 0.498 k
898.703 628.127 m
1013.399 628.127 L
1016.855 628.487 1018.871 644.903 1019.159 652.823 c
1019.591 665.567 1019.807 676.367 1014.983 676.511 C
898.703 675.647 L
782.351 676.511 L
777.599 676.367 777.815 665.567 778.247 652.823 c
778.535 644.903 780.479 628.487 783.935 628.127 C
898.703 628.127 L
b
0.000 0.000 0.000 1.000 K
0 j
0 J
0.287 w
[]0 d
0.000 0.000 0.000 0.200 k
849.887 647.207 m
939.023 647.207 L
943.631 631.943 L
845.567 631.943 L
849.887 647.207 L
b
0.000 0.000 0.000 1.000 K
0 j
0 J
0.287 w
[]0 d
0.000 0.000 0.000 0.498 k
811.007 628.343 m
984.671 628.343 L
984.671 623.375 L
966.743 621.144 936.791 612.647 929.159 623.375 C
856.151 622.079 L
850.319 617.111 828.863 617.111 818.567 622.079 C
811.007 622.079 L
811.007 628.343 L
b
u
u
0.000 0.000 0.000 0.200 k
845.423 631.943 m
857.087 638.639 L
930.959 638.639 L
943.487 631.943 L
S
U
u
0.000 0.000 0.000 1.000 K
0 j
0 J
0.287 w
[]0 d
845.423 631.943 m
857.087 638.639 L
930.959 638.639 L
943.487 631.943 L
S
U
U
u
u
U
u
0.000 0.000 0.000 1.000 K
0 j
0 J
0.287 w
[]0 d
859.823 638.639 m
859.823 647.207 L
S
U
U
u
u
U
u
0.000 0.000 0.000 1.000 K
0 j
0 J
0.287 w
[]0 d
928.079 638.639 m
928.079 647.207 L
S
U
U
0.000 0.000 0.000 1.000 K
0 j
0 J
0.287 w
[]0 d
779.111 685.223 m
1017.431 685.223 L
1017.359 682.991 L
1017.431 679.175 L
778.679 679.391 L
778.679 682.055 L
779.111 685.223 L
s
u
u
0.000 0.000 0.000 1.000 K
0 j
0 J
0.287 w
[]0 d
778.535 653.039 m
1017.431 653.039 L
S
U
U
0.000 0.000 0.000 1.000 K
0 j
0 J
0.287 w
[]0 d
799.487 740.087 m
865.871 741.815 932.327 742.175 998.783 740.087 C
998.783 732.167 998.783 723.239 996.695 714.455 C
931.391 712.367 866.015 712.367 800.711 714.455 C
798.623 721.511 798.623 732.599 799.487 740.087 C
s
u
u
0.000 0.000 0.000 1.000 K
0 j
0 J
0.287 w
[]0 d
800.279 714.383 m
793.151 720.215 793.007 724.823 792.575 734.039 C
S
U
U
u
u
0.000 0.000 0.000 1.000 K
0 j
0 J
0.287 w
[]0 d
996.551 714.383 m
1001.015 719.567 1002.815 723.383 1003.247 732.599 C
S
U
U
u
u
0.000 0.000 0.000 1.000 K
0 j
0 J
0.287 w
[]0 d
795.383 653.111 m
795.383 671.039 L
S
U
U
u
u
0.000 0.000 0.000 1.000 K
0 j
0 J
0.287 w
[]0 d
1001.303 653.111 m
1001.303 671.039 L
S
U
U
0.000 0.000 0.000 1.000 K
0 j
0 J
0.287 w
[]0 d
0.000 0.000 0.000 0.498 k
1005.551 753.983 m
1022.255 753.119 l
1023.767 753.119 1025.279 751.967 1025.279 750.311 c
1025.279 739.943 l
1025.279 738.431 1023.911 737.135 1022.255 737.135 c
1005.551 737.135 l
1003.895 737.135 1002.527 738.431 1002.527 739.943 c
1002.527 751.247 l
1002.527 752.831 1004.039 753.983 1005.551 753.983 c
b
0.000 0.000 0.000 1.000 K
0 j
0 J
0.287 w
[]0 d
0.000 0.000 0.000 0.498 k
792.431 754.199 m
775.511 753.335 l
773.999 753.335 772.415 752.183 772.415 750.527 c
772.415 740.015 l
772.415 738.431 773.855 737.207 775.511 737.207 c
792.431 737.207 l
794.087 737.207 795.455 738.431 795.455 740.015 c
795.455 751.391 l
795.455 753.047 793.943 754.199 792.431 754.199 c
b
0.000 0.000 0.000 1.000 K
0 j
0 J
0.287 w
[]0 d
0.000 0.000 0.000 0.498 k
985.895 396.719 m
811.439 396.719 L
811.439 393.695 L
829.655 393.263 860.039 391.463 867.743 393.695 C
941.759 393.407 L
947.663 392.399 966.383 392.399 976.823 393.407 C
985.895 393.407 L
985.895 396.719 L
b
0.000 0.000 0.000 1.000 K
0 j
0 J
0.287 w
[]0 d
0.000 0.000 0.000 0.298 k
798.911 472.823 m
786.311 472.823 L
783.431 457.487 784.367 435.383 784.295 429.335 C
798.911 429.407 L
798.911 472.823 L
b
0.000 0.000 0.000 1.000 K
0 j
0 J
0.287 w
[]0 d
0.000 0.000 0.000 0.298 k
998.351 472.823 m
1010.951 472.823 L
1012.751 458.279 1013.543 438.695 1012.031 429.335 C
998.351 429.407 L
998.351 472.823 L
b
u
u
0.000 0.000 0.000 1.000 K
0 j
0 J
0.287 w
[]0 d
798.983 463.751 m
784.079 463.751 L
S
U
U
u
u
0.000 0.000 0.000 1.000 K
0 j
0 J
0.287 w
[]0 d
998.279 463.751 m
1013.183 463.751 L
S
U
U
u
u
0.000 0.000 0.000 1.000 K
0 j
0 J
0.287 w
[]0 d
798.983 445.967 m
784.151 445.967 L
S
U
U
u
u
0.000 0.000 0.000 1.000 K
0 j
0 J
0.287 w
[]0 d
998.279 445.967 m
1011.599 445.967 L
S
U
U
0.000 0.000 0.000 1.000 K
0 j
0 J
0.287 w
[]0 d
0.000 0.000 0.000 0.498 k
1008.143 502.703 m
1024.919 501.767 l
1026.432 501.767 1027.943 500.687 1027.943 499.031 c
1027.943 488.591 l
1027.943 487.079 1026.503 485.855 1024.919 485.855 c
1008.143 485.855 l
1006.487 485.855 1005.119 487.079 1005.119 488.591 c
1005.119 499.895 l
1005.119 501.551 1006.631 502.703 1008.143 502.703 c
b
0.000 0.000 0.000 1.000 K
0 j
0 J
0.287 w
[]0 d
0.000 0.000 0.000 0.498 k
789.479 502.847 m
772.559 501.983 l
771.047 501.983 769.535 500.831 769.535 499.175 c
769.535 488.663 l
769.535 487.079 770.903 485.855 772.559 485.855 c
789.479 485.855 l
791.135 485.855 792.575 487.079 792.575 488.663 c
792.575 500.039 l
792.575 501.695 791.063 502.847 789.479 502.847 c
b
0.000 0.000 0.000 1.000 K
0 j
0 J
0.287 w
[]0 d
972.431 477.647 m
963.791 477.647 L
963.791 470.015 L
972.431 470.015 L
972.431 477.647 L
s
0.000 0.000 0.000 1.000 K
0 j
0 J
0.287 w
[]0 d
841.103 477.647 m
832.463 477.647 L
832.463 470.015 L
841.103 470.015 L
841.103 477.647 L
s
0.000 0.000 0.000 1.000 K
0 j
0 J
0.287 w
[]0 d
903.527 477.647 m
894.959 477.647 L
894.959 470.015 L
903.527 470.015 L
903.527 477.647 L
s
u
u
0.000 0.000 0.000 1.000 K
0 j
0 J
0.287 w
[]0 d
789.695 477.431 m
1007.639 477.431 L
S
U
U
u
u
0.000 0.000 0.000 1.000 K
0 j
0 J
0.287 w
[]0 d
790.559 481.463 m
1006.559 481.463 L
S
U
U
u
u
0.000 0.000 0.000 1.000 K
0 j
0 J
0.287 w
[]0 d
799.271 429.695 m
998.567 429.695 L
S
U
U
u
u
0.000 0.000 0.000 1.000 K
0 j
0 J
0.287 w
[]0 d
781.127 419.615 m
1017.935 419.615 L
S
U
U
0.000 0.000 0.000 1.000 K
0 j
0 J
0.287 w
[]0 d
0.000 0.000 0.000 0.298 k
889.487 470.375 m
908.927 470.375 l
909.791 470.375 910.439 469.727 910.439 468.863 c
910.439 462.671 l
910.439 461.807 909.791 461.159 908.927 461.159 c
889.487 461.159 l
888.623 461.159 887.975 461.807 887.975 462.671 c
887.975 468.863 l
887.975 469.727 888.623 470.375 889.487 470.375 c
b
0.000 0.000 0.000 1.000 K
0 j
0 J
0.287 w
[]0 d
0.000 0.000 0.000 0.498 k
804.887 743.903 m
990.791 743.903 l
993.599 743.903 996.407 746.351 995.831 748.943 c
991.511 768.023 984.887 786.239 974.087 802.727 c
972.647 804.959 971.855 807.767 969.047 807.767 c
826.631 807.767 l
823.823 807.767 822.815 805.031 821.591 802.727 c
811.655 784.511 804.887 766.511 799.847 748.943 c
799.127 746.423 802.079 743.903 804.887 743.903 c
b
0.000 0.000 0.000 1.000 K
0 j
0 J
0.287 w
[]0 d
0.000 0.000 0.000 0.200 k
992.303 745.631 m
993.599 746.351 994.607 747.143 994.463 748.727 C
992.015 759.311 988.847 769.607 984.743 779.615 C
981.359 787.391 977.471 794.879 972.935 802.007 C
972.143 803.303 971.135 805.751 969.623 806.255 C
968.975 806.399 L
826.703 806.399 L
824.831 806.183 823.967 804.455 823.319 802.943 C
818.927 795.095 815.039 786.743 811.511 778.391 C
807.551 768.671 804.023 758.447 801.143 748.367 C
801.143 746.423 803.303 745.487 804.887 745.343 C
990.719 745.343 L
991.583 745.415 L
992.303 745.631 L
b
0.000 0.000 0.000 1.000 K
0 j
0 J
0.287 w
[]0 d
1012.967 685.007 m
1014.767 685.007 1016.495 686.519 1016.207 688.175 c
1012.535 707.615 l
1012.247 709.271 1011.095 710.783 1009.295 710.783 c
788.039 710.783 l
786.311 710.783 785.159 709.271 784.871 707.615 c
781.199 688.175 l
780.911 686.519 782.639 685.007 784.367 685.007 c
1012.967 685.007 l
s
0.000 0.000 0.000 1.000 K
0 j
0 J
0.287 w
[]0 d
0.000 0.000 0.000 0.498 k
897.767 689.183 m
856.655 689.183 l
847.439 689.183 845.639 699.407 845.639 706.607 C
897.767 706.607 L
949.895 706.607 L
949.823 699.407 948.095 689.183 938.879 689.183 c
897.767 689.183 L
b
u
u
0.000 0.000 0.000 0.298 k
799.199 689.471 m
799.559 710.927 L
831.023 710.927 l
833.111 710.927 834.839 709.199 834.839 707.039 c
834.839 693.287 l
834.839 691.199 833.111 689.399 831.023 689.399 c
782.207 689.399 L
S
U
u
0.000 0.000 0.000 1.000 K
0 j
0 J
0.287 w
[]0 d
799.199 689.471 m
799.559 710.927 L
831.023 710.927 l
833.111 710.927 834.839 709.199 834.839 707.039 c
834.839 693.287 l
834.839 691.199 833.111 689.399 831.023 689.399 c
782.207 689.399 L
S
U
U
u
u
0.000 0.000 0.000 0.298 k
996.263 689.471 m
995.975 710.927 L
964.511 710.927 l
962.351 710.927 960.623 709.199 960.623 707.039 c
960.623 693.287 l
960.623 691.199 962.351 689.399 964.511 689.399 c
1015.559 689.399 L
S
U
u
0.000 0.000 0.000 1.000 K
0 j
0 J
0.287 w
[]0 d
996.263 689.471 m
995.975 710.927 L
964.511 710.927 l
962.351 710.927 960.623 709.199 960.623 707.039 c
960.623 693.287 l
960.623 691.199 962.351 689.399 964.511 689.399 c
1015.559 689.399 L
S
U
U
0.000 0.000 0.000 1.000 K
0 j
0 J
0.287 w
[]0 d
0.000 0.000 0.000 0.000 k
827.783 692.063 m
804.167 692.063 l
802.439 692.063 801.071 693.503 801.071 695.231 c
801.071 705.455 l
801.071 707.183 802.439 708.551 804.167 708.551 c
827.783 708.551 l
829.511 708.551 830.879 707.183 830.879 705.455 c
830.879 695.231 l
830.879 693.503 829.511 692.063 827.783 692.063 c
b
0.000 0.000 0.000 1.000 K
0 j
0 J
0.287 w
[]0 d
0.000 0.000 0.000 0.000 k
967.751 692.063 m
991.295 692.063 l
993.023 692.063 994.463 693.503 994.463 695.231 c
994.463 705.455 l
994.463 707.183 993.023 708.551 991.295 708.551 c
967.751 708.551 l
966.023 708.551 964.583 707.183 964.583 705.455 c
964.583 695.231 l
964.583 693.503 966.023 692.063 967.751 692.063 c
b
0.000 0.000 0.000 1.000 K
0 j
0 J
0.287 w
[]0 d
0.000 0.000 0.000 0.298 k
797.471 691.991 m
783.503 691.991 L
786.887 708.551 L
797.471 708.551 L
797.471 691.991 L
b
0.000 0.000 0.000 1.000 K
0 j
0 J
0.287 w
[]0 d
0.000 0.000 0.000 0.298 k
998.063 691.991 m
1012.031 691.991 L
1008.575 708.551 L
998.063 708.551 L
998.063 691.991 L
b
0.000 0.000 0.000 0.000 k
887.327 699.119 m
881.711 699.119 L
881.423 698.831 881.423 698.831 881.639 698.687 C
885.239 697.319 l
886.463 696.887 887.327 696.671 887.399 695.375 C
887.471 694.727 887.255 693.935 886.463 693.863 C
879.119 693.863 L
879.119 695.375 L
884.447 695.375 L
884.663 695.375 884.663 695.591 884.231 695.735 C
880.991 696.959 L
880.343 697.247 879.335 697.319 879.047 698.111 c
878.687 699.048 879.335 700.703 880.559 700.703 C
887.327 700.703 L
887.327 699.119 L
f
0.000 0.000 0.000 0.000 k
899.207 699.119 m
904.823 699.119 L
905.111 698.831 905.111 698.831 904.895 698.687 C
901.295 697.319 l
900.071 696.887 899.207 696.671 899.135 695.375 C
899.063 694.727 899.279 693.935 900.071 693.863 C
907.415 693.863 L
907.415 695.375 L
902.087 695.375 L
901.871 695.375 901.871 695.591 902.303 695.735 C
905.543 696.959 L
906.191 697.247 907.199 697.319 907.487 698.111 c
907.847 699.048 907.199 700.703 905.975 700.703 C
899.207 700.703 L
899.207 699.119 L
f
0.000 0.000 0.000 0.000 k
891.575 700.703 m
891.575 696.024 L
891.575 695.663 891.647 695.375 892.079 695.375 C
894.455 695.375 L
894.887 695.375 895.103 695.663 895.103 696.024 C
895.103 700.703 L
897.479 700.703 L
897.479 695.087 L
897.191 694.151 895.895 693.863 895.103 693.863 C
891.791 693.863 L
890.639 693.863 889.415 694.295 889.343 695.159 C
889.343 700.703 L
891.575 700.703 L
f
0.000 0.000 0.000 0.000 k
911.951 700.703 m
911.951 696.024 L
911.951 695.663 912.023 695.375 912.455 695.375 C
914.831 695.375 L
915.191 695.375 915.407 695.663 915.407 696.024 C
915.407 700.703 L
917.855 700.703 L
917.855 695.087 L
917.567 694.151 916.199 693.863 915.407 693.863 C
912.167 693.863 L
910.943 693.863 909.791 694.295 909.647 695.159 C
909.647 700.703 L
911.951 700.703 L
f
0.000 0.000 0.000 0.000 k
877.031 693.863 m
874.655 693.863 L
874.655 700.703 L
877.031 700.703 L
877.031 693.863 L
f
0.000 0.000 0.000 1.000 K
0 j
0 J
0.287 w
[]0 d
0.000 0.000 0.000 0.000 k
798.335 650.447 m
822.455 650.447 l
824.039 650.447 825.335 649.151 825.335 647.567 c
825.335 644.615 l
825.335 643.031 824.039 641.807 822.455 641.807 c
798.335 641.807 l
796.751 641.807 795.455 643.031 795.455 644.615 c
795.455 647.567 l
795.455 649.151 796.751 650.447 798.335 650.447 c
b
u
u
0.000 0.000 0.000 1.000 K
0 j
0 J
0.287 w
[]0 d
799.199 481.463 m
799.199 397.439 L
S
U
U
u
u
0.000 0.000 0.000 1.000 K
0 j
0 J
0.287 w
[]0 d
997.991 481.463 m
997.991 397.439 L
S
U
U
0.000 0.000 0.000 1.000 K
0 j
0 J
0.287 w
[]0 d
0.000 0.000 0.000 1.000 k
783.791 401.975 m
783.791 346.967 l
783.791 344.663 785.663 342.791 787.967 342.791 c
807.479 342.791 l
809.783 342.791 811.655 344.663 811.655 346.967 c
811.655 397.295 L
790.847 397.295 l
787.463 397.295 785.303 399.095 783.791 401.975 C
b
0.000 0.000 0.000 1.000 K
0 j
0 J
0.287 w
[]0 d
0.000 0.000 0.000 1.000 k
985.823 397.295 m
985.823 346.967 l
985.823 344.663 987.695 342.791 989.999 342.791 c
1009.511 342.791 l
1011.815 342.791 1013.687 344.663 1013.687 346.967 c
1013.687 400.607 L
1012.319 398.591 1010.375 397.295 1007.639 397.295 c
985.823 397.295 L
b
0.000 0.000 0.000 1.000 K
0 j
0 J
0.287 w
[]0 d
0.000 0.000 0.000 1.000 k
985.823 628.127 m
985.823 595.079 l
985.823 592.775 987.695 590.903 989.999 590.903 c
1009.511 590.903 l
1011.815 590.903 1013.687 592.775 1013.687 595.079 c
1013.687 628.271 L
1013.615 628.127 1013.543 628.127 1013.399 628.127 C
985.823 628.127 L
b
0.000 0.000 0.000 1.000 K
0 j
0 J
0.287 w
[]0 d
0.000 0.000 0.000 1.000 k
783.791 628.127 m
783.791 595.079 l
783.791 592.775 785.663 590.903 787.967 590.903 c
807.479 590.903 l
809.783 590.903 811.655 592.775 811.655 595.079 c
811.655 628.127 L
783.935 628.127 L
783.863 628.127 783.791 628.127 783.791 628.127 C
b
0.000 0.000 0.000 1.000 K
0 j
0 J
0.287 w
[]0 d
0.000 0.000 0.000 0.498 k
807.047 500.471 m
989.927 500.471 l
992.447 500.471 995.399 502.775 994.535 505.079 c
975.599 552.959 l
974.735 555.264 973.583 557.567 970.991 557.567 c
826.487 557.567 l
823.967 557.567 822.815 555.264 821.879 552.959 c
802.439 505.079 l
801.503 502.775 804.527 500.471 807.047 500.471 c
b
0.000 0.000 0.000 1.000 K
0 j
0 J
0.287 w
[]0 d
0.000 0.000 0.000 0.200 k
806.903 504.791 m
807.263 504.719 L
989.639 504.719 L
990.071 504.791 L
971.711 551.375 L
971.423 552.024 971.063 552.743 970.703 553.319 C
826.775 553.319 L
826.415 552.743 826.055 551.951 825.839 551.303 C
806.903 504.791 L
b
0.000 0.000 0.000 1.000 K
0 j
0 J
0.863 w
[]0 d
0.000 0.000 0.000 0.000 k
22.103 630.503 m
38.663 631.367 L
39.599 649.727 45.575 668.375 55.943 682.055 C
72.863 701.711 104.183 704.447 127.295 691.847 C
146.663 681.263 156.239 664.343 160.343 641.015 C
497.591 641.087 L
499.463 657.863 507.383 672.263 520.775 684.000 C
542.087 698.399 566.783 697.967 588.527 688.823 C
606.455 679.607 612.144 671.399 615.240 654.839 C
641.447 653.399 669.311 654.911 694.583 659.303 C
701.207 666.215 704.087 675.719 702.719 685.727 C
702.863 722.087 L
702.575 727.199 700.991 731.375 690.335 731.375 C
434.303 731.375 L
434.303 646.559 L
428.399 646.631 L
428.327 728.783 L
424.151 804.383 L
422.927 811.079 418.463 815.543 408.239 814.103 C
272.519 814.103 L
264.311 814.247 260.063 813.095 254.663 808.991 C
229.751 787.175 207.071 768.383 182.519 745.847 C
174.311 746.927 L
130.967 743.039 53.423 730.223 24.335 724.247 C
18.143 722.663 10.367 709.271 12.167 697.031 C
13.895 685.727 16.055 674.855 5.615 673.991 C
4.823 660.527 3.887 645.263 9.935 634.391 C
12.167 630.935 16.055 630.072 22.103 630.503 C
b
0.000 0.000 0.000 1.000 K
0 j
0 J
0.863 w
[]0 d
0.000 0.000 0.000 0.000 k
685.871 382.607 m
669.311 383.471 L
668.375 401.831 662.399 420.551 652.031 434.159 C
635.111 453.815 603.791 456.551 580.679 444.023 C
561.312 433.367 551.735 416.519 547.631 393.191 C
210.383 393.263 L
208.439 409.967 200.519 424.439 187.199 436.175 C
165.887 450.503 141.191 450.071 119.447 440.927 C
101.519 431.783 95.831 423.575 92.735 406.943 C
66.527 405.503 38.663 407.015 13.391 411.479 C
6.767 418.319 3.887 427.895 5.255 437.831 C
5.111 474.263 L
5.399 479.375 6.983 483.551 17.639 483.551 C
273.671 483.551 L
273.671 398.951 L
279.359 399.815 L
279.575 480.887 L
283.751 556.487 L
284.975 563.183 289.512 567.647 299.663 566.279 C
435.455 566.279 L
443.663 566.423 447.911 565.271 453.239 561.168 C
478.223 539.279 500.831 520.487 525.455 498.023 C
533.663 499.103 L
577.007 495.215 654.551 482.399 683.639 476.351 C
689.831 474.839 697.607 461.375 695.807 449.135 C
694.079 437.831 691.919 427.031 702.359 426.095 C
703.151 412.703 704.087 397.367 698.039 386.495 C
695.807 383.039 691.919 382.175 685.871 382.607 C
b
0.000 0.000 0.000 1.000 K
0 j
0 J
0.287 w
[]0 d
184.823 646.991 m
348.479 646.991 L
350.279 700.775 349.847 758.447 345.599 808.631 C
264.815 806.975 L
239.255 786.023 207.791 760.535 183.023 738.935 C
181.223 709.271 179.927 677.159 184.823 646.991 C
s
0.000 0.000 0.000 1.000 K
0 j
0 J
0.287 w
[]0 d
523.151 399.167 m
359.495 399.167 L
357.623 452.951 358.055 510.551 362.303 560.807 C
443.159 559.151 L
468.647 538.127 500.111 512.711 524.951 491.039 C
526.751 461.447 528.048 429.335 523.151 399.167 C
s
0.000 0.000 0.000 1.000 K
0 j
0 J
0.287 w
[]0 d
0.000 0.000 0.000 0.498 k
207.359 731.519 m
335.591 731.519 L
338.255 731.519 340.415 733.679 340.415 736.343 C
337.391 794.951 L
337.391 797.615 335.303 799.775 332.639 799.775 C
278.135 799.775 L
275.471 799.775 268.487 797.975 264.887 794.951 C
245.519 778.535 220.679 757.871 202.607 736.343 C
202.607 733.679 204.695 731.519 207.359 731.519 C
b
0.000 0.000 0.000 1.000 K
0 j
0 J
0.287 w
[]0 d
0.000 0.000 0.000 0.498 k
500.543 483.695 m
372.383 483.695 L
369.647 483.695 367.559 485.783 367.559 488.447 C
370.511 547.127 L
370.511 549.791 372.671 551.879 375.335 551.879 C
429.767 551.879 L
432.431 551.879 439.487 550.151 443.087 547.127 C
462.455 530.711 487.223 510.047 505.367 488.447 C
505.367 485.783 503.207 483.695 500.543 483.695 C
b
0.000 0.000 0.000 1.000 K
0 j
0 J
0.287 w
[]0 d
0.000 0.000 0.000 0.200 k
337.463 733.535 m
338.543 734.327 338.903 735.047 338.975 736.343 C
336.024 794.879 L
335.807 797.039 334.727 798.191 332.567 798.335 C
278.207 798.335 L
273.887 798.047 269.207 796.391 265.751 793.871 C
250.199 780.839 234.647 767.447 220.175 753.191 C
214.631 747.647 209.159 741.815 204.047 735.839 C
204.047 734.111 205.991 733.031 207.431 732.959 C
335.519 732.959 L
336.311 733.031 336.815 733.103 337.463 733.535 C
b
0.000 0.000 0.000 1.000 K
0 j
0 J
0.287 w
[]0 d
0.000 0.000 0.000 0.200 k
370.439 485.639 m
369.431 486.503 369.071 487.151 368.927 488.519 C
371.951 546.983 L
372.095 549.144 373.247 550.295 375.407 550.511 C
429.767 550.511 L
434.087 550.223 438.767 548.567 442.223 545.975 C
457.703 532.943 473.327 519.551 487.799 505.367 C
493.343 499.823 498.815 493.991 503.855 488.015 C
503.855 486.215 501.983 485.207 500.471 485.063 C
372.455 485.063 L
371.663 485.135 371.159 485.279 370.439 485.639 C
b
0.000 0.000 0.000 1.000 K
0 j
0 J
0.287 w
[]0 d
0.000 0.000 0.000 0.498 k
53.063 627.767 m
46.655 660.959 71.207 686.375 98.279 687.167 c
130.103 688.031 153.719 657.863 146.807 628.199 C
150.407 624.096 L
454.391 636.192 L
461.519 624.527 468.719 633.815 477.071 633.887 C
480.095 633.096 481.823 631.295 483.191 627.911 C
488.087 629.063 492.983 627.120 497.231 625.247 C
496.079 630.287 496.223 635.831 496.943 641.231 C
160.199 641.231 L
158.327 653.327 155.231 661.967 150.479 669.599 c
145.367 677.951 137.735 684.863 127.439 691.487 c
107.351 704.375 74.231 701.207 58.895 685.007 c
46.799 672.120 40.103 652.319 38.448 631.223 C
53.063 627.767 L
b
0.000 0.000 0.000 1.000 K
0 j
0 J
0.287 w
[]0 d
0.000 0.000 0.000 0.498 k
654.911 379.943 m
661.319 413.063 636.767 438.551 609.695 439.271 c
577.871 440.135 554.255 410.039 561.168 380.303 C
557.567 376.199 L
253.511 388.295 L
246.383 376.631 239.255 385.919 230.903 386.063 C
227.879 385.199 226.079 383.471 224.783 380.087 C
219.887 381.167 214.991 379.295 210.671 377.351 C
211.895 382.463 211.751 388.007 210.959 393.335 C
547.775 393.335 L
549.647 405.431 552.743 414.143 557.495 421.775 c
562.607 430.127 570.240 436.967 580.535 443.591 c
600.623 456.479 633.743 453.383 649.079 437.111 c
661.175 424.223 667.871 404.423 669.527 383.399 C
654.911 379.943 L
b
0.000 0.000 0.000 1.000 K
0 j
0 J
0.287 w
[]0 d
0.000 0.000 0.000 0.498 k
510.623 627.767 m
504.215 660.959 528.767 686.375 555.839 687.167 c
587.663 688.031 611.279 657.863 604.439 628.199 C
605.807 635.111 L
625.175 640.727 664.415 630.863 671.687 651.959 C
690.479 641.735 689.759 648.791 688.823 654.551 C
693.215 655.991 694.727 659.303 693.647 659.087 C
676.871 654.983 618.695 653.039 615.024 654.911 C
611.567 671.183 607.751 678.671 589.247 687.959 c
567.000 699.048 531.288 696.311 516.096 679.823 c
501.407 663.839 494.927 649.583 497.375 625.031 C
510.623 627.767 L
b
0.000 0.000 0.000 1.000 K
0 j
0 J
0.287 w
[]0 d
0.000 0.000 0.000 0.498 k
197.279 379.943 m
203.759 413.063 179.207 438.551 152.135 439.271 c
120.311 440.135 96.695 410.039 103.535 380.303 C
102.167 387.287 L
82.799 392.831 43.559 383.039 36.287 404.063 C
17.495 393.839 18.215 400.895 19.151 406.727 C
14.759 408.095 13.247 411.479 14.327 411.263 C
31.103 407.159 89.279 405.143 92.951 407.087 C
96.407 423.359 100.223 430.847 118.727 440.063 c
140.975 451.151 176.687 448.415 191.879 431.927 c
206.495 415.943 212.975 401.687 210.527 377.135 C
197.279 379.943 L
b
0.000 0.000 0.000 1.000 K
0 j
0 J
0.287 w
[]0 d
0.000 0.000 0.000 0.000 k
26.639 689.543 m
26.495 685.367 16.991 685.367 13.535 685.295 C
13.823 693.000 9.431 699.839 14.039 711.143 C
18.359 711.072 27.791 711.575 28.007 706.967 C
26.639 689.543 L
b
0.000 0.000 0.000 1.000 K
0 j
0 J
0.287 w
[]0 d
0.000 0.000 0.000 0.000 k
681.335 441.719 m
681.479 437.543 690.983 437.543 694.439 437.399 C
694.151 445.103 698.543 451.943 693.935 463.247 C
689.615 463.175 680.183 463.679 679.967 459.143 C
681.335 441.719 L
b
0.000 0.000 0.000 1.000 K
0 j
0 J
0.287 w
[]0 d
0.000 0.000 0.000 0.298 k
24.407 687.239 m
21.455 686.087 17.927 686.663 14.903 686.663 C
14.831 690.263 14.039 694.079 13.607 697.679 C
13.319 702.647 13.607 706.391 15.119 711.143 C
17.135 711.143 24.263 711.359 25.199 708.767 C
25.271 708.263 L
25.271 688.319 L
25.127 687.599 24.911 687.527 24.407 687.239 C
b
0.000 0.000 0.000 1.000 K
0 j
0 J
0.287 w
[]0 d
0.000 0.000 0.000 0.298 k
683.567 439.343 m
686.519 438.263 690.048 438.839 693.072 438.839 C
693.143 442.439 693.935 446.255 694.367 449.855 C
694.655 454.751 694.367 458.495 692.855 463.247 C
690.839 463.247 683.711 463.535 682.775 460.943 C
682.703 460.367 L
682.703 440.423 L
682.847 439.775 683.063 439.703 683.567 439.343 C
b
0.000 0.000 0.000 1.000 K
0 j
0 J
0.287 w
[]0 d
0.000 0.000 0.000 1.000 k
100.007 590.759 m
126.503 590.759 148.175 612.431 148.175 638.927 c
148.175 665.423 126.503 687.096 100.007 687.096 c
73.512 687.096 51.839 665.423 51.839 638.927 c
51.839 612.431 73.512 590.759 100.007 590.759 c
b
0.000 0.000 0.000 1.000 K
0 j
0 J
0.287 w
[]0 d
0.000 0.000 0.000 1.000 k
607.967 342.935 m
581.471 342.935 559.799 364.535 559.799 391.103 c
559.799 417.599 581.471 439.199 607.967 439.199 c
634.463 439.199 656.135 417.599 656.135 391.103 c
656.135 364.535 634.463 342.935 607.967 342.935 c
b
0.000 0.000 0.000 1.000 K
0 j
0 J
0.287 w
[]0 d
0.000 0.000 0.000 1.000 k
557.639 590.759 m
584.135 590.759 605.735 612.431 605.735 638.927 c
605.735 665.423 584.135 687.096 557.639 687.096 c
531.072 687.096 509.399 665.423 509.399 638.927 c
509.399 612.431 531.072 590.759 557.639 590.759 c
b
0.000 0.000 0.000 1.000 K
0 j
0 J
0.287 w
[]0 d
0.000 0.000 0.000 1.000 k
150.335 342.935 m
123.839 342.935 102.239 364.535 102.239 391.103 c
102.239 417.599 123.839 439.199 150.335 439.199 c
176.903 439.199 198.503 417.599 198.503 391.103 c
198.503 364.535 176.903 342.935 150.335 342.935 c
b
u
u
0.000 0.000 0.000 1.000 K
0 j
0 J
0.287 w
[]0 d
13.535 681.120 m
49.175 681.120 L
S
U
U
u
u
0.000 0.000 0.000 1.000 K
0 j
0 J
0.287 w
[]0 d
694.439 433.223 m
658.799 433.223 L
S
U
U
0.000 0.000 0.000 1.000 K
0 j
0 J
0.287 w
[]0 d
0.000 0.000 0.000 0.000 k
99.647 670.031 m
116.711 670.031 130.895 655.919 130.895 638.783 C
130.895 621.575 116.711 607.607 99.647 607.607 C
82.367 607.607 68.471 621.575 68.471 638.783 C
68.471 655.919 82.367 670.031 99.647 670.031 C
b
0.000 0.000 0.000 1.000 K
0 j
0 J
0.287 w
[]0 d
0.000 0.000 0.000 0.000 k
608.327 422.207 m
591.264 422.207 577.079 408.023 577.079 390.959 C
577.079 373.679 591.264 359.783 608.327 359.783 C
625.607 359.783 639.503 373.679 639.503 390.959 C
639.503 408.023 625.607 422.207 608.327 422.207 C
b
0.000 0.000 0.000 1.000 K
0 j
0 J
0.287 w
[]0 d
99.647 610.271 m
115.271 610.271 127.943 623.159 127.943 638.783 C
127.943 654.407 115.271 667.151 99.647 667.151 C
84.023 667.151 71.135 654.407 71.135 638.783 C
71.135 623.159 84.023 610.271 99.647 610.271 C
s
0.000 0.000 0.000 1.000 K
0 j
0 J
0.287 w
[]0 d
608.327 362.447 m
592.703 362.447 580.031 375.335 580.031 390.959 C
580.031 406.583 592.703 419.255 608.327 419.255 C
623.951 419.255 636.839 406.583 636.839 390.959 C
636.839 375.335 623.951 362.447 608.327 362.447 C
s
0.000 0.000 0.000 1.000 K
0 j
0 J
0.287 w
[]0 d
0.000 0.000 0.000 0.498 k
110.015 662.903 m
104.975 659.159 L
109.727 658.367 114.623 654.120 115.415 652.679 C
120.815 654.407 L
118.079 658.655 113.615 661.895 110.015 662.903 C
b
0.000 0.000 0.000 1.000 K
0 j
0 J
0.287 w
[]0 d
0.000 0.000 0.000 0.498 k
597.959 415.079 m
603.000 411.335 L
598.247 410.543 593.351 406.295 592.559 404.783 C
587.159 406.583 L
589.895 410.831 594.359 414.071 597.959 415.079 C
b
0.000 0.000 0.000 1.000 K
0 j
0 J
0.287 w
[]0 d
0.000 0.000 0.000 0.498 k
122.255 652.175 m
115.919 652.031 L
119.375 648.791 120.743 642.383 120.455 640.727 C
125.999 638.783 L
126.215 643.895 124.559 649.295 122.255 652.175 C
b
0.000 0.000 0.000 1.000 K
0 j
0 J
0.287 w
[]0 d
0.000 0.000 0.000 0.498 k
585.719 404.279 m
592.055 404.135 L
588.599 400.895 587.231 394.559 587.519 392.831 C
581.975 390.959 L
581.759 395.999 583.415 401.399 585.719 404.279 C
b
0.000 0.000 0.000 1.000 K
0 j
0 J
0.287 w
[]0 d
0.000 0.000 0.000 0.498 k
125.711 636.192 m
120.599 639.791 L
121.319 635.183 118.871 629.207 117.575 628.055 C
120.959 623.303 L
124.199 627.192 125.999 632.663 125.711 636.192 C
b
0.000 0.000 0.000 1.000 K
0 j
0 J
0.287 w
[]0 d
0.000 0.000 0.000 0.498 k
582.264 388.295 m
587.375 391.895 L
586.655 387.359 589.103 381.311 590.399 380.159 C
587.015 375.479 L
583.775 379.367 581.975 384.767 582.264 388.295 C
b
0.000 0.000 0.000 1.000 K
0 j
0 J
0.287 w
[]0 d
0.000 0.000 0.000 0.498 k
119.375 621.359 m
117.215 627.335 L
115.271 623.087 109.583 619.703 107.927 619.343 C
107.927 613.583 L
112.679 614.807 117.359 618.192 119.375 621.359 C
b
0.000 0.000 0.000 1.000 K
0 j
0 J
0.287 w
[]0 d
0.000 0.000 0.000 0.498 k
588.599 373.463 m
590.759 379.511 L
592.703 375.263 598.391 371.879 600.048 371.519 C
600.048 365.687 L
595.295 366.983 590.615 370.367 588.599 373.463 C
b
0.000 0.000 0.000 1.000 K
0 j
0 J
0.287 w
[]0 d
0.000 0.000 0.000 0.498 k
105.263 612.935 m
107.135 618.911 L
103.031 616.967 96.479 617.471 94.895 618.192 C
91.511 613.511 L
96.191 611.711 101.879 611.711 105.263 612.935 C
b
0.000 0.000 0.000 1.000 K
0 j
0 J
0.287 w
[]0 d
0.000 0.000 0.000 0.498 k
602.711 365.039 m
600.839 371.087 L
604.943 369.071 611.495 369.575 613.079 370.367 C
616.463 365.615 L
611.783 363.887 606.096 363.887 602.711 365.039 C
b
0.000 0.000 0.000 1.000 K
0 j
0 J
0.287 w
[]0 d
0.000 0.000 0.000 0.498 k
89.135 614.519 m
94.103 618.264 L
89.351 619.055 84.455 623.159 83.807 624.815 C
78.263 623.087 L
80.855 618.767 85.463 615.455 89.135 614.519 C
b
0.000 0.000 0.000 1.000 K
0 j
0 J
0.287 w
[]0 d
0.000 0.000 0.000 0.498 k
618.839 366.695 m
613.871 370.439 L
618.623 371.231 623.519 375.335 624.168 376.919 C
629.711 375.263 L
627.120 370.943 622.511 367.631 618.839 366.695 C
b
0.000 0.000 0.000 1.000 K
0 j
0 J
0.287 w
[]0 d
0.000 0.000 0.000 0.498 k
76.896 625.319 m
83.159 625.463 L
79.775 628.703 78.407 635.039 78.623 636.839 C
73.152 638.639 L
72.719 633.599 74.519 628.199 76.896 625.319 C
b
0.000 0.000 0.000 1.000 K
0 j
0 J
0.287 w
[]0 d
0.000 0.000 0.000 0.498 k
631.079 377.423 m
624.815 377.567 L
628.199 380.807 629.567 387.215 629.351 388.943 C
634.823 390.815 L
635.255 385.703 633.455 380.303 631.079 377.423 C
b
0.000 0.000 0.000 1.000 K
0 j
0 J
0.287 w
[]0 d
0.000 0.000 0.000 0.498 k
73.367 641.303 m
78.551 637.631 L
77.759 642.239 80.207 648.287 81.503 649.367 C
78.119 654.263 L
74.807 650.303 73.152 644.831 73.367 641.303 C
b
0.000 0.000 0.000 1.000 K
0 j
0 J
0.287 w
[]0 d
0.000 0.000 0.000 0.498 k
634.607 393.407 m
629.423 389.807 L
630.216 394.415 627.767 400.391 626.471 401.543 C
629.855 406.439 L
633.168 402.479 634.823 396.935 634.607 393.407 C
b
0.000 0.000 0.000 1.000 K
0 j
0 J
0.287 w
[]0 d
0.000 0.000 0.000 0.498 k
79.775 656.207 m
81.863 650.303 L
84.023 654.407 89.495 657.863 91.295 658.151 C
91.295 663.911 L
86.399 662.615 81.719 659.303 79.775 656.207 C
b
0.000 0.000 0.000 1.000 K
0 j
0 J
0.287 w
[]0 d
0.000 0.000 0.000 0.498 k
628.199 408.311 m
626.111 402.479 L
623.951 406.583 618.479 410.039 616.679 410.327 C
616.679 416.015 L
621.575 414.791 626.255 411.407 628.199 408.311 C
b
0.000 0.000 0.000 1.000 K
0 j
0 J
0.287 w
[]0 d
0.000 0.000 0.000 0.498 k
93.887 664.559 m
97.199 665.783 103.031 665.783 107.639 664.055 C
104.183 659.375 L
102.743 660.024 96.191 660.527 92.015 658.511 C
93.887 664.559 L
b
0.000 0.000 0.000 1.000 K
0 j
0 J
0.287 w
[]0 d
0.000 0.000 0.000 0.498 k
614.087 416.663 m
610.775 417.959 604.943 417.959 600.335 416.159 C
603.791 411.479 L
605.231 412.127 611.783 412.631 615.959 410.687 C
614.087 416.663 L
b
0.000 0.000 0.000 1.000 K
0 j
0 J
0.287 w
[]0 d
0.000 0.000 0.000 0.498 k
99.791 624.959 m
107.423 624.959 113.615 631.151 113.615 638.783 C
113.615 646.271 107.423 652.535 99.791 652.535 C
92.231 652.535 86.039 646.271 86.039 638.783 C
86.039 631.151 92.231 624.959 99.791 624.959 C
b
0.000 0.000 0.000 1.000 K
0 j
0 J
0.287 w
[]0 d
0.000 0.000 0.000 0.498 k
608.183 377.063 m
600.551 377.063 594.359 383.327 594.359 390.959 C
594.359 398.447 600.551 404.639 608.183 404.639 C
615.743 404.639 621.935 398.447 621.935 390.959 C
621.935 383.327 615.743 377.063 608.183 377.063 C
b
0.000 0.000 0.000 1.000 K
0 j
0 J
0.287 w
[]0 d
0.000 0.000 0.000 0.000 k
532.151 620.855 m
522.360 634.895 525.815 654.623 539.855 664.415 C
553.967 674.279 573.479 670.679 583.271 656.711 C
593.207 642.527 589.751 623.159 575.639 613.295 C
561.599 603.431 542.015 606.743 532.151 620.855 C
b
0.000 0.000 0.000 1.000 K
0 j
0 J
0.287 w
[]0 d
0.000 0.000 0.000 0.000 k
175.823 373.031 m
185.615 387.071 182.159 406.727 168.119 416.519 C
154.007 426.455 134.495 422.855 124.703 408.815 C
114.767 394.703 118.223 375.335 132.335 365.399 C
146.375 355.607 165.959 358.919 175.823 373.031 C
b
0.000 0.000 0.000 1.000 K
0 j
0 J
0.287 w
[]0 d
581.111 655.127 m
572.111 667.943 554.255 670.967 541.511 662.039 C
528.695 653.039 525.527 635.327 534.527 622.583 C
543.455 609.767 561.312 606.527 574.055 615.455 C
586.871 624.455 590.039 642.383 581.111 655.127 C
s
0.000 0.000 0.000 1.000 K
0 j
0 J
0.287 w
[]0 d
126.863 407.303 m
135.863 420.119 153.719 423.143 166.463 414.143 C
179.279 405.215 182.447 387.503 173.447 374.687 C
164.519 361.871 146.663 358.631 133.919 367.631 C
121.103 376.559 117.935 394.487 126.863 407.303 C
s
0.000 0.000 0.000 1.000 K
0 j
0 J
0.287 w
[]0 d
0.000 0.000 0.000 0.498 k
532.007 633.527 m
537.983 631.511 L
535.895 635.831 536.615 642.311 537.336 643.751 C
532.799 647.207 L
530.855 642.527 530.783 636.983 532.007 633.527 C
b
0.000 0.000 0.000 1.000 K
0 j
0 J
0.287 w
[]0 d
0.000 0.000 0.000 0.498 k
175.967 385.631 m
169.991 383.687 L
172.079 388.007 171.359 394.415 170.639 395.927 C
175.175 399.383 L
177.119 394.703 177.191 389.159 175.967 385.631 C
b
0.000 0.000 0.000 1.000 K
0 j
0 J
0.287 w
[]0 d
0.000 0.000 0.000 0.498 k
533.807 649.655 m
537.551 644.615 L
538.271 649.223 542.663 654.048 544.247 654.767 C
542.591 660.383 L
538.343 657.647 534.887 653.255 533.807 649.655 C
b
0.000 0.000 0.000 1.000 K
0 j
0 J
0.287 w
[]0 d
0.000 0.000 0.000 0.498 k
174.167 401.831 m
170.423 396.719 L
169.703 401.399 165.311 406.223 163.727 406.943 C
165.383 412.559 L
169.631 409.823 173.087 405.359 174.167 401.831 C
b
0.000 0.000 0.000 1.000 K
0 j
0 J
0.287 w
[]0 d
0.000 0.000 0.000 0.498 k
544.895 661.679 m
544.895 655.415 L
548.279 658.655 554.615 660.096 556.271 659.663 C
558.216 665.207 L
553.103 665.639 547.631 663.911 544.895 661.679 C
b
0.000 0.000 0.000 1.000 K
0 j
0 J
0.287 w
[]0 d
0.000 0.000 0.000 0.498 k
163.079 413.783 m
163.079 407.591 L
159.695 410.831 153.359 412.199 151.703 411.839 C
149.759 417.311 L
154.871 417.743 160.343 416.087 163.079 413.783 C
b
0.000 0.000 0.000 1.000 K
0 j
0 J
0.287 w
[]0 d
0.000 0.000 0.000 0.498 k
560.735 664.991 m
557.063 659.807 L
561.671 660.599 567.647 657.935 568.943 656.711 C
573.695 660.096 L
569.879 663.263 564.407 665.135 560.735 664.991 C
b
0.000 0.000 0.000 1.000 K
0 j
0 J
0.287 w
[]0 d
0.000 0.000 0.000 0.498 k
147.239 417.095 m
150.911 411.911 L
146.304 412.775 140.328 410.039 139.031 408.887 C
134.280 412.199 L
138.096 415.439 143.567 417.311 147.239 417.095 C
b
0.000 0.000 0.000 1.000 K
0 j
0 J
0.287 w
[]0 d
0.000 0.000 0.000 0.498 k
575.711 658.295 m
569.735 656.351 L
573.695 654.120 577.007 648.503 577.295 646.703 C
583.127 646.631 L
581.903 651.527 578.663 656.207 575.711 658.295 C
b
0.000 0.000 0.000 1.000 K
0 j
0 J
0.287 w
[]0 d
0.000 0.000 0.000 0.498 k
132.263 410.399 m
138.239 408.455 L
134.280 406.223 130.967 400.679 130.679 398.879 C
124.847 398.807 L
126.071 403.631 129.311 408.311 132.263 410.399 C
b
0.000 0.000 0.000 1.000 K
0 j
0 J
0.287 w
[]0 d
0.000 0.000 0.000 0.498 k
583.631 644.111 m
577.727 646.055 L
579.815 641.735 579.240 635.399 578.303 633.887 C
582.839 630.287 L
584.855 634.967 585.000 640.583 583.631 644.111 C
b
0.000 0.000 0.000 1.000 K
0 j
0 J
0.287 w
[]0 d
0.000 0.000 0.000 0.498 k
124.343 396.287 m
130.247 398.159 L
128.159 393.839 128.735 387.503 129.671 385.991 C
125.135 382.463 L
123.119 387.071 122.975 392.759 124.343 396.287 C
b
0.000 0.000 0.000 1.000 K
0 j
0 J
0.287 w
[]0 d
0.000 0.000 0.000 0.498 k
581.831 627.983 m
578.159 632.951 L
577.439 628.343 572.975 623.591 571.391 622.727 C
573.048 617.255 L
577.439 619.775 580.823 624.311 581.831 627.983 C
b
0.000 0.000 0.000 1.000 K
0 j
0 J
0.287 w
[]0 d
0.000 0.000 0.000 0.498 k
126.143 380.087 m
129.816 385.127 L
130.536 380.447 135.000 375.695 136.584 374.903 C
134.927 369.359 L
130.536 371.951 127.151 376.487 126.143 380.087 C
b
0.000 0.000 0.000 1.000 K
0 j
0 J
0.287 w
[]0 d
0.000 0.000 0.000 0.498 k
570.743 615.887 m
570.743 622.223 L
567.431 618.911 561.168 617.471 559.439 617.903 C
557.423 612.287 L
562.535 611.855 568.007 613.727 570.743 615.887 C
b
0.000 0.000 0.000 1.000 K
0 j
0 J
0.287 w
[]0 d
0.000 0.000 0.000 0.498 k
137.231 368.063 m
137.231 374.327 L
140.543 371.087 146.807 369.575 148.536 370.007 C
150.551 364.463 L
145.439 364.031 139.967 365.831 137.231 368.063 C
b
0.000 0.000 0.000 1.000 K
0 j
0 J
0.287 w
[]0 d
0.000 0.000 0.000 0.498 k
554.903 612.575 m
558.503 617.687 L
553.895 617.039 547.919 619.559 546.695 620.855 C
541.943 617.615 L
545.831 614.303 551.231 612.431 554.903 612.575 C
b
0.000 0.000 0.000 1.000 K
0 j
0 J
0.287 w
[]0 d
0.000 0.000 0.000 0.498 k
153.071 364.679 m
149.471 369.791 L
154.079 369.215 160.055 371.735 161.280 373.031 C
166.031 369.719 L
162.143 366.479 156.743 364.535 153.071 364.679 C
b
0.000 0.000 0.000 1.000 K
0 j
0 J
0.287 w
[]0 d
0.000 0.000 0.000 0.498 k
539.927 619.343 m
536.975 621.359 533.663 626.111 532.511 630.863 C
538.271 630.791 L
538.559 629.207 541.943 623.519 545.975 621.216 C
539.927 619.343 L
b
0.000 0.000 0.000 1.000 K
0 j
0 J
0.287 w
[]0 d
0.000 0.000 0.000 0.498 k
168.047 371.519 m
171.000 373.463 174.311 378.215 175.463 383.039 C
169.703 382.895 L
169.415 381.311 166.031 375.695 162.000 373.391 C
168.047 371.519 L
b
0.000 0.000 0.000 1.000 K
0 j
0 J
0.287 w
[]0 d
0.000 0.000 0.000 0.498 k
569.015 646.847 m
564.623 653.111 555.983 654.623 549.719 650.303 C
543.599 645.983 542.015 637.343 546.408 631.079 C
550.727 624.887 559.367 623.375 565.559 627.695 C
571.751 632.087 573.336 640.727 569.015 646.847 C
b
0.000 0.000 0.000 1.000 K
0 j
0 J
0.287 w
[]0 d
0.000 0.000 0.000 0.498 k
138.959 399.023 m
143.351 405.287 151.991 406.799 158.256 402.407 C
164.375 398.087 165.959 389.447 161.567 383.183 C
157.247 377.063 148.607 375.551 142.415 379.799 C
136.223 384.191 134.639 392.903 138.959 399.023 C
b
0.000 0.000 0.000 1.000 K
0 j
0 J
0.287 w
[]0 d
0.000 0.000 0.000 0.298 k
690.191 721.583 m
702.575 721.583 L
702.431 685.439 L
689.975 685.439 L
690.191 721.583 L
b
0.000 0.000 0.000 1.000 K
0 j
0 J
0.287 w
[]0 d
0.000 0.000 0.000 0.298 k
17.783 473.759 m
5.399 473.759 L
5.543 437.615 L
18.000 437.615 L
17.783 473.759 L
b
u
u
0.000 0.000 0.000 1.000 K
0 j
0 J
0.287 w
[]0 d
613.079 663.120 m
641.087 663.120 L
S
U
U
u
u
0.000 0.000 0.000 1.000 K
0 j
0 J
0.287 w
[]0 d
94.895 415.223 m
66.887 415.223 L
S
U
U
u
u
0.000 0.000 0.000 1.000 K
0 j
0 J
0.287 w
[]0 d
690.767 713.015 m
702.431 713.015 L
S
U
U
u
u
0.000 0.000 0.000 1.000 K
0 j
0 J
0.287 w
[]0 d
17.207 465.191 m
5.543 465.191 L
S
U
U
u
u
0.000 0.000 0.000 1.000 K
0 j
0 J
0.287 w
[]0 d
689.975 694.079 m
701.567 694.079 L
S
U
U
u
u
0.000 0.000 0.000 1.000 K
0 j
0 J
0.287 w
[]0 d
18.000 446.183 m
6.407 446.183 L
S
U
U
0.000 0.000 0.000 1.000 K
0 j
0 J
0.287 w
[]0 d
603.575 685.439 m
702.575 685.439 L
702.647 681.551 703.439 677.519 701.711 674.279 C
619.127 674.279 L
611.279 675.935 606.671 680.903 603.575 685.439 C
s
0.000 0.000 0.000 1.000 K
0 j
0 J
0.287 w
[]0 d
104.399 437.543 m
5.399 437.543 L
5.327 433.655 4.535 429.623 6.263 426.383 C
88.847 426.383 L
96.695 428.111 101.303 433.079 104.399 437.543 C
s
u
u
0.000 0.000 0.000 1.000 K
0 j
0 J
0.287 w
[]0 d
530.423 696.455 m
558.431 704.663 584.711 702.000 603.647 685.511 C
S
U
U
u
u
0.000 0.000 0.000 1.000 K
0 j
0 J
0.287 w
[]0 d
177.551 448.631 m
149.543 456.839 123.263 454.103 104.327 437.687 C
S
U
U
0.000 0.000 0.000 1.000 K
0 j
0 J
0.287 w
[]0 d
623.231 706.247 m
483.119 706.247 L
495.503 709.199 541.079 710.063 560.663 709.775 c
585.935 709.415 602.063 708.839 623.231 706.247 C
s
0.000 0.000 0.000 1.000 K
0 j
0 J
0.287 w
[]0 d
84.743 458.423 m
224.855 458.423 L
212.471 461.303 166.895 462.239 147.311 461.951 c
122.039 461.591 105.911 461.015 84.743 458.423 C
s
0.000 0.000 0.000 1.000 K
0 j
0 J
0.287 w
[]0 d
320.183 724.031 m
338.039 724.031 L
339.911 724.031 341.423 722.519 341.423 720.647 C
341.423 714.527 L
341.423 712.655 339.911 711.143 338.039 711.143 C
320.183 711.143 L
318.311 711.143 316.799 712.655 316.799 714.527 C
316.799 720.647 L
316.799 722.519 318.311 724.031 320.183 724.031 C
s
0.000 0.000 0.000 1.000 K
0 j
0 J
0.287 w
[]0 d
387.719 476.135 m
369.935 476.135 L
367.991 476.135 366.551 474.695 366.551 472.751 C
366.551 466.703 L
366.551 464.759 367.991 463.247 369.935 463.247 C
387.719 463.247 L
389.663 463.247 391.103 464.759 391.103 466.703 C
391.103 472.751 L
391.103 474.695 389.663 476.135 387.719 476.135 C
s
0.000 0.000 0.000 1.000 K
0 j
0 J
0.287 w
[]0 d
320.183 724.031 m
338.039 724.031 L
339.911 724.031 341.423 722.519 341.423 720.647 C
341.423 718.343 L
316.799 718.343 L
316.799 720.647 L
316.799 722.519 318.311 724.031 320.183 724.031 C
s
0.000 0.000 0.000 1.000 K
0 j
0 J
0.287 w
[]0 d
387.719 476.135 m
369.935 476.135 L
367.991 476.135 366.551 474.695 366.551 472.751 C
366.551 470.519 L
391.103 470.519 L
391.103 472.751 L
391.103 474.695 389.663 476.135 387.719 476.135 C
s
u
u
0.000 0.000 0.000 1.000 K
0 j
0 J
0.287 w
[]0 d
508.823 685.367 m
144.215 685.367 L
116.567 712.439 66.311 710.495 48.815 681.048 C
S
U
U
u
u
0.000 0.000 0.000 1.000 K
0 j
0 J
0.287 w
[]0 d
199.151 437.543 m
563.759 437.543 L
591.407 464.615 641.663 462.599 659.159 433.223 C
S
U
U
u
u
0.000 0.000 0.000 1.000 K
0 j
0 J
0.287 w
[]0 d
500.039 674.711 m
147.167 674.711 L
S
U
U
u
u
0.000 0.000 0.000 1.000 K
0 j
0 J
0.287 w
[]0 d
207.935 426.887 m
560.807 426.887 L
S
U
U
u
u
0.000 0.000 0.000 1.000 K
0 j
0 J
0.287 w
[]0 d
43.271 654.263 m
5.615 654.263 L
S
U
U
u
u
0.000 0.000 0.000 1.000 K
0 j
0 J
0.287 w
[]0 d
664.703 406.439 m
702.359 406.439 L
S
U
U
0.000 0.000 0.000 1.000 K
0 j
0 J
0.287 w
[]0 d
41.975 707.615 m
164.303 712.943 L
145.007 715.247 124.919 716.615 101.663 715.607 c
80.640 714.671 61.271 711.935 41.975 707.615 C
s
0.000 0.000 0.000 1.000 K
0 j
0 J
0.287 w
[]0 d
666.000 459.791 m
543.671 465.047 L
562.967 467.423 583.055 468.719 606.311 467.783 c
627.335 466.847 646.703 464.111 666.000 459.791 C
s
u
u
0.000 0.000 0.000 1.000 K
0 j
0 J
0.287 w
[]0 d
176.543 646.991 m
159.119 646.991 L
S
U
U
u
u
0.000 0.000 0.000 1.000 K
0 j
0 J
0.287 w
[]0 d
531.432 399.167 m
548.855 399.167 L
S
U
U
u
u
0.000 0.000 0.000 1.000 K
0 j
0 J
0.287 w
[]0 d
174.383 746.855 m
173.087 743.255 164.519 743.615 153.071 742.175 C
121.391 739.151 64.943 728.783 33.263 723.383 C
22.679 721.295 18.359 718.487 16.199 712.439 C
S
U
U
u
u
0.000 0.000 0.000 1.000 K
0 j
0 J
0.287 w
[]0 d
533.591 498.959 m
534.887 495.359 543.455 495.719 554.903 494.279 C
586.583 491.255 643.031 480.959 674.711 475.487 C
685.295 473.471 689.615 470.591 691.775 464.615 C
S
U
U
0.000 0.000 0.000 1.000 K
0 j
0 J
0.287 w
[]0 d
0.000 0.000 0.000 1.000 k
99.647 632.591 m
96.191 632.591 93.383 635.327 93.383 638.783 C
93.383 642.168 96.191 644.975 99.647 644.975 C
103.031 644.975 105.767 642.168 105.767 638.783 C
105.767 635.327 103.031 632.591 99.647 632.591 C
b
0.000 0.000 0.000 1.000 K
0 j
0 J
0.287 w
[]0 d
0.000 0.000 0.000 1.000 k
608.327 384.695 m
611.783 384.695 614.591 387.503 614.591 390.959 C
614.591 394.343 611.783 397.079 608.327 397.079 C
604.943 397.079 602.207 394.343 602.207 390.959 C
602.207 387.503 604.943 384.695 608.327 384.695 C
b
0.000 0.000 0.000 1.000 K
0 j
0 J
0.287 w
[]0 d
0.000 0.000 0.000 1.000 k
562.823 642.383 m
564.839 639.503 564.120 635.687 561.312 633.743 C
558.503 631.799 554.687 632.447 552.743 635.255 C
550.727 638.063 551.447 641.879 554.183 643.823 C
557.063 645.839 560.879 645.192 562.823 642.383 C
b
0.000 0.000 0.000 1.000 K
0 j
0 J
0.287 w
[]0 d
0.000 0.000 0.000 1.000 k
145.151 394.487 m
143.135 391.679 143.855 387.863 146.663 385.847 C
149.471 383.903 153.287 384.551 155.231 387.431 C
157.247 390.167 156.527 394.055 153.792 395.999 C
150.911 397.943 147.095 397.295 145.151 394.487 C
b
u
u
0.000 0.000 0.000 1.000 K
0 j
0 J
0.287 w
[]0 d
411.623 646.559 m
488.735 646.559 L
493.775 673.559 510.911 692.639 532.007 696.671 C
S
U
U
u
u
0.000 0.000 0.000 1.000 K
0 j
0 J
0.287 w
[]0 d
296.279 398.735 m
219.167 398.735 L
214.127 425.663 197.063 444.815 175.967 448.775 C
S
U
U
u
u
0.000 0.000 0.000 1.000 K
0 j
0 J
0.287 w
[]0 d
435.815 726.551 m
701.207 726.551 L
S
U
U
u
u
0.000 0.000 0.000 1.000 K
0 j
0 J
0.287 w
[]0 d
272.159 478.655 m
6.767 478.655 L
S
U
U
0.000 0.000 0.000 1.000 K
0 j
0 J
0.287 w
[]0 d
451.583 726.551 m
460.151 726.551 L
460.151 718.919 L
451.583 718.919 L
451.583 726.551 L
s
0.000 0.000 0.000 1.000 K
0 j
0 J
0.287 w
[]0 d
256.391 478.655 m
247.751 478.655 L
247.751 471.023 L
256.391 471.023 L
256.391 478.655 L
s
0.000 0.000 0.000 1.000 K
0 j
0 J
0.287 w
[]0 d
528.479 726.551 m
537.120 726.551 L
537.120 718.919 L
528.479 718.919 L
528.479 726.551 L
s
0.000 0.000 0.000 1.000 K
0 j
0 J
0.287 w
[]0 d
179.495 478.655 m
170.855 478.655 L
170.855 471.023 L
179.495 471.023 L
179.495 478.655 L
s
0.000 0.000 0.000 1.000 K
0 j
0 J
0.287 w
[]0 d
604.295 726.551 m
612.935 726.551 L
612.935 718.919 L
604.295 718.919 L
604.295 726.551 L
s
0.000 0.000 0.000 1.000 K
0 j
0 J
0.287 w
[]0 d
103.679 478.655 m
95.039 478.655 L
95.039 471.023 L
103.679 471.023 L
103.679 478.655 L
s
0.000 0.000 0.000 1.000 K
0 j
0 J
0.287 w
[]0 d
669.959 726.551 m
678.527 726.551 L
678.527 718.919 L
669.959 718.919 L
669.959 726.551 L
s
0.000 0.000 0.000 1.000 K
0 j
0 J
0.287 w
[]0 d
38.015 478.655 m
29.447 478.655 L
29.447 471.023 L
38.015 471.023 L
38.015 478.655 L
s
0.000 0.000 0.000 1.000 K
0 j
0 J
0.287 w
[]0 d
199.439 454.463 m
212.903 454.463 L
214.703 454.463 216.071 453.023 216.071 451.223 C
216.071 443.591 L
216.071 441.791 214.703 440.351 212.903 440.351 C
200.663 440.351 L
199.655 442.079 197.927 443.159 196.271 443.735 C
196.271 451.223 L
196.271 453.023 197.639 454.463 199.439 454.463 C
s
0.000 0.000 0.000 1.000 K
0 j
0 J
0.287 w
[]0 d
0.000 0.000 0.000 0.498 k
401.327 799.559 m
395.783 799.559 390.311 799.559 384.695 799.559 c
379.223 799.559 373.607 799.559 368.135 799.559 c
364.103 799.559 361.151 796.463 361.295 792.791 c
361.799 781.847 362.375 770.615 362.807 759.743 c
363.239 748.727 363.887 737.639 364.319 726.839 c
364.391 722.951 367.631 720.071 371.591 720.071 c
377.207 720.071 382.751 720.071 388.151 720.071 c
393.695 720.071 399.167 720.071 404.783 720.071 c
408.887 720.071 411.767 722.951 411.623 726.839 c
411.119 737.639 410.615 748.727 410.183 759.743 c
409.751 770.615 409.103 781.847 408.671 792.791 c
408.527 796.463 405.287 799.559 401.327 799.559 c
b
0.000 0.000 0.000 1.000 K
0 j
0 J
0.287 w
[]0 d
0.000 0.000 0.000 0.498 k
306.575 551.735 m
312.191 551.735 317.663 551.735 323.207 551.735 c
328.751 551.735 334.295 551.735 339.767 551.735 c
343.871 551.735 346.751 548.639 346.679 544.967 c
346.103 533.951 345.599 522.791 345.167 511.919 c
344.735 500.831 344.087 489.743 343.655 479.015 c
343.512 475.127 340.343 472.247 336.311 472.247 c
330.767 472.247 325.151 472.247 319.823 472.247 c
314.207 472.247 308.735 472.247 303.120 472.247 c
299.087 472.247 296.207 475.127 296.279 479.015 c
296.783 489.743 297.359 500.831 297.791 511.919 c
298.223 522.791 298.871 533.951 299.303 544.967 c
299.375 548.639 302.615 551.735 306.575 551.735 c
b
0.000 0.000 0.000 1.000 K
0 j
0 J
0.287 w
[]0 d
0.000 0.000 0.000 0.200 k
366.983 798.047 m
364.463 797.471 362.663 795.527 362.663 792.863 C
363.815 770.903 364.751 748.871 365.687 726.983 C
366.047 723.599 368.207 721.655 371.663 721.511 C
404.783 721.511 L
407.879 721.655 410.255 723.455 410.255 726.839 C
409.247 748.799 408.167 770.759 407.231 792.719 C
406.871 796.031 404.639 797.975 401.327 798.191 C
368.207 798.191 L
367.559 798.119 L
366.983 798.047 L
b
0.000 0.000 0.000 1.000 K
0 j
0 J
0.287 w
[]0 d
0.000 0.000 0.000 0.200 k
340.991 550.223 m
343.512 549.575 345.239 547.703 345.239 544.967 C
344.087 523.079 343.223 501.047 342.215 479.087 C
341.855 475.703 339.767 473.831 336.311 473.615 C
303.191 473.615 L
300.024 473.759 297.719 475.631 297.719 478.943 C
298.655 500.903 299.735 522.935 300.671 544.823 C
301.103 548.207 303.335 550.151 306.647 550.295 C
339.767 550.295 L
340.415 550.295 L
340.991 550.223 L
b
u
u
0.000 0.000 0.000 1.000 K
0 j
0 J
0.287 w
[]0 d
415.079 646.847 m
322.055 646.847 L
S
U
U
u
u
0.000 0.000 0.000 1.000 K
0 j
0 J
0.287 w
[]0 d
292.823 398.951 m
385.847 398.951 L
S
U
U
0.000 0.000 0.000 1.000 K
0 j
0 J
0.287 w
[]0 d
0.000 0.000 0.000 0.498 k
252.359 806.831 m
261.359 806.039 L
188.927 743.255 L
182.663 745.991 L
252.359 806.831 L
b
0.000 0.000 0.000 1.000 K
0 j
0 J
0.287 w
[]0 d
0.000 0.000 0.000 0.498 k
455.615 558.935 m
446.543 558.144 L
519.048 495.431 L
525.312 498.167 L
455.615 558.935 L
b
0.000 0.000 0.000 1.000 K
0 j
0 J
0.287 w
[]0 d
0.000 0.000 0.000 0.200 k
257.975 804.887 m
188.639 744.911 L
185.255 746.423 L
252.791 805.391 L
257.975 804.887 L
b
0.000 0.000 0.000 1.000 K
0 j
0 J
0.287 w
[]0 d
0.000 0.000 0.000 0.200 k
449.999 557.063 m
519.336 497.087 L
522.719 498.527 L
455.111 557.495 L
449.999 557.063 L
b
u
u
0.000 0.000 0.000 1.000 K
0 j
0 J
0.287 w
[]0 d
345.527 808.631 m
422.063 808.631 L
S
U
U
u
u
0.000 0.000 0.000 1.000 K
0 j
0 J
0.287 w
[]0 d
362.375 560.735 m
285.911 560.735 L
S
U
U
0.000 0.000 0.000 1.000 K
0 j
0 J
0.287 w
[]0 d
0.000 0.000 0.000 0.498 k
10.583 675.791 m
9.144 674.495 7.271 673.991 5.543 673.775 C
4.823 662.183 4.032 651.887 7.631 639.575 C
9.647 632.735 13.247 629.567 20.087 630.575 C
38.303 631.223 L
39.671 649.799 44.855 663.911 51.623 675.791 C
10.583 675.791 L
b
0.000 0.000 0.000 1.000 K
0 j
0 J
0.287 w
[]0 d
0.000 0.000 0.000 0.498 k
697.391 427.895 m
698.831 426.671 700.703 426.167 702.431 425.951 C
703.151 414.359 703.943 403.991 700.343 391.751 C
698.327 384.839 694.727 381.671 687.887 382.751 C
669.671 383.399 L
668.303 401.975 663.120 416.015 656.351 427.895 C
697.391 427.895 L
b
u
u
U
u
0.000 0.000 0.000 1.000 K
0 j
0 J
0.215 w
[]0 d
4.679 324.647 m
274.175 324.647 L
S
U
U
u
u
U
u
0.000 0.000 0.000 1.000 K
0 j
0 J
0.215 w
[]0 d
471.527 324.647 m
699.335 324.647 L
S
U
U
u
u
U
u
0.000 0.000 0.000 1.000 K
0 j
0 J
0.215 w
[]0 d
4.823 338.399 m
4.823 307.655 L
S
U
U
0.000 0.000 0.000 1.000 k
4.679 324.719 m
14.831 321.695 L
14.831 327.743 L
4.679 324.719 L
f
u
u
U
u
0.000 0.000 0.000 1.000 K
0 j
0 J
0.215 w
[]0 d
702.935 336.383 m
702.935 306.000 L
S
U
U
0.000 0.000 0.000 1.000 k
703.079 324.719 m
692.927 321.695 L
692.927 327.743 L
703.079 324.719 L
f
0.000 0.000 0.000 1.000 k
413.711 331.775 m
414.647 330.191 415.295 327.959 415.295 326.087 C
415.295 323.783 414.791 321.695 413.711 319.823 C
414.287 319.823 L
415.367 321.623 416.159 323.567 416.159 325.727 C
416.159 328.103 415.511 329.759 414.287 331.775 C
413.711 331.775 L
f
0.000 0.000 0.000 1.000 k
403.631 322.271 m
404.495 322.271 L
404.495 326.015 L
404.495 327.455 405.071 328.463 406.439 328.463 C
407.519 328.463 407.879 327.743 407.879 326.807 C
407.879 322.271 L
408.743 322.271 L
408.743 326.015 L
408.743 327.239 409.103 328.463 410.471 328.463 C
411.695 328.463 412.127 327.887 412.127 326.807 C
412.127 322.271 L
412.919 322.271 L
412.919 326.807 L
412.919 328.391 412.199 329.111 410.687 329.111 C
409.823 329.111 408.959 328.751 408.527 327.815 C
408.311 328.751 407.519 329.111 406.655 329.111 C
405.503 329.111 404.855 328.679 404.423 327.815 C
404.423 327.815 L
404.423 328.967 L
403.631 328.967 L
403.631 322.271 L
403.631 322.271 L
f
0.000 0.000 0.000 1.000 k
392.831 322.271 m
393.695 322.271 L
393.695 326.015 L
393.695 327.455 394.271 328.463 395.639 328.463 C
396.719 328.463 397.079 327.743 397.079 326.807 C
397.079 322.271 L
397.871 322.271 L
397.871 326.015 L
397.871 327.239 398.303 328.463 399.671 328.463 C
400.895 328.463 401.255 327.887 401.255 326.807 C
401.255 322.271 L
402.119 322.271 L
402.119 326.807 L
402.119 328.391 401.399 329.111 399.887 329.111 C
399.023 329.111 398.159 328.751 397.727 327.815 C
397.511 328.751 396.719 329.111 395.855 329.111 C
394.703 329.111 394.055 328.679 393.551 327.815 C
393.551 327.815 L
393.551 328.967 L
392.831 328.967 L
392.831 322.271 L
392.831 322.271 L
f
0.000 0.000 0.000 1.000 k
381.671 331.487 m
379.007 331.487 378.431 328.823 378.431 326.663 C
378.431 324.647 379.007 322.055 381.671 322.055 C
384.407 322.055 384.839 324.647 384.839 326.807 C
384.839 328.823 384.407 331.487 381.671 331.487 C
f
0.000 0.000 0.000 1.000 k
377.351 322.991 m
372.239 322.991 L
372.455 324.215 374.039 325.007 374.975 325.655 C
376.127 326.375 377.207 327.311 377.207 328.823 C
377.207 330.551 375.983 331.487 374.399 331.487 C
372.455 331.487 371.375 330.048 371.519 328.175 C
372.383 328.175 L
372.239 329.615 372.887 330.695 374.399 330.695 C
375.479 330.695 376.415 330.048 376.415 328.823 C
376.415 328.175 376.199 327.743 375.623 327.167 C
374.111 325.655 371.303 324.863 371.303 322.271 C
377.351 322.271 L
377.351 322.991 L
f
0.000 0.000 0.000 1.000 k
364.247 324.431 m
364.463 322.847 365.399 322.055 367.055 322.055 C
370.007 322.055 370.295 325.439 370.295 326.591 C
370.295 330.191 369.359 331.487 367.055 331.487 C
365.327 331.487 363.959 330.191 363.959 328.391 C
363.959 326.591 365.183 325.295 366.983 325.295 C
367.991 325.295 369.071 325.943 369.431 326.807 C
369.503 326.807 L
369.503 325.151 369.071 322.703 366.983 322.703 C
365.831 322.703 365.183 323.423 365.039 324.431 C
364.247 324.431 L
f
0.000 0.000 0.000 1.000 k
356.759 324.503 m
361.007 324.503 L
361.007 322.271 L
361.727 322.271 L
361.727 324.503 L
363.024 324.503 L
363.024 325.151 L
361.727 325.151 L
361.727 331.343 L
361.007 331.343 L
356.759 325.295 L
356.759 324.503 L
f
0.000 0.000 0.000 1.000 k
356.399 319.823 m
355.463 321.407 354.671 323.495 354.671 325.367 C
354.671 327.743 355.247 329.903 356.399 331.775 C
355.751 331.775 L
354.599 329.975 353.951 327.887 353.951 325.727 C
353.951 323.423 354.599 321.695 355.751 319.823 C
356.399 319.823 L
f
0.000 0.000 0.000 1.000 k
344.519 328.391 m
345.383 328.391 L
345.383 331.560 L
344.519 331.560 L
344.519 328.391 L
f
0.000 0.000 0.000 1.000 k
342.863 328.391 m
343.583 328.391 L
343.583 331.560 L
342.863 331.560 L
342.863 328.391 L
f
0.000 0.000 0.000 1.000 k
340.847 329.111 m
340.847 330.695 339.479 331.487 338.039 331.487 C
336.743 331.487 335.303 330.695 335.303 329.111 C
335.303 328.175 335.807 327.455 336.743 327.167 C
336.743 327.167 L
335.591 326.879 334.943 325.943 334.943 324.791 C
334.943 322.919 336.383 322.055 338.039 322.055 C
339.767 322.055 341.279 322.919 341.279 324.791 C
341.279 326.015 340.487 326.879 339.335 327.167 C
339.335 327.167 L
339.335 327.167 L
340.343 327.455 340.847 328.175 340.847 329.111 C
f
0.000 0.000 0.000 1.000 k
332.135 323.567 m
332.135 322.271 L
332.711 322.271 L
332.711 321.911 332.495 321.263 332.063 321.048 C
332.063 320.471 L
332.855 320.759 333.287 321.479 333.287 322.271 C
333.287 323.567 L
332.135 323.567 L
f
0.000 0.000 0.000 1.000 k
324.072 325.151 m
323.927 323.207 325.295 322.055 327.167 322.055 C
328.823 322.055 330.335 322.991 330.335 324.791 C
330.335 326.015 329.615 326.879 328.463 327.024 C
328.463 327.024 L
329.399 327.311 329.975 328.103 329.975 329.111 C
329.975 330.695 328.536 331.487 327.167 331.487 C
325.367 331.487 324.215 330.191 324.215 328.463 C
325.079 328.463 L
325.079 329.759 325.871 330.695 327.167 330.695 C
328.247 330.695 329.111 330.263 329.111 329.039 C
329.111 327.887 328.175 327.311 327.311 327.311 C
326.591 327.311 L
326.591 326.663 L
327.311 326.663 L
328.536 326.663 329.471 326.015 329.471 324.719 C
329.471 323.423 328.391 322.703 327.167 322.703 C
325.655 322.703 324.791 323.639 324.935 325.151 C
324.072 325.151 L
f
0.000 0.000 0.000 1.000 k
317.087 324.431 m
317.303 322.847 318.239 322.055 319.895 322.055 C
322.847 322.055 323.135 325.439 323.135 326.591 C
323.135 330.191 322.199 331.487 319.895 331.487 C
318.167 331.487 316.799 330.191 316.799 328.391 C
316.799 326.591 318.024 325.295 319.823 325.295 C
320.831 325.295 321.911 325.943 322.271 326.807 C
322.343 326.807 L
322.343 325.151 321.911 322.703 319.823 322.703 C
318.671 322.703 318.024 323.423 317.879 324.431 C
317.087 324.431 L
f
0.000 0.000 0.000 1.000 k
310.463 329.039 m
312.839 329.039 L
312.839 322.343 L
312.839 322.271 L
313.631 322.271 L
313.631 328.967 L
313.631 331.343 L
312.983 331.343 L
312.767 329.687 311.831 329.687 310.463 329.615 C
310.463 329.039 L
f
0.000 0.000 0.000 0.000 k
381.671 330.695 m
383.687 330.695 383.975 328.247 383.975 326.807 C
383.975 325.151 383.687 322.703 381.671 322.703 C
379.583 322.703 379.295 325.151 379.295 326.807 C
379.295 328.247 379.583 330.695 381.671 330.695 C
f
0.000 0.000 0.000 0.000 k
367.055 326.015 m
365.687 326.015 364.823 327.024 364.823 328.391 C
364.823 329.687 365.687 330.695 366.983 330.695 C
368.567 330.695 369.359 329.687 369.359 328.391 C
369.359 327.024 368.495 326.015 367.055 326.015 C
f
0.000 0.000 0.000 0.000 k
357.479 325.151 m
360.863 330.191 L
361.007 330.191 L
361.007 325.151 L
357.479 325.151 L
f
0.000 0.000 0.000 0.000 k
338.039 327.455 m
337.103 327.455 336.095 327.887 336.095 329.111 C
336.095 330.263 337.031 330.695 338.039 330.695 C
339.191 330.695 340.055 330.263 340.055 329.111 C
340.055 327.959 339.119 327.455 338.039 327.455 C
f
0.000 0.000 0.000 0.000 k
338.039 322.703 m
336.815 322.703 335.735 323.423 335.735 324.791 C
335.735 326.087 336.815 326.807 338.039 326.807 C
339.263 326.807 340.415 326.087 340.415 324.791 C
340.415 323.423 339.335 322.703 338.039 322.703 C
f
0.000 0.000 0.000 0.000 k
319.895 326.015 m
318.527 326.015 317.663 327.024 317.663 328.391 C
317.663 329.687 318.527 330.695 319.823 330.695 C
321.407 330.695 322.199 329.687 322.199 328.391 C
322.199 327.024 321.335 326.015 319.895 326.015 C
f
%%Trailer
_E end