%!PS-Adobe-2.0 EPSF-1.2
%%Creator: Adobe Illustrator exported from Corel Draw 3.0
%%Title:6
%%BoundingBox:5 296 1028 807
%%CreationDate:(Unknown)
%%ColorUsage:
%%TemplateBox:5 296 1028 807
%%EndComments
%%BeginProcSet:Adobe_Illustrator_1.1 0 0
% Version 1.0 3/27/1990 $nokeywords$
% Copyright (C) 1990,1991,1992
% Corel Corporation
% All Rights Reserved

/wPmsDict 150 dict def 
wPmsDict begin 

/$debug 25 string def 

/bd {bind def} bind def 
/ld {load def} bd 
/xd {exch def} bd 
/_ null def 

/$c 0 def 
/$m 0 def 
/$y 0 def 
/$k 0 def 
/$t 1 def 
/$n _ def 
/$o 0 def 
/$pf false def 

/$C 0 def 
/$M 0 def 
/$Y 0 def 
/$K 0 def 
/$T 1 def 
/$N _ def 
/$O 0 def 
/$PF false def 

/$h false def 

/$al 0 def 
/$tr 0 def 
/$le 0 def 
/$lx 0 def 
/$ly 0 def 

/$ctm matrix currentmatrix def 
/$ptm matrix def 

/$pn () def 
/$pm matrix def 
/$px 0 def 
/$py 0 def 
/$pxf 0 def 
/$pyf 0 def 
/$psx 10 def 
/$psy 0 def 

/$llx 0 def 
/$lly 0 def 
/$urx 0 def 
/$ury 0 def 


/$Bbllx 0 def 
/$Bblly 0 def 
/$Bburx 0 def 
/$Bbury 0 def 

/$tllx 0 def 
/$tlly 0 def 
/$turx 0 def 
/$tury 0 def 

/$pd [] def 
/$tx 0 def 
/$ty 0 def 

/$sv 0 def 
/@cp /closepath ld 
/@gs /gsave ld 
/@gr /grestore ld 
/@np /newpath ld 
/@sv {/$sv save def}bd 
/@rs {$sv restore}bd 

/@MN { 
2 copy le{pop}{exch pop}ifelse 
}bd 

/setcmykcolor where {pop} 
{ 
/setcmykcolor 
{ 
4 1 roll 
3 {3 index add 1 @MN 1 exch sub 3 1 roll} repeat 
setrgbcolor 
pop 
}bd 
}ifelse 

/@tc 
{ 
dup 1 ge 
{pop} 
{ 
4 { 
dup 
6 -1 roll 
mul 
exch 
}repeat 
pop 
}ifelse 
}bd 

/@scc 
{ 
$c $m $y $k $t @tc 
setcmykcolor 
true 
}bd 
/@SCC 
{ 
$C $M $Y $K $T @tc 
setcmykcolor 
true 
}bd 

/@sft 
{ 
(setfirsttile sft )print 
/$tx $tllx $pxf add dup $tllx gt {$pwid $psx add sub}if def 
/$ty $tury $pyf sub dup $tury lt {$phei $psy add add}if def 
(setfirsttile exit )print 
}bd 

/@stb 
{ 
pathbbox /$ury xd /$urx xd /$lly xd /$llx xd 
}bd 

/@ep 
{ 
{ 
cvx exec 
}forall 
}bd 

/@tp 
{ 

(tile pattern tp )print 
@sv 
/$in true def 
2 copy 
dup $lly le {/$in false def}if 
$phei sub $ury ge {/$in false def}if 
dup $urx ge {/$in false def}if 
$pwid add $llx le {/$in false def}if 
$in 
{ 
@np 
2 copy moveto 
$pwid 0 rlineto 
0 $phei neg rlineto 
$pwid neg 0 rlineto 
0 $phei rlineto 
clip @np 

$pn cvlit load aload pop 
7 -1 roll 
5 index sub 
7 -1 roll 
3 index sub 
translate 
@ep 
pop pop pop pop 
} 
{pop pop}ifelse 
@rs 
(tile pattern exit )print 
}bd 

/@th 
{ 
(tile horizontal th)print 
@sft 
0 1 $tly 1 sub 
{ 
dup $psx mul $tx add 
{ 
dup $llx gt {$pwid sub}{exit}ifelse 
}loop 
exch $phei mul $ty exch sub 

0 1 $tlx 1 sub 
{ 
$pwid mul 
3 copy 
3 -1 roll add exch 
@tp 
pop 
}for 
pop pop 
} for 
(tile horizontal exiting )print 
}bd 

/@tv 
{ 
(tile vertical tv)print 
@sft 
0 1 $tlx 1 sub 
{ 
dup $pwid mul $tx add 
exch $psy mul $ty exch sub 
{ 
dup $ury lt {$phei add}{exit}ifelse 
}loop 

0 1 $tly 1 sub 
{ 
$phei mul 
3 copy sub 
@tp 
pop 
}for 
pop pop 
} for 
(tile vertical exit )print 
}bd 

/@pf 
{ 
(pattern fill pf)print 
@gs 
$pm concat 
@stb 
@gs 1 setgray eofill @gr 
eoclip 
$Bburx $Bbury $pm itransform /$tury xd /$turx xd 
$Bbllx $Bblly $pm itransform /$tlly xd /$tllx xd 
/$wid $turx $tllx sub def 
/$hei $tury $tlly sub def 
$wid 0 gt $hei 0 gt and 
{ 
$pn cvlit load aload pop 
$pd xd 
3 -1 roll sub /$phei xd 
exch sub /$pwid xd 
/$tlx $wid $pwid div ceiling 1 add def 
/$tly $hei $phei div ceiling 1 add def 
$psx 0 eq 
{ 
@tv 
} 
{ 
@th 
}ifelse 
}if 

@gr 
@np 
(pattern fill exit)print 
}bd 

/@xp 
{ 
{ 
dup (text Character is:) print == 
usertime (time before is:)print == 
(0) dup 3 -1 roll 0 exch put 
@gs 
true charpath currentpoint 
$ctm setmatrix 
@pf 
@gr 
@np 
moveto $tr 0 rmoveto 
usertime (time after is:)print == 
}forall 
pop 
}bd 

/@sm 
{ 
/$ctm $ctm currentmatrix def 
}bd 

%--@lorg  move to line origin   length string @torg length string
/@lorg    % moves currentpoint to line origin according to current alignment
  {      
  $lx $ly moveto    
  /$ly $ly $le sub def      % - prepare for next line(tracking)
  $al 0 ne
    {dup      % ->len str len str
    stringwidth   % ->len str len dx dy
    exch 3 index  % ->len str dy len dx
    1 sub         % ->len str dy len dx (len-1)
    $tr mul add   % ->len str dy len dx+(len-1)*$tr
    neg
    exch neg      % ->len str -dx_total dy len
    $al 1 eq      % check for centered alignment
    {2 div exch 2 div exch} if  
    rmoveto} if
  }bd

/@ft 
{ 
$pf 
{@xp} 
{ 
@scc 
{$tr exch 0 exch ashow pop} 
{pop pop}ifelse 
}ifelse 
}bd 

/@st 
{ 
$PF 
{} 
{ 
@SCC 
{ 
{ 
(0) dup 3 -1 roll 0 exch put 
@gs 
true charpath currentpoint 
$ctm setmatrix $ptm concat 
stroke 
@gr 
moveto $tr 0 rmoveto 
}forall 
pop 
} 
{pop pop}ifelse 
}ifelse 
}bd 
/@pt 
{ 
dup length exch 
}bd 
/@te 
{ 
@pt 
@lorg 
@ft 
}bd 

/@tr 
{ 
@pt 
@lorg 
@st 
}bd 
/@ta 
{ 
@pt 
@lorg 
2 copy 
@gs @ft @gr 
/$lx 0 def 
/$ly 0 def 
@st 
}bd 















/g { 
1 exch sub /$k xd 
/$c 0 def /$m 0 def /$y 0 def /$t 1 def /$n _ def /$pf false def 
}bd 

/G { 
1 exch sub /$K xd 
/$C 0 def /$M 0 def /$Y 0 def /$T 1 def /$N _ def /$PF false def 
}bd 

/k { 
/$k xd /$y xd /$m xd /$c xd 
/$t 1 def /$n _ def /$pf false def 
}bd 

/K { 
/$K xd /$Y xd /$M xd /$C xd 
/$T 1 def /$N _ def /$PF false def 
}bd 

/x { 
/$t xd /$n xd 
/$k xd /$y xd /$m xd /$c xd /$pf false def 
}bd 

/X { 
/$T xd /$N xd 
/$K xd /$Y xd /$M xd /$C xd /$PF false def 
}bd 

/d /setdash ld 

/i { 
dup 0 ne {setflat} {pop} ifelse 
}bd 

/j /setlinejoin ld 

/J /setlinecap ld 

/M /setmiterlimit ld 

/w /setlinewidth ld 

/O { 
/$o xd 
}bd 

/R { 
/$O xd 
}bd 


/c /curveto ld 

/C /c ld 

/v { 
currentpoint
6 2 roll 
curveto 
}bd

/V /v ld 

/y { 
2 copy curveto 
}bd 

/Y /y ld 

/l /lineto ld 

/L /l ld 

/m /moveto ld 



/n /newpath ld 

/N /newpath ld 

/F { 
$pf 
{@pf} 
{ 
@scc 
{eofill}if 
}ifelse 
}bd 

/f { 
@cp F 
}bd 
/S { 
$PF 
{} 
{ 
@SCC 
{ 
@sm 
$ptm concat 
stroke 
$ctm setmatrix 
}if 
}ifelse 
}bd 
/s { 
@cp 
S 
}bd 

/B { 
@gs F @gr 
S 
}bd 
/b { 
@cp 
B 
}bd 

/W { 
oeclip 
@np 
}bd 

/p { 
/$pm xd 
7 {pop} repeat 
/$pyf xd /$pxf xd 
/$pn xd 
/$pf true def 
}bd 

/P { 
11 {pop} repeat 
}bd 

/@p { 
/$pm xd 
/$psy xd 
/$psx xd 
/$pyf xd /$pxf xd 
/$pn xd 
/$pf true def 
}bd 

/@b { 
/$Bbury xd /$Bburx xd 
/$Bblly xd /$Bbllx xd 
}bd 


/z { 
/$al xd 
/$tr xd 
/$le xd 
exch findfont exch scalefont setfont 
}bd 

/Z { 
dup type 0 type eq { /$bDir xd } if
findfont 
dup maxlength 1 add dict exch 



dup 
{1 index /FID ne 
{ 
3 index 
3 1 roll put 
} 
{pop pop}ifelse 
} forall 



pop 
dup dup /Encoding get 
256 array copy 
dup /$fe xd
/Encoding exch put 

dup /Fontname 3 index put 

}bd 

/e { 
@sm 
concat 
[ 
/t {@te}def 
}bd 

/r { 
@sm 
concat 
[ 
/t {@tr}def 
}bd 

/o { 
@sm 
concat 
[ 
/t {pop}def 
}bd 

/a { 
@sm 
concat 
[ 
/t {@ta}def 
}bd 

/@o{
@sm 
concat 
[ 
/t {@t@a}def 
}bd 

/I { 
@sm 
concat 
[ 
/t {pop}def 
}bd 

/t {@te}def 

/T { 
cleartomark 
/$lx 0 def 
/$ly 0 def 
$ctm setmatrix 
}bd 


/u {}bd 

/U {}bd 

/A {pop}bd 

/h { 
$h true def 
}bd 

/h { 
$h true def 
}bd 

/q /@gs ld 

/Q /@gr ld 



/E { 
5 array astore 
exch cvlit exch def 
}bd 

/` {}bd 

/~ {}bd 

/@ {}bd 

/& {}bd 

/CorelDrawRencodeVect [ 
16#80/grave 
16#81/circumflex 
16#82/tilde 
16#83/dotlessi 
16#84/florin 
16#85/quotedblleft 
16#86/quotedblright 
16#87/guilsinglleft 
16#88/guilsinglright 
16#89/fi 
16#8a/fl 
16#8b/dagger 
16#8c/daggerdbl 
16#8d/endash 
16#8e/periodcentered 
16#8f/breve 
16#90/quotedblbase 
16#91/ellipsis 
16#92/perthousand 
16#a1/exclamdown 
16#a2/cent 
16#a3/sterling 
16#a4/currency 
16#a5/yen 
16#a6/bar 
16#a7/section 
16#a8/dieresis 
16#a9/copyright 
16#aa/ordfeminine 
16#ab/guillemotleft 
16#ac/logicalnot 
16#ad/emdash 
16#ae/registered 
16#af/spac 
16#b0/ring 
16#b1/spac 
16#b2/spac 
16#b3/spac 
16#b4/acute 
16#b5/spac 
16#b6/paragraph 
16#b7/bullet 
16#b8/cedilla 
16#b9/spac 
16#ba/ordmasculine 
16#bb/guillemotright 
16#bc/spac 
16#bd/spac 
16#be/spac 
16#bf/questiondown 
16#c0/Agrave 
16#c1/Aacute 
16#c2/Acircumflex 
16#c3/Atilde 
16#c4/Adieresis 
16#c5/Aring 
16#c6/AE 
16#c7/Ccedilla 
16#c8/Egrave 
16#c9/Eacute 
16#ca/Ecircumflex 
16#cb/Edieresis 
16#cc/Igrave 
16#cd/Iacute 
16#ce/Icircumflex 
16#cf/Idieresis 
16#d0/spac 
16#d1/Ntilde 
16#d2/Ograve 
16#d3/Oacute 
16#d4/Ocircumflex 
16#d5/Otilde 
16#d6/Odieresis 
16#d7/OE 
16#d8/Oslash 
16#d9/Ugrave 
16#da/Uacute 
16#db/Ucircumflex 
16#dc/Udieresis 
16#dd/space 
16#de/spac 
16#df/germandbls 
16#e0/agrave 
16#e1/aacute 
16#e2/acircumflex 
16#e3/atilde 
16#e4/adieresis 
16#e5/aring 
16#e6/ae 
16#e7/ccedilla 
16#e8/egrave 
16#e9/eacute 
16#ea/ecircumflex 
16#eb/edieresis 
16#ec/igrave 
16#ed/iacute 
16#ee/icircumflex 
16#ef/idieresis 
16#f0/space 
16#f1/ntilde 
16#f2/ograve 
16#f3/oacute 
16#f4/ocircumflex 
16#f5/otilde 
16#f6/odieresis 
16#f7/oe 
16#f8/oslash 
16#f9/ugrave 
16#fa/uacute 
16#fb/ucircumflex 
16#fc/udieresis 
16#fd/spac 
16#fe/spac 
16#ff/ydieresis 
] def
%%EndProlog
%%BeginSetup
%%BeginEncoding:_Times-Bold Times-Bold
[
]/_Times-Bold/Times-Bold Z
%%EndEncoding
%%EndSetup
0.000 0.000 0.000 1.000 K
0 j
0 J
0.863 w
[]0 d
0.000 0.000 0.000 0.000 k
22.103 622.943 m
38.663 623.807 L
39.527 642.168 45.575 660.815 55.871 674.495 C
72.863 694.151 104.183 696.887 127.223 684.287 C
146.591 673.703 156.239 656.783 160.343 633.455 C
525.096 633.527 L
526.967 650.303 534.887 664.703 548.279 676.439 C
569.519 690.839 594.288 690.407 615.959 681.263 C
633.959 672.048 639.575 663.839 642.743 647.279 C
668.879 645.839 696.671 647.351 721.943 651.743 C
728.567 658.655 731.375 668.159 730.079 678.167 C
730.223 714.527 L
729.935 719.639 728.351 723.815 717.695 723.815 C
377.999 723.815 L
377.999 639.503 L
372.311 639.000 L
372.095 721.223 L
367.919 796.823 L
366.695 803.519 362.159 807.983 352.007 806.543 C
272.447 806.543 L
264.239 806.687 259.991 805.535 254.663 801.431 C
229.679 779.615 207.071 760.823 182.519 738.287 C
174.239 739.367 L
130.895 735.479 53.423 722.663 24.263 716.687 C
18.143 715.103 10.367 701.711 12.095 689.471 C
13.895 678.167 15.983 667.295 5.615 666.431 C
4.751 652.967 3.815 637.703 9.935 626.831 C
12.095 623.375 15.983 622.511 22.103 622.943 C
b
0.000 0.000 0.000 1.000 K
0 j
0 J
0.863 w
[]0 d
0.000 0.000 0.000 0.000 k
713.159 376.271 m
696.599 377.135 L
695.735 395.495 689.687 414.143 679.391 427.823 C
662.399 447.479 631.079 450.215 608.039 437.615 C
588.671 427.031 579.024 410.111 574.919 386.783 C
210.167 386.855 L
208.295 403.631 200.375 418.031 186.983 429.767 C
165.743 444.167 140.975 443.735 119.303 434.591 C
101.303 425.375 95.687 417.167 92.519 400.607 C
66.384 399.167 38.591 400.679 13.319 405.071 C
6.695 411.983 3.887 421.487 5.183 431.495 C
5.040 467.855 L
5.327 472.967 6.911 477.143 17.567 477.143 C
357.191 477.143 L
357.191 392.831 L
362.951 392.327 L
363.167 474.551 L
367.343 550.151 L
368.495 556.847 373.031 561.312 383.255 559.871 C
462.743 559.871 L
470.951 560.015 475.199 558.863 480.599 554.759 C
505.511 532.943 528.192 514.151 552.743 491.615 C
561.024 492.695 L
604.367 488.807 681.839 475.991 711.000 470.015 C
717.119 468.431 724.895 455.039 723.167 442.799 C
721.367 431.495 719.279 420.623 729.647 419.759 C
730.511 406.295 731.447 391.031 725.327 380.159 C
723.167 376.703 719.279 375.839 713.159 376.271 C
b
0.000 0.000 0.000 1.000 K
0 j
0 J
0.287 w
[]0 d
184.823 639.431 m
348.407 639.431 L
350.279 693.215 349.847 750.887 345.599 801.071 C
264.743 799.415 L
239.255 778.463 207.791 752.975 182.951 731.375 C
181.223 701.711 179.927 669.599 184.823 639.431 C
s
0.000 0.000 0.000 1.000 K
0 j
0 J
0.287 w
[]0 d
550.439 392.759 m
386.783 392.759 L
384.983 446.543 385.415 504.215 389.663 554.399 C
470.447 552.743 L
496.007 531.791 527.471 506.303 552.312 484.703 C
554.039 455.039 555.336 422.927 550.439 392.759 C
s
0.000 0.000 0.000 1.000 K
0 j
0 J
0.287 w
[]0 d
0.000 0.000 0.000 0.498 k
207.359 723.959 m
335.519 723.959 L
338.255 723.959 340.343 726.119 340.343 728.783 C
337.391 787.391 L
337.391 790.055 335.231 792.215 332.567 792.215 C
278.135 792.215 L
275.471 792.215 268.415 790.415 264.815 787.391 C
245.447 770.975 220.679 750.311 202.535 728.783 C
202.535 726.119 204.695 723.959 207.359 723.959 C
b
0.000 0.000 0.000 1.000 K
0 j
0 J
0.287 w
[]0 d
0.000 0.000 0.000 0.498 k
527.903 477.287 m
399.671 477.287 L
397.007 477.287 394.847 479.447 394.847 482.111 C
397.871 540.719 L
397.871 543.384 399.959 545.543 402.623 545.543 C
457.127 545.543 L
459.791 545.543 466.775 543.743 470.375 540.719 C
489.743 524.303 514.583 503.639 532.727 482.111 C
532.727 479.447 530.567 477.287 527.903 477.287 C
b
0.000 0.000 0.000 1.000 K
0 j
0 J
0.287 w
[]0 d
0.000 0.000 0.000 0.200 k
337.463 725.975 m
338.471 726.767 338.831 727.487 338.975 728.783 C
335.951 787.319 L
335.807 789.479 334.655 790.631 332.495 790.775 C
278.135 790.775 L
273.815 790.487 269.135 788.831 265.680 786.311 C
250.199 773.279 234.575 759.887 220.103 745.631 C
214.559 740.087 209.087 734.255 204.047 728.279 C
204.047 726.551 205.919 725.471 207.431 725.399 C
335.447 725.399 L
336.239 725.471 336.743 725.543 337.463 725.975 C
b
0.000 0.000 0.000 1.000 K
0 j
0 J
0.287 w
[]0 d
0.000 0.000 0.000 0.200 k
397.799 479.303 m
396.719 480.095 396.359 480.815 396.287 482.111 C
399.239 540.647 L
399.455 542.807 400.535 543.959 402.695 544.103 C
457.055 544.103 L
461.375 543.815 466.055 542.159 469.511 539.639 C
485.063 526.607 500.615 513.216 515.159 498.959 C
520.703 493.415 526.175 487.583 531.216 481.607 C
531.216 479.879 529.343 478.799 527.831 478.727 C
399.743 478.727 L
398.951 478.799 398.447 478.871 397.799 479.303 C
b
0.000 0.000 0.000 1.000 K
0 j
0 J
0.287 w
[]0 d
0.000 0.000 0.000 0.498 k
53.063 620.207 m
46.583 653.399 71.135 678.815 98.207 679.607 c
130.031 680.471 153.647 650.303 146.807 620.639 C
150.407 616.535 L
482.687 628.631 L
489.815 616.967 496.943 626.255 505.295 626.327 C
508.319 625.535 510.119 623.735 511.415 620.351 C
516.384 621.503 521.207 619.559 525.527 617.687 C
524.375 622.727 524.519 628.271 525.240 633.671 C
160.127 633.671 L
158.327 645.767 155.231 654.407 150.479 662.039 c
145.295 670.391 137.663 677.303 127.439 683.927 c
107.351 696.815 74.159 693.647 58.823 677.447 c
46.727 664.559 40.103 644.759 38.375 623.663 C
53.063 620.207 L
b
0.000 0.000 0.000 1.000 K
0 j
0 J
0.287 w
[]0 d
0.000 0.000 0.000 0.498 k
682.199 373.535 m
688.679 406.727 664.127 432.143 637.055 432.935 c
605.231 433.799 581.615 403.631 588.455 373.967 C
584.855 369.863 L
252.575 381.959 L
245.447 370.295 238.319 379.583 229.967 379.655 C
226.871 378.863 225.143 377.063 223.775 373.679 C
218.879 374.831 214.055 372.887 209.735 371.015 C
210.887 376.055 210.743 381.599 210.023 386.999 C
575.135 386.999 L
576.935 399.095 580.031 407.735 584.783 415.367 c
589.967 423.719 597.599 430.631 607.823 437.255 c
627.911 450.143 661.103 446.975 676.439 430.775 c
688.535 417.887 695.159 398.087 696.887 376.991 C
682.199 373.535 L
b
0.000 0.000 0.000 1.000 K
0 j
0 J
0.287 w
[]0 d
0.000 0.000 0.000 0.498 k
538.703 620.207 m
532.295 653.399 556.847 678.815 583.919 679.607 c
615.743 680.471 639.359 650.303 632.447 620.639 C
633.815 627.551 L
653.183 633.168 692.279 623.303 699.551 644.399 C
718.415 634.175 717.695 641.231 716.759 646.991 C
721.151 648.431 722.591 651.743 721.583 651.527 C
704.807 647.423 646.775 645.479 643.103 647.351 C
639.647 663.623 635.831 671.111 617.255 680.399 c
595.079 691.487 559.367 688.751 544.175 672.263 c
529.487 656.279 523.007 642.024 525.455 617.471 C
538.703 620.207 L
b
0.000 0.000 0.000 1.000 K
0 j
0 J
0.287 w
[]0 d
0.000 0.000 0.000 0.498 k
196.559 373.535 m
202.967 406.727 178.415 432.143 151.343 432.935 c
119.519 433.799 95.903 403.631 102.815 373.967 C
101.447 380.879 L
82.079 386.495 42.983 376.631 35.711 397.727 C
16.847 387.503 17.567 394.559 18.503 400.319 C
14.111 401.759 12.671 405.071 13.679 404.855 C
30.455 400.751 88.487 398.807 92.159 400.679 C
95.615 416.951 99.431 424.439 118.007 433.727 c
140.183 444.815 175.895 442.079 191.087 425.591 c
205.775 409.607 212.255 395.351 209.807 370.799 C
196.559 373.535 L
b
0.000 0.000 0.000 1.000 K
0 j
0 J
0.287 w
[]0 d
0.000 0.000 0.000 0.000 k
26.639 681.983 m
26.423 677.807 16.919 677.807 13.463 677.735 C
13.751 685.439 9.359 692.279 13.967 703.583 C
18.288 703.511 27.791 704.015 28.007 699.407 C
26.639 681.983 L
b
0.000 0.000 0.000 1.000 K
0 j
0 J
0.287 w
[]0 d
0.000 0.000 0.000 0.000 k
708.623 435.311 m
708.839 431.135 718.343 431.135 721.799 431.063 C
721.511 438.767 725.903 445.607 721.295 456.911 C
716.975 456.839 707.471 457.343 707.255 452.735 C
708.623 435.311 L
b
0.000 0.000 0.000 1.000 K
0 j
0 J
0.287 w
[]0 d
0.000 0.000 0.000 0.298 k
24.335 679.679 m
21.383 678.527 17.927 679.103 14.831 679.103 C
14.759 682.703 14.039 686.519 13.607 690.120 C
13.319 695.087 13.535 698.831 15.047 703.583 C
17.135 703.583 24.191 703.799 25.127 701.207 C
25.199 700.703 L
25.199 680.759 L
25.127 680.039 24.911 679.967 24.335 679.679 C
b
0.000 0.000 0.000 1.000 K
0 j
0 J
0.287 w
[]0 d
0.000 0.000 0.000 0.298 k
710.927 433.007 m
713.879 431.855 717.335 432.431 720.431 432.431 C
720.503 436.031 721.223 439.847 721.655 443.447 C
721.943 448.415 721.727 452.159 720.215 456.911 C
718.127 456.911 711.072 457.127 710.135 454.535 C
710.063 454.031 L
710.063 434.087 L
710.135 433.367 710.351 433.295 710.927 433.007 C
b
0.000 0.000 0.000 1.000 K
0 j
0 J
0.287 w
[]0 d
0.000 0.000 0.000 1.000 k
100.007 583.199 m
126.503 583.199 148.103 604.871 148.103 631.367 c
148.103 657.863 126.503 679.535 100.007 679.535 c
73.439 679.535 51.839 657.863 51.839 631.367 c
51.839 604.871 73.439 583.199 100.007 583.199 c
b
0.000 0.000 0.000 1.000 K
0 j
0 J
0.287 w
[]0 d
0.000 0.000 0.000 1.000 k
635.255 336.527 m
608.759 336.527 587.159 358.199 587.159 384.695 c
587.159 411.191 608.759 432.863 635.255 432.863 c
661.823 432.863 683.423 411.191 683.423 384.695 c
683.423 358.199 661.823 336.527 635.255 336.527 c
b
0.000 0.000 0.000 1.000 K
0 j
0 J
0.287 w
[]0 d
0.000 0.000 0.000 1.000 k
585.288 583.199 m
611.783 583.199 633.455 604.871 633.455 631.367 c
633.455 657.863 611.783 679.535 585.288 679.535 c
558.791 679.535 537.120 657.863 537.120 631.367 c
537.120 604.871 558.791 583.199 585.288 583.199 c
b
0.000 0.000 0.000 1.000 K
0 j
0 J
0.287 w
[]0 d
0.000 0.000 0.000 1.000 k
149.975 336.527 m
123.479 336.527 101.807 358.199 101.807 384.695 c
101.807 411.191 123.479 432.863 149.975 432.863 c
176.471 432.863 198.143 411.191 198.143 384.695 c
198.143 358.199 176.471 336.527 149.975 336.527 c
b
u
u
0.000 0.000 0.000 1.000 K
0 j
0 J
0.287 w
[]0 d
13.463 673.559 m
49.103 673.559 L
S
U
U
u
u
0.000 0.000 0.000 1.000 K
0 j
0 J
0.287 w
[]0 d
721.799 426.887 m
686.159 426.887 L
S
U
U
0.000 0.000 0.000 1.000 K
0 j
0 J
0.287 w
[]0 d
0.000 0.000 0.000 0.000 k
99.575 662.471 m
116.711 662.471 130.823 648.359 130.823 631.223 C
130.823 614.015 116.711 600.048 99.575 600.048 C
82.295 600.048 68.399 614.015 68.399 631.223 C
68.399 648.359 82.295 662.471 99.575 662.471 C
b
0.000 0.000 0.000 1.000 K
0 j
0 J
0.287 w
[]0 d
0.000 0.000 0.000 0.000 k
635.687 415.799 m
618.551 415.799 604.439 401.687 604.439 384.551 C
604.439 367.343 618.551 353.375 635.687 353.375 C
652.967 353.375 666.863 367.343 666.863 384.551 C
666.863 401.687 652.967 415.799 635.687 415.799 C
b
0.000 0.000 0.000 1.000 K
0 j
0 J
0.287 w
[]0 d
99.575 602.711 m
115.199 602.711 127.943 615.599 127.943 631.223 C
127.943 646.847 115.199 659.591 99.575 659.591 C
83.951 659.591 71.063 646.847 71.063 631.223 C
71.063 615.599 83.951 602.711 99.575 602.711 C
s
0.000 0.000 0.000 1.000 K
0 j
0 J
0.287 w
[]0 d
635.687 356.039 m
620.063 356.039 607.319 368.927 607.319 384.551 C
607.319 400.175 620.063 412.919 635.687 412.919 C
651.311 412.919 664.199 400.175 664.199 384.551 C
664.199 368.927 651.311 356.039 635.687 356.039 C
s
0.000 0.000 0.000 1.000 K
0 j
0 J
0.287 w
[]0 d
0.000 0.000 0.000 0.498 k
109.943 655.343 m
104.975 651.599 L
109.727 650.807 114.551 646.559 115.343 645.120 C
120.815 646.847 L
118.007 651.096 113.615 654.335 109.943 655.343 C
b
0.000 0.000 0.000 1.000 K
0 j
0 J
0.287 w
[]0 d
0.000 0.000 0.000 0.498 k
625.319 408.671 m
630.287 404.927 L
625.535 404.135 620.711 399.887 619.919 398.447 C
614.447 400.175 L
617.255 404.423 621.647 407.663 625.319 408.671 C
b
0.000 0.000 0.000 1.000 K
0 j
0 J
0.287 w
[]0 d
0.000 0.000 0.000 0.498 k
122.183 644.615 m
115.919 644.471 L
119.303 641.231 120.743 634.823 120.455 633.168 C
125.927 631.223 L
126.143 636.335 124.559 641.735 122.183 644.615 C
b
0.000 0.000 0.000 1.000 K
0 j
0 J
0.287 w
[]0 d
0.000 0.000 0.000 0.498 k
613.079 397.943 m
619.343 397.799 L
615.959 394.559 614.519 388.151 614.807 386.495 C
609.335 384.551 L
609.120 389.663 610.703 395.063 613.079 397.943 C
b
0.000 0.000 0.000 1.000 K
0 j
0 J
0.287 w
[]0 d
0.000 0.000 0.000 0.498 k
125.639 628.631 m
120.599 632.231 L
121.319 627.623 118.799 621.647 117.575 620.495 C
120.959 615.743 L
124.199 619.631 125.927 625.103 125.639 628.631 C
b
0.000 0.000 0.000 1.000 K
0 j
0 J
0.287 w
[]0 d
0.000 0.000 0.000 0.498 k
609.623 381.959 m
614.663 385.559 L
613.943 380.951 616.463 374.975 617.687 373.823 C
614.303 369.071 L
611.063 372.959 609.335 378.431 609.623 381.959 C
b
0.000 0.000 0.000 1.000 K
0 j
0 J
0.287 w
[]0 d
0.000 0.000 0.000 0.498 k
119.303 613.799 m
117.215 619.775 L
115.199 615.527 109.583 612.144 107.855 611.783 C
107.855 606.024 L
112.679 607.247 117.359 610.631 119.303 613.799 C
b
0.000 0.000 0.000 1.000 K
0 j
0 J
0.287 w
[]0 d
0.000 0.000 0.000 0.498 k
615.959 367.127 m
618.048 373.103 L
620.063 368.855 625.679 365.471 627.407 365.111 C
627.407 359.351 L
622.583 360.575 617.903 363.959 615.959 367.127 C
b
0.000 0.000 0.000 1.000 K
0 j
0 J
0.287 w
[]0 d
0.000 0.000 0.000 0.498 k
105.263 605.375 m
107.063 611.351 L
102.959 609.407 96.479 609.911 94.823 610.631 C
91.439 605.951 L
96.119 604.151 101.879 604.151 105.263 605.375 C
b
0.000 0.000 0.000 1.000 K
0 j
0 J
0.287 w
[]0 d
0.000 0.000 0.000 0.498 k
630.000 358.703 m
628.199 364.679 L
632.303 362.735 638.783 363.239 640.439 363.959 C
643.823 359.279 L
639.144 357.479 633.383 357.479 630.000 358.703 C
b
0.000 0.000 0.000 1.000 K
0 j
0 J
0.287 w
[]0 d
0.000 0.000 0.000 0.498 k
89.135 606.959 m
94.103 610.703 L
89.351 611.495 84.455 615.599 83.735 617.255 C
78.263 615.527 L
80.855 611.207 85.463 607.895 89.135 606.959 C
b
0.000 0.000 0.000 1.000 K
0 j
0 J
0.287 w
[]0 d
0.000 0.000 0.000 0.498 k
646.127 360.287 m
641.159 364.031 L
645.911 364.823 650.807 368.927 651.527 370.583 C
657.000 368.855 L
654.407 364.535 649.799 361.223 646.127 360.287 C
b
0.000 0.000 0.000 1.000 K
0 j
0 J
0.287 w
[]0 d
0.000 0.000 0.000 0.498 k
76.896 617.759 m
83.087 617.903 L
79.703 621.144 78.407 627.479 78.551 629.279 C
73.152 631.079 L
72.719 626.039 74.447 620.639 76.896 617.759 C
b
0.000 0.000 0.000 1.000 K
0 j
0 J
0.287 w
[]0 d
0.000 0.000 0.000 0.498 k
658.367 371.087 m
652.175 371.231 L
655.559 374.471 656.855 380.807 656.711 382.607 C
662.111 384.407 L
662.543 379.367 660.815 373.967 658.367 371.087 C
b
0.000 0.000 0.000 1.000 K
0 j
0 J
0.287 w
[]0 d
0.000 0.000 0.000 0.498 k
73.367 633.743 m
78.479 630.072 L
77.759 634.679 80.135 640.727 81.503 641.807 C
78.119 646.703 L
74.735 642.743 73.152 637.271 73.367 633.743 C
b
0.000 0.000 0.000 1.000 K
0 j
0 J
0.287 w
[]0 d
0.000 0.000 0.000 0.498 k
661.895 387.071 m
656.783 383.399 L
657.503 388.007 655.127 394.055 653.759 395.135 C
657.144 400.031 L
660.527 396.071 662.111 390.599 661.895 387.071 C
b
0.000 0.000 0.000 1.000 K
0 j
0 J
0.287 w
[]0 d
0.000 0.000 0.000 0.498 k
79.703 648.647 m
81.863 642.743 L
83.951 646.847 89.495 650.303 91.223 650.591 C
91.223 656.351 L
86.327 655.055 81.719 651.743 79.703 648.647 C
b
0.000 0.000 0.000 1.000 K
0 j
0 J
0.287 w
[]0 d
0.000 0.000 0.000 0.498 k
655.559 401.975 m
653.399 396.071 L
651.311 400.175 645.767 403.631 644.039 403.919 C
644.039 409.679 L
648.935 408.383 653.543 405.071 655.559 401.975 C
b
0.000 0.000 0.000 1.000 K
0 j
0 J
0.287 w
[]0 d
0.000 0.000 0.000 0.498 k
93.887 657.000 m
97.199 658.223 102.959 658.223 107.567 656.495 C
104.183 651.815 L
102.671 652.463 96.119 652.967 91.943 650.951 C
93.887 657.000 L
b
0.000 0.000 0.000 1.000 K
0 j
0 J
0.287 w
[]0 d
0.000 0.000 0.000 0.498 k
641.375 410.327 m
638.063 411.551 632.303 411.551 627.695 409.823 C
631.079 405.143 L
632.591 405.791 639.144 406.295 643.319 404.279 C
641.375 410.327 L
b
0.000 0.000 0.000 1.000 K
0 j
0 J
0.287 w
[]0 d
0.000 0.000 0.000 0.498 k
99.719 617.399 m
107.351 617.399 113.615 623.591 113.615 631.223 C
113.615 638.711 107.351 644.975 99.719 644.975 C
92.231 644.975 86.039 638.711 86.039 631.223 C
86.039 623.591 92.231 617.399 99.719 617.399 C
b
0.000 0.000 0.000 1.000 K
0 j
0 J
0.287 w
[]0 d
0.000 0.000 0.000 0.498 k
635.543 370.727 m
627.911 370.727 621.647 376.919 621.647 384.551 C
621.647 392.039 627.911 398.303 635.543 398.303 C
643.031 398.303 649.223 392.039 649.223 384.551 C
649.223 376.919 643.031 370.727 635.543 370.727 C
b
0.000 0.000 0.000 1.000 K
0 j
0 J
0.287 w
[]0 d
0.000 0.000 0.000 0.000 k
559.799 613.295 m
550.007 627.335 553.463 647.063 567.503 656.855 C
581.615 666.719 601.127 663.120 610.991 649.151 C
620.855 634.967 617.471 615.599 603.288 605.735 C
589.319 595.871 569.735 599.183 559.799 613.295 C
b
0.000 0.000 0.000 1.000 K
0 j
0 J
0.287 w
[]0 d
0.000 0.000 0.000 0.000 k
175.463 366.623 m
185.255 380.663 181.799 400.391 167.759 410.183 C
153.647 420.047 134.135 416.447 124.271 402.479 C
114.407 388.295 117.791 368.927 131.975 359.063 C
145.943 349.199 165.527 352.512 175.463 366.623 C
b
0.000 0.000 0.000 1.000 K
0 j
0 J
0.287 w
[]0 d
608.759 647.567 m
599.831 660.383 581.975 663.407 569.159 654.479 C
556.343 645.479 553.247 627.767 562.175 615.024 C
571.175 602.207 588.959 598.967 601.775 607.895 C
614.591 616.895 617.759 634.823 608.759 647.567 C
s
0.000 0.000 0.000 1.000 K
0 j
0 J
0.287 w
[]0 d
126.503 400.895 m
135.431 413.711 153.287 416.735 166.103 407.807 C
178.919 398.807 182.015 381.095 173.087 368.351 C
164.087 355.536 146.304 352.295 133.487 361.223 C
120.671 370.223 117.503 388.151 126.503 400.895 C
s
0.000 0.000 0.000 1.000 K
0 j
0 J
0.287 w
[]0 d
0.000 0.000 0.000 0.498 k
559.727 625.967 m
565.703 623.951 L
563.615 628.271 564.264 634.751 565.055 636.192 C
560.447 639.647 L
558.575 634.967 558.431 629.423 559.727 625.967 C
b
0.000 0.000 0.000 1.000 K
0 j
0 J
0.287 w
[]0 d
0.000 0.000 0.000 0.498 k
175.535 379.295 m
169.559 377.279 L
171.647 381.599 171.000 388.079 170.207 389.519 C
174.815 392.975 L
176.687 388.295 176.831 382.751 175.535 379.295 C
b
0.000 0.000 0.000 1.000 K
0 j
0 J
0.287 w
[]0 d
0.000 0.000 0.000 0.498 k
561.527 642.096 m
565.199 637.055 L
565.919 641.663 570.383 646.487 571.895 647.207 C
570.312 652.823 L
565.991 650.087 562.535 645.695 561.527 642.096 C
b
0.000 0.000 0.000 1.000 K
0 j
0 J
0.287 w
[]0 d
0.000 0.000 0.000 0.498 k
173.735 395.423 m
170.063 390.383 L
169.343 394.991 164.879 399.815 163.367 400.535 C
164.951 406.151 L
169.271 403.415 172.727 399.023 173.735 395.423 C
b
0.000 0.000 0.000 1.000 K
0 j
0 J
0.287 w
[]0 d
0.000 0.000 0.000 0.498 k
572.615 654.120 m
572.543 647.855 L
575.927 651.096 582.264 652.535 583.919 652.103 C
585.863 657.647 L
580.823 658.079 575.351 656.351 572.615 654.120 C
b
0.000 0.000 0.000 1.000 K
0 j
0 J
0.287 w
[]0 d
0.000 0.000 0.000 0.498 k
162.647 407.447 m
162.719 401.183 L
159.335 404.423 153.000 405.863 151.343 405.431 C
149.399 410.975 L
154.439 411.407 159.911 409.679 162.647 407.447 C
b
0.000 0.000 0.000 1.000 K
0 j
0 J
0.287 w
[]0 d
0.000 0.000 0.000 0.498 k
588.455 657.431 m
584.711 652.247 L
589.319 653.039 595.367 650.375 596.591 649.151 C
601.343 652.535 L
597.527 655.703 592.127 657.575 588.455 657.431 C
b
0.000 0.000 0.000 1.000 K
0 j
0 J
0.287 w
[]0 d
0.000 0.000 0.000 0.498 k
146.807 410.759 m
150.551 405.575 L
145.943 406.367 139.895 403.703 138.671 402.479 C
133.919 405.863 L
137.735 409.031 143.135 410.903 146.807 410.759 C
b
0.000 0.000 0.000 1.000 K
0 j
0 J
0.287 w
[]0 d
0.000 0.000 0.000 0.498 k
603.359 650.735 m
597.383 648.791 L
601.415 646.559 604.727 640.943 605.015 639.144 C
610.847 639.072 L
609.623 643.967 606.311 648.647 603.359 650.735 C
b
0.000 0.000 0.000 1.000 K
0 j
0 J
0.287 w
[]0 d
0.000 0.000 0.000 0.498 k
131.903 404.063 m
137.879 402.119 L
133.847 399.887 130.536 394.271 130.247 392.471 C
124.415 392.399 L
125.639 397.295 128.951 401.975 131.903 404.063 C
b
0.000 0.000 0.000 1.000 K
0 j
0 J
0.287 w
[]0 d
0.000 0.000 0.000 0.498 k
611.279 636.551 m
605.375 638.495 L
607.463 634.175 606.887 627.839 605.951 626.327 C
610.559 622.727 L
612.575 627.407 612.647 633.024 611.279 636.551 C
b
0.000 0.000 0.000 1.000 K
0 j
0 J
0.287 w
[]0 d
0.000 0.000 0.000 0.498 k
123.983 389.879 m
129.887 391.823 L
127.799 387.503 128.375 381.167 129.311 379.655 C
124.703 376.055 L
122.687 380.735 122.615 386.351 123.983 389.879 C
b
0.000 0.000 0.000 1.000 K
0 j
0 J
0.287 w
[]0 d
0.000 0.000 0.000 0.498 k
609.479 620.423 m
605.807 625.391 L
605.087 620.783 600.695 616.031 599.111 615.168 C
600.695 609.695 L
605.159 612.216 608.543 616.751 609.479 620.423 C
b
0.000 0.000 0.000 1.000 K
0 j
0 J
0.287 w
[]0 d
0.000 0.000 0.000 0.498 k
125.783 373.751 m
129.455 378.719 L
130.175 374.111 134.567 369.359 136.151 368.495 C
134.567 363.024 L
130.103 365.543 126.719 370.079 125.783 373.751 C
b
0.000 0.000 0.000 1.000 K
0 j
0 J
0.287 w
[]0 d
0.000 0.000 0.000 0.498 k
598.463 608.327 m
598.463 614.663 L
595.151 611.351 588.815 609.911 587.087 610.343 C
585.072 604.727 L
590.255 604.295 595.655 606.168 598.463 608.327 C
b
0.000 0.000 0.000 1.000 K
0 j
0 J
0.287 w
[]0 d
0.000 0.000 0.000 0.498 k
136.799 361.655 m
136.799 367.991 L
140.111 364.679 146.447 363.239 148.175 363.671 C
150.191 358.055 L
145.007 357.623 139.607 359.495 136.799 361.655 C
b
0.000 0.000 0.000 1.000 K
0 j
0 J
0.287 w
[]0 d
0.000 0.000 0.000 0.498 k
582.551 605.015 m
586.151 610.127 L
581.615 609.479 575.567 612.000 574.343 613.295 C
569.663 610.055 L
573.479 606.743 578.879 604.871 582.551 605.015 C
b
0.000 0.000 0.000 1.000 K
0 j
0 J
0.287 w
[]0 d
0.000 0.000 0.000 0.498 k
152.711 358.343 m
149.111 363.455 L
153.647 362.807 159.695 365.327 160.919 366.623 C
165.599 363.383 L
161.783 360.071 156.383 358.199 152.711 358.343 C
b
0.000 0.000 0.000 1.000 K
0 j
0 J
0.287 w
[]0 d
0.000 0.000 0.000 0.498 k
567.647 611.783 m
564.695 613.799 561.383 618.551 560.159 623.303 C
565.919 623.231 L
566.279 621.647 569.663 615.959 573.623 613.655 C
567.647 611.783 L
b
0.000 0.000 0.000 1.000 K
0 j
0 J
0.287 w
[]0 d
0.000 0.000 0.000 0.498 k
167.615 365.111 m
170.567 367.127 173.879 371.879 175.103 376.631 C
169.343 376.559 L
168.983 374.975 165.599 369.287 161.639 366.983 C
167.615 365.111 L
b
0.000 0.000 0.000 1.000 K
0 j
0 J
0.287 w
[]0 d
0.000 0.000 0.000 0.498 k
596.735 639.287 m
592.343 645.551 583.631 647.063 577.367 642.743 C
571.247 638.423 569.735 629.783 574.127 623.519 C
578.447 617.327 587.087 615.815 593.207 620.135 C
599.471 624.527 600.983 633.168 596.735 639.287 C
b
0.000 0.000 0.000 1.000 K
0 j
0 J
0.287 w
[]0 d
0.000 0.000 0.000 0.498 k
138.527 392.615 m
142.919 398.879 151.631 400.391 157.895 396.071 C
164.015 391.751 165.527 383.111 161.135 376.847 C
156.815 370.655 148.175 369.143 142.055 373.463 C
135.792 377.855 134.280 386.495 138.527 392.615 C
b
0.000 0.000 0.000 1.000 K
0 j
0 J
0.287 w
[]0 d
0.000 0.000 0.000 0.298 k
717.839 714.024 m
730.223 714.024 L
730.079 677.879 L
717.623 677.879 L
717.839 714.024 L
b
0.000 0.000 0.000 1.000 K
0 j
0 J
0.287 w
[]0 d
0.000 0.000 0.000 0.298 k
17.423 467.351 m
5.040 467.351 L
5.183 431.207 L
17.639 431.207 L
17.423 467.351 L
b
u
u
0.000 0.000 0.000 1.000 K
0 j
0 J
0.287 w
[]0 d
641.087 655.559 m
668.951 655.559 L
S
U
U
u
u
0.000 0.000 0.000 1.000 K
0 j
0 J
0.287 w
[]0 d
94.175 408.887 m
66.311 408.887 L
S
U
U
u
u
0.000 0.000 0.000 1.000 K
0 j
0 J
0.287 w
[]0 d
718.415 705.455 m
730.079 705.455 L
S
U
U
u
u
0.000 0.000 0.000 1.000 K
0 j
0 J
0.287 w
[]0 d
16.847 458.783 m
5.183 458.783 L
S
U
U
u
u
0.000 0.000 0.000 1.000 K
0 j
0 J
0.287 w
[]0 d
717.623 686.519 m
729.215 686.519 L
S
U
U
u
u
0.000 0.000 0.000 1.000 K
0 j
0 J
0.287 w
[]0 d
17.639 439.847 m
6.047 439.847 L
S
U
U
0.000 0.000 0.000 1.000 K
0 j
0 J
0.287 w
[]0 d
631.511 677.879 m
730.295 677.879 L
730.367 673.991 731.159 669.959 729.431 666.719 C
647.063 666.719 L
639.216 668.375 634.607 673.343 631.511 677.879 C
s
0.000 0.000 0.000 1.000 K
0 j
0 J
0.287 w
[]0 d
103.751 431.207 m
4.967 431.207 L
4.895 427.319 4.104 423.287 5.831 420.047 C
88.199 420.047 L
96.047 421.703 100.655 426.671 103.751 431.207 C
s
u
u
0.000 0.000 0.000 1.000 K
0 j
0 J
0.287 w
[]0 d
558.072 688.895 m
586.079 697.103 612.359 694.439 631.367 677.951 C
S
U
U
u
u
0.000 0.000 0.000 1.000 K
0 j
0 J
0.287 w
[]0 d
177.191 442.223 m
149.183 450.431 122.903 447.767 103.895 431.279 C
S
U
U
0.000 0.000 0.000 1.000 K
0 j
0 J
0.287 w
[]0 d
650.879 698.687 m
510.767 698.687 L
523.223 701.639 568.727 702.503 588.383 702.215 c
613.583 701.855 629.783 701.279 650.879 698.687 C
s
0.000 0.000 0.000 1.000 K
0 j
0 J
0.287 w
[]0 d
84.384 452.015 m
224.423 452.015 L
212.039 454.967 166.536 455.831 146.879 455.543 c
121.679 455.183 105.479 454.607 84.384 452.015 C
s
0.000 0.000 0.000 1.000 K
0 j
0 J
0.287 w
[]0 d
320.183 716.471 m
337.967 716.471 L
339.911 716.471 341.351 714.959 341.351 713.087 C
341.351 706.967 L
341.351 705.095 339.911 703.583 337.967 703.583 C
320.183 703.583 L
318.239 703.583 316.799 705.095 316.799 706.967 C
316.799 713.087 L
316.799 714.959 318.239 716.471 320.183 716.471 C
s
0.000 0.000 0.000 1.000 K
0 j
0 J
0.287 w
[]0 d
415.079 469.799 m
397.223 469.799 L
395.351 469.799 393.839 468.287 393.839 466.415 C
393.839 460.295 L
393.839 458.423 395.351 456.911 397.223 456.911 C
415.079 456.911 L
416.951 456.911 418.463 458.423 418.463 460.295 C
418.463 466.415 L
418.463 468.287 416.951 469.799 415.079 469.799 C
s
0.000 0.000 0.000 1.000 K
0 j
0 J
0.287 w
[]0 d
320.183 716.471 m
337.967 716.471 L
339.911 716.471 341.351 714.959 341.351 713.087 C
341.351 710.783 L
316.799 710.783 L
316.799 713.087 L
316.799 714.959 318.239 716.471 320.183 716.471 C
s
0.000 0.000 0.000 1.000 K
0 j
0 J
0.287 w
[]0 d
415.079 469.799 m
397.223 469.799 L
395.351 469.799 393.839 468.287 393.839 466.415 C
393.839 464.111 L
418.463 464.111 L
418.463 466.415 L
418.463 468.287 416.951 469.799 415.079 469.799 C
s
u
u
0.000 0.000 0.000 1.000 K
0 j
0 J
0.287 w
[]0 d
371.807 677.807 m
144.215 677.807 L
116.567 704.879 66.239 702.935 48.815 673.487 C
S
U
U
u
u
0.000 0.000 0.000 1.000 K
0 j
0 J
0.287 w
[]0 d
363.455 431.135 m
591.048 431.135 L
618.695 458.207 669.024 456.263 686.447 426.815 C
S
U
U
u
u
0.000 0.000 0.000 1.000 K
0 j
0 J
0.287 w
[]0 d
371.951 667.151 m
147.167 667.151 L
S
U
U
u
u
0.000 0.000 0.000 1.000 K
0 j
0 J
0.287 w
[]0 d
363.311 420.479 m
588.096 420.479 L
S
U
U
u
u
0.000 0.000 0.000 1.000 K
0 j
0 J
0.287 w
[]0 d
43.271 646.703 m
5.543 646.703 L
S
U
U
u
u
0.000 0.000 0.000 1.000 K
0 j
0 J
0.287 w
[]0 d
691.991 400.031 m
729.719 400.031 L
S
U
U
0.000 0.000 0.000 1.000 K
0 j
0 J
0.287 w
[]0 d
41.903 700.055 m
164.231 705.383 L
144.935 707.687 124.847 709.055 101.591 708.048 c
80.567 707.111 61.199 704.375 41.903 700.055 C
s
0.000 0.000 0.000 1.000 K
0 j
0 J
0.287 w
[]0 d
693.359 453.383 m
571.031 458.711 L
590.327 461.015 610.415 462.383 633.671 461.375 c
654.695 460.439 674.063 457.703 693.359 453.383 C
s
u
u
0.000 0.000 0.000 1.000 K
0 j
0 J
0.287 w
[]0 d
176.471 639.431 m
159.119 639.431 L
S
U
U
u
u
0.000 0.000 0.000 1.000 K
0 j
0 J
0.287 w
[]0 d
558.791 392.759 m
576.144 392.759 L
S
U
U
u
u
0.000 0.000 0.000 1.000 K
0 j
0 J
0.287 w
[]0 d
174.383 739.295 m
173.015 735.695 164.447 736.055 153.000 734.615 C
121.319 731.591 64.943 721.223 33.263 715.823 C
22.607 713.735 18.288 710.927 16.199 704.879 C
S
U
U
u
u
0.000 0.000 0.000 1.000 K
0 j
0 J
0.287 w
[]0 d
560.879 492.623 m
562.247 489.023 570.815 489.383 582.264 487.943 C
613.943 484.919 670.319 474.551 702.000 469.151 C
712.655 467.063 716.975 464.255 719.063 458.207 C
S
U
U
0.000 0.000 0.000 1.000 K
0 j
0 J
0.287 w
[]0 d
0.000 0.000 0.000 1.000 k
99.575 625.031 m
96.119 625.031 93.383 627.767 93.383 631.223 C
93.383 634.607 96.119 637.415 99.575 637.415 C
102.959 637.415 105.767 634.607 105.767 631.223 C
105.767 627.767 102.959 625.031 99.575 625.031 C
b
0.000 0.000 0.000 1.000 K
0 j
0 J
0.287 w
[]0 d
0.000 0.000 0.000 1.000 k
635.687 378.359 m
639.144 378.359 641.879 381.095 641.879 384.551 C
641.879 387.935 639.144 390.743 635.687 390.743 C
632.303 390.743 629.495 387.935 629.495 384.551 C
629.495 381.095 632.303 378.359 635.687 378.359 C
b
0.000 0.000 0.000 1.000 K
0 j
0 J
0.287 w
[]0 d
0.000 0.000 0.000 1.000 k
590.543 634.823 m
592.487 631.943 591.839 628.127 589.031 626.183 C
586.223 624.240 582.407 624.887 580.391 627.695 C
578.447 630.503 579.096 634.319 581.903 636.263 C
584.711 638.279 588.599 637.631 590.543 634.823 C
b
0.000 0.000 0.000 1.000 K
0 j
0 J
0.287 w
[]0 d
0.000 0.000 0.000 1.000 k
144.719 388.151 m
142.775 385.271 143.423 381.455 146.231 379.511 C
149.039 377.567 152.855 378.215 154.871 381.023 C
156.815 383.831 156.167 387.647 153.359 389.591 C
150.551 391.607 146.663 390.959 144.719 388.151 C
b
u
u
0.000 0.000 0.000 1.000 K
0 j
0 J
0.287 w
[]0 d
355.319 639.000 m
520.127 639.000 L
525.168 666.000 542.231 685.079 563.327 689.111 C
S
U
U
u
u
0.000 0.000 0.000 1.000 K
0 j
0 J
0.287 w
[]0 d
379.871 392.327 m
215.135 392.327 L
210.095 419.327 193.031 438.407 171.935 442.439 C
S
U
U
u
u
0.000 0.000 0.000 1.000 K
0 j
0 J
0.287 w
[]0 d
379.511 718.991 m
729.863 718.991 L
S
U
U
u
u
0.000 0.000 0.000 1.000 K
0 j
0 J
0.287 w
[]0 d
355.751 472.319 m
5.399 472.319 L
S
U
U
0.000 0.000 0.000 1.000 K
0 j
0 J
0.287 w
[]0 d
395.279 718.991 m
403.847 718.991 L
403.847 711.359 L
395.279 711.359 L
395.279 718.991 L
s
0.000 0.000 0.000 1.000 K
0 j
0 J
0.287 w
[]0 d
339.983 472.319 m
331.343 472.319 L
331.343 464.687 L
339.983 464.687 L
339.983 472.319 L
s
0.000 0.000 0.000 1.000 K
0 j
0 J
0.287 w
[]0 d
472.175 718.991 m
480.743 718.991 L
480.743 711.359 L
472.175 711.359 L
472.175 718.991 L
s
0.000 0.000 0.000 1.000 K
0 j
0 J
0.287 w
[]0 d
263.087 472.319 m
254.447 472.319 L
254.447 464.687 L
263.087 464.687 L
263.087 472.319 L
s
0.000 0.000 0.000 1.000 K
0 j
0 J
0.287 w
[]0 d
547.991 718.991 m
556.631 718.991 L
556.631 711.359 L
547.991 711.359 L
547.991 718.991 L
s
0.000 0.000 0.000 1.000 K
0 j
0 J
0.287 w
[]0 d
187.271 472.319 m
178.631 472.319 L
178.631 464.687 L
187.271 464.687 L
187.271 472.319 L
s
0.000 0.000 0.000 1.000 K
0 j
0 J
0.287 w
[]0 d
613.655 718.991 m
622.223 718.991 L
622.223 711.359 L
613.655 711.359 L
613.655 718.991 L
s
0.000 0.000 0.000 1.000 K
0 j
0 J
0.287 w
[]0 d
121.607 472.319 m
113.039 472.319 L
113.039 464.687 L
121.607 464.687 L
121.607 472.319 L
s
0.000 0.000 0.000 1.000 K
0 j
0 J
0.287 w
[]0 d
674.279 719.423 m
682.919 719.423 L
682.919 711.791 L
674.279 711.791 L
674.279 719.423 L
s
0.000 0.000 0.000 1.000 K
0 j
0 J
0.287 w
[]0 d
60.983 472.751 m
52.343 472.751 L
52.343 465.119 L
60.983 465.119 L
60.983 472.751 L
s
0.000 0.000 0.000 1.000 K
0 j
0 J
0.287 w
[]0 d
199.079 448.055 m
212.471 448.055 L
214.343 448.055 215.711 446.687 215.711 444.887 C
215.711 437.255 L
215.711 435.383 214.343 434.015 212.471 434.015 C
200.231 434.015 L
199.295 435.743 197.567 436.823 195.839 437.327 C
195.839 444.887 L
195.839 446.687 197.207 448.055 199.079 448.055 C
s
u
u
0.000 0.000 0.000 1.000 K
0 j
0 J
0.287 w
[]0 d
415.079 639.287 m
322.055 639.287 L
S
U
U
u
u
0.000 0.000 0.000 1.000 K
0 j
0 J
0.287 w
[]0 d
320.183 392.615 m
413.207 392.615 L
S
U
U
0.000 0.000 0.000 1.000 K
0 j
0 J
0.863 w
[]0 d
0.000 0.000 0.000 0.000 k
1018.367 670.103 m
1018.511 680.759 1019.159 695.159 1016.567 705.887 C
1013.471 710.063 1008.719 714.311 1007.639 719.639 C
1000.871 745.847 990.503 780.047 976.679 800.351 C
973.151 803.879 968.399 805.463 962.927 805.463 C
940.967 806.255 919.079 806.615 898.559 806.615 C
878.039 806.615 856.151 806.255 834.263 805.463 C
828.719 805.463 824.039 803.879 820.511 800.351 C
806.615 780.047 796.247 745.847 789.551 719.639 C
788.399 714.311 783.719 710.063 780.551 705.887 C
778.031 695.159 778.607 680.759 778.823 670.103 C
1018.367 670.103 L
b
0.000 0.000 0.000 1.000 K
0 j
0 J
0.863 w
[]0 d
0.000 0.000 0.000 0.000 k
1018.367 422.495 m
1020.239 432.935 1019.159 447.551 1016.567 458.279 C
1013.471 462.455 1008.719 466.703 1007.639 472.031 C
1000.871 498.239 990.503 532.439 976.679 552.743 C
973.151 556.271 968.399 557.855 962.927 557.855 C
940.967 558.647 919.079 559.007 898.559 559.007 C
878.039 559.007 856.151 558.647 834.263 557.855 C
828.719 557.855 824.039 556.271 820.511 552.743 C
806.615 532.439 796.247 498.239 789.551 472.031 C
788.399 466.703 783.719 462.455 780.551 458.279 C
778.031 447.551 776.735 432.935 778.823 422.495 c
780.983 411.479 779.471 390.887 790.703 390.887 c
1007.567 390.887 l
1018.655 390.887 1016.423 411.551 1018.367 422.495 c
b
0.000 0.000 0.000 1.000 K
0 j
0 J
0.287 w
[]0 d
0.000 0.000 0.000 0.498 k
898.559 621.719 m
1013.327 621.719 L
1016.783 622.079 1018.727 638.495 1019.015 646.415 c
1019.447 659.159 1019.663 669.959 1014.911 670.103 C
898.559 669.239 L
782.279 670.103 L
777.455 669.959 777.671 659.159 778.103 646.415 c
778.391 638.495 780.407 622.079 783.863 621.719 C
898.559 621.719 L
b
0.000 0.000 0.000 1.000 K
0 j
0 J
0.287 w
[]0 d
0.000 0.000 0.000 0.200 k
849.815 640.799 m
938.879 640.799 L
943.487 625.535 L
845.423 625.535 L
849.815 640.799 L
b
0.000 0.000 0.000 1.000 K
0 j
0 J
0.287 w
[]0 d
0.000 0.000 0.000 0.498 k
810.935 621.935 m
984.599 621.935 L
984.599 616.967 L
966.671 614.735 936.647 606.240 929.087 616.967 C
856.079 615.671 L
850.247 610.703 828.791 610.703 818.495 615.671 C
810.935 615.671 L
810.935 621.935 L
b
u
u
0.000 0.000 0.000 0.200 k
845.351 625.535 m
856.943 632.231 L
930.887 632.231 L
943.343 625.535 L
S
U
u
0.000 0.000 0.000 1.000 K
0 j
0 J
0.287 w
[]0 d
845.351 625.535 m
856.943 632.231 L
930.887 632.231 L
943.343 625.535 L
S
U
U
u
u
U
u
0.000 0.000 0.000 1.000 K
0 j
0 J
0.287 w
[]0 d
859.679 632.231 m
859.679 640.799 L
S
U
U
u
u
U
u
0.000 0.000 0.000 1.000 K
0 j
0 J
0.287 w
[]0 d
927.935 632.231 m
927.935 640.799 L
S
U
U
0.000 0.000 0.000 1.000 K
0 j
0 J
0.287 w
[]0 d
778.967 678.815 m
1017.287 678.815 L
1017.287 676.583 L
1017.287 672.767 L
778.607 672.983 L
778.535 675.647 L
778.967 678.815 L
s
u
u
0.000 0.000 0.000 1.000 K
0 j
0 J
0.287 w
[]0 d
778.463 646.631 m
1017.359 646.631 L
S
U
U
0.000 0.000 0.000 1.000 K
0 j
0 J
0.287 w
[]0 d
799.343 733.679 m
865.799 735.407 932.255 735.767 998.711 733.679 C
998.711 725.759 998.711 716.831 996.623 708.048 C
931.247 705.959 865.943 705.959 800.567 708.048 C
798.479 715.103 798.479 726.191 799.343 733.679 C
s
u
u
0.000 0.000 0.000 1.000 K
0 j
0 J
0.287 w
[]0 d
800.135 707.975 m
793.007 713.807 792.863 718.415 792.431 727.631 C
S
U
U
u
u
0.000 0.000 0.000 1.000 K
0 j
0 J
0.287 w
[]0 d
996.407 707.975 m
1000.871 713.159 1002.743 716.975 1003.175 726.191 C
S
U
U
u
u
0.000 0.000 0.000 1.000 K
0 j
0 J
0.287 w
[]0 d
795.239 646.703 m
795.239 664.631 L
S
U
U
u
u
0.000 0.000 0.000 1.000 K
0 j
0 J
0.287 w
[]0 d
1001.231 646.703 m
1001.231 664.631 L
S
U
U
0.000 0.000 0.000 1.000 K
0 j
0 J
0.287 w
[]0 d
0.000 0.000 0.000 0.498 k
1005.407 747.575 m
1022.183 746.711 l
1023.695 746.711 1025.207 745.559 1025.207 743.903 c
1025.207 733.535 l
1025.207 732.024 1023.767 730.727 1022.183 730.727 c
1005.407 730.727 l
1003.751 730.727 1002.383 732.024 1002.383 733.535 c
1002.383 744.839 l
1002.383 746.423 1003.895 747.575 1005.407 747.575 c
b
0.000 0.000 0.000 1.000 K
0 j
0 J
0.287 w
[]0 d
0.000 0.000 0.000 0.498 k
792.287 747.791 m
775.367 746.927 l
773.855 746.927 772.343 745.775 772.343 744.119 c
772.343 733.607 l
772.343 732.024 773.711 730.799 775.367 730.799 c
792.287 730.799 l
793.943 730.799 795.383 732.024 795.383 733.607 c
795.383 744.983 l
795.383 746.639 793.871 747.791 792.287 747.791 c
b
0.000 0.000 0.000 1.000 K
0 j
0 J
0.287 w
[]0 d
0.000 0.000 0.000 0.498 k
985.751 390.311 m
811.367 390.311 L
811.367 387.287 L
829.511 386.855 859.967 385.055 867.671 387.287 C
941.615 386.999 L
947.519 385.991 966.239 385.991 976.679 386.999 C
985.751 386.999 L
985.751 390.311 L
b
0.000 0.000 0.000 1.000 K
0 j
0 J
0.287 w
[]0 d
0.000 0.000 0.000 0.298 k
798.839 466.415 m
786.239 466.415 L
783.359 451.079 784.295 428.975 784.151 422.927 C
798.839 422.999 L
798.839 466.415 L
b
0.000 0.000 0.000 1.000 K
0 j
0 J
0.287 w
[]0 d
0.000 0.000 0.000 0.298 k
998.207 466.415 m
1010.807 466.415 L
1012.679 451.871 1013.399 432.287 1011.959 422.927 C
998.207 422.999 L
998.207 466.415 L
b
u
u
0.000 0.000 0.000 1.000 K
0 j
0 J
0.287 w
[]0 d
798.839 457.343 m
783.935 457.343 L
S
U
U
u
u
0.000 0.000 0.000 1.000 K
0 j
0 J
0.287 w
[]0 d
998.207 457.343 m
1013.111 457.343 L
S
U
U
u
u
0.000 0.000 0.000 1.000 K
0 j
0 J
0.287 w
[]0 d
798.839 439.559 m
784.079 439.559 L
S
U
U
u
u
0.000 0.000 0.000 1.000 K
0 j
0 J
0.287 w
[]0 d
998.207 439.559 m
1011.455 439.559 L
S
U
U
0.000 0.000 0.000 1.000 K
0 j
0 J
0.287 w
[]0 d
0.000 0.000 0.000 0.498 k
1008.071 496.295 m
1024.775 495.359 l
1026.288 495.359 1027.799 494.279 1027.799 492.623 c
1027.799 482.183 l
1027.799 480.671 1026.432 479.447 1024.775 479.447 c
1008.071 479.447 l
1006.415 479.447 1005.047 480.671 1005.047 482.183 c
1005.047 493.487 l
1005.047 495.143 1006.559 496.295 1008.071 496.295 c
b
0.000 0.000 0.000 1.000 K
0 j
0 J
0.287 w
[]0 d
0.000 0.000 0.000 0.498 k
789.407 496.439 m
772.487 495.575 l
770.975 495.575 769.391 494.423 769.391 492.767 c
769.391 482.255 l
769.391 480.671 770.831 479.447 772.487 479.447 c
789.407 479.447 l
791.063 479.447 792.431 480.671 792.431 482.255 c
792.431 493.631 l
792.431 495.287 790.919 496.439 789.407 496.439 c
b
0.000 0.000 0.000 1.000 K
0 j
0 J
0.287 w
[]0 d
972.287 471.239 m
963.719 471.239 L
963.719 463.607 L
972.287 463.607 L
972.287 471.239 L
s
0.000 0.000 0.000 1.000 K
0 j
0 J
0.287 w
[]0 d
840.959 471.239 m
832.391 471.239 L
832.391 463.607 L
840.959 463.607 L
840.959 471.239 L
s
0.000 0.000 0.000 1.000 K
0 j
0 J
0.287 w
[]0 d
903.455 471.239 m
894.815 471.239 L
894.815 463.607 L
903.455 463.607 L
903.455 471.239 L
s
u
u
0.000 0.000 0.000 1.000 K
0 j
0 J
0.287 w
[]0 d
789.623 471.023 m
1007.495 471.023 L
S
U
U
u
u
0.000 0.000 0.000 1.000 K
0 j
0 J
0.287 w
[]0 d
790.487 475.055 m
1006.487 475.055 L
S
U
U
u
u
0.000 0.000 0.000 1.000 K
0 j
0 J
0.287 w
[]0 d
799.127 423.287 m
998.495 423.287 L
S
U
U
u
u
0.000 0.000 0.000 1.000 K
0 j
0 J
0.287 w
[]0 d
780.983 413.207 m
1017.791 413.207 L
S
U
U
0.000 0.000 0.000 1.000 K
0 j
0 J
0.287 w
[]0 d
0.000 0.000 0.000 0.298 k
889.415 463.967 m
908.855 463.967 l
909.719 463.967 910.367 463.319 910.367 462.455 c
910.367 456.263 l
910.367 455.399 909.719 454.751 908.855 454.751 c
889.415 454.751 l
888.551 454.751 887.903 455.399 887.903 456.263 c
887.903 462.455 l
887.903 463.319 888.551 463.967 889.415 463.967 c
b
0.000 0.000 0.000 1.000 K
0 j
0 J
0.287 w
[]0 d
0.000 0.000 0.000 0.498 k
252.287 799.271 m
261.359 798.479 L
188.855 735.695 L
182.591 738.431 L
252.287 799.271 L
b
0.000 0.000 0.000 1.000 K
0 j
0 J
0.287 w
[]0 d
0.000 0.000 0.000 0.498 k
482.903 552.599 m
473.903 551.807 L
546.408 489.023 L
552.671 491.759 L
482.903 552.599 L
b
0.000 0.000 0.000 1.000 K
0 j
0 J
0.287 w
[]0 d
0.000 0.000 0.000 0.200 k
257.903 797.327 m
188.639 737.351 L
185.183 738.863 L
252.791 797.831 L
257.903 797.327 L
b
0.000 0.000 0.000 1.000 K
0 j
0 J
0.287 w
[]0 d
0.000 0.000 0.000 0.200 k
477.287 550.655 m
546.623 490.679 L
550.079 492.191 L
482.471 551.159 L
477.287 550.655 L
b
0.000 0.000 0.000 1.000 K
0 j
0 J
0.287 w
[]0 d
0.000 0.000 0.000 0.498 k
804.743 737.495 m
990.719 737.495 l
993.455 737.495 996.335 739.943 995.759 742.535 c
991.367 761.615 984.743 779.831 974.015 796.319 c
972.575 798.551 971.711 801.359 968.975 801.359 c
826.487 801.359 l
823.751 801.359 822.671 798.623 821.447 796.319 c
811.511 778.103 804.815 760.103 799.703 742.535 c
798.983 740.015 802.007 737.495 804.743 737.495 c
b
0.000 0.000 0.000 1.000 K
0 j
0 J
0.287 w
[]0 d
0.000 0.000 0.000 0.200 k
992.231 739.223 m
993.527 739.943 994.535 740.735 994.319 742.319 C
991.943 752.903 988.775 763.199 984.599 773.207 C
981.215 780.983 977.327 788.471 972.791 795.599 C
972.071 796.895 970.991 799.343 969.551 799.847 C
968.831 799.991 L
826.559 799.991 L
824.759 799.775 823.895 798.047 823.175 796.535 C
818.783 788.687 814.967 780.335 811.439 771.983 C
807.407 762.263 803.879 752.039 800.999 741.959 C
800.999 740.015 803.231 739.079 804.815 738.935 C
990.647 738.935 L
991.439 739.007 L
992.231 739.223 L
b
0.000 0.000 0.000 1.000 K
0 j
0 J
0.287 w
[]0 d
1012.895 678.599 m
1014.623 678.599 1016.351 680.111 1016.063 681.767 c
1012.391 701.207 l
1012.103 702.863 1010.951 704.375 1009.223 704.375 c
787.967 704.375 l
786.167 704.375 785.015 702.863 784.727 701.207 c
781.055 681.767 l
780.767 680.111 782.495 678.599 784.295 678.599 c
1012.895 678.599 l
s
0.000 0.000 0.000 1.000 K
0 j
0 J
0.287 w
[]0 d
0.000 0.000 0.000 0.498 k
897.623 682.775 m
856.511 682.775 l
847.295 682.775 845.567 693.000 845.495 700.199 C
897.623 700.199 L
949.751 700.199 L
949.751 693.000 947.951 682.775 938.735 682.775 c
897.623 682.775 L
b
u
u
0.000 0.000 0.000 0.298 k
799.127 683.063 m
799.415 704.519 L
830.879 704.519 l
833.039 704.519 834.767 702.791 834.767 700.631 c
834.767 686.879 l
834.767 684.791 833.039 682.991 830.879 682.991 c
782.135 682.991 L
S
U
u
0.000 0.000 0.000 1.000 K
0 j
0 J
0.287 w
[]0 d
799.127 683.063 m
799.415 704.519 L
830.879 704.519 l
833.039 704.519 834.767 702.791 834.767 700.631 c
834.767 686.879 l
834.767 684.791 833.039 682.991 830.879 682.991 c
782.135 682.991 L
S
U
U
u
u
0.000 0.000 0.000 0.298 k
996.191 683.063 m
995.831 704.519 L
964.367 704.519 l
962.279 704.519 960.551 702.791 960.551 700.631 c
960.551 686.879 l
960.551 684.791 962.279 682.991 964.367 682.991 c
1015.415 682.991 L
S
U
u
0.000 0.000 0.000 1.000 K
0 j
0 J
0.287 w
[]0 d
996.191 683.063 m
995.831 704.519 L
964.367 704.519 l
962.279 704.519 960.551 702.791 960.551 700.631 c
960.551 686.879 l
960.551 684.791 962.279 682.991 964.367 682.991 c
1015.415 682.991 L
S
U
U
0.000 0.000 0.000 1.000 K
0 j
0 J
0.287 w
[]0 d
0.000 0.000 0.000 0.000 k
827.639 685.655 m
804.095 685.655 l
802.367 685.655 800.927 687.096 800.927 688.823 c
800.927 699.048 l
800.927 700.775 802.367 702.143 804.095 702.143 c
827.639 702.143 l
829.367 702.143 830.807 700.775 830.807 699.048 c
830.807 688.823 l
830.807 687.096 829.367 685.655 827.639 685.655 c
b
0.000 0.000 0.000 1.000 K
0 j
0 J
0.287 w
[]0 d
0.000 0.000 0.000 0.000 k
967.607 685.655 m
991.223 685.655 l
992.951 685.655 994.319 687.096 994.319 688.823 c
994.319 699.048 l
994.319 700.775 992.951 702.143 991.223 702.143 c
967.607 702.143 l
965.879 702.143 964.511 700.775 964.511 699.048 c
964.511 688.823 l
964.511 687.096 965.879 685.655 967.607 685.655 c
b
0.000 0.000 0.000 1.000 K
0 j
0 J
0.287 w
[]0 d
0.000 0.000 0.000 0.298 k
797.327 685.583 m
783.359 685.583 L
786.815 702.143 L
797.327 702.143 L
797.327 685.583 L
b
0.000 0.000 0.000 1.000 K
0 j
0 J
0.287 w
[]0 d
0.000 0.000 0.000 0.298 k
997.919 685.583 m
1011.887 685.583 L
1008.503 702.143 L
997.919 702.143 L
997.919 685.583 L
b
0.000 0.000 0.000 0.000 k
887.183 692.711 m
881.567 692.711 L
881.279 692.423 881.279 692.423 881.567 692.279 C
885.167 690.911 l
886.319 690.479 887.255 690.263 887.327 688.967 C
887.327 688.319 887.111 687.527 886.319 687.455 C
879.047 687.455 L
879.047 688.967 L
884.375 688.967 L
884.519 688.967 884.591 689.183 884.159 689.327 C
880.847 690.551 L
880.199 690.839 879.191 690.911 878.903 691.703 c
878.543 692.639 879.191 694.295 880.487 694.295 C
887.183 694.295 L
887.183 692.711 L
f
0.000 0.000 0.000 0.000 k
899.135 692.711 m
904.751 692.711 L
905.039 692.423 905.039 692.423 904.751 692.279 C
901.151 690.911 l
899.999 690.479 899.063 690.263 898.991 688.967 C
898.991 688.319 899.207 687.527 899.999 687.455 C
907.271 687.455 L
907.271 688.967 L
901.943 688.967 L
901.799 688.967 901.727 689.183 902.159 689.327 C
905.471 690.551 L
906.119 690.839 907.127 690.911 907.415 691.703 c
907.775 692.639 907.127 694.295 905.831 694.295 C
899.135 694.295 L
899.135 692.711 L
f
0.000 0.000 0.000 0.000 k
891.503 694.295 m
891.503 689.615 L
891.503 689.255 891.575 688.967 892.007 688.967 C
894.383 688.967 L
894.743 688.967 894.959 689.255 894.959 689.615 C
894.959 694.295 L
897.407 694.295 L
897.407 688.679 L
897.119 687.743 895.751 687.455 894.959 687.455 C
891.719 687.455 L
890.495 687.455 889.343 687.887 889.199 688.751 C
889.199 694.295 L
891.503 694.295 L
f
0.000 0.000 0.000 0.000 k
911.807 694.295 m
911.807 689.615 L
911.807 689.255 911.879 688.967 912.311 688.967 C
914.687 688.967 L
915.119 688.967 915.335 689.255 915.335 689.615 C
915.335 694.295 L
917.711 694.295 L
917.711 688.679 L
917.423 687.743 916.127 687.455 915.335 687.455 C
912.023 687.455 L
910.871 687.455 909.647 687.887 909.575 688.751 C
909.575 694.295 L
911.807 694.295 L
f
0.000 0.000 0.000 0.000 k
876.959 687.455 m
874.583 687.455 L
874.583 694.295 L
876.959 694.295 L
876.959 687.455 L
f
0.000 0.000 0.000 1.000 K
0 j
0 J
0.287 w
[]0 d
0.000 0.000 0.000 0.000 k
798.191 644.039 m
822.383 644.039 l
823.967 644.039 825.191 642.743 825.191 641.159 c
825.191 638.207 l
825.191 636.623 823.967 635.399 822.383 635.399 c
798.191 635.399 l
796.607 635.399 795.383 636.623 795.383 638.207 c
795.383 641.159 l
795.383 642.743 796.607 644.039 798.191 644.039 c
b
0.000 0.000 0.000 1.000 K
0 j
0 J
0.287 w
[]0 d
0.000 0.000 0.000 0.498 k
10.583 668.231 m
9.144 666.935 7.199 666.431 5.543 666.215 C
4.823 654.623 3.959 644.327 7.559 632.015 C
9.647 625.175 13.247 622.007 20.015 623.015 C
38.231 623.663 L
39.599 642.239 44.855 656.351 51.551 668.231 C
10.583 668.231 L
b
0.000 0.000 0.000 1.000 K
0 j
0 J
0.287 w
[]0 d
0.000 0.000 0.000 0.498 k
724.679 421.559 m
726.119 420.263 728.063 419.759 729.719 419.543 C
730.439 407.951 731.303 397.655 727.703 385.343 C
725.615 378.503 722.015 375.335 715.247 376.343 C
697.031 376.991 L
695.663 395.567 690.407 409.679 683.711 421.559 C
724.679 421.559 L
b
u
u
0.000 0.000 0.000 1.000 K
0 j
0 J
0.287 w
[]0 d
799.055 475.055 m
799.055 391.031 L
S
U
U
u
u
0.000 0.000 0.000 1.000 K
0 j
0 J
0.287 w
[]0 d
997.919 475.055 m
997.919 391.031 L
S
U
U
0.000 0.000 0.000 1.000 K
0 j
0 J
0.287 w
[]0 d
0.000 0.000 0.000 1.000 k
783.647 395.567 m
783.647 340.560 l
783.647 338.255 785.519 336.383 787.823 336.383 c
807.407 336.383 l
809.711 336.383 811.583 338.255 811.583 340.560 c
811.583 390.887 L
790.703 390.887 l
787.391 390.887 785.159 392.687 783.647 395.567 C
b
0.000 0.000 0.000 1.000 K
0 j
0 J
0.287 w
[]0 d
0.000 0.000 0.000 1.000 k
985.679 390.887 m
985.679 340.560 l
985.679 338.255 987.551 336.383 989.855 336.383 c
1009.439 336.383 l
1011.743 336.383 1013.615 338.255 1013.615 340.560 c
1013.615 394.199 L
1012.247 392.183 1010.303 390.887 1007.567 390.887 c
985.679 390.887 L
b
0.000 0.000 0.000 1.000 K
0 j
0 J
0.287 w
[]0 d
0.000 0.000 0.000 1.000 k
985.679 621.719 m
985.679 588.671 l
985.679 586.367 987.551 584.495 989.855 584.495 c
1009.439 584.495 l
1011.743 584.495 1013.615 586.367 1013.615 588.671 c
1013.615 621.863 L
1013.543 621.719 1013.399 621.719 1013.327 621.719 C
985.679 621.719 L
b
0.000 0.000 0.000 1.000 K
0 j
0 J
0.287 w
[]0 d
0.000 0.000 0.000 1.000 k
783.647 621.719 m
783.647 588.671 l
783.647 586.367 785.519 584.495 787.823 584.495 c
807.407 584.495 l
809.711 584.495 811.583 586.367 811.583 588.671 c
811.583 621.719 L
783.863 621.719 L
783.791 621.719 783.719 621.719 783.647 621.719 C
b
0.000 0.000 0.000 1.000 K
0 j
0 J
0.287 w
[]0 d
0.000 0.000 0.000 0.498 k
806.975 494.063 m
989.783 494.063 l
992.375 494.063 995.327 496.367 994.391 498.671 c
975.527 546.551 l
974.591 548.855 973.439 551.159 970.919 551.159 c
826.415 551.159 l
823.823 551.159 822.743 548.855 821.807 546.551 c
802.367 498.671 l
801.431 496.367 804.383 494.063 806.975 494.063 c
b
0.000 0.000 0.000 1.000 K
0 j
0 J
0.287 w
[]0 d
0.000 0.000 0.000 0.200 k
806.831 498.383 m
807.191 498.311 L
989.567 498.311 L
989.999 498.383 L
971.567 544.967 L
971.279 545.615 970.919 546.336 970.631 546.911 C
826.703 546.911 L
826.271 546.336 825.983 545.543 825.695 544.895 C
806.831 498.383 L
b
u
u
0.000 0.000 0.000 1.000 K
0 j
0 J
0.215 w
[]0 d
378.143 677.519 m
538.631 677.519 L
S
U
U
u
u
0.000 0.000 0.000 1.000 K
0 j
0 J
0.215 w
[]0 d
357.119 430.847 m
196.631 430.847 L
S
U
U
u
u
0.000 0.000 0.000 1.000 K
0 j
0 J
0.215 w
[]0 d
378.143 667.223 m
529.415 667.223 L
S
U
U
u
u
0.000 0.000 0.000 1.000 K
0 j
0 J
0.215 w
[]0 d
357.119 420.551 m
205.847 420.551 L
S
U
U
u
u
U
u
0.000 0.000 0.000 1.000 K
0 j
0 J
0.215 w
[]0 d
5.399 314.927 m
273.168 314.927 L
S
U
U
u
u
U
u
0.000 0.000 0.000 1.000 K
0 j
0 J
0.215 w
[]0 d
500.615 314.927 m
726.911 314.927 L
S
U
U
u
u
U
u
0.000 0.000 0.000 1.000 K
0 j
0 J
0.215 w
[]0 d
5.615 328.679 m
5.615 298.151 L
S
U
U
0.000 0.000 0.000 1.000 k
5.399 315.000 m
15.479 312.048 L
15.479 318.024 L
5.399 315.000 L
f
u
u
U
u
0.000 0.000 0.000 1.000 K
0 j
0 J
0.215 w
[]0 d
725.543 326.591 m
725.543 296.423 L
S
U
U
0.000 0.000 0.000 1.000 k
725.615 315.000 m
715.535 312.048 L
715.535 318.024 L
725.615 315.000 L
f
0.000 0.000 0.000 1.000 k
432.071 308.303 m
433.367 310.031 434.159 311.759 434.159 313.919 c
434.159 316.223 433.367 317.663 432.071 319.536 C
431.495 319.536 L
432.575 317.879 433.295 316.007 433.295 313.991 c
433.295 311.975 432.575 309.959 431.495 308.303 C
432.071 308.303 L
f
0.000 0.000 0.000 1.000 k
422.279 313.991 m
422.279 314.495 422.423 315.287 422.711 315.719 c
423.071 316.151 423.575 316.367 424.151 316.367 c
425.159 316.367 425.447 315.863 425.447 314.927 c
425.447 310.679 L
426.167 310.679 L
426.167 313.991 l
426.167 314.495 426.239 315.287 426.599 315.719 c
426.959 316.151 427.463 316.367 427.967 316.367 c
428.975 316.367 429.335 315.863 429.335 314.927 c
429.335 310.679 L
430.055 310.679 L
430.055 314.567 l
430.055 315.863 429.767 317.015 428.111 317.015 c
427.175 317.015 426.455 316.655 426.095 315.863 C
425.807 316.512 425.375 317.015 424.223 317.015 c
423.431 317.015 422.711 316.655 422.351 315.935 C
422.279 315.935 L
422.279 316.871 L
421.559 316.871 L
421.559 310.679 L
422.279 310.679 L
422.279 313.991 l
f
0.000 0.000 0.000 1.000 k
412.343 313.991 m
412.343 314.495 412.415 315.287 412.775 315.719 c
413.135 316.151 413.639 316.367 414.143 316.367 c
415.151 316.367 415.511 315.863 415.511 314.927 c
415.511 310.679 L
416.231 310.679 L
416.231 313.991 l
416.231 314.495 416.303 315.287 416.591 315.719 c
416.951 316.151 417.455 316.367 418.031 316.367 c
419.039 316.367 419.327 315.863 419.327 314.927 c
419.327 310.679 L
420.047 310.679 L
420.047 314.567 l
420.047 315.863 419.831 317.015 418.103 317.015 c
417.239 317.015 416.519 316.655 416.087 315.863 C
415.871 316.512 415.439 317.015 414.287 317.015 c
413.495 317.015 412.703 316.655 412.343 315.935 C
412.343 315.935 L
412.343 316.871 L
411.623 316.871 L
411.623 310.679 L
412.343 310.679 L
412.343 313.991 l
f
0.000 0.000 0.000 1.000 k
404.207 319.103 m
401.759 319.103 401.327 316.943 401.327 314.855 c
401.327 312.479 401.831 310.463 404.207 310.463 c
406.511 310.463 407.015 312.479 407.015 314.711 c
407.015 316.727 406.655 319.103 404.207 319.103 c
f
0.000 0.000 0.000 1.000 k
395.855 316.367 m
395.783 317.447 396.575 318.455 397.655 318.455 c
398.735 318.455 399.527 317.807 399.527 316.727 c
399.527 314.711 397.151 314.783 395.423 312.695 c
394.847 312.120 394.775 311.471 394.775 310.679 C
400.247 310.679 L
400.247 311.327 L
395.567 311.327 L
395.639 312.120 396.143 312.623 396.647 312.983 c
397.943 313.991 400.319 314.567 400.319 316.799 c
400.319 318.096 399.455 319.103 397.727 319.103 c
396.071 319.103 394.991 318.024 394.991 316.367 C
395.855 316.367 L
f
0.000 0.000 0.000 1.000 k
388.151 312.551 m
388.295 311.111 389.303 310.463 390.599 310.463 c
392.399 310.463 393.695 311.975 393.695 314.855 c
393.695 317.231 393.047 319.103 390.743 319.103 c
388.871 319.103 388.007 317.879 388.007 316.295 c
388.007 314.711 389.015 313.631 390.599 313.631 c
391.607 313.631 392.399 314.063 392.903 314.927 C
392.903 314.927 L
392.831 313.343 392.615 311.111 390.599 311.111 c
389.663 311.111 389.087 311.615 388.943 312.551 C
388.151 312.551 L
f
0.000 0.000 0.000 1.000 k
385.127 310.679 m
385.919 310.679 L
385.919 312.767 L
387.071 312.767 L
387.071 313.415 L
385.919 313.415 L
385.919 319.031 L
385.199 319.031 L
381.311 313.415 L
381.311 312.767 L
385.127 312.767 L
385.127 310.679 L
f
0.000 0.000 0.000 1.000 k
379.583 319.536 m
378.287 317.807 377.495 316.151 377.495 313.991 c
377.495 311.687 378.287 310.175 379.583 308.303 C
380.159 308.303 L
379.079 309.959 378.359 311.903 378.359 313.919 c
378.359 315.935 379.079 317.879 380.159 319.536 C
379.583 319.536 L
f
0.000 0.000 0.000 1.000 k
372.167 316.584 m
372.815 316.584 L
372.815 319.319 L
372.167 319.319 L
372.167 316.584 L
f
0.000 0.000 0.000 1.000 k
370.871 316.584 m
371.447 316.584 L
371.447 319.319 L
370.871 319.319 L
370.871 316.584 L
f
0.000 0.000 0.000 1.000 k
365.543 315.215 m
364.535 314.855 364.031 313.991 364.031 312.983 c
364.031 311.327 365.471 310.463 366.695 310.463 c
368.495 310.463 369.647 311.399 369.647 313.055 c
369.647 314.063 369.071 314.855 368.135 315.143 C
368.927 315.575 369.287 316.151 369.287 317.015 c
369.287 318.527 368.063 319.103 366.767 319.103 c
365.399 319.175 364.319 318.239 364.319 317.015 c
364.319 316.079 364.679 315.719 365.543 315.215 C
f
0.000 0.000 0.000 1.000 k
362.231 311.687 m
361.367 311.687 L
361.367 310.679 L
361.799 310.679 L
361.799 310.247 l
361.799 309.743 361.583 309.527 361.367 309.455 C
361.367 308.951 L
361.871 309.167 362.231 309.599 362.231 310.247 c
362.231 311.687 L
f
0.000 0.000 0.000 1.000 k
356.183 314.711 m
357.623 314.855 358.847 314.423 358.847 313.055 c
358.919 312.048 357.983 311.111 356.759 311.111 c
355.536 311.111 354.671 311.831 354.671 313.127 C
353.879 313.127 L
354.095 311.111 354.959 310.463 356.903 310.463 c
358.631 310.536 359.639 311.687 359.639 313.055 c
359.639 313.847 359.351 314.783 358.127 315.143 C
358.991 315.503 359.351 316.151 359.351 317.015 c
359.351 318.455 358.271 319.103 356.903 319.103 c
356.255 319.103 355.536 319.031 355.031 318.527 c
354.455 318.024 354.167 317.375 354.167 316.655 C
354.959 316.655 L
354.959 317.735 355.679 318.455 356.759 318.455 c
357.767 318.455 358.559 318.024 358.559 316.943 c
358.559 315.719 357.551 315.359 356.183 315.359 C
356.183 314.711 L
f
0.000 0.000 0.000 1.000 k
347.471 312.551 m
347.615 311.111 348.623 310.463 349.919 310.463 c
351.719 310.463 353.015 311.975 353.015 314.855 c
353.015 317.231 352.367 319.103 350.063 319.103 c
348.191 319.103 347.327 317.879 347.327 316.295 c
347.327 314.711 348.335 313.631 349.919 313.631 c
350.927 313.631 351.719 314.063 352.223 314.927 C
352.223 314.927 L
352.151 313.343 351.935 311.111 349.919 311.111 c
348.983 311.111 348.407 311.615 348.263 312.551 C
347.471 312.551 L
f
0.000 0.000 0.000 1.000 k
343.799 310.679 m
344.591 310.679 L
344.591 319.103 L
343.943 319.103 L
343.727 317.663 342.935 317.519 341.639 317.447 C
341.639 316.943 L
343.799 316.943 L
343.799 310.679 L
f
0.000 0.000 0.000 0.000 k
406.295 314.855 m
406.295 313.127 406.007 311.111 404.207 311.111 c
402.551 311.111 402.047 312.551 402.047 314.711 c
402.047 316.584 402.479 318.455 404.135 318.455 c
405.935 318.455 406.295 316.655 406.295 314.855 c
f
0.000 0.000 0.000 0.000 k
390.743 318.455 m
391.895 318.455 392.615 317.591 392.615 316.367 c
392.615 315.215 391.967 314.279 390.743 314.279 c
389.519 314.279 388.799 315.000 388.799 316.295 c
388.799 317.591 389.447 318.455 390.743 318.455 c
f
0.000 0.000 0.000 0.000 k
385.127 317.879 m
385.127 313.415 L
382.031 313.415 L
385.127 317.879 L
f
0.000 0.000 0.000 0.000 k
366.839 318.455 m
367.991 318.455 368.567 317.951 368.567 317.087 c
368.567 315.935 367.847 315.431 366.911 315.431 c
365.975 315.431 365.111 315.935 365.111 316.943 c
365.111 317.951 365.903 318.455 366.839 318.455 c
f
0.000 0.000 0.000 0.000 k
366.839 314.783 m
367.991 314.783 368.855 314.207 368.855 313.055 c
368.855 311.903 367.991 311.111 366.911 311.111 c
365.615 311.111 364.823 311.975 364.823 312.983 c
364.823 314.207 365.687 314.783 366.839 314.783 c
f
0.000 0.000 0.000 0.000 k
350.063 318.455 m
351.215 318.455 351.935 317.591 351.935 316.367 c
351.935 315.215 351.287 314.279 350.063 314.279 c
348.839 314.279 348.119 315.000 348.119 316.295 c
348.119 317.591 348.767 318.455 350.063 318.455 c
f
%%Trailer
_E end