%!PS-Adobe-2.0 EPSF-1.2
%%Creator: Adobe Illustrator exported from Corel Draw 3.0
%%Title:6
%%BoundingBox:42 317 1014 944
%%CreationDate:(Unknown)
%%ColorUsage:
%%TemplateBox:42 317 1014 944
%%EndComments
%%BeginProcSet:Adobe_Illustrator_1.1 0 0
% Version 1.0 3/27/1990 $nokeywords$
% Copyright (C) 1990,1991,1992
% Corel Corporation
% All Rights Reserved

/wPmsDict 150 dict def 
wPmsDict begin 

/$debug 25 string def 

/bd {bind def} bind def 
/ld {load def} bd 
/xd {exch def} bd 
/_ null def 

/$c 0 def 
/$m 0 def 
/$y 0 def 
/$k 0 def 
/$t 1 def 
/$n _ def 
/$o 0 def 
/$pf false def 

/$C 0 def 
/$M 0 def 
/$Y 0 def 
/$K 0 def 
/$T 1 def 
/$N _ def 
/$O 0 def 
/$PF false def 

/$h false def 

/$al 0 def 
/$tr 0 def 
/$le 0 def 
/$lx 0 def 
/$ly 0 def 

/$ctm matrix currentmatrix def 
/$ptm matrix def 

/$pn () def 
/$pm matrix def 
/$px 0 def 
/$py 0 def 
/$pxf 0 def 
/$pyf 0 def 
/$psx 10 def 
/$psy 0 def 

/$llx 0 def 
/$lly 0 def 
/$urx 0 def 
/$ury 0 def 


/$Bbllx 0 def 
/$Bblly 0 def 
/$Bburx 0 def 
/$Bbury 0 def 

/$tllx 0 def 
/$tlly 0 def 
/$turx 0 def 
/$tury 0 def 

/$pd [] def 
/$tx 0 def 
/$ty 0 def 

/$sv 0 def 
/@cp /closepath ld 
/@gs /gsave ld 
/@gr /grestore ld 
/@np /newpath ld 
/@sv {/$sv save def}bd 
/@rs {$sv restore}bd 

/@MN { 
2 copy le{pop}{exch pop}ifelse 
}bd 

/setcmykcolor where {pop} 
{ 
/setcmykcolor 
{ 
4 1 roll 
3 {3 index add 1 @MN 1 exch sub 3 1 roll} repeat 
setrgbcolor 
pop 
}bd 
}ifelse 

/@tc 
{ 
dup 1 ge 
{pop} 
{ 
4 { 
dup 
6 -1 roll 
mul 
exch 
}repeat 
pop 
}ifelse 
}bd 

/@scc 
{ 
$c $m $y $k $t @tc 
setcmykcolor 
true 
}bd 
/@SCC 
{ 
$C $M $Y $K $T @tc 
setcmykcolor 
true 
}bd 

/@sft 
{ 
(setfirsttile sft )print 
/$tx $tllx $pxf add dup $tllx gt {$pwid $psx add sub}if def 
/$ty $tury $pyf sub dup $tury lt {$phei $psy add add}if def 
(setfirsttile exit )print 
}bd 

/@stb 
{ 
pathbbox /$ury xd /$urx xd /$lly xd /$llx xd 
}bd 

/@ep 
{ 
{ 
cvx exec 
}forall 
}bd 

/@tp 
{ 

(tile pattern tp )print 
@sv 
/$in true def 
2 copy 
dup $lly le {/$in false def}if 
$phei sub $ury ge {/$in false def}if 
dup $urx ge {/$in false def}if 
$pwid add $llx le {/$in false def}if 
$in 
{ 
@np 
2 copy moveto 
$pwid 0 rlineto 
0 $phei neg rlineto 
$pwid neg 0 rlineto 
0 $phei rlineto 
clip @np 

$pn cvlit load aload pop 
7 -1 roll 
5 index sub 
7 -1 roll 
3 index sub 
translate 
@ep 
pop pop pop pop 
} 
{pop pop}ifelse 
@rs 
(tile pattern exit )print 
}bd 

/@th 
{ 
(tile horizontal th)print 
@sft 
0 1 $tly 1 sub 
{ 
dup $psx mul $tx add 
{ 
dup $llx gt {$pwid sub}{exit}ifelse 
}loop 
exch $phei mul $ty exch sub 

0 1 $tlx 1 sub 
{ 
$pwid mul 
3 copy 
3 -1 roll add exch 
@tp 
pop 
}for 
pop pop 
} for 
(tile horizontal exiting )print 
}bd 

/@tv 
{ 
(tile vertical tv)print 
@sft 
0 1 $tlx 1 sub 
{ 
dup $pwid mul $tx add 
exch $psy mul $ty exch sub 
{ 
dup $ury lt {$phei add}{exit}ifelse 
}loop 

0 1 $tly 1 sub 
{ 
$phei mul 
3 copy sub 
@tp 
pop 
}for 
pop pop 
} for 
(tile vertical exit )print 
}bd 

/@pf 
{ 
(pattern fill pf)print 
@gs 
$pm concat 
@stb 
@gs 1 setgray eofill @gr 
eoclip 
$Bburx $Bbury $pm itransform /$tury xd /$turx xd 
$Bbllx $Bblly $pm itransform /$tlly xd /$tllx xd 
/$wid $turx $tllx sub def 
/$hei $tury $tlly sub def 
$wid 0 gt $hei 0 gt and 
{ 
$pn cvlit load aload pop 
$pd xd 
3 -1 roll sub /$phei xd 
exch sub /$pwid xd 
/$tlx $wid $pwid div ceiling 1 add def 
/$tly $hei $phei div ceiling 1 add def 
$psx 0 eq 
{ 
@tv 
} 
{ 
@th 
}ifelse 
}if 

@gr 
@np 
(pattern fill exit)print 
}bd 

/@xp 
{ 
{ 
dup (text Character is:) print == 
usertime (time before is:)print == 
(0) dup 3 -1 roll 0 exch put 
@gs 
true charpath currentpoint 
$ctm setmatrix 
@pf 
@gr 
@np 
moveto $tr 0 rmoveto 
usertime (time after is:)print == 
}forall 
pop 
}bd 

/@sm 
{ 
/$ctm $ctm currentmatrix def 
}bd 

%--@lorg  move to line origin   length string @torg length string
/@lorg    % moves currentpoint to line origin according to current alignment
  {      
  $lx $ly moveto    
  /$ly $ly $le sub def      % - prepare for next line(tracking)
  $al 0 ne
    {dup      % ->len str len str
    stringwidth   % ->len str len dx dy
    exch 3 index  % ->len str dy len dx
    1 sub         % ->len str dy len dx (len-1)
    $tr mul add   % ->len str dy len dx+(len-1)*$tr
    neg
    exch neg      % ->len str -dx_total dy len
    $al 1 eq      % check for centered alignment
    {2 div exch 2 div exch} if  
    rmoveto} if
  }bd

/@ft 
{ 
$pf 
{@xp} 
{ 
@scc 
{$tr exch 0 exch ashow pop} 
{pop pop}ifelse 
}ifelse 
}bd 

/@st 
{ 
$PF 
{} 
{ 
@SCC 
{ 
{ 
(0) dup 3 -1 roll 0 exch put 
@gs 
true charpath currentpoint 
$ctm setmatrix $ptm concat 
stroke 
@gr 
moveto $tr 0 rmoveto 
}forall 
pop 
} 
{pop pop}ifelse 
}ifelse 
}bd 
/@pt 
{ 
dup length exch 
}bd 
/@te 
{ 
@pt 
@lorg 
@ft 
}bd 

/@tr 
{ 
@pt 
@lorg 
@st 
}bd 
/@ta 
{ 
@pt 
@lorg 
2 copy 
@gs @ft @gr 
/$lx 0 def 
/$ly 0 def 
@st 
}bd 















/g { 
1 exch sub /$k xd 
/$c 0 def /$m 0 def /$y 0 def /$t 1 def /$n _ def /$pf false def 
}bd 

/G { 
1 exch sub /$K xd 
/$C 0 def /$M 0 def /$Y 0 def /$T 1 def /$N _ def /$PF false def 
}bd 

/k { 
/$k xd /$y xd /$m xd /$c xd 
/$t 1 def /$n _ def /$pf false def 
}bd 

/K { 
/$K xd /$Y xd /$M xd /$C xd 
/$T 1 def /$N _ def /$PF false def 
}bd 

/x { 
/$t xd /$n xd 
/$k xd /$y xd /$m xd /$c xd /$pf false def 
}bd 

/X { 
/$T xd /$N xd 
/$K xd /$Y xd /$M xd /$C xd /$PF false def 
}bd 

/d /setdash ld 

/i { 
dup 0 ne {setflat} {pop} ifelse 
}bd 

/j /setlinejoin ld 

/J /setlinecap ld 

/M /setmiterlimit ld 

/w /setlinewidth ld 

/O { 
/$o xd 
}bd 

/R { 
/$O xd 
}bd 


/c /curveto ld 

/C /c ld 

/v { 
currentpoint
6 2 roll 
curveto 
}bd

/V /v ld 

/y { 
2 copy curveto 
}bd 

/Y /y ld 

/l /lineto ld 

/L /l ld 

/m /moveto ld 



/n /newpath ld 

/N /newpath ld 

/F { 
$pf 
{@pf} 
{ 
@scc 
{eofill}if 
}ifelse 
}bd 

/f { 
@cp F 
}bd 
/S { 
$PF 
{} 
{ 
@SCC 
{ 
@sm 
$ptm concat 
stroke 
$ctm setmatrix 
}if 
}ifelse 
}bd 
/s { 
@cp 
S 
}bd 

/B { 
@gs F @gr 
S 
}bd 
/b { 
@cp 
B 
}bd 

/W { 
oeclip 
@np 
}bd 

/p { 
/$pm xd 
7 {pop} repeat 
/$pyf xd /$pxf xd 
/$pn xd 
/$pf true def 
}bd 

/P { 
11 {pop} repeat 
}bd 

/@p { 
/$pm xd 
/$psy xd 
/$psx xd 
/$pyf xd /$pxf xd 
/$pn xd 
/$pf true def 
}bd 

/@b { 
/$Bbury xd /$Bburx xd 
/$Bblly xd /$Bbllx xd 
}bd 


/z { 
/$al xd 
/$tr xd 
/$le xd 
exch findfont exch scalefont setfont 
}bd 

/Z { 
dup type 0 type eq { /$bDir xd } if
findfont 
dup maxlength 1 add dict exch 



dup 
{1 index /FID ne 
{ 
3 index 
3 1 roll put 
} 
{pop pop}ifelse 
} forall 



pop 
dup dup /Encoding get 
256 array copy 
dup /$fe xd
/Encoding exch put 

dup /Fontname 3 index put 

}bd 

/e { 
@sm 
concat 
[ 
/t {@te}def 
}bd 

/r { 
@sm 
concat 
[ 
/t {@tr}def 
}bd 

/o { 
@sm 
concat 
[ 
/t {pop}def 
}bd 

/a { 
@sm 
concat 
[ 
/t {@ta}def 
}bd 

/@o{
@sm 
concat 
[ 
/t {@t@a}def 
}bd 

/I { 
@sm 
concat 
[ 
/t {pop}def 
}bd 

/t {@te}def 

/T { 
cleartomark 
/$lx 0 def 
/$ly 0 def 
$ctm setmatrix 
}bd 


/u {}bd 

/U {}bd 

/A {pop}bd 

/h { 
$h true def 
}bd 

/h { 
$h true def 
}bd 

/q /@gs ld 

/Q /@gr ld 



/E { 
5 array astore 
exch cvlit exch def 
}bd 

/` {}bd 

/~ {}bd 

/@ {}bd 

/& {}bd 

/CorelDrawRencodeVect [ 
16#80/grave 
16#81/circumflex 
16#82/tilde 
16#83/dotlessi 
16#84/florin 
16#85/quotedblleft 
16#86/quotedblright 
16#87/guilsinglleft 
16#88/guilsinglright 
16#89/fi 
16#8a/fl 
16#8b/dagger 
16#8c/daggerdbl 
16#8d/endash 
16#8e/periodcentered 
16#8f/breve 
16#90/quotedblbase 
16#91/ellipsis 
16#92/perthousand 
16#a1/exclamdown 
16#a2/cent 
16#a3/sterling 
16#a4/currency 
16#a5/yen 
16#a6/bar 
16#a7/section 
16#a8/dieresis 
16#a9/copyright 
16#aa/ordfeminine 
16#ab/guillemotleft 
16#ac/logicalnot 
16#ad/emdash 
16#ae/registered 
16#af/spac 
16#b0/ring 
16#b1/spac 
16#b2/spac 
16#b3/spac 
16#b4/acute 
16#b5/spac 
16#b6/paragraph 
16#b7/bullet 
16#b8/cedilla 
16#b9/spac 
16#ba/ordmasculine 
16#bb/guillemotright 
16#bc/spac 
16#bd/spac 
16#be/spac 
16#bf/questiondown 
16#c0/Agrave 
16#c1/Aacute 
16#c2/Acircumflex 
16#c3/Atilde 
16#c4/Adieresis 
16#c5/Aring 
16#c6/AE 
16#c7/Ccedilla 
16#c8/Egrave 
16#c9/Eacute 
16#ca/Ecircumflex 
16#cb/Edieresis 
16#cc/Igrave 
16#cd/Iacute 
16#ce/Icircumflex 
16#cf/Idieresis 
16#d0/spac 
16#d1/Ntilde 
16#d2/Ograve 
16#d3/Oacute 
16#d4/Ocircumflex 
16#d5/Otilde 
16#d6/Odieresis 
16#d7/OE 
16#d8/Oslash 
16#d9/Ugrave 
16#da/Uacute 
16#db/Ucircumflex 
16#dc/Udieresis 
16#dd/space 
16#de/spac 
16#df/germandbls 
16#e0/agrave 
16#e1/aacute 
16#e2/acircumflex 
16#e3/atilde 
16#e4/adieresis 
16#e5/aring 
16#e6/ae 
16#e7/ccedilla 
16#e8/egrave 
16#e9/eacute 
16#ea/ecircumflex 
16#eb/edieresis 
16#ec/igrave 
16#ed/iacute 
16#ee/icircumflex 
16#ef/idieresis 
16#f0/space 
16#f1/ntilde 
16#f2/ograve 
16#f3/oacute 
16#f4/ocircumflex 
16#f5/otilde 
16#f6/odieresis 
16#f7/oe 
16#f8/oslash 
16#f9/ugrave 
16#fa/uacute 
16#fb/ucircumflex 
16#fc/udieresis 
16#fd/spac 
16#fe/spac 
16#ff/ydieresis 
] def
%%EndProlog
%%BeginSetup
%%BeginEncoding:_Times-Bold Times-Bold
[
]/_Times-Bold/Times-Bold Z
%%EndEncoding
%%EndSetup
0.000 0.000 0.000 1.000 K
0 j
0 J
0.215 w
[]0 d
0.000 0.000 0.000 0.000 k
1003.031 444.959 m
762.191 444.959 L
763.127 419.471 L
1001.519 419.471 L
1003.031 444.959 L
b
0.000 0.000 0.000 1.000 K
0 j
0 J
0.863 w
[]0 d
0.000 0.000 0.000 0.000 k
790.703 932.183 m
792.575 936.935 796.391 939.743 801.143 940.391 C
857.015 943.991 912.815 943.991 968.687 940.391 C
973.583 939.743 978.335 936.935 979.775 931.247 C
983.519 919.223 986.975 902.231 989.711 885.167 C
995.831 850.031 L
1001.231 831.527 L
1001.231 793.799 L
769.679 793.799 L
769.751 831.527 L
769.895 832.823 769.751 833.327 770.111 834.479 C
774.287 850.967 L
780.263 885.167 L
783.719 900.863 786.239 918.359 790.703 932.183 C
b
0.000 0.000 0.000 1.000 K
0 j
0 J
0.863 w
[]0 d
0.000 0.000 0.000 0.000 k
975.023 595.151 m
973.151 599.903 969.335 602.783 964.583 603.431 C
908.711 608.327 852.767 608.327 796.895 603.431 C
792.071 602.783 787.319 599.903 785.807 594.216 C
781.703 581.975 778.319 564.983 775.871 548.135 C
769.751 513.000 L
765.863 495.359 L
764.207 490.463 763.055 482.399 762.407 473.471 C
759.743 461.015 761.471 451.799 762.191 444.959 C
1003.031 444.959 L
1003.823 452.663 1003.535 461.519 1001.015 473.975 C
999.863 482.615 997.919 491.039 995.399 496.223 C
991.367 513.935 L
985.463 548.135 L
982.871 565.847 978.983 581.111 975.023 595.151 C
b
0.000 0.000 0.000 1.000 k
847.511 452.879 m
819.071 452.879 795.887 476.135 795.887 504.647 c
795.887 533.087 819.071 556.343 847.511 556.343 c
876.095 556.343 899.351 533.087 899.351 504.647 c
899.351 476.135 876.095 452.879 847.511 452.879 c
f
u
u
0.000 0.000 0.000 1.000 K
0 j
0 J
0.215 w
[]0 d
762.407 440.207 m
1002.599 440.207 L
S
U
U
0.000 0.000 0.000 1.000 K
0 j
0 J
0.215 w
[]0 d
0.000 0.000 0.000 0.498 k
822.815 831.527 m
769.679 831.527 L
769.679 804.455 L
822.815 804.455 L
822.815 831.527 L
b
0.000 0.000 0.000 1.000 K
0 j
0 J
0.215 w
[]0 d
779.399 864.431 m
848.375 867.815 921.959 868.247 991.007 864.431 C
990.575 835.559 L
780.551 835.559 L
779.399 864.431 L
s
0.000 0.000 0.000 1.000 K
0 j
0 J
0.215 w
[]0 d
0.000 0.000 0.000 0.000 k
763.703 793.799 m
769.679 793.799 L
769.679 793.799 L
1001.231 793.799 L
1001.231 793.799 L
1006.775 793.799 L
1006.775 782.423 1005.767 771.983 1001.735 764.855 C
769.247 764.855 L
765.287 770.471 763.775 782.063 763.703 793.799 C
b
0.000 0.000 0.000 1.000 k
764.855 778.391 m
765.287 773.423 766.943 768.383 769.247 764.783 C
803.087 764.783 L
803.087 703.799 L
800.351 697.031 767.879 697.031 764.855 703.799 C
764.855 778.391 L
f
0.000 0.000 0.000 1.000 k
1005.983 778.391 m
1005.551 773.423 1003.823 768.383 1001.519 764.783 C
967.679 764.783 L
967.679 703.799 L
970.415 697.031 1002.887 697.031 1005.983 703.799 C
1005.983 778.391 L
f
0.000 0.000 0.000 1.000 k
1001.519 419.471 m
967.535 419.471 L
967.535 366.839 L
970.271 360.071 998.495 360.071 1001.519 366.839 C
1001.519 419.471 L
f
0.000 0.000 0.000 1.000 k
797.183 419.471 m
763.271 419.471 L
763.271 366.839 L
766.007 360.071 794.159 360.071 797.183 366.839 C
797.183 419.471 L
f
0.000 0.000 0.000 1.000 K
0 j
0 J
0.215 w
[]0 d
0.000 0.000 0.000 0.498 k
803.087 764.855 m
967.247 764.855 L
967.247 745.055 L
949.391 747.503 L
937.799 750.743 928.655 750.023 919.871 745.343 C
901.871 747.503 885.743 753.191 873.359 746.855 C
870.191 744.335 L
850.823 750.743 837.287 750.743 821.447 745.343 C
803.087 740.807 L
803.087 764.855 L
b
0.000 0.000 0.000 1.000 K
0 j
0 J
0.215 w
[]0 d
0.000 0.000 0.000 0.498 k
967.535 419.471 m
797.327 419.471 L
797.327 399.815 L
816.335 402.263 L
827.927 405.503 837.071 404.783 845.855 400.175 C
863.855 402.263 879.983 407.951 892.367 401.615 C
895.535 399.095 L
914.903 405.503 933.623 405.503 949.391 400.175 C
967.535 395.639 L
967.535 419.471 L
b
0.000 0.000 0.000 1.000 K
0 j
0 J
0.215 w
[]0 d
0.000 0.000 0.000 0.498 k
801.431 931.463 m
857.447 935.783 913.535 935.783 969.695 931.463 c
972.719 931.247 974.807 928.583 975.383 925.775 c
985.607 873.647 l
986.111 870.767 983.087 867.815 979.919 867.959 c
918.503 870.263 852.407 870.263 791.063 867.959 c
787.895 867.815 784.871 870.911 785.375 873.647 c
795.743 925.775 l
796.247 928.367 798.407 931.247 801.431 931.463 c
b
0.000 0.000 0.000 1.000 K
0 j
0 J
0.215 w
[]0 d
0.000 0.000 0.000 0.498 k
959.039 584.207 m
948.815 584.855 943.847 585.791 933.623 586.223 C
933.623 524.519 L
968.615 524.519 L
971.495 524.519 974.735 527.975 974.303 530.207 C
964.727 578.519 l
964.295 580.823 961.991 583.991 959.039 584.207 c
b
0.000 0.000 0.000 1.000 K
0 j
0 J
0.215 w
[]0 d
0.000 0.000 0.000 0.498 k
913.103 587.015 m
874.079 588.240 838.151 586.943 799.199 584.207 c
796.391 583.991 793.943 581.111 793.511 578.519 c
784.943 529.847 L
784.583 527.327 787.391 524.519 790.559 524.519 C
799.631 524.519 L
803.231 531.216 L
824.543 564.551 869.471 563.543 890.423 532.727 C
894.959 524.591 L
913.103 524.591 L
913.103 587.015 L
b
0.000 0.000 0.000 1.000 K
0 j
0 J
0.215 w
[]0 d
0.000 0.000 0.000 0.200 k
956.735 582.407 m
948.095 582.911 945.359 583.631 936.431 584.063 C
936.359 526.391 L
966.095 526.391 L
968.831 526.391 971.927 529.919 971.567 531.791 C
962.135 577.007 l
961.703 579.096 959.615 582.192 956.735 582.407 c
b
0.000 0.000 0.000 1.000 K
0 j
0 J
0.215 w
[]0 d
0.000 0.000 0.000 0.200 k
910.439 585.503 m
872.855 586.439 837.791 585.359 801.575 582.839 c
798.911 582.623 796.607 579.815 796.175 577.439 c
787.535 531.719 L
787.031 529.415 789.983 526.535 792.863 526.535 C
800.351 526.535 L
804.023 532.943 L
813.815 548.063 833.183 557.351 848.951 556.271 c
857.807 555.695 864.287 553.031 871.127 549.863 c
877.751 546.767 884.735 540.935 889.055 534.599 C
893.951 526.391 L
910.439 526.391 L
910.439 585.503 L
b
0.000 0.000 0.000 1.000 K
0 j
0 J
0.215 w
[]0 d
0.000 0.000 0.000 0.498 k
769.607 881.855 m
761.327 881.855 L
758.303 881.855 755.855 879.335 755.855 876.383 C
755.855 855.575 L
755.855 852.623 758.303 850.103 761.327 850.103 C
773.999 850.103 L
775.079 855.575 L
775.079 876.383 L
775.079 879.335 772.631 881.855 769.607 881.855 C
b
0.000 0.000 0.000 1.000 K
0 j
0 J
0.215 w
[]0 d
0.000 0.000 0.000 0.498 k
996.119 544.823 m
1004.399 544.823 L
1007.423 544.823 1009.871 542.303 1009.871 539.351 C
1009.871 518.615 L
1009.871 515.663 1007.423 513.144 1004.399 513.144 C
991.727 513.144 L
990.647 518.615 L
990.647 539.351 L
990.647 542.303 993.095 544.823 996.119 544.823 C
b
0.000 0.000 0.000 1.000 K
0 j
0 J
0.215 w
[]0 d
0.000 0.000 0.000 0.498 k
1000.367 881.855 m
1008.575 881.855 L
1011.671 881.855 1014.047 879.335 1014.047 876.383 C
1014.047 855.575 L
1014.047 852.623 1011.671 850.103 1008.575 850.103 C
995.903 850.103 L
994.895 855.575 L
994.895 876.383 L
994.895 879.335 997.343 881.855 1000.367 881.855 C
b
0.000 0.000 0.000 1.000 K
0 j
0 J
0.215 w
[]0 d
0.000 0.000 0.000 0.498 k
765.359 544.823 m
757.151 544.823 L
754.055 544.823 751.679 542.303 751.679 539.351 C
751.679 518.615 L
751.679 515.663 754.055 513.144 757.151 513.144 C
769.751 513.144 L
770.831 518.615 L
770.831 539.351 L
770.831 542.303 768.383 544.823 765.359 544.823 C
b
0.000 0.000 0.000 1.000 K
0 j
0 J
0.215 w
[]0 d
821.159 864.863 m
855.359 866.159 915.335 866.159 949.535 864.863 C
946.583 843.335 L
912.383 843.767 858.311 843.767 824.111 843.335 C
821.159 864.863 L
s
u
u
0.000 0.000 0.000 1.000 K
0 j
0 J
0.215 w
[]0 d
772.199 840.815 m
776.735 833.687 L
993.527 833.687 L
998.783 840.815 L
S
U
U
0.000 0.000 0.000 1.000 K
0 j
0 J
0.215 w
[]0 d
0.000 0.000 0.000 0.298 k
818.495 830.087 m
769.679 830.087 L
769.679 805.895 L
818.495 805.895 L
820.079 805.895 821.375 807.191 821.375 808.775 C
821.375 827.207 L
821.375 828.791 820.079 830.087 818.495 830.087 C
b
0.000 0.000 0.000 1.000 K
0 j
0 J
0.215 w
[]0 d
0.000 0.000 0.000 0.000 k
817.055 827.855 m
785.303 827.855 l
783.935 827.855 782.999 826.919 782.999 825.551 c
782.999 809.711 l
782.999 808.343 783.935 807.407 785.303 807.407 c
817.055 807.407 l
818.423 807.407 819.359 808.343 819.359 809.711 c
819.359 825.551 l
819.359 826.919 818.423 827.855 817.055 827.855 c
b
0.000 0.000 0.000 1.000 K
0 j
0 J
0.215 w
[]0 d
0.000 0.000 0.000 0.098 k
778.031 827.855 m
769.679 827.855 L
769.679 807.407 L
778.031 807.407 l
779.039 807.407 779.903 808.271 779.903 809.279 c
779.903 825.983 l
779.903 826.991 779.039 827.855 778.031 827.855 c
b
u
u
0.000 0.000 0.000 1.000 K
0 j
0 J
0.215 w
[]0 d
763.991 793.799 m
1006.991 793.799 L
S
U
U
u
u
0.000 0.000 0.000 1.000 K
0 j
0 J
0.215 w
[]0 d
769.751 797.471 m
1000.583 797.471 L
S
U
U
u
u
0.000 0.000 0.000 1.000 K
0 j
0 J
0.215 w
[]0 d
769.751 800.351 m
1000.583 800.351 L
S
U
U
u
u
0.000 0.000 0.000 1.000 K
0 j
0 J
0.215 w
[]0 d
763.703 787.535 m
889.199 787.535 L
S
U
U
u
u
0.000 0.000 0.000 1.000 K
0 j
0 J
0.215 w
[]0 d
885.599 787.535 m
1006.487 787.535 L
S
U
U
u
u
0.000 0.000 0.000 1.000 K
0 j
0 J
0.215 w
[]0 d
763.991 785.231 m
895.391 785.231 L
S
U
U
u
u
0.000 0.000 0.000 1.000 K
0 j
0 J
0.215 w
[]0 d
888.119 785.231 m
1006.343 785.231 L
S
U
U
u
u
0.000 0.000 0.000 1.000 K
0 j
0 J
0.215 w
[]0 d
999.719 486.719 m
995.903 483.911 995.183 456.983 995.183 444.743 C
S
U
U
u
u
0.000 0.000 0.000 1.000 K
0 j
0 J
0.215 w
[]0 d
763.775 793.799 m
763.127 799.991 765.359 822.239 769.679 824.183 C
769.679 793.799 L
S
U
U
u
u
0.000 0.000 0.000 1.000 K
0 j
0 J
0.215 w
[]0 d
763.847 486.719 m
767.663 483.911 767.159 456.983 767.159 444.743 C
S
U
U
u
u
0.000 0.000 0.000 1.000 K
0 j
0 J
0.215 w
[]0 d
775.727 856.367 m
778.823 862.847 L
791.855 929.303 L
794.591 936.215 800.999 936.215 808.415 937.151 C
860.399 941.039 909.935 941.039 962.063 937.151 C
969.911 936.215 975.383 934.847 978.191 928.799 C
991.295 862.847 L
994.967 857.303 L
S
U
U
u
u
0.000 0.000 0.000 1.000 K
0 j
0 J
0.215 w
[]0 d
989.999 519.336 m
986.831 525.887 L
974.807 589.031 L
972.071 595.943 965.663 595.943 958.247 596.879 C
906.263 601.487 854.135 601.487 802.079 596.879 C
794.231 595.943 788.759 594.503 785.951 588.527 C
774.431 525.887 L
770.759 520.271 L
S
U
U
0.000 0.000 0.000 1.000 K
0 j
0 J
0.215 w
[]0 d
801.647 593.279 m
840.887 596.087 881.351 596.879 922.967 595.151 C
922.967 444.959 L
778.679 444.959 L
772.847 468.071 774.719 490.319 778.319 513.216 C
780.767 537.911 785.807 566.063 791.927 588.096 C
793.871 591.983 798.551 592.847 801.647 593.279 C
s
u
u
0.000 0.000 0.000 1.000 K
0 j
0 J
0.215 w
[]0 d
767.015 501.839 m
795.959 501.839 L
S
U
U
u
u
0.000 0.000 0.000 1.000 K
0 j
0 J
0.215 w
[]0 d
899.207 501.839 m
993.815 501.839 L
S
U
U
u
u
0.000 0.000 0.000 1.000 K
0 j
0 J
0.215 w
[]0 d
983.087 501.839 m
983.087 444.959 L
S
U
U
u
u
0.000 0.000 0.000 1.000 K
0 j
0 J
0.215 w
[]0 d
767.159 459.863 m
820.943 459.863 L
S
U
U
u
u
0.000 0.000 0.000 1.000 K
0 j
0 J
0.215 w
[]0 d
873.071 459.863 m
995.183 459.863 L
S
U
U
u
u
0.000 0.000 0.000 1.000 K
0 j
0 J
0.215 w
[]0 d
767.159 455.615 m
829.727 455.615 L
S
U
U
u
u
0.000 0.000 0.000 1.000 K
0 j
0 J
0.215 w
[]0 d
863.783 455.615 m
995.183 455.615 L
S
U
U
u
u
0.000 0.000 0.000 1.000 K
0 j
0 J
0.215 w
[]0 d
923.183 595.151 m
960.911 593.351 L
964.511 592.847 966.743 592.415 967.967 588.959 C
975.023 561.240 979.919 531.647 982.943 501.695 C
S
U
U
u
u
0.000 0.000 0.000 1.000 K
0 j
0 J
0.215 w
[]0 d
794.663 524.375 m
773.567 524.375 L
S
U
U
u
u
0.000 0.000 0.000 1.000 K
0 j
0 J
0.215 w
[]0 d
895.319 524.375 m
987.839 524.375 L
S
U
U
0.000 0.000 0.000 1.000 K
0 j
0 J
0.215 w
[]0 d
930.311 495.575 m
976.535 495.575 L
971.351 500.111 L
935.207 500.111 L
930.311 495.575 L
s
u
u
0.000 0.000 0.000 1.000 K
0 j
0 J
0.215 w
[]0 d
770.831 517.463 m
798.047 517.463 L
S
U
U
u
u
0.000 0.000 0.000 1.000 K
0 j
0 J
0.215 w
[]0 d
897.119 517.463 m
989.999 517.463 L
S
U
U
0.000 0.000 0.000 0.498 k
847.511 535.535 m
830.087 535.535 815.687 521.063 815.687 503.639 C
815.687 486.071 830.087 471.743 847.511 471.743 C
865.079 471.743 879.407 486.071 879.407 503.639 C
879.407 521.063 865.079 535.535 847.511 535.535 C
f
0.000 0.000 0.000 1.000 K
0 j
0 J
0.215 w
[]0 d
916.055 475.127 m
916.055 495.359 L
916.055 497.519 914.399 499.175 912.311 499.175 C
907.631 499.175 L
905.543 499.175 903.887 497.519 903.887 495.359 C
903.887 475.127 L
903.887 473.039 905.543 471.311 907.631 471.311 C
912.311 471.311 L
914.399 471.311 916.055 473.039 916.055 475.127 C
s
0.000 0.000 0.000 1.000 K
0 j
0 J
0.215 w
[]0 d
0.000 0.000 0.000 0.498 k
916.055 475.127 m
916.055 495.359 L
916.055 497.519 914.399 499.175 912.311 499.175 C
908.711 499.175 L
908.711 471.311 L
912.311 471.311 L
914.399 471.311 916.055 473.039 916.055 475.127 C
b
0.000 0.000 0.000 1.000 K
0 j
0 J
0.215 w
[]0 d
0.000 0.000 0.000 0.498 k
947.951 831.527 m
1001.087 831.527 L
1001.087 804.455 L
947.951 804.455 L
947.951 831.527 L
b
0.000 0.000 0.000 1.000 K
0 j
0 J
0.215 w
[]0 d
0.000 0.000 0.000 0.298 k
952.271 830.087 m
1001.087 830.087 L
1001.087 805.895 L
952.271 805.895 L
950.687 805.895 949.391 807.191 949.391 808.775 C
949.391 827.207 L
949.391 828.791 950.687 830.087 952.271 830.087 C
b
0.000 0.000 0.000 1.000 K
0 j
0 J
0.215 w
[]0 d
0.000 0.000 0.000 0.000 k
953.711 827.855 m
985.463 827.855 l
986.831 827.855 987.839 826.919 987.839 825.551 c
987.839 809.711 l
987.839 808.343 986.831 807.407 985.463 807.407 c
953.711 807.407 l
952.343 807.407 951.407 808.343 951.407 809.711 c
951.407 825.551 l
951.407 826.919 952.343 827.855 953.711 827.855 c
b
0.000 0.000 0.000 1.000 K
0 j
0 J
0.215 w
[]0 d
0.000 0.000 0.000 0.098 k
992.807 827.855 m
1001.087 827.855 L
1001.087 807.407 L
992.807 807.407 l
991.727 807.407 990.863 808.271 990.863 809.279 c
990.863 825.983 l
990.863 826.991 991.727 827.855 992.807 827.855 c
b
u
u
0.000 0.000 0.000 1.000 K
0 j
0 J
0.215 w
[]0 d
1006.991 793.799 m
1007.639 799.991 1005.407 822.239 1001.087 824.183 C
1001.087 793.799 L
S
U
U
0.000 0.000 0.000 1.000 K
0 j
0 J
0.215 w
[]0 d
0.000 0.000 0.000 0.498 k
832.103 782.855 m
849.743 782.855 867.383 782.855 885.095 782.855 c
902.663 782.855 920.303 782.855 938.015 782.855 c
938.375 782.855 938.519 782.423 938.663 782.279 c
938.735 781.991 938.951 781.631 938.879 781.271 c
938.735 780.839 938.447 780.263 938.231 779.903 c
938.015 779.471 937.727 779.039 937.583 778.463 c
937.511 778.103 936.863 777.527 936.647 777.311 c
936.359 777.095 935.999 777.023 935.495 777.023 c
918.719 777.023 901.943 777.023 885.095 777.023 c
868.175 777.023 851.327 777.023 834.479 777.023 c
834.119 777.023 833.471 777.095 833.255 777.311 c
832.967 777.527 832.679 778.103 832.535 778.463 c
832.463 779.039 832.031 779.471 831.887 779.903 c
831.815 780.191 831.383 780.839 831.311 781.271 c
831.167 781.631 830.951 782.063 831.167 782.279 c
831.311 782.495 831.671 782.855 832.103 782.855 c
b
0.000 0.000 0.000 1.000 K
0 j
0 J
0.215 w
[]0 d
0.000 0.000 0.000 0.498 k
832.103 775.511 m
849.743 775.511 867.383 775.511 885.095 775.511 c
902.663 775.511 920.303 775.511 938.015 775.511 c
938.375 775.511 938.519 775.151 938.663 775.007 c
938.735 774.719 938.951 774.359 938.879 773.927 c
938.735 773.567 938.447 772.991 938.231 772.559 c
938.015 772.199 937.727 771.767 937.583 771.191 c
937.511 770.831 936.863 770.255 936.647 770.039 c
936.359 769.823 935.999 769.751 935.495 769.751 c
918.719 769.751 901.943 769.751 885.095 769.751 c
868.175 769.751 851.327 769.751 834.479 769.751 c
834.119 769.751 833.471 769.823 833.255 770.039 c
832.967 770.255 832.679 770.831 832.535 771.191 c
832.463 771.767 832.031 772.199 831.887 772.559 c
831.815 772.919 831.383 773.567 831.311 773.927 c
831.167 774.359 830.951 774.791 831.167 775.007 c
831.311 775.223 831.671 775.511 832.103 775.511 c
b
0.000 0.000 0.000 1.000 K
0 j
0 J
0.215 w
[]0 d
0.000 0.000 0.000 0.098 k
815.111 781.343 m
813.167 781.343 811.007 781.343 808.991 781.343 c
806.903 781.343 804.887 781.343 802.943 781.343 c
801.647 781.343 800.711 780.479 800.711 779.327 c
800.711 778.463 800.711 777.311 800.711 776.519 c
800.711 775.439 800.711 774.359 800.711 773.423 c
800.711 772.343 801.503 771.623 802.583 771.623 c
804.311 771.623 805.967 771.623 807.623 771.623 c
809.423 771.623 811.007 771.623 812.735 771.623 c
813.743 771.623 814.967 772.487 815.255 773.423 c
815.471 774.359 815.759 775.511 816.119 776.519 c
816.335 777.311 816.695 778.607 816.911 779.327 c
817.127 780.479 816.479 781.343 815.111 781.343 c
b
0.000 0.000 0.000 1.000 K
0 j
0 J
0.215 w
[]0 d
0.000 0.000 0.000 0.098 k
956.087 781.343 m
958.103 781.343 960.191 781.343 962.207 781.343 c
964.295 781.343 966.311 781.343 968.327 781.343 c
969.551 781.343 970.487 780.479 970.487 779.327 c
970.487 778.463 970.487 777.311 970.487 776.519 c
970.487 775.439 970.487 774.359 970.487 773.423 c
970.487 772.343 969.695 771.623 968.615 771.623 c
966.959 771.623 965.231 771.623 963.575 771.623 c
961.775 771.623 960.191 771.623 958.463 771.623 c
957.455 771.623 956.303 772.487 955.943 773.423 c
955.727 774.359 955.439 775.511 955.151 776.519 c
954.935 777.311 954.503 778.607 954.287 779.327 c
954.071 780.479 954.719 781.343 956.087 781.343 c
b
0.000 0.000 0.000 1.000 K
0 j
0 J
0.215 w
[]0 d
0.000 0.000 0.000 0.498 k
832.103 831.959 m
938.375 831.959 l
940.031 831.959 941.327 830.735 941.327 829.007 c
941.327 804.455 l
941.327 802.727 940.031 801.503 938.375 801.503 c
832.103 801.503 l
830.447 801.503 829.151 802.727 829.151 804.455 c
829.151 829.007 l
829.151 830.735 830.447 831.959 832.103 831.959 c
b
u
u
0.000 0.000 0.000 1.000 K
0 j
0 J
0.215 w
[]0 d
834.263 832.103 m
834.263 801.359 L
S
U
U
u
u
0.000 0.000 0.000 1.000 K
0 j
0 J
0.215 w
[]0 d
838.583 832.103 m
838.583 801.359 L
S
U
U
u
u
0.000 0.000 0.000 1.000 K
0 j
0 J
0.215 w
[]0 d
842.687 832.103 m
842.687 801.359 L
S
U
U
u
u
0.000 0.000 0.000 1.000 K
0 j
0 J
0.215 w
[]0 d
846.791 832.103 m
846.791 801.359 L
S
U
U
u
u
0.000 0.000 0.000 1.000 K
0 j
0 J
0.215 w
[]0 d
850.895 832.103 m
850.895 801.359 L
S
U
U
u
u
0.000 0.000 0.000 1.000 K
0 j
0 J
0.215 w
[]0 d
854.999 832.103 m
854.999 801.359 L
S
U
U
u
u
0.000 0.000 0.000 1.000 K
0 j
0 J
0.215 w
[]0 d
859.103 832.103 m
859.103 801.359 L
S
U
U
u
u
0.000 0.000 0.000 1.000 K
0 j
0 J
0.215 w
[]0 d
863.207 832.103 m
863.207 801.359 L
S
U
U
u
u
0.000 0.000 0.000 1.000 K
0 j
0 J
0.215 w
[]0 d
867.383 832.103 m
867.383 801.359 L
S
U
U
u
u
0.000 0.000 0.000 1.000 K
0 j
0 J
0.215 w
[]0 d
871.487 832.103 m
871.487 801.359 L
S
U
U
u
u
0.000 0.000 0.000 1.000 K
0 j
0 J
0.215 w
[]0 d
875.591 832.103 m
875.591 801.359 L
S
U
U
u
u
0.000 0.000 0.000 1.000 K
0 j
0 J
0.215 w
[]0 d
879.695 832.103 m
879.695 801.359 L
S
U
U
u
u
0.000 0.000 0.000 1.000 K
0 j
0 J
0.215 w
[]0 d
883.799 832.103 m
883.799 801.359 L
S
U
U
u
u
0.000 0.000 0.000 1.000 K
0 j
0 J
0.215 w
[]0 d
887.903 832.103 m
887.903 801.359 L
S
U
U
u
u
0.000 0.000 0.000 1.000 K
0 j
0 J
0.215 w
[]0 d
892.007 832.103 m
892.007 801.359 L
S
U
U
u
u
0.000 0.000 0.000 1.000 K
0 j
0 J
0.215 w
[]0 d
896.183 832.103 m
896.183 801.359 L
S
U
U
u
u
0.000 0.000 0.000 1.000 K
0 j
0 J
0.215 w
[]0 d
900.287 832.103 m
900.287 801.359 L
S
U
U
u
u
0.000 0.000 0.000 1.000 K
0 j
0 J
0.215 w
[]0 d
904.391 832.103 m
904.391 801.359 L
S
U
U
u
u
0.000 0.000 0.000 1.000 K
0 j
0 J
0.215 w
[]0 d
908.495 832.103 m
908.495 801.359 L
S
U
U
u
u
0.000 0.000 0.000 1.000 K
0 j
0 J
0.215 w
[]0 d
912.599 832.103 m
912.599 801.359 L
S
U
U
u
u
0.000 0.000 0.000 1.000 K
0 j
0 J
0.215 w
[]0 d
916.703 832.103 m
916.703 801.359 L
S
U
U
u
u
0.000 0.000 0.000 1.000 K
0 j
0 J
0.215 w
[]0 d
920.807 832.103 m
920.807 801.359 L
S
U
U
u
u
0.000 0.000 0.000 1.000 K
0 j
0 J
0.215 w
[]0 d
924.983 832.103 m
924.983 801.359 L
S
U
U
u
u
0.000 0.000 0.000 1.000 K
0 j
0 J
0.215 w
[]0 d
929.087 832.103 m
929.087 801.359 L
S
U
U
u
u
0.000 0.000 0.000 1.000 K
0 j
0 J
0.215 w
[]0 d
933.191 832.103 m
933.191 801.359 L
S
U
U
u
u
0.000 0.000 0.000 1.000 K
0 j
0 J
0.215 w
[]0 d
937.295 832.103 m
937.295 801.359 L
S
U
U
u
u
0.000 0.000 0.000 1.000 K
0 j
0 J
0.215 w
[]0 d
824.543 843.335 m
810.287 843.263 791.639 843.335 780.119 841.607 C
S
U
U
u
u
0.000 0.000 0.000 1.000 K
0 j
0 J
0.215 w
[]0 d
945.935 843.335 m
960.191 843.263 979.487 843.335 991.007 841.607 C
S
U
U
u
u
0.000 0.000 0.000 1.000 K
0 j
0 J
0.215 w
[]0 d
781.847 831.455 m
781.847 864.647 L
S
U
U
u
u
0.000 0.000 0.000 1.000 K
0 j
0 J
0.215 w
[]0 d
989.279 831.455 m
989.279 864.647 L
S
U
U
0.000 0.000 0.000 1.000 K
0 j
0 J
0.215 w
[]0 d
885.311 836.063 m
887.111 836.063 888.695 837.647 888.695 839.591 c
888.695 841.391 887.111 842.975 885.311 842.975 c
883.367 842.975 881.783 841.391 881.783 839.591 c
881.783 837.647 883.367 836.063 885.311 836.063 c
s
0.000 0.000 0.000 1.000 k
974.807 507.023 m
973.871 507.023 L
973.871 502.991 L
977.039 502.991 L
977.039 503.639 L
974.807 503.639 L
974.807 507.023 L
f
0.000 0.000 0.000 1.000 k
970.631 506.375 m
972.935 506.375 L
972.935 507.023 L
969.767 507.023 L
969.767 502.991 L
972.935 502.991 L
972.935 503.495 L
970.631 503.495 L
970.631 504.647 L
972.935 504.647 L
972.935 505.295 L
970.631 505.295 L
970.631 506.375 L
f
0.000 0.000 0.000 1.000 k
965.375 502.991 m
966.167 502.991 L
966.167 504.215 L
967.247 504.215 L
967.751 504.215 968.399 504.143 968.831 504.431 C
969.119 504.791 969.119 505.223 969.119 505.511 C
969.119 506.879 968.543 507.023 967.247 507.023 C
965.375 507.023 L
965.375 502.991 L
f
0.000 0.000 0.000 1.000 k
960.479 504.863 m
960.479 504.791 960.479 504.575 960.479 504.431 C
960.479 503.063 961.055 502.991 962.495 502.991 C
964.583 502.991 964.727 503.423 964.727 505.007 C
964.727 505.223 L
964.727 505.439 964.727 505.511 964.583 505.727 C
964.511 506.879 963.575 507.023 962.495 507.023 C
960.623 507.023 960.479 506.231 960.479 504.863 C
f
0.000 0.000 0.000 1.000 K
0 j
0 J
0.215 w
[]0 d
935.279 492.767 m
972.215 492.767 l
975.815 492.767 978.623 489.887 978.623 486.287 c
978.623 469.727 l
978.623 466.199 975.815 463.319 972.215 463.319 c
935.279 463.319 l
931.679 463.319 928.871 466.199 928.871 469.727 c
928.871 486.287 l
928.871 489.887 931.679 492.767 935.279 492.767 c
s
u
u
0.000 0.000 0.000 1.000 K
0 j
0 J
0.215 w
[]0 d
934.775 463.463 m
879.407 463.463 L
S
U
U
u
u
0.000 0.000 0.000 1.000 K
0 j
0 J
0.215 w
[]0 d
816.119 463.463 m
775.799 463.463 L
S
U
U
u
u
0.000 0.000 0.000 1.000 K
0 j
0 J
0.215 w
[]0 d
971.279 464.255 m
983.159 464.255 L
S
U
U
0.000 0.000 0.000 0.000 k
966.167 504.863 m
966.167 506.231 L
967.319 506.231 L
968.111 506.231 968.183 506.159 968.183 505.511 C
968.183 505.007 967.895 504.863 967.247 504.863 C
966.167 504.863 L
f
0.000 0.000 0.000 0.000 k
961.415 504.863 m
961.415 506.015 961.199 506.375 962.711 506.375 C
963.647 506.375 963.791 506.159 963.791 505.439 C
963.791 505.007 963.791 504.647 963.791 504.359 C
963.647 503.639 963.359 503.495 962.495 503.495 C
961.847 503.495 961.559 503.495 961.415 504.143 C
961.415 504.431 961.415 504.647 961.415 504.863 C
f
0.000 0.000 0.000 1.000 K
0 j
0 J
0.215 w
[]0 d
0.000 0.000 0.000 0.200 k
802.871 929.735 m
856.079 933.839 914.255 933.839 967.535 929.735 c
970.415 929.519 972.431 926.927 972.935 924.335 c
983.087 875.015 l
983.591 872.423 980.639 869.543 977.687 869.615 c
919.367 871.847 851.327 871.847 793.079 869.615 c
790.055 869.543 787.175 872.567 787.679 875.015 c
797.471 924.335 l
797.903 926.855 799.991 929.519 802.871 929.735 c
b
0.000 0.000 0.000 1.000 K
0 j
0 J
1.008 w
[]0 d
78.119 831.455 m
58.895 831.455 L
56.735 822.815 56.735 802.655 58.679 793.799 C
69.983 793.799 L
73.583 794.447 76.031 796.751 78.119 798.767 C
78.119 831.455 L
s
0.000 0.000 0.000 1.000 K
0 j
0 J
1.008 w
[]0 d
594.503 495.143 m
613.655 495.143 L
615.887 486.503 615.887 466.415 613.871 457.487 C
602.567 457.487 L
599.039 458.135 596.591 460.439 594.503 462.455 C
594.503 495.143 L
s
0.000 0.000 0.000 1.000 K
0 j
0 J
0.863 w
[]0 d
0.000 0.000 0.000 0.000 k
292.103 937.799 m
294.335 938.807 295.632 939.455 297.719 939.599 C
398.591 946.223 445.175 944.207 548.351 942.839 C
553.751 942.839 561.959 940.103 565.559 933.839 C
595.943 855.935 L
599.255 855.935 602.207 855.503 605.015 853.055 C
609.911 845.351 606.311 830.087 595.727 830.303 C
595.727 806.687 L
537.695 806.687 L
534.959 816.551 527.111 826.055 518.759 827.135 C
446.759 827.135 L
437.903 827.207 430.415 826.055 422.423 822.239 C
414.287 817.199 406.295 809.855 403.559 800.567 C
402.983 798.983 402.335 797.975 400.751 797.039 C
220.391 797.039 L
217.655 797.039 216.287 798.623 215.855 800.567 C
201.455 821.447 L
196.343 825.551 191.015 826.991 177.983 827.135 C
122.759 827.207 L
111.527 826.631 101.879 822.671 96.263 819.071 C
93.167 817.703 91.655 815.615 89.207 813.023 C
78.119 798.551 L
78.119 825.983 L
78.119 829.727 75.599 830.807 72.000 831.455 C
59.039 831.455 L
59.543 833.255 60.695 834.479 62.711 834.839 C
108.575 847.295 168.335 858.743 224.207 863.423 C
239.471 886.535 260.783 911.807 280.512 929.015 C
284.111 932.471 288.215 934.919 292.103 937.799 C
b
0.000 0.000 0.000 1.000 K
0 j
0 J
0.863 w
[]0 d
0.000 0.000 0.000 0.000 k
380.447 601.487 m
378.215 602.567 376.919 603.216 374.831 603.288 C
273.959 609.911 227.375 607.967 124.199 606.599 C
118.799 606.599 110.591 603.791 106.991 597.599 C
76.607 519.623 L
73.367 519.623 70.415 519.192 67.536 516.815 C
62.711 509.111 66.311 493.775 76.823 493.991 C
76.823 470.375 L
134.855 470.375 L
137.591 480.311 145.512 489.815 153.863 490.823 C
225.791 490.823 L
234.647 490.967 242.135 489.815 250.127 485.999 C
258.263 480.959 266.327 473.543 269.063 464.255 C
269.567 462.671 270.215 461.735 271.799 460.799 C
452.159 460.799 L
454.895 460.799 456.263 462.383 456.695 464.255 C
471.167 485.135 L
476.207 489.239 481.607 490.751 494.567 490.823 C
549.863 490.967 L
561.024 490.319 570.743 486.431 576.359 482.831 C
579.383 481.463 580.967 479.375 583.415 476.711 C
594.503 462.239 L
594.503 489.671 L
594.503 493.487 597.024 494.567 600.623 495.143 C
613.583 495.143 L
613.079 496.943 611.855 498.239 609.911 498.527 C
563.975 510.983 504.287 522.503 448.343 527.111 C
433.079 550.223 411.767 575.567 392.039 592.775 C
388.439 596.231 384.335 598.679 380.447 601.487 C
b
0.000 0.000 0.000 1.000 K
0 j
0 J
0.215 w
[]0 d
296.495 928.511 m
374.399 929.447 L
374.399 754.415 L
236.015 754.415 L
228.239 754.127 225.791 760.319 224.135 764.279 C
218.807 797.903 217.223 833.039 231.191 854.855 C
282.024 922.031 L
284.039 925.127 290.375 928.151 296.495 928.511 C
s
0.000 0.000 0.000 1.000 K
0 j
0 J
0.215 w
[]0 d
376.127 592.199 m
298.151 593.135 L
298.151 418.175 L
436.535 418.175 L
444.311 417.887 446.759 424.079 448.487 427.967 C
453.743 461.663 455.327 496.727 441.359 518.615 C
390.527 585.791 L
388.511 588.815 382.247 591.911 376.127 592.199 C
s
0.000 0.000 0.000 1.000 k
603.431 889.343 m
605.879 894.239 627.911 894.239 631.007 889.343 C
631.007 802.943 L
627.839 798.407 602.567 799.991 603.431 803.159 C
603.575 806.543 L
603.575 833.255 L
607.967 837.575 610.199 851.399 603.431 854.639 C
603.431 889.343 L
f
0.000 0.000 0.000 1.000 k
69.119 553.103 m
66.743 557.927 44.711 557.927 41.615 553.103 C
41.615 466.703 L
44.783 462.167 69.983 463.751 69.119 466.919 C
69.048 470.303 L
69.048 496.943 L
64.583 501.263 62.423 515.087 69.119 518.399 C
69.119 553.103 L
f
0.000 0.000 0.000 1.000 K
0 j
0 J
0.215 w
[]0 d
0.000 0.000 0.000 0.098 k
70.920 831.455 m
58.895 831.455 L
57.311 822.599 56.735 812.807 57.455 803.807 C
72.935 803.807 L
76.463 803.807 78.119 805.319 78.119 808.271 C
78.119 825.983 L
78.119 829.367 75.455 831.311 70.920 831.455 C
b
0.000 0.000 0.000 1.000 K
0 j
0 J
0.215 w
[]0 d
0.000 0.000 0.000 0.098 k
601.631 495.143 m
613.655 495.143 L
615.240 486.287 615.887 476.495 615.168 467.567 C
599.615 467.567 L
596.159 467.567 594.503 469.007 594.503 471.959 C
594.503 489.671 L
594.503 493.055 597.096 495.071 601.631 495.143 C
b
0.000 0.000 0.000 1.000 K
0 j
0 J
0.215 w
[]0 d
0.000 0.000 0.000 0.498 k
85.319 750.743 m
90.575 746.639 92.591 746.135 96.911 747.071 C
99.287 819.935 202.607 817.919 200.159 741.815 C
212.831 745.919 L
207.431 770.399 199.511 789.119 189.791 808.559 C
188.639 811.079 187.487 812.015 184.463 811.799 C
117.143 811.799 L
113.543 811.943 110.951 810.863 108.935 808.559 C
95.399 795.023 90.215 777.239 89.063 762.263 C
73.799 762.263 l
71.495 762.263 86.111 752.471 85.319 750.743 C
b
0.000 0.000 0.000 1.000 K
0 j
0 J
0.215 w
[]0 d
0.000 0.000 0.000 0.498 k
587.303 414.503 m
582.048 410.399 580.031 409.823 575.711 410.759 C
573.264 483.695 469.943 481.679 472.391 405.503 C
459.719 409.607 L
465.119 434.087 473.039 452.879 482.759 472.319 C
483.911 474.839 485.063 475.775 488.159 475.559 C
555.479 475.559 L
559.007 475.631 561.671 474.623 563.687 472.319 C
577.151 458.783 582.336 440.927 583.487 425.951 C
598.823 425.951 l
601.127 425.951 586.439 416.159 587.303 414.503 C
b
0.000 0.000 0.000 1.000 K
0 j
0 J
0.215 w
[]0 d
0.000 0.000 0.000 0.498 k
407.879 754.343 m
406.511 743.903 L
421.127 741.023 L
420.839 744.983 420.839 749.303 421.127 753.407 C
428.975 812.879 510.407 817.127 523.511 757.295 C
534.671 759.815 L
547.559 763.127 551.447 767.519 550.943 767.519 c
533.303 767.447 L
530.567 782.927 527.183 796.535 516.527 808.343 c
515.231 809.855 514.295 812.231 505.799 812.231 C
442.007 812.231 L
436.247 812.231 432.287 809.711 429.911 808.055 c
417.887 799.775 410.471 775.223 407.879 754.343 C
b
0.000 0.000 0.000 1.000 K
0 j
0 J
0.215 w
[]0 d
0.000 0.000 0.000 0.498 k
264.743 418.103 m
266.111 407.663 L
251.423 404.783 L
251.711 408.671 251.711 412.991 251.423 417.095 C
243.647 476.639 162.215 480.815 149.111 421.055 C
137.951 423.575 L
125.063 426.815 121.175 431.279 121.679 431.279 c
139.319 431.135 L
142.055 446.687 145.439 460.295 156.095 472.103 c
157.319 473.543 158.256 475.991 166.823 475.991 C
230.543 475.991 L
236.303 475.991 240.263 473.471 242.639 471.743 c
254.663 463.535 262.079 438.983 264.743 418.103 C
b
0.000 0.000 0.000 1.000 K
0 j
0 J
0.863 w
[]0 d
58.607 793.799 m
69.983 793.799 L
81.000 795.455 87.119 816.119 98.783 820.511 C
105.047 823.751 113.471 826.487 122.183 827.207 C
178.127 827.135 L
187.631 827.135 198.287 825.983 202.247 820.511 C
215.855 800.567 L
216.647 799.199 216.791 797.615 219.959 797.039 C
400.391 797.039 L
402.263 796.967 403.415 798.767 403.847 800.567 C
406.151 811.295 420.263 821.735 426.959 823.823 C
432.431 826.271 438.767 827.135 445.895 827.135 C
519.408 827.135 L
526.895 826.271 535.607 816.911 538.343 806.687 C
596.303 806.687 L
596.303 795.671 L
607.031 795.671 L
608.399 783.863 L
606.527 774.143 L
597.743 772.775 L
583.055 767.303 563.327 767.303 550.583 767.663 C
533.087 767.447 L
529.847 787.895 526.031 797.399 516.096 808.343 C
514.655 811.511 509.903 812.231 505.223 812.231 C
441.359 812.231 L
434.519 811.943 430.631 808.631 426.167 805.103 C
415.943 793.799 411.839 777.959 408.239 754.343 C
406.583 743.903 L
213.695 743.399 L
208.727 768.167 200.159 788.543 190.223 808.127 C
188.783 811.223 187.847 812.159 183.383 811.799 C
117.071 811.799 L
113.975 811.727 110.807 810.791 108.359 807.911 C
96.983 796.031 90.359 779.039 89.279 762.263 C
66.743 762.263 L
61.775 762.479 57.527 765.215 55.007 767.519 C
52.703 769.823 49.247 773.207 48.023 775.943 C
48.023 787.247 L
52.415 787.895 56.159 790.199 58.607 793.799 C
s
0.000 0.000 0.000 1.000 K
0 j
0 J
0.863 w
[]0 d
614.015 457.487 m
602.567 457.487 L
591.623 459.215 585.503 479.879 573.839 484.199 C
567.575 487.511 559.151 490.247 550.367 490.967 C
494.495 490.823 L
484.919 490.823 474.335 489.671 470.303 484.199 C
456.695 464.255 L
455.975 462.887 455.759 461.303 452.591 460.799 C
272.231 460.799 L
270.287 460.655 269.135 462.455 268.704 464.255 C
266.399 475.055 252.287 485.495 245.591 487.583 C
240.119 490.031 233.783 490.823 226.655 490.823 C
153.215 490.823 L
145.727 490.031 136.943 480.599 134.207 470.375 C
76.319 470.375 L
76.319 459.431 L
65.591 459.431 L
64.223 447.623 L
66.095 437.903 L
74.879 436.535 L
89.495 431.063 109.223 431.063 121.967 431.351 C
139.536 431.135 L
142.775 451.583 146.591 461.087 156.455 472.103 C
157.967 475.271 162.719 475.991 167.327 475.991 C
231.191 475.991 L
238.031 475.631 241.919 472.391 246.383 468.791 C
256.608 457.487 260.711 441.719 264.311 418.103 C
265.967 407.663 L
458.927 407.087 L
463.823 431.855 472.391 452.231 482.327 471.887 C
483.767 474.911 484.775 475.847 489.239 475.559 C
555.551 475.559 L
558.647 475.487 561.815 474.479 564.192 471.671 C
575.567 459.719 582.264 442.727 583.271 425.951 C
605.879 425.951 L
610.847 426.167 615.024 428.903 617.615 431.279 C
619.919 433.583 623.375 436.967 624.527 439.703 C
624.527 451.007 L
620.207 451.583 616.391 453.959 614.015 457.487 C
s
0.000 0.000 0.000 1.000 k
148.679 697.247 m
177.119 697.247 200.303 720.503 200.303 749.015 c
200.303 777.527 177.119 800.711 148.679 800.711 c
120.095 800.711 96.911 777.527 96.911 749.015 c
96.911 720.503 120.095 697.247 148.679 697.247 c
f
0.000 0.000 0.000 1.000 k
523.943 361.007 m
495.503 361.007 472.247 384.191 472.247 412.775 c
472.247 441.215 495.503 464.471 523.943 464.471 c
552.455 464.471 575.711 441.215 575.711 412.775 c
575.711 384.191 552.455 361.007 523.943 361.007 c
f
0.000 0.000 0.000 1.000 k
472.607 697.247 m
501.047 697.247 524.303 720.503 524.303 749.015 c
524.303 777.527 501.047 800.711 472.607 800.711 c
444.023 800.711 420.839 777.527 420.839 749.015 c
420.839 720.503 444.023 697.247 472.607 697.247 c
f
0.000 0.000 0.000 1.000 k
199.943 361.007 m
171.503 361.007 148.319 384.191 148.319 412.775 c
148.319 441.215 171.503 464.471 199.943 464.471 c
228.527 464.471 251.711 441.215 251.711 412.775 c
251.711 384.191 228.527 361.007 199.943 361.007 c
f
0.000 0.000 0.000 1.000 K
0 j
0 J
0.215 w
[]0 d
0.000 0.000 0.000 0.000 k
148.607 780.695 m
166.031 780.695 180.359 766.223 180.359 748.799 C
180.359 731.231 166.031 716.903 148.607 716.903 C
131.039 716.903 116.711 731.231 116.711 748.799 C
116.711 766.223 131.039 780.695 148.607 780.695 C
b
0.000 0.000 0.000 1.000 K
0 j
0 J
0.215 w
[]0 d
0.000 0.000 0.000 0.000 k
524.015 444.383 m
506.519 444.383 492.191 429.911 492.191 412.487 C
492.191 394.919 506.519 380.591 524.015 380.591 C
541.583 380.591 555.911 394.919 555.911 412.487 C
555.911 429.911 541.583 444.383 524.015 444.383 C
b
0.000 0.000 0.000 1.000 K
0 j
0 J
0.215 w
[]0 d
148.607 777.311 m
132.695 777.311 119.951 764.567 119.951 748.799 C
119.951 732.887 132.695 720.071 148.607 720.071 C
164.375 720.071 177.191 732.887 177.191 748.799 C
177.191 764.567 164.375 777.311 148.607 777.311 C
s
0.000 0.000 0.000 1.000 K
0 j
0 J
0.215 w
[]0 d
524.015 441.071 m
539.855 441.071 552.671 428.255 552.671 412.487 C
552.671 396.647 539.855 383.831 524.015 383.831 C
508.247 383.831 495.431 396.647 495.431 412.487 C
495.431 428.255 508.247 441.071 524.015 441.071 C
s
0.000 0.000 0.000 1.000 K
0 j
0 J
0.215 w
[]0 d
0.000 0.000 0.000 0.098 k
148.607 771.767 m
161.280 771.767 171.575 761.399 171.575 748.799 C
171.575 735.983 161.280 725.687 148.607 725.687 C
135.792 725.687 125.495 735.983 125.495 748.799 C
125.495 761.399 135.792 771.767 148.607 771.767 C
b
0.000 0.000 0.000 1.000 K
0 j
0 J
0.215 w
[]0 d
0.000 0.000 0.000 0.098 k
524.015 435.527 m
511.343 435.527 500.975 425.159 500.975 412.487 C
500.975 399.743 511.343 389.375 524.015 389.375 C
536.759 389.375 547.127 399.743 547.127 412.487 C
547.127 425.159 536.759 435.527 524.015 435.527 C
b
0.000 0.000 0.000 1.000 K
0 j
0 J
0.215 w
[]0 d
0.000 0.000 0.000 0.000 k
148.607 769.463 m
137.231 769.463 127.799 760.031 127.799 748.799 C
127.799 737.423 137.231 727.991 148.607 727.991 C
159.839 727.991 169.271 737.423 169.271 748.799 C
169.271 760.031 159.839 769.463 148.607 769.463 C
b
0.000 0.000 0.000 1.000 K
0 j
0 J
0.215 w
[]0 d
0.000 0.000 0.000 0.000 k
524.015 433.151 m
535.319 433.151 544.751 423.719 544.751 412.487 C
544.751 401.111 535.319 391.679 524.015 391.679 C
512.783 391.679 503.351 401.111 503.351 412.487 C
503.351 423.719 512.783 433.151 524.015 433.151 C
b
0.000 0.000 0.000 1.000 k
157.247 763.919 m
151.560 767.663 145.799 767.087 140.615 764.279 C
148.751 758.087 L
157.247 763.919 L
f
0.000 0.000 0.000 1.000 k
515.303 427.607 m
520.991 431.351 526.823 430.847 532.007 427.967 C
523.871 421.775 L
515.303 427.607 L
f
0.000 0.000 0.000 1.000 k
133.991 757.655 m
132.623 755.855 128.447 748.871 133.991 739.439 C
139.463 749.447 L
133.991 757.655 L
f
0.000 0.000 0.000 1.000 k
538.559 421.415 m
540.000 419.615 544.103 412.631 538.559 403.199 C
533.159 413.135 L
538.559 421.415 L
f
0.000 0.000 0.000 1.000 k
162.575 738.575 m
166.175 745.919 166.319 751.103 162.935 757.943 C
157.031 747.863 L
162.575 738.575 L
f
0.000 0.000 0.000 1.000 k
510.047 402.263 m
506.447 409.679 506.303 414.863 509.615 421.703 C
515.591 411.623 L
510.047 402.263 L
f
0.000 0.000 0.000 1.000 k
157.031 733.391 m
148.607 739.583 L
139.967 734.327 L
146.015 729.647 151.199 731.087 157.031 733.391 C
f
0.000 0.000 0.000 1.000 k
515.591 397.151 m
524.015 403.343 L
532.655 398.015 L
526.535 393.407 521.423 394.775 515.591 397.151 C
f
0.000 0.000 0.000 1.000 K
0 j
0 J
0.215 w
[]0 d
0.000 0.000 0.000 0.498 k
142.775 753.263 m
145.007 753.911 145.367 757.439 141.768 757.295 C
139.679 756.143 140.328 753.263 142.775 753.263 C
b
0.000 0.000 0.000 1.000 K
0 j
0 J
0.215 w
[]0 d
0.000 0.000 0.000 0.498 k
529.775 417.023 m
527.615 417.671 527.183 421.127 530.855 421.055 C
532.871 419.831 532.223 417.023 529.775 417.023 C
b
0.000 0.000 0.000 1.000 K
0 j
0 J
0.215 w
[]0 d
0.000 0.000 0.000 0.498 k
154.943 757.007 m
152.711 756.791 152.855 755.135 153.000 754.199 C
153.503 753.047 154.151 752.543 155.304 752.543 C
156.455 752.759 157.247 753.911 157.391 754.703 C
157.031 755.999 156.239 756.935 154.943 757.007 C
b
0.000 0.000 0.000 1.000 K
0 j
0 J
0.215 w
[]0 d
0.000 0.000 0.000 0.498 k
517.679 420.767 m
519.839 420.479 519.695 418.823 519.623 417.959 C
519.048 416.735 518.399 416.231 517.247 416.231 C
516.096 416.519 515.303 417.671 515.231 418.463 C
515.591 419.759 516.384 420.623 517.679 420.767 C
b
0.000 0.000 0.000 1.000 K
0 j
0 J
0.215 w
[]0 d
0.000 0.000 0.000 0.498 k
141.911 744.263 m
139.679 743.831 139.679 742.175 139.823 741.671 C
140.111 739.727 143.207 739.367 143.855 741.167 C
144.503 742.967 143.351 744.119 141.911 744.263 C
b
0.000 0.000 0.000 1.000 K
0 j
0 J
0.215 w
[]0 d
0.000 0.000 0.000 0.498 k
530.711 407.951 m
532.871 407.591 532.871 405.935 532.799 405.431 C
532.511 403.487 529.415 403.055 528.767 404.855 C
528.120 406.655 529.271 407.879 530.711 407.951 C
b
0.000 0.000 0.000 1.000 K
0 j
0 J
0.215 w
[]0 d
0.000 0.000 0.000 0.498 k
152.855 742.463 m
152.855 739.079 156.887 739.439 157.031 742.175 C
156.455 745.271 153.287 743.831 152.855 742.463 C
b
0.000 0.000 0.000 1.000 K
0 j
0 J
0.215 w
[]0 d
0.000 0.000 0.000 0.498 k
519.695 406.151 m
519.695 402.839 515.735 403.199 515.591 405.935 C
516.096 409.031 519.336 407.591 519.695 406.151 C
b
0.000 0.000 0.000 1.000 K
0 j
0 J
0.215 w
[]0 d
0.000 0.000 0.000 0.498 k
148.751 752.255 m
150.839 752.255 152.639 750.455 152.639 748.511 C
152.639 746.423 150.839 744.623 148.751 744.623 C
146.663 744.623 145.007 746.423 145.007 748.511 C
145.007 750.455 146.663 752.255 148.751 752.255 C
b
0.000 0.000 0.000 1.000 K
0 j
0 J
0.215 w
[]0 d
0.000 0.000 0.000 0.498 k
523.871 416.015 m
521.783 416.015 519.983 414.215 519.983 412.271 C
519.983 410.183 521.783 408.383 523.871 408.383 C
525.887 408.383 527.615 410.183 527.615 412.271 C
527.615 414.215 525.887 416.015 523.871 416.015 C
b
0.000 0.000 0.000 1.000 K
0 j
0 J
0.215 w
[]0 d
0.000 0.000 0.000 0.000 k
472.535 780.695 m
490.031 780.695 504.359 766.223 504.359 748.799 C
504.359 731.231 490.031 716.903 472.535 716.903 C
454.967 716.903 440.639 731.231 440.639 748.799 C
440.639 766.223 454.967 780.695 472.535 780.695 C
b
0.000 0.000 0.000 1.000 K
0 j
0 J
0.215 w
[]0 d
0.000 0.000 0.000 0.000 k
200.015 444.383 m
182.591 444.383 168.263 429.911 168.263 412.487 C
168.263 394.919 182.591 380.591 200.015 380.591 C
217.583 380.591 231.911 394.919 231.911 412.487 C
231.911 429.911 217.583 444.383 200.015 444.383 C
b
0.000 0.000 0.000 1.000 K
0 j
0 J
0.215 w
[]0 d
472.535 777.311 m
456.623 777.311 443.879 764.567 443.879 748.799 C
443.879 732.887 456.623 720.071 472.535 720.071 C
488.303 720.071 501.119 732.887 501.119 748.799 C
501.119 764.567 488.303 777.311 472.535 777.311 C
s
0.000 0.000 0.000 1.000 K
0 j
0 J
0.215 w
[]0 d
200.015 441.071 m
215.927 441.071 228.671 428.255 228.671 412.487 C
228.671 396.647 215.927 383.831 200.015 383.831 C
184.247 383.831 171.503 396.647 171.503 412.487 C
171.503 428.255 184.247 441.071 200.015 441.071 C
s
0.000 0.000 0.000 1.000 K
0 j
0 J
0.215 w
[]0 d
0.000 0.000 0.000 0.098 k
472.535 771.767 m
485.207 771.767 495.575 761.399 495.575 748.799 C
495.575 735.983 485.207 725.687 472.535 725.687 C
459.719 725.687 449.423 735.983 449.423 748.799 C
449.423 761.399 459.719 771.767 472.535 771.767 C
b
0.000 0.000 0.000 1.000 K
0 j
0 J
0.215 w
[]0 d
0.000 0.000 0.000 0.098 k
200.015 435.527 m
187.343 435.527 177.047 425.159 177.047 412.487 C
177.047 399.743 187.343 389.375 200.015 389.375 C
212.831 389.375 223.127 399.743 223.127 412.487 C
223.127 425.159 212.831 435.527 200.015 435.527 C
b
0.000 0.000 0.000 1.000 K
0 j
0 J
0.215 w
[]0 d
0.000 0.000 0.000 0.000 k
472.535 769.463 m
461.159 769.463 451.727 760.031 451.727 748.799 C
451.727 737.423 461.159 727.991 472.535 727.991 C
483.767 727.991 493.271 737.423 493.271 748.799 C
493.271 760.031 483.767 769.463 472.535 769.463 C
b
0.000 0.000 0.000 1.000 K
0 j
0 J
0.215 w
[]0 d
0.000 0.000 0.000 0.000 k
200.015 433.151 m
211.391 433.151 220.823 423.719 220.823 412.487 C
220.823 401.111 211.391 391.679 200.015 391.679 C
188.783 391.679 179.351 401.111 179.351 412.487 C
179.351 423.719 188.783 433.151 200.015 433.151 C
b
0.000 0.000 0.000 1.000 k
481.175 763.919 m
475.487 767.663 469.727 767.087 464.543 764.279 C
472.679 758.087 L
481.175 763.919 L
f
0.000 0.000 0.000 1.000 k
191.375 427.607 m
197.063 431.351 202.895 430.847 208.007 427.967 C
199.871 421.775 L
191.375 427.607 L
f
0.000 0.000 0.000 1.000 k
457.919 757.655 m
456.551 755.855 452.375 748.871 457.919 739.439 C
463.391 749.447 L
457.919 757.655 L
f
0.000 0.000 0.000 1.000 k
214.631 421.415 m
216.071 419.615 220.175 412.631 214.631 403.199 C
209.159 413.135 L
214.631 421.415 L
f
0.000 0.000 0.000 1.000 k
486.503 738.575 m
490.175 745.919 490.247 751.103 486.935 757.943 C
480.959 747.863 L
486.503 738.575 L
f
0.000 0.000 0.000 1.000 k
186.047 402.263 m
182.447 409.679 182.303 414.863 185.687 421.703 C
191.591 411.623 L
186.047 402.263 L
f
0.000 0.000 0.000 1.000 k
480.959 733.391 m
472.535 739.583 L
463.895 734.327 L
469.943 729.647 475.127 731.087 480.959 733.391 C
f
0.000 0.000 0.000 1.000 k
191.591 397.151 m
200.015 403.343 L
208.655 398.015 L
202.607 393.407 197.423 394.775 191.591 397.151 C
f
0.000 0.000 0.000 1.000 K
0 j
0 J
0.215 w
[]0 d
0.000 0.000 0.000 0.498 k
466.703 753.263 m
468.935 753.911 469.295 757.439 465.695 757.295 C
463.607 756.143 464.255 753.263 466.703 753.263 C
b
0.000 0.000 0.000 1.000 K
0 j
0 J
0.215 w
[]0 d
0.000 0.000 0.000 0.498 k
205.847 417.023 m
203.615 417.671 203.255 421.127 206.855 421.055 C
208.943 419.831 208.295 417.023 205.847 417.023 C
b
0.000 0.000 0.000 1.000 K
0 j
0 J
0.215 w
[]0 d
0.000 0.000 0.000 0.498 k
478.871 757.007 m
476.639 756.791 476.783 755.135 476.927 754.199 C
477.431 753.047 478.079 752.543 479.231 752.543 C
480.455 752.759 481.175 753.911 481.319 754.703 C
480.959 755.999 480.167 756.935 478.871 757.007 C
b
0.000 0.000 0.000 1.000 K
0 j
0 J
0.215 w
[]0 d
0.000 0.000 0.000 0.498 k
193.679 420.767 m
195.911 420.479 195.767 418.823 195.623 417.959 C
195.119 416.735 194.471 416.231 193.319 416.231 C
192.167 416.519 191.375 417.671 191.231 418.463 C
191.591 419.759 192.383 420.623 193.679 420.767 C
b
0.000 0.000 0.000 1.000 K
0 j
0 J
0.215 w
[]0 d
0.000 0.000 0.000 0.498 k
465.839 744.263 m
463.607 743.831 463.607 742.175 463.751 741.671 C
464.039 739.727 467.135 739.367 467.783 741.167 C
468.431 742.967 467.279 744.119 465.839 744.263 C
b
0.000 0.000 0.000 1.000 K
0 j
0 J
0.215 w
[]0 d
0.000 0.000 0.000 0.498 k
206.711 407.951 m
208.943 407.591 208.943 405.935 208.799 405.431 C
208.511 403.487 205.415 403.055 204.767 404.855 C
204.119 406.655 205.343 407.879 206.711 407.951 C
b
0.000 0.000 0.000 1.000 K
0 j
0 J
0.215 w
[]0 d
0.000 0.000 0.000 0.498 k
476.783 742.463 m
476.783 739.079 480.815 739.439 480.959 742.175 C
480.455 745.271 477.215 743.831 476.783 742.463 C
b
0.000 0.000 0.000 1.000 K
0 j
0 J
0.215 w
[]0 d
0.000 0.000 0.000 0.498 k
195.767 406.151 m
195.767 402.839 191.735 403.199 191.591 405.935 C
192.167 409.031 195.335 407.591 195.767 406.151 C
b
0.000 0.000 0.000 1.000 K
0 j
0 J
0.215 w
[]0 d
0.000 0.000 0.000 0.498 k
472.679 752.255 m
474.767 752.255 476.567 750.455 476.567 748.511 C
476.567 746.423 474.767 744.623 472.679 744.623 C
470.591 744.623 468.935 746.423 468.935 748.511 C
468.935 750.455 470.591 752.255 472.679 752.255 C
b
0.000 0.000 0.000 1.000 K
0 j
0 J
0.215 w
[]0 d
0.000 0.000 0.000 0.498 k
199.871 416.015 m
197.855 416.015 195.983 414.215 195.983 412.271 C
195.983 410.183 197.855 408.383 199.871 408.383 C
201.959 408.383 203.615 410.183 203.615 412.271 C
203.615 414.215 201.959 416.015 199.871 416.015 C
b
0.000 0.000 0.000 1.000 K
0 j
0 J
0.215 w
[]0 d
0.000 0.000 0.000 0.498 k
560.015 931.319 m
565.343 933.983 L
593.423 862.271 L
592.991 860.903 590.039 858.527 587.591 859.895 C
560.015 931.319 L
b
0.000 0.000 0.000 1.000 K
0 j
0 J
0.215 w
[]0 d
0.000 0.000 0.000 0.498 k
112.607 595.079 m
107.207 597.671 L
79.199 525.959 L
79.559 524.591 82.583 522.288 84.959 523.655 C
112.607 595.079 L
b
u
u
0.000 0.000 0.000 1.000 K
0 j
0 J
0.215 w
[]0 d
78.191 831.671 m
231.191 835.559 L
596.375 835.559 L
S
U
U
u
u
0.000 0.000 0.000 1.000 K
0 j
0 J
0.215 w
[]0 d
594.359 495.359 m
441.359 499.319 L
76.247 499.319 L
S
U
U
u
u
0.000 0.000 0.000 1.000 K
0 j
0 J
0.215 w
[]0 d
596.519 856.151 m
596.375 806.759 L
S
U
U
u
u
0.000 0.000 0.000 1.000 K
0 j
0 J
0.215 w
[]0 d
76.103 519.839 m
76.247 470.519 L
S
U
U
u
u
0.000 0.000 0.000 1.000 K
0 j
0 J
0.215 w
[]0 d
78.119 831.527 m
78.407 834.191 80.783 835.631 84.455 836.063 C
132.983 847.151 180.143 855.287 231.191 855.287 c
596.375 855.359 L
S
U
U
u
u
0.000 0.000 0.000 1.000 K
0 j
0 J
0.215 w
[]0 d
594.503 495.287 m
594.144 497.951 591.839 499.391 588.168 499.823 C
539.639 510.911 492.479 519.048 441.359 519.048 c
76.247 519.120 L
S
U
U
u
u
0.000 0.000 0.000 1.000 K
0 j
0 J
0.215 w
[]0 d
373.751 929.303 m
556.271 929.303 L
579.599 855.359 L
S
U
U
u
u
0.000 0.000 0.000 1.000 K
0 j
0 J
0.215 w
[]0 d
298.799 593.063 m
116.279 593.063 L
93.023 519.120 L
S
U
U
u
u
0.000 0.000 0.000 1.000 K
0 j
0 J
0.215 w
[]0 d
48.023 787.247 m
95.111 787.247 L
S
U
U
u
u
0.000 0.000 0.000 1.000 K
0 j
0 J
0.215 w
[]0 d
624.527 451.007 m
577.511 451.007 L
S
U
U
u
u
0.000 0.000 0.000 1.000 K
0 j
0 J
0.215 w
[]0 d
48.023 783.647 m
93.383 783.647 L
S
U
U
u
u
0.000 0.000 0.000 1.000 K
0 j
0 J
0.215 w
[]0 d
624.527 447.407 m
579.168 447.407 L
S
U
U
u
u
0.000 0.000 0.000 1.000 K
0 j
0 J
0.215 w
[]0 d
48.023 782.207 m
93.095 782.207 L
S
U
U
u
u
0.000 0.000 0.000 1.000 K
0 j
0 J
0.215 w
[]0 d
624.527 445.895 m
579.527 445.895 L
S
U
U
u
u
0.000 0.000 0.000 1.000 K
0 j
0 J
0.215 w
[]0 d
55.871 766.655 m
89.639 766.655 L
S
U
U
u
u
0.000 0.000 0.000 1.000 K
0 j
0 J
0.215 w
[]0 d
616.751 430.415 m
582.983 430.415 L
S
U
U
u
u
0.000 0.000 0.000 1.000 K
0 j
0 J
0.215 w
[]0 d
76.031 787.391 m
88.271 793.655 95.543 805.319 103.463 817.199 C
105.623 820.151 110.807 821.087 116.279 821.087 C
178.199 821.087 L
182.951 821.087 187.919 820.511 192.743 817.415 C
199.439 812.231 202.031 804.887 206.711 798.191 c
208.295 796.031 208.799 791.999 214.055 791.927 C
398.663 791.927 L
404.063 791.999 407.447 794.015 408.887 796.247 c
413.639 802.943 415.943 815.183 428.111 819.287 C
431.999 821.447 434.735 822.095 440.567 822.095 C
510.407 822.095 L
514.439 822.095 519.264 821.735 522.647 819.287 C
530.855 813.815 527.183 802.511 535.391 798.839 C
595.079 798.839 L
S
U
U
u
u
0.000 0.000 0.000 1.000 K
0 j
0 J
0.215 w
[]0 d
596.591 451.079 m
584.351 457.415 577.079 469.007 569.159 480.959 C
566.927 483.911 561.815 484.847 556.271 484.847 C
494.351 484.847 L
489.599 484.847 484.631 484.199 479.807 481.175 C
473.111 475.991 470.519 468.575 465.839 461.951 c
464.255 459.719 463.751 455.759 458.495 455.615 C
273.887 455.615 L
268.487 455.759 265.103 457.703 263.663 459.935 c
258.911 466.703 256.608 478.943 244.439 483.047 C
240.551 485.135 237.815 485.783 231.983 485.783 C
162.215 485.783 L
158.183 485.783 153.359 485.495 149.975 483.047 C
141.695 477.575 145.439 466.271 137.159 462.599 C
77.471 462.599 L
S
U
U
0.000 0.000 0.000 1.000 K
0 j
0 J
0.215 w
[]0 d
339.623 849.671 m
359.855 849.671 L
361.943 849.671 363.671 848.015 363.671 845.927 C
363.671 841.247 L
363.671 839.159 361.943 837.431 359.855 837.431 C
339.623 837.431 L
337.463 837.431 335.807 839.159 335.807 841.247 C
335.807 845.927 L
335.807 848.015 337.463 849.671 339.623 849.671 C
s
0.000 0.000 0.000 1.000 K
0 j
0 J
0.215 w
[]0 d
332.927 513.432 m
312.695 513.432 L
310.608 513.432 308.879 511.703 308.879 509.615 C
308.879 505.007 L
308.879 502.847 310.608 501.191 312.695 501.191 C
332.927 501.191 L
335.087 501.191 336.743 502.847 336.743 505.007 C
336.743 509.615 L
336.743 511.703 335.087 513.432 332.927 513.432 C
s
0.000 0.000 0.000 1.000 K
0 j
0 J
0.215 w
[]0 d
0.000 0.000 0.000 0.498 k
339.623 849.671 m
359.855 849.671 L
361.943 849.671 363.671 848.015 363.671 845.927 C
363.671 842.327 L
335.807 842.327 L
335.807 845.927 L
335.807 848.015 337.463 849.671 339.623 849.671 C
b
0.000 0.000 0.000 1.000 K
0 j
0 J
0.215 w
[]0 d
0.000 0.000 0.000 0.498 k
332.927 513.432 m
312.695 513.432 L
310.608 513.432 308.879 511.703 308.879 509.615 C
308.879 506.015 L
336.743 506.015 L
336.743 509.615 L
336.743 511.703 335.087 513.432 332.927 513.432 C
b
0.000 0.000 0.000 1.000 K
0 j
0 J
0.215 w
[]0 d
0.000 0.000 0.000 0.498 k
363.671 823.751 m
364.895 823.751 365.975 824.831 365.975 826.199 c
365.975 827.423 364.895 828.503 363.671 828.503 c
362.303 828.503 361.223 827.423 361.223 826.199 c
361.223 824.831 362.303 823.751 363.671 823.751 c
b
0.000 0.000 0.000 1.000 K
0 j
0 J
0.215 w
[]0 d
0.000 0.000 0.000 0.498 k
308.879 487.511 m
307.655 487.511 306.575 488.519 306.575 489.887 c
306.575 491.183 307.655 492.191 308.879 492.191 c
310.247 492.191 311.327 491.183 311.327 489.887 c
311.327 488.519 310.247 487.511 308.879 487.511 c
b
u
u
U
u
0.000 0.000 0.000 1.000 K
0 j
0 J
0.215 w
[]0 d
47.951 337.607 m
277.847 337.607 L
S
U
U
u
u
U
u
0.000 0.000 0.000 1.000 K
0 j
0 J
0.215 w
[]0 d
381.239 337.607 m
620.927 337.607 L
S
U
U
u
u
U
u
0.000 0.000 0.000 1.000 K
0 j
0 J
0.215 w
[]0 d
42.119 353.087 m
42.119 318.599 L
S
U
U
0.000 0.000 0.000 1.000 k
41.903 337.679 m
53.351 334.295 L
53.351 341.063 L
41.903 337.679 L
f
u
u
U
u
0.000 0.000 0.000 1.000 K
0 j
0 J
0.215 w
[]0 d
624.959 350.783 m
624.959 316.727 L
S
U
U
0.000 0.000 0.000 1.000 k
625.103 337.679 m
613.655 334.295 L
613.655 341.063 L
625.103 337.679 L
f
0.000 0.000 0.000 1.000 K
0 j
0 J
0.215 w
[]0 d
524.951 795.671 m
606.168 795.671 L
609.551 789.119 609.048 780.479 606.096 774.359 C
597.455 771.983 L
583.055 768.455 565.703 766.583 550.367 767.663 C
533.375 767.447 L
530.855 779.903 530.063 785.159 524.951 795.671 C
s
0.000 0.000 0.000 1.000 K
0 j
0 J
0.215 w
[]0 d
147.599 459.431 m
66.384 459.431 L
62.999 452.879 63.575 444.239 66.527 438.119 C
75.167 435.671 L
89.495 432.215 106.919 430.271 122.183 431.351 C
139.175 431.135 L
141.695 443.591 142.560 448.847 147.599 459.431 C
s
u
u
0.000 0.000 0.000 1.000 K
0 j
0 J
0.215 w
[]0 d
70.343 803.807 m
78.119 803.807 L
S
U
U
u
u
0.000 0.000 0.000 1.000 K
0 j
0 J
0.215 w
[]0 d
602.279 467.567 m
594.503 467.567 L
S
U
U
u
u
0.000 0.000 0.000 1.000 K
0 j
0 J
0.215 w
[]0 d
71.351 831.311 m
71.351 803.807 L
S
U
U
u
u
0.000 0.000 0.000 1.000 K
0 j
0 J
0.215 w
[]0 d
601.199 495.071 m
601.199 467.567 L
S
U
U
0.000 0.000 0.000 1.000 K
0 j
0 J
0.215 w
[]0 d
0.000 0.000 0.000 0.298 k
596.303 835.487 m
579.168 835.487 L
579.168 806.903 L
596.303 806.903 L
596.303 835.487 L
b
0.000 0.000 0.000 1.000 K
0 j
0 J
0.215 w
[]0 d
0.000 0.000 0.000 0.298 k
76.319 499.175 m
93.383 499.175 L
93.383 470.591 L
76.319 470.591 L
76.319 499.175 L
b
u
u
0.000 0.000 0.000 1.000 K
0 j
0 J
0.215 w
[]0 d
579.168 827.351 m
595.871 827.351 L
S
U
U
u
u
0.000 0.000 0.000 1.000 K
0 j
0 J
0.215 w
[]0 d
93.383 491.039 m
76.751 491.039 L
S
U
U
u
u
0.000 0.000 0.000 1.000 K
0 j
0 J
0.215 w
[]0 d
579.168 818.927 m
596.303 818.927 L
S
U
U
u
u
0.000 0.000 0.000 1.000 K
0 j
0 J
0.215 w
[]0 d
93.383 482.615 m
76.319 482.615 L
S
U
U
u
u
0.000 0.000 0.000 1.000 K
0 j
0 J
0.215 w
[]0 d
415.655 783.431 m
200.663 783.431 L
S
U
U
u
u
0.000 0.000 0.000 1.000 K
0 j
0 J
0.215 w
[]0 d
256.895 447.191 m
471.887 447.191 L
S
U
U
u
u
0.000 0.000 0.000 1.000 K
0 j
0 J
0.215 w
[]0 d
201.815 782.279 m
414.359 782.279 L
S
U
U
u
u
0.000 0.000 0.000 1.000 K
0 j
0 J
0.215 w
[]0 d
470.735 446.039 m
258.192 446.039 L
S
U
U
0.000 0.000 0.000 1.000 k
349.343 333.791 m
350.279 333.791 L
350.279 338.039 L
350.279 339.623 350.855 340.775 352.439 340.775 C
353.663 340.775 354.024 339.911 354.024 338.831 C
354.024 333.791 L
355.031 333.791 L
355.031 338.039 L
355.031 339.407 355.391 340.775 356.975 340.775 C
358.343 340.775 358.775 340.127 358.775 338.831 C
358.775 333.791 L
359.783 333.791 L
359.783 338.831 L
359.783 340.631 358.919 341.495 357.191 341.495 C
356.255 341.495 355.319 341.063 354.815 339.983 C
354.599 341.063 353.663 341.495 352.655 341.495 C
351.431 341.495 350.711 340.991 350.135 339.983 C
350.135 339.983 L
350.135 341.279 L
349.343 341.279 L
349.343 333.791 L
349.343 333.791 L
f
0.000 0.000 0.000 1.000 k
337.103 333.791 m
338.039 333.791 L
338.039 338.039 L
338.039 339.623 338.687 340.775 340.271 340.775 C
341.423 340.775 341.783 339.911 341.783 338.831 C
341.783 333.791 L
342.791 333.791 L
342.791 338.039 L
342.791 339.407 343.223 340.775 344.807 340.775 C
346.175 340.775 346.536 340.127 346.536 338.831 C
346.536 333.791 L
347.543 333.791 L
347.543 338.831 L
347.543 340.631 346.679 341.495 344.951 341.495 C
344.015 341.495 343.079 341.063 342.575 339.983 C
342.359 341.063 341.423 341.495 340.415 341.495 C
339.191 341.495 338.471 340.991 337.895 339.983 C
337.895 339.983 L
337.895 341.279 L
337.103 341.279 L
337.103 333.791 L
337.103 333.791 L
f
0.000 0.000 0.000 1.000 k
320.903 336.671 m
320.903 334.727 322.271 333.575 324.287 333.575 C
326.231 333.575 327.815 334.943 327.815 336.959 C
327.815 339.048 326.519 340.560 324.431 340.560 C
323.567 340.560 322.703 340.199 322.199 339.623 C
322.199 339.623 L
322.847 343.079 L
327.383 343.079 L
327.383 343.943 L
322.199 343.943 L
321.119 338.543 L
321.983 338.543 L
322.487 339.407 323.351 339.839 324.287 339.839 C
325.799 339.839 326.951 338.615 326.951 337.031 C
326.951 335.591 325.871 334.295 324.287 334.295 C
322.919 334.295 321.911 335.303 321.767 336.671 C
320.903 336.671 L
f
0.000 0.000 0.000 1.000 k
313.631 341.351 m
316.367 341.351 L
316.367 333.863 L
316.367 333.791 L
317.231 333.791 L
317.231 341.279 L
317.231 344.015 L
316.512 344.015 L
316.295 342.143 315.215 342.143 313.631 342.000 C
313.631 341.351 L
f
0.000 0.000 0.000 1.000 k
305.567 341.351 m
308.303 341.351 L
308.303 333.863 L
308.303 333.791 L
309.096 333.791 L
309.096 341.279 L
309.096 344.015 L
308.375 344.015 L
308.159 342.143 307.151 342.143 305.567 342.000 C
305.567 341.351 L
f
0.000 0.000 0.000 1.000 k
296.495 336.311 m
301.175 336.311 L
301.175 333.791 L
302.039 333.791 L
302.039 336.311 L
303.551 336.311 L
303.551 337.031 L
302.039 337.031 L
302.039 344.015 L
301.175 344.015 L
296.495 337.175 L
296.495 336.311 L
f
0.000 0.000 0.000 1.000 K
0 j
0 J
0.215 w
[]0 d
0.000 0.000 0.000 0.498 k
366.623 926.711 m
298.367 925.559 L
291.959 924.911 286.343 922.823 283.680 918.143 C
236.879 857.519 L
366.695 857.519 L
366.623 926.711 L
b
0.000 0.000 0.000 1.000 K
0 j
0 J
0.215 w
[]0 d
0.000 0.000 0.000 0.498 k
305.927 590.399 m
374.183 589.247 L
380.663 588.599 386.207 586.511 388.871 581.903 C
435.671 521.207 L
305.855 521.207 L
305.927 590.399 L
b
0.000 0.000 0.000 1.000 K
0 j
0 J
0.215 w
[]0 d
0.000 0.000 0.000 0.200 k
364.103 924.407 m
299.591 923.183 L
293.183 922.607 287.567 920.447 284.975 915.839 C
241.271 859.823 L
364.175 859.823 L
364.103 924.407 L
b
0.000 0.000 0.000 1.000 K
0 j
0 J
0.215 w
[]0 d
0.000 0.000 0.000 0.200 k
308.519 588.096 m
372.959 586.943 L
379.367 586.295 384.983 584.207 387.575 579.527 C
431.279 523.583 L
308.375 523.583 L
308.519 588.096 L
b
0.000 0.000 0.000 1.000 K
0 j
0 J
0.215 w
[]0 d
0.000 0.000 0.000 0.498 k
382.103 926.927 m
426.599 926.927 L
431.711 926.783 434.015 925.847 436.031 921.815 C
446.471 863.279 L
447.479 859.535 444.743 857.591 439.199 857.519 C
382.103 857.519 L
382.103 926.927 L
b
0.000 0.000 0.000 1.000 K
0 j
0 J
0.215 w
[]0 d
0.000 0.000 0.000 0.498 k
290.447 590.615 m
245.951 590.615 L
240.839 590.543 238.535 589.607 236.519 585.575 C
226.079 527.039 L
225.071 523.223 227.807 521.351 233.351 521.207 C
290.447 521.207 L
290.447 590.615 L
b
0.000 0.000 0.000 1.000 K
0 j
0 J
0.215 w
[]0 d
0.000 0.000 0.000 0.200 k
384.551 924.407 m
424.079 924.407 L
429.191 924.263 431.495 923.327 433.511 919.295 C
443.951 865.655 L
444.959 861.839 442.223 859.895 436.679 859.823 C
384.551 859.823 L
384.551 924.407 L
b
0.000 0.000 0.000 1.000 K
0 j
0 J
0.215 w
[]0 d
0.000 0.000 0.000 0.200 k
288.000 588.096 m
248.471 588.096 L
243.431 588.024 241.055 587.015 239.111 583.055 C
228.671 529.343 L
227.591 525.527 230.327 523.655 235.943 523.583 C
288.000 523.583 L
288.000 588.096 L
b
0.000 0.000 0.000 1.000 K
0 j
0 J
0.215 w
[]0 d
0.000 0.000 0.000 0.498 k
465.623 926.783 m
535.391 926.783 L
540.072 926.927 544.247 925.847 545.543 920.591 C
561.168 862.559 L
561.887 859.175 560.303 857.591 555.120 857.591 C
476.855 857.591 L
471.527 857.591 468.719 859.175 468.071 863.423 C
457.559 920.447 L
456.767 925.631 459.935 926.927 465.623 926.783 C
b
0.000 0.000 0.000 1.000 K
0 j
0 J
0.215 w
[]0 d
0.000 0.000 0.000 0.498 k
206.927 590.543 m
137.159 590.543 L
132.551 590.615 128.304 589.607 127.079 584.279 C
111.455 526.319 L
110.735 522.935 112.319 521.351 117.431 521.351 C
195.695 521.351 L
201.023 521.351 203.831 522.935 204.479 527.111 C
215.063 584.207 L
215.783 589.391 212.615 590.615 206.927 590.543 C
b
0.000 0.000 0.000 1.000 K
0 j
0 J
0.215 w
[]0 d
0.000 0.000 0.000 0.200 k
468.287 924.407 m
532.655 924.407 L
537.336 924.479 541.511 923.399 542.807 918.143 C
557.351 864.791 L
558.072 861.407 556.487 859.823 551.303 859.823 C
478.439 859.823 L
473.111 859.823 470.303 861.407 469.655 865.655 C
460.151 918.071 L
459.431 923.183 462.599 924.479 468.287 924.407 C
b
0.000 0.000 0.000 1.000 K
0 j
0 J
0.215 w
[]0 d
0.000 0.000 0.000 0.200 k
204.263 588.096 m
139.895 588.096 L
135.287 588.240 131.039 587.159 129.816 581.903 C
115.271 528.479 L
114.479 525.168 116.063 523.583 121.247 523.583 C
194.111 523.583 L
199.439 523.583 202.247 525.168 202.895 529.343 C
212.399 581.759 L
213.119 586.943 209.951 588.240 204.263 588.096 C
b
0.000 0.000 0.000 1.000 K
0 j
0 J
0.215 w
[]0 d
0.000 0.000 0.000 0.498 k
276.983 925.631 m
280.079 924.983 L
231.263 864.143 L
224.495 863.855 L
239.399 886.175 258.839 908.207 276.983 925.631 C
b
0.000 0.000 0.000 1.000 K
0 j
0 J
0.215 w
[]0 d
0.000 0.000 0.000 0.498 k
395.639 589.391 m
392.471 588.743 L
441.287 527.903 L
448.055 527.543 L
433.151 549.935 413.783 571.967 395.639 589.391 C
b
0.000 0.000 0.000 1.000 K
0 j
0 J
0.215 w
[]0 d
0.000 0.000 0.000 0.200 k
275.975 924.695 m
278.495 924.191 L
230.327 865.295 L
225.359 864.863 L
240.263 887.255 257.831 907.271 275.975 924.695 C
b
0.000 0.000 0.000 1.000 K
0 j
0 J
0.215 w
[]0 d
0.000 0.000 0.000 0.200 k
396.575 588.455 m
394.055 587.879 L
442.223 529.055 L
447.191 528.623 L
432.287 550.943 414.719 571.031 396.575 588.455 C
b
u
u
0.000 0.000 0.000 1.000 K
0 j
0 J
0.215 w
[]0 d
280.007 924.911 m
283.175 928.295 287.567 930.311 292.536 931.679 C
298.367 932.831 304.127 933.839 310.895 934.055 C
410.831 938.735 457.199 938.735 563.183 937.367 C
S
U
U
u
u
0.000 0.000 0.000 1.000 K
0 j
0 J
0.215 w
[]0 d
392.543 588.599 m
389.375 591.983 384.983 594.000 380.015 595.367 C
374.183 596.519 368.423 597.599 361.655 597.815 C
261.791 602.423 215.351 602.423 109.439 601.055 C
S
U
U
0.000 0.000 0.000 1.000 K
0 j
0 J
0.215 w
[]0 d
0.000 0.000 0.000 0.498 k
265.247 884.159 m
256.463 883.367 L
255.527 883.367 254.879 882.719 254.879 881.783 C
254.879 861.263 L
254.879 860.327 255.527 859.751 256.463 859.751 C
265.247 858.959 L
266.183 858.959 266.831 859.607 266.831 860.543 C
268.415 868.463 268.632 874.727 266.831 882.575 C
266.831 883.583 266.183 884.159 265.247 884.159 C
b
0.000 0.000 0.000 1.000 K
0 j
0 J
0.215 w
[]0 d
0.000 0.000 0.000 0.498 k
407.303 547.919 m
416.087 547.055 L
417.023 547.055 417.671 546.408 417.671 545.471 C
417.671 525.024 L
417.671 524.087 417.023 523.439 416.087 523.439 C
407.303 522.719 L
406.367 522.719 405.719 523.367 405.719 524.303 C
404.135 532.223 403.919 538.415 405.719 546.336 C
405.719 547.271 406.367 547.919 407.303 547.919 C
b
0.000 0.000 0.000 1.000 K
0 j
0 J
0.215 w
[]0 d
0.000 0.000 0.000 0.200 k
563.183 929.951 m
566.351 931.967 L
592.919 864.359 L
592.487 862.991 591.551 860.327 589.103 861.695 C
563.183 929.951 L
b
0.000 0.000 0.000 1.000 K
0 j
0 J
0.215 w
[]0 d
0.000 0.000 0.000 0.200 k
109.439 593.711 m
106.271 595.727 L
79.703 528.120 L
80.135 526.751 81.071 524.087 83.519 525.455 C
109.439 593.711 L
b
0.000 0.000 0.000 1.000 K
0 j
0 J
0.215 w
[]0 d
133.487 496.439 m
118.079 496.439 l
115.559 496.439 113.543 494.423 113.543 491.903 c
113.543 480.167 l
113.543 477.647 115.559 475.631 118.079 475.631 c
133.487 475.631 l
136.007 475.631 138.024 477.647 138.024 480.167 c
138.024 491.903 l
138.024 494.423 136.007 496.439 133.487 496.439 c
s
0.000 0.000 0.000 1.000 K
0 j
0 J
0.215 w
[]0 d
0.000 0.000 0.000 0.498 k
119.591 482.327 m
121.391 482.327 122.831 483.767 122.831 485.711 c
122.831 487.511 121.391 488.951 119.591 488.951 c
117.647 488.951 116.207 487.511 116.207 485.711 c
116.207 483.767 117.647 482.327 119.591 482.327 c
b
0.000 0.000 0.000 0.000 k
297.287 337.031 m
301.103 342.647 L
301.175 342.647 L
301.175 337.031 L
297.287 337.031 L
f
%%Trailer
_E end