%!PS-Adobe-2.0 EPSF-1.2
%%Creator: Adobe Illustrator exported from Corel Draw 3.0
%%Title:6
%%BoundingBox:-9 531 923 1091
%%CreationDate:(Unknown)
%%ColorUsage:
%%TemplateBox:-9 531 923 1091
%%EndComments
%%BeginProcSet:Adobe_Illustrator_1.1 0 0
% Version 1.0 3/27/1990 $nokeywords$
% Copyright (C) 1990,1991,1992
% Corel Corporation
% All Rights Reserved

/wPmsDict 150 dict def 
wPmsDict begin 

/$debug 25 string def 

/bd {bind def} bind def 
/ld {load def} bd 
/xd {exch def} bd 
/_ null def 

/$c 0 def 
/$m 0 def 
/$y 0 def 
/$k 0 def 
/$t 1 def 
/$n _ def 
/$o 0 def 
/$pf false def 

/$C 0 def 
/$M 0 def 
/$Y 0 def 
/$K 0 def 
/$T 1 def 
/$N _ def 
/$O 0 def 
/$PF false def 

/$h false def 

/$al 0 def 
/$tr 0 def 
/$le 0 def 
/$lx 0 def 
/$ly 0 def 

/$ctm matrix currentmatrix def 
/$ptm matrix def 

/$pn () def 
/$pm matrix def 
/$px 0 def 
/$py 0 def 
/$pxf 0 def 
/$pyf 0 def 
/$psx 10 def 
/$psy 0 def 

/$llx 0 def 
/$lly 0 def 
/$urx 0 def 
/$ury 0 def 


/$Bbllx 0 def 
/$Bblly 0 def 
/$Bburx 0 def 
/$Bbury 0 def 

/$tllx 0 def 
/$tlly 0 def 
/$turx 0 def 
/$tury 0 def 

/$pd [] def 
/$tx 0 def 
/$ty 0 def 

/$sv 0 def 
/@cp /closepath ld 
/@gs /gsave ld 
/@gr /grestore ld 
/@np /newpath ld 
/@sv {/$sv save def}bd 
/@rs {$sv restore}bd 

/@MN { 
2 copy le{pop}{exch pop}ifelse 
}bd 

/setcmykcolor where {pop} 
{ 
/setcmykcolor 
{ 
4 1 roll 
3 {3 index add 1 @MN 1 exch sub 3 1 roll} repeat 
setrgbcolor 
pop 
}bd 
}ifelse 

/@tc 
{ 
dup 1 ge 
{pop} 
{ 
4 { 
dup 
6 -1 roll 
mul 
exch 
}repeat 
pop 
}ifelse 
}bd 

/@scc 
{ 
$c $m $y $k $t @tc 
setcmykcolor 
true 
}bd 
/@SCC 
{ 
$C $M $Y $K $T @tc 
setcmykcolor 
true 
}bd 

/@sft 
{ 
(setfirsttile sft )print 
/$tx $tllx $pxf add dup $tllx gt {$pwid $psx add sub}if def 
/$ty $tury $pyf sub dup $tury lt {$phei $psy add add}if def 
(setfirsttile exit )print 
}bd 

/@stb 
{ 
pathbbox /$ury xd /$urx xd /$lly xd /$llx xd 
}bd 

/@ep 
{ 
{ 
cvx exec 
}forall 
}bd 

/@tp 
{ 

(tile pattern tp )print 
@sv 
/$in true def 
2 copy 
dup $lly le {/$in false def}if 
$phei sub $ury ge {/$in false def}if 
dup $urx ge {/$in false def}if 
$pwid add $llx le {/$in false def}if 
$in 
{ 
@np 
2 copy moveto 
$pwid 0 rlineto 
0 $phei neg rlineto 
$pwid neg 0 rlineto 
0 $phei rlineto 
clip @np 

$pn cvlit load aload pop 
7 -1 roll 
5 index sub 
7 -1 roll 
3 index sub 
translate 
@ep 
pop pop pop pop 
} 
{pop pop}ifelse 
@rs 
(tile pattern exit )print 
}bd 

/@th 
{ 
(tile horizontal th)print 
@sft 
0 1 $tly 1 sub 
{ 
dup $psx mul $tx add 
{ 
dup $llx gt {$pwid sub}{exit}ifelse 
}loop 
exch $phei mul $ty exch sub 

0 1 $tlx 1 sub 
{ 
$pwid mul 
3 copy 
3 -1 roll add exch 
@tp 
pop 
}for 
pop pop 
} for 
(tile horizontal exiting )print 
}bd 

/@tv 
{ 
(tile vertical tv)print 
@sft 
0 1 $tlx 1 sub 
{ 
dup $pwid mul $tx add 
exch $psy mul $ty exch sub 
{ 
dup $ury lt {$phei add}{exit}ifelse 
}loop 

0 1 $tly 1 sub 
{ 
$phei mul 
3 copy sub 
@tp 
pop 
}for 
pop pop 
} for 
(tile vertical exit )print 
}bd 

/@pf 
{ 
(pattern fill pf)print 
@gs 
$pm concat 
@stb 
@gs 1 setgray eofill @gr 
eoclip 
$Bburx $Bbury $pm itransform /$tury xd /$turx xd 
$Bbllx $Bblly $pm itransform /$tlly xd /$tllx xd 
/$wid $turx $tllx sub def 
/$hei $tury $tlly sub def 
$wid 0 gt $hei 0 gt and 
{ 
$pn cvlit load aload pop 
$pd xd 
3 -1 roll sub /$phei xd 
exch sub /$pwid xd 
/$tlx $wid $pwid div ceiling 1 add def 
/$tly $hei $phei div ceiling 1 add def 
$psx 0 eq 
{ 
@tv 
} 
{ 
@th 
}ifelse 
}if 

@gr 
@np 
(pattern fill exit)print 
}bd 

/@xp 
{ 
{ 
dup (text Character is:) print == 
usertime (time before is:)print == 
(0) dup 3 -1 roll 0 exch put 
@gs 
true charpath currentpoint 
$ctm setmatrix 
@pf 
@gr 
@np 
moveto $tr 0 rmoveto 
usertime (time after is:)print == 
}forall 
pop 
}bd 

/@sm 
{ 
/$ctm $ctm currentmatrix def 
}bd 

%--@lorg  move to line origin   length string @torg length string
/@lorg    % moves currentpoint to line origin according to current alignment
  {      
  $lx $ly moveto    
  /$ly $ly $le sub def      % - prepare for next line(tracking)
  $al 0 ne
    {dup      % ->len str len str
    stringwidth   % ->len str len dx dy
    exch 3 index  % ->len str dy len dx
    1 sub         % ->len str dy len dx (len-1)
    $tr mul add   % ->len str dy len dx+(len-1)*$tr
    neg
    exch neg      % ->len str -dx_total dy len
    $al 1 eq      % check for centered alignment
    {2 div exch 2 div exch} if  
    rmoveto} if
  }bd

/@ft 
{ 
$pf 
{@xp} 
{ 
@scc 
{$tr exch 0 exch ashow pop} 
{pop pop}ifelse 
}ifelse 
}bd 

/@st 
{ 
$PF 
{} 
{ 
@SCC 
{ 
{ 
(0) dup 3 -1 roll 0 exch put 
@gs 
true charpath currentpoint 
$ctm setmatrix $ptm concat 
stroke 
@gr 
moveto $tr 0 rmoveto 
}forall 
pop 
} 
{pop pop}ifelse 
}ifelse 
}bd 
/@pt 
{ 
dup length exch 
}bd 
/@te 
{ 
@pt 
@lorg 
@ft 
}bd 

/@tr 
{ 
@pt 
@lorg 
@st 
}bd 
/@ta 
{ 
@pt 
@lorg 
2 copy 
@gs @ft @gr 
/$lx 0 def 
/$ly 0 def 
@st 
}bd 















/g { 
1 exch sub /$k xd 
/$c 0 def /$m 0 def /$y 0 def /$t 1 def /$n _ def /$pf false def 
}bd 

/G { 
1 exch sub /$K xd 
/$C 0 def /$M 0 def /$Y 0 def /$T 1 def /$N _ def /$PF false def 
}bd 

/k { 
/$k xd /$y xd /$m xd /$c xd 
/$t 1 def /$n _ def /$pf false def 
}bd 

/K { 
/$K xd /$Y xd /$M xd /$C xd 
/$T 1 def /$N _ def /$PF false def 
}bd 

/x { 
/$t xd /$n xd 
/$k xd /$y xd /$m xd /$c xd /$pf false def 
}bd 

/X { 
/$T xd /$N xd 
/$K xd /$Y xd /$M xd /$C xd /$PF false def 
}bd 

/d /setdash ld 

/i { 
dup 0 ne {setflat} {pop} ifelse 
}bd 

/j /setlinejoin ld 

/J /setlinecap ld 

/M /setmiterlimit ld 

/w /setlinewidth ld 

/O { 
/$o xd 
}bd 

/R { 
/$O xd 
}bd 


/c /curveto ld 

/C /c ld 

/v { 
currentpoint
6 2 roll 
curveto 
}bd

/V /v ld 

/y { 
2 copy curveto 
}bd 

/Y /y ld 

/l /lineto ld 

/L /l ld 

/m /moveto ld 



/n /newpath ld 

/N /newpath ld 

/F { 
$pf 
{@pf} 
{ 
@scc 
{eofill}if 
}ifelse 
}bd 

/f { 
@cp F 
}bd 
/S { 
$PF 
{} 
{ 
@SCC 
{ 
@sm 
$ptm concat 
stroke 
$ctm setmatrix 
}if 
}ifelse 
}bd 
/s { 
@cp 
S 
}bd 

/B { 
@gs F @gr 
S 
}bd 
/b { 
@cp 
B 
}bd 

/W { 
oeclip 
@np 
}bd 

/p { 
/$pm xd 
7 {pop} repeat 
/$pyf xd /$pxf xd 
/$pn xd 
/$pf true def 
}bd 

/P { 
11 {pop} repeat 
}bd 

/@p { 
/$pm xd 
/$psy xd 
/$psx xd 
/$pyf xd /$pxf xd 
/$pn xd 
/$pf true def 
}bd 

/@b { 
/$Bbury xd /$Bburx xd 
/$Bblly xd /$Bbllx xd 
}bd 


/z { 
/$al xd 
/$tr xd 
/$le xd 
exch findfont exch scalefont setfont 
}bd 

/Z { 
dup type 0 type eq { /$bDir xd } if
findfont 
dup maxlength 1 add dict exch 



dup 
{1 index /FID ne 
{ 
3 index 
3 1 roll put 
} 
{pop pop}ifelse 
} forall 



pop 
dup dup /Encoding get 
256 array copy 
dup /$fe xd
/Encoding exch put 

dup /Fontname 3 index put 

}bd 

/e { 
@sm 
concat 
[ 
/t {@te}def 
}bd 

/r { 
@sm 
concat 
[ 
/t {@tr}def 
}bd 

/o { 
@sm 
concat 
[ 
/t {pop}def 
}bd 

/a { 
@sm 
concat 
[ 
/t {@ta}def 
}bd 

/@o{
@sm 
concat 
[ 
/t {@t@a}def 
}bd 

/I { 
@sm 
concat 
[ 
/t {pop}def 
}bd 

/t {@te}def 

/T { 
cleartomark 
/$lx 0 def 
/$ly 0 def 
$ctm setmatrix 
}bd 


/u {}bd 

/U {}bd 

/A {pop}bd 

/h { 
$h true def 
}bd 

/h { 
$h true def 
}bd 

/q /@gs ld 

/Q /@gr ld 



/E { 
5 array astore 
exch cvlit exch def 
}bd 

/` {}bd 

/~ {}bd 

/@ {}bd 

/& {}bd 

/CorelDrawRencodeVect [ 
16#80/grave 
16#81/circumflex 
16#82/tilde 
16#83/dotlessi 
16#84/florin 
16#85/quotedblleft 
16#86/quotedblright 
16#87/guilsinglleft 
16#88/guilsinglright 
16#89/fi 
16#8a/fl 
16#8b/dagger 
16#8c/daggerdbl 
16#8d/endash 
16#8e/periodcentered 
16#8f/breve 
16#90/quotedblbase 
16#91/ellipsis 
16#92/perthousand 
16#a1/exclamdown 
16#a2/cent 
16#a3/sterling 
16#a4/currency 
16#a5/yen 
16#a6/bar 
16#a7/section 
16#a8/dieresis 
16#a9/copyright 
16#aa/ordfeminine 
16#ab/guillemotleft 
16#ac/logicalnot 
16#ad/emdash 
16#ae/registered 
16#af/spac 
16#b0/ring 
16#b1/spac 
16#b2/spac 
16#b3/spac 
16#b4/acute 
16#b5/spac 
16#b6/paragraph 
16#b7/bullet 
16#b8/cedilla 
16#b9/spac 
16#ba/ordmasculine 
16#bb/guillemotright 
16#bc/spac 
16#bd/spac 
16#be/spac 
16#bf/questiondown 
16#c0/Agrave 
16#c1/Aacute 
16#c2/Acircumflex 
16#c3/Atilde 
16#c4/Adieresis 
16#c5/Aring 
16#c6/AE 
16#c7/Ccedilla 
16#c8/Egrave 
16#c9/Eacute 
16#ca/Ecircumflex 
16#cb/Edieresis 
16#cc/Igrave 
16#cd/Iacute 
16#ce/Icircumflex 
16#cf/Idieresis 
16#d0/spac 
16#d1/Ntilde 
16#d2/Ograve 
16#d3/Oacute 
16#d4/Ocircumflex 
16#d5/Otilde 
16#d6/Odieresis 
16#d7/OE 
16#d8/Oslash 
16#d9/Ugrave 
16#da/Uacute 
16#db/Ucircumflex 
16#dc/Udieresis 
16#dd/space 
16#de/spac 
16#df/germandbls 
16#e0/agrave 
16#e1/aacute 
16#e2/acircumflex 
16#e3/atilde 
16#e4/adieresis 
16#e5/aring 
16#e6/ae 
16#e7/ccedilla 
16#e8/egrave 
16#e9/eacute 
16#ea/ecircumflex 
16#eb/edieresis 
16#ec/igrave 
16#ed/iacute 
16#ee/icircumflex 
16#ef/idieresis 
16#f0/space 
16#f1/ntilde 
16#f2/ograve 
16#f3/oacute 
16#f4/ocircumflex 
16#f5/otilde 
16#f6/odieresis 
16#f7/oe 
16#f8/oslash 
16#f9/ugrave 
16#fa/uacute 
16#fb/ucircumflex 
16#fc/udieresis 
16#fd/spac 
16#fe/spac 
16#ff/ydieresis 
] def
%%EndProlog
%%BeginSetup
%%BeginEncoding:_Times-Bold Times-Bold
[
]/_Times-Bold/Times-Bold Z
%%EndEncoding
%%EndSetup
0.000 0.000 0.000 1.000 K
0 j
0 J
0.863 w
[]0 d
0.000 0.000 0.000 0.000 k
776.879 1090.295 m
796.103 1090.367 812.663 1090.295 831.239 1089.791 c
840.167 1089.576 849.671 1087.919 858.023 1087.919 c
860.687 1087.919 863.063 1086.768 864.791 1085.255 c
868.967 1081.511 871.847 1076.399 872.927 1070.351 C
873.359 1069.415 874.007 1068.911 874.799 1068.480 C
884.447 1043.063 889.703 1015.919 892.295 987.839 C
893.303 987.191 894.095 985.751 894.167 984.743 c
895.103 968.759 895.175 952.487 895.247 936.647 c
895.247 921.311 893.879 906.335 888.623 892.295 C
888.407 909.647 L
888.335 912.959 887.399 913.751 884.447 913.751 C
874.727 913.751 L
776.879 913.751 L
776.879 913.751 L
676.223 913.751 L
666.503 913.751 L
663.551 913.751 662.615 912.959 662.543 909.647 C
662.327 892.295 L
657.072 906.335 655.631 921.167 655.703 936.647 c
655.847 952.559 655.703 968.687 656.783 984.743 c
656.855 985.895 657.647 987.191 658.655 987.839 C
661.247 1015.919 666.503 1043.063 676.151 1068.480 C
676.943 1068.911 677.591 1069.415 678.024 1070.351 C
679.103 1076.399 681.911 1081.367 686.159 1085.255 c
687.959 1086.839 690.263 1087.919 692.927 1087.919 c
701.279 1087.919 710.639 1089.503 719.711 1089.791 c
738.359 1090.439 757.655 1090.367 776.879 1090.295 C
776.879 1090.295 L
b
0.000 0.000 0.000 1.000 K
0 j
0 J
0.863 w
[]0 d
0.000 0.000 0.000 0.000 k
773.999 810.071 m
773.999 810.071 L
793.223 810.143 813.599 809.855 832.103 809.495 c
839.735 809.351 848.231 807.983 855.791 807.695 C
856.799 807.623 857.879 807.623 858.959 807.623 c
861.623 807.623 864.071 806.399 865.655 804.959 c
869.759 801.359 872.711 796.103 873.791 790.055 C
874.295 789.119 874.871 788.687 875.735 788.255 C
885.383 762.839 890.567 735.695 893.159 707.543 C
894.239 706.895 895.031 705.311 895.031 704.519 c
895.823 688.463 896.111 672.191 896.111 656.351 c
896.111 641.087 893.231 623.231 887.255 609.120 C
887.183 621.647 L
889.847 630.791 891.071 639.144 891.359 647.207 C
890.423 651.239 889.199 654.120 887.039 654.479 C
884.447 653.327 883.727 649.079 882.863 645.192 C
879.623 644.831 875.663 644.471 872.423 644.183 C
871.775 639.431 869.255 637.775 865.583 638.135 C
834.263 638.063 L
830.375 637.847 828.287 639.863 827.999 644.183 C
820.943 644.183 L
819.143 637.703 813.743 636.192 806.759 636.767 C
796.175 636.767 784.583 636.767 773.999 636.767 C
776.879 636.767 L
766.295 636.767 755.711 636.767 745.127 636.767 C
738.143 636.192 732.671 637.703 730.943 644.183 C
723.815 644.183 L
723.599 639.863 721.439 637.847 717.551 638.063 C
686.231 638.135 L
682.559 637.775 680.111 639.431 679.391 644.183 C
676.151 644.471 672.191 644.831 668.951 645.192 C
668.087 649.079 667.439 653.327 664.847 654.479 C
662.687 654.120 661.391 651.239 660.527 647.207 C
660.815 639.144 661.967 630.791 664.631 621.647 C
664.631 609.120 L
658.583 623.231 655.703 641.015 655.703 656.351 c
655.775 672.191 655.775 688.463 656.783 704.519 c
656.855 705.527 657.647 706.895 658.655 707.543 C
661.247 735.695 666.503 762.839 676.151 788.255 C
676.943 788.687 677.591 789.119 678.024 790.055 C
679.103 796.103 681.983 801.215 686.159 804.959 c
687.887 806.543 690.263 807.623 692.927 807.623 c
693.935 807.623 695.015 807.623 696.096 807.695 C
703.655 807.983 711.935 809.279 719.711 809.495 c
738.359 809.999 757.655 810.143 776.879 810.071 C
776.879 810.071 L
773.999 810.071 L
b
0.000 0.000 0.000 1.000 K
0 j
0 J
0.863 w
[]0 d
0.000 0.000 0.000 0.498 k
777.815 636.767 m
806.759 636.767 L
813.743 636.192 819.143 637.703 820.943 644.183 C
827.999 644.183 L
828.287 639.863 830.375 637.847 834.263 638.063 C
865.583 638.135 L
869.255 637.775 871.775 639.431 872.423 644.183 C
875.663 644.471 879.623 644.831 882.863 645.192 C
883.727 649.079 884.447 653.327 887.039 654.479 C
888.767 654.192 889.919 652.175 890.783 649.295 C
888.191 641.015 L
886.967 632.807 878.759 603.072 874.511 594.000 C
873.647 592.127 869.399 591.695 865.439 591.767 C
778.031 591.767 L
773.855 591.767 L
686.447 591.767 L
682.415 591.695 678.239 592.127 677.375 594.000 C
673.127 603.072 664.919 632.807 663.695 641.015 C
661.031 649.295 L
661.895 652.175 663.048 654.192 664.847 654.479 C
667.439 653.327 668.087 649.079 668.951 645.192 C
672.191 644.831 676.151 644.471 679.391 644.183 C
680.111 639.431 682.559 637.775 686.231 638.135 C
717.551 638.063 L
721.439 637.847 723.599 639.863 723.815 644.183 C
730.943 644.183 L
732.671 637.703 738.143 636.192 745.127 636.767 C
773.999 636.767 L
777.815 636.767 L
b
0.000 0.000 0.000 1.000 K
0 j
0 J
0.863 w
[]0 d
0.000 0.000 0.000 1.000 k
777.815 636.767 m
806.759 636.767 L
813.887 636.695 820.727 637.703 820.943 644.183 C
821.087 646.199 820.223 647.639 817.271 647.855 C
735.695 647.855 L
733.031 647.279 731.159 646.271 730.943 644.183 C
731.015 637.703 738.143 636.551 745.127 636.767 C
773.999 636.767 L
777.815 636.767 L
b
0.000 0.000 0.000 1.000 K
0 j
0 J
0.863 w
[]0 d
0.000 0.000 0.000 0.098 k
684.719 658.151 m
681.911 655.631 680.399 650.447 679.391 644.183 C
680.111 639.431 682.559 637.775 686.231 638.135 C
717.551 638.063 L
721.439 637.847 723.815 639.863 723.815 644.183 c
723.815 650.375 719.567 654.911 712.295 657.863 c
700.487 662.615 690.695 663.479 684.719 658.151 c
b
0.000 0.000 0.000 1.000 K
0 j
0 J
0.863 w
[]0 d
0.000 0.000 0.000 0.098 k
867.167 658.151 m
869.975 655.631 871.487 650.447 872.423 644.183 C
871.775 639.431 869.255 637.775 865.583 638.135 C
834.263 638.063 L
830.375 637.847 827.999 639.863 827.999 644.183 c
827.999 650.375 832.247 654.911 839.519 657.863 c
851.399 662.615 861.191 663.479 867.167 658.151 c
b
0.000 0.000 0.000 1.000 K
0 j
0 J
0.215 w
[]0 d
0.000 0.000 0.000 0.498 k
775.583 810.071 m
775.799 810.071 L
795.023 810.143 812.519 809.999 831.095 809.495 c
838.871 809.279 847.223 807.983 854.783 807.695 C
855.791 807.623 861.047 783.359 862.271 778.535 c
865.799 763.919 853.847 757.151 853.847 755.063 c
853.847 750.383 852.479 750.671 851.183 747.000 C
850.391 747.431 846.791 748.943 844.703 748.871 C
775.439 751.823 L
775.367 751.823 L
706.175 748.871 L
704.015 748.943 700.487 747.431 699.623 747.000 C
698.327 750.671 697.031 750.383 697.031 755.063 c
697.031 757.151 685.007 763.919 688.607 778.535 c
689.759 783.431 695.015 807.623 696.096 807.695 C
703.655 807.983 711.935 809.279 719.711 809.495 c
738.359 809.999 755.783 810.143 775.007 810.071 C
775.295 810.071 L
775.583 810.071 L
b
0.000 0.000 0.000 1.000 K
0 j
0 J
0.287 w
[]0 d
0.000 0.000 0.000 1.000 k
461.447 838.583 m
484.487 838.583 503.279 857.375 503.279 880.415 c
503.279 903.383 484.487 922.175 461.447 922.175 c
438.407 922.175 419.615 903.383 419.615 880.415 c
419.615 857.375 438.407 838.583 461.447 838.583 c
b
0.000 0.000 0.000 1.000 K
0 j
0 J
0.287 w
[]0 d
0.000 0.000 0.000 1.000 k
156.024 559.439 m
133.055 559.439 114.263 578.231 114.263 601.271 c
114.263 624.240 133.055 643.031 156.024 643.031 c
179.063 643.031 197.855 624.240 197.855 601.271 c
197.855 578.231 179.063 559.439 156.024 559.439 c
b
0.000 0.000 0.000 1.000 K
0 j
0 J
0.863 w
[]0 d
0.000 0.000 0.000 0.000 k
149.399 971.567 m
180.863 991.511 213.119 1011.095 246.599 1030.031 C
246.959 1032.624 L
261.503 1049.543 276.839 1065.599 295.919 1077.119 c
302.255 1080.935 309.743 1083.528 318.024 1085.039 c
330.119 1087.271 344.519 1089.071 359.495 1089.720 c
427.463 1092.672 495.575 1091.663 563.543 1088.423 c
571.031 1088.135 574.775 1085.111 576.144 1080.359 c
587.519 1039.319 591.623 981.503 590.615 907.055 C
568.151 906.191 L
564.336 905.399 562.319 903.959 562.175 901.799 C
561.455 879.047 L
520.199 875.375 L
519.336 872.423 517.535 870.407 514.943 869.255 C
513.216 872.135 511.775 875.087 511.415 878.471 C
508.535 909.647 492.047 925.631 461.951 926.063 c
428.687 926.495 411.047 908.351 409.319 871.487 C
408.671 868.895 406.799 867.455 403.775 867.095 C
159.048 868.607 L
161.567 901.799 151.271 926.207 112.967 927.287 c
78.407 928.223 62.999 906.623 63.575 868.031 C
24.623 868.175 L
21.671 872.135 16.343 875.303 15.911 880.055 C
17.639 880.703 18.863 882.071 19.295 885.239 C
19.511 887.255 17.567 890.495 15.335 893.807 C
14.183 895.103 12.887 895.823 11.519 895.319 C
11.231 901.079 9.431 910.943 10.655 912.455 C
11.591 914.903 15.551 916.487 16.271 916.343 C
19.511 922.751 l
20.663 925.055 18.000 927.935 16.055 927.647 C
18.575 938.591 34.343 946.367 54.071 952.559 c
84.239 961.991 116.495 967.319 149.399 971.567 C
b
0.000 0.000 0.000 1.000 K
0 j
0 J
0.863 w
[]0 d
0.000 0.000 0.000 0.000 k
468.143 692.423 m
436.679 712.367 404.351 731.951 370.943 750.887 C
370.583 753.479 L
355.967 770.399 340.703 786.455 321.623 797.975 c
315.215 801.791 307.727 804.383 299.447 805.895 c
287.351 808.127 272.951 809.927 257.975 810.575 c
190.079 813.527 121.967 812.519 53.999 809.279 c
46.511 808.991 42.767 805.967 41.399 801.215 c
30.023 760.175 25.919 702.359 26.927 627.911 C
49.391 627.048 L
53.207 626.255 55.223 624.815 55.367 622.655 C
56.087 599.903 L
97.343 596.231 L
98.207 593.279 100.007 591.264 102.599 590.111 C
104.327 592.991 105.767 595.943 106.127 599.327 C
109.007 630.503 125.495 646.487 155.519 646.919 c
188.783 647.351 206.495 629.207 208.151 592.343 C
208.871 589.751 210.743 588.312 213.767 587.951 C
458.423 589.463 L
455.903 622.655 466.199 647.063 504.575 648.144 c
539.135 649.079 554.543 627.479 553.967 588.887 C
592.919 589.031 L
595.871 592.991 601.199 596.159 601.631 600.911 C
599.903 601.559 598.679 602.927 598.247 606.096 C
598.031 608.111 599.975 611.351 602.207 614.663 C
603.359 615.959 604.655 616.679 606.024 616.175 C
606.311 621.935 608.111 631.799 606.887 633.311 C
605.951 635.759 601.991 637.343 601.271 637.199 C
598.031 643.607 l
596.879 645.911 599.543 648.791 601.487 648.503 C
598.967 659.447 583.199 667.223 563.471 673.415 c
533.303 682.847 501.047 688.175 468.143 692.423 C
b
0.000 0.000 0.000 1.000 K
0 j
0 J
0.863 w
[]0 d
0.000 0.000 0.000 0.498 k
256.463 1027.223 m
246.959 1032.624 L
261.503 1049.543 276.839 1065.672 295.919 1077.119 c
302.255 1080.935 309.743 1083.599 318.024 1085.039 c
330.119 1087.271 344.591 1089.071 359.495 1089.720 C
359.135 1085.183 L
346.031 1077.119 338.759 1063.295 335.231 1042.559 c
334.439 1037.951 329.687 1035.288 324.072 1034.495 C
302.255 1034.639 281.591 1031.687 256.463 1027.223 C
b
0.000 0.000 0.000 1.000 K
0 j
0 J
0.863 w
[]0 d
0.000 0.000 0.000 0.498 k
361.007 748.079 m
370.583 753.479 L
355.967 770.399 340.703 786.527 321.623 797.975 c
315.287 801.791 307.727 804.455 299.447 805.895 c
287.423 808.127 272.951 809.927 257.975 810.575 C
258.407 806.039 L
271.512 797.975 278.783 784.151 282.311 763.415 c
283.103 758.807 287.855 756.143 293.471 755.351 C
315.287 755.495 335.879 752.543 361.007 748.079 C
b
0.000 0.000 0.000 1.000 K
0 j
0 J
0.215 w
[]0 d
0.000 0.000 0.000 0.498 k
149.399 971.567 m
150.335 972.143 151.343 972.791 152.351 973.439 C
182.231 992.375 212.975 1011.023 244.727 1029.023 C
245.303 1029.384 245.951 1029.743 246.599 1030.031 C
253.439 1027.439 L
254.303 1027.007 254.087 1026.503 253.655 1026.000 C
171.359 971.567 l
163.151 966.167 155.375 970.847 149.399 971.567 C
b
0.000 0.000 0.000 1.000 K
0 j
0 J
0.215 w
[]0 d
0.000 0.000 0.000 0.498 k
468.143 692.423 m
467.207 693.000 466.199 693.647 465.191 694.295 C
435.239 713.231 404.495 731.879 372.815 749.879 C
372.167 750.239 371.519 750.599 370.943 750.887 C
364.031 748.295 L
363.167 747.863 363.383 747.359 363.887 746.855 C
446.111 692.423 l
454.391 687.024 462.095 691.703 468.143 692.423 C
b
0.000 0.000 0.000 1.000 K
0 j
0 J
0.215 w
[]0 d
0.000 0.000 0.000 0.200 k
150.911 972.575 m
180.791 991.511 213.551 1011.311 245.303 1029.311 C
251.927 1026.720 L
252.287 1026.647 252.215 1026.215 251.855 1026.000 C
169.127 971.567 l
166.175 969.623 162.215 968.903 150.911 972.575 C
b
0.000 0.000 0.000 1.000 K
0 j
0 J
0.215 w
[]0 d
0.000 0.000 0.000 0.200 k
466.631 693.431 m
436.679 712.367 403.919 732.167 372.239 750.167 C
365.615 747.575 L
365.183 747.503 365.255 747.071 365.687 746.855 C
448.343 692.423 l
451.367 690.479 455.327 689.759 466.631 693.431 C
b
0.000 0.000 0.000 1.000 K
0 j
0 J
0.863 w
[]0 d
0.000 0.000 0.000 0.498 k
80.855 927.143 m
104.327 941.039 138.311 938.375 155.231 920.375 c
166.391 908.567 171.863 892.943 172.583 875.303 c
172.655 873.575 170.495 872.207 167.327 871.343 C
159.191 871.199 L
160.991 903.023 150.191 926.279 112.967 927.287 c
78.479 928.151 62.999 906.623 63.575 868.031 C
24.623 868.175 L
21.671 872.135 16.343 875.303 15.911 880.055 C
17.639 880.703 18.863 882.071 19.295 885.239 C
19.511 887.255 17.567 890.495 15.335 893.807 C
14.183 895.103 12.887 895.823 11.519 895.319 C
11.231 901.079 9.431 910.943 10.655 912.455 C
11.519 914.183 14.255 916.271 16.271 916.343 c
28.727 917.063 l
36.647 917.495 39.599 920.447 42.047 924.551 C
80.855 927.143 L
b
0.000 0.000 0.000 1.000 K
0 j
0 J
0.863 w
[]0 d
0.000 0.000 0.000 0.498 k
536.687 648.000 m
513.216 661.895 479.231 659.231 462.239 641.231 c
451.079 629.423 445.607 613.799 444.887 596.159 c
444.815 594.431 447.047 593.063 450.143 592.199 C
458.279 592.055 L
456.551 623.879 467.351 647.135 504.575 648.144 c
539.063 649.007 554.543 627.479 553.967 588.887 C
592.919 589.031 L
595.871 592.991 601.199 596.159 601.631 600.911 C
599.903 601.559 598.679 602.927 598.247 606.096 C
598.031 608.111 599.975 611.351 602.207 614.663 C
603.359 615.959 604.655 616.679 606.024 616.175 C
606.311 621.935 608.111 631.799 606.887 633.311 C
606.024 635.039 603.288 637.127 601.271 637.199 c
588.815 637.919 l
580.895 638.351 577.943 641.303 575.495 645.407 C
536.687 648.000 L
b
0.000 0.000 0.000 1.000 K
0 j
0 J
0.863 w
[]0 d
0.000 0.000 0.000 0.498 k
590.615 907.055 m
568.151 906.191 L
564.336 905.399 562.319 903.959 562.175 901.799 C
561.455 879.047 L
600.623 881.711 L
604.943 883.007 607.319 885.671 607.751 889.559 C
607.967 896.543 L
608.039 898.559 606.815 899.639 604.511 899.783 c
602.711 899.927 601.703 901.007 601.775 902.735 c
601.847 904.607 600.695 905.759 599.111 905.903 C
590.615 907.055 L
b
0.000 0.000 0.000 1.000 K
0 j
0 J
0.863 w
[]0 d
0.000 0.000 0.000 0.498 k
26.927 627.911 m
49.391 627.048 L
53.207 626.255 55.223 624.815 55.367 622.655 C
56.087 599.903 L
16.919 602.567 L
12.599 603.863 10.223 606.527 9.791 610.415 C
9.575 617.399 L
9.503 619.415 10.727 620.495 13.031 620.639 c
14.831 620.783 15.839 621.863 15.767 623.591 c
15.695 625.463 16.847 626.615 18.431 626.759 C
26.927 627.911 L
b
0.000 0.000 0.000 1.000 K
0 j
0 J
0.863 w
[]0 d
0.000 0.000 0.000 0.498 k
461.807 922.319 m
482.903 922.823 507.311 903.455 502.919 873.575 C
514.943 869.255 L
513.216 872.135 511.775 875.087 511.415 878.471 C
508.535 909.647 492.047 925.631 461.951 926.063 c
428.687 926.495 411.047 908.351 409.319 871.487 C
421.703 868.103 L
412.991 897.263 435.023 921.671 461.807 922.319 c
b
0.000 0.000 0.000 1.000 K
0 j
0 J
0.863 w
[]0 d
0.000 0.000 0.000 0.498 k
155.735 643.175 m
134.639 643.679 110.231 624.311 114.623 594.431 C
102.599 590.111 L
104.327 592.991 105.767 595.943 106.127 599.327 C
109.007 630.503 125.495 646.487 155.519 646.919 c
188.783 647.351 206.495 629.207 208.151 592.343 C
195.767 588.959 L
204.479 618.120 182.519 642.527 155.735 643.175 c
b
0.000 0.000 0.000 1.000 K
0 j
0 J
0.863 w
[]0 d
0.000 0.000 0.000 0.498 k
112.319 922.103 m
137.375 921.527 158.399 901.511 152.711 870.335 C
159.048 868.607 L
161.567 901.799 151.271 926.207 112.967 927.287 c
78.479 928.223 62.999 906.623 63.575 868.031 C
72.647 867.311 L
63.863 894.095 83.879 922.751 112.319 922.103 c
b
0.000 0.000 0.000 1.000 K
0 j
0 J
0.863 w
[]0 d
0.000 0.000 0.000 0.498 k
505.223 642.959 m
480.167 642.383 459.143 622.367 464.759 591.192 C
458.423 589.463 L
455.903 622.655 466.199 647.063 504.575 648.144 c
539.063 649.079 554.543 627.479 553.967 588.887 C
544.895 588.168 L
553.679 614.951 533.663 643.607 505.223 642.959 c
b
0.000 0.000 0.000 1.000 K
0 j
0 J
0.287 w
[]0 d
359.711 982.295 m
424.007 981.791 488.231 981.719 552.599 982.295 c
557.855 982.295 561.887 986.687 562.247 991.943 c
564.048 1015.631 563.255 1039.679 558.000 1064.519 c
556.919 1069.631 551.231 1074.096 545.975 1074.167 c
490.175 1075.175 434.303 1075.175 378.647 1074.167 c
373.391 1074.096 368.135 1069.487 366.623 1064.519 c
359.567 1040.327 354.167 1016.063 350.063 991.943 c
349.199 986.759 354.455 982.295 359.711 982.295 c
s
0.000 0.000 0.000 1.000 K
0 j
0 J
0.287 w
[]0 d
257.759 703.151 m
193.535 702.647 129.311 702.575 64.943 703.151 c
59.687 703.151 55.655 707.543 55.295 712.799 c
53.495 736.487 54.287 760.535 59.543 785.375 c
60.623 790.487 66.311 794.951 71.567 795.023 c
127.367 796.031 183.167 796.031 238.895 795.023 c
244.151 794.951 249.407 790.343 250.847 785.375 c
257.975 761.183 263.303 736.919 267.479 712.799 c
268.343 707.615 263.087 703.151 257.759 703.151 c
s
0.000 0.000 0.000 1.000 K
0 j
0 J
0.287 w
[]0 d
419.975 984.815 m
460.079 984.599 500.327 984.815 540.503 985.031 C
544.823 985.031 549.503 984.815 553.895 985.247 C
557.207 986.183 559.079 988.847 559.439 992.231 C
560.303 1003.967 560.447 1015.847 559.943 1027.655 C
559.151 1039.895 557.567 1051.847 555.192 1063.871 C
554.111 1068.119 550.079 1071.000 545.831 1071.359 C
490.175 1072.511 434.375 1072.079 378.719 1071.359 C
374.183 1070.927 370.943 1067.831 369.359 1063.655 C
363.455 1042.847 358.343 1021.751 354.455 1000.511 C
353.663 995.975 L
352.799 991.367 351.719 988.559 356.255 986.039 C
357.479 985.463 358.559 985.247 359.855 985.103 C
379.799 985.031 399.959 984.815 419.975 984.815 C
s
0.000 0.000 0.000 1.000 K
0 j
0 J
0.287 w
[]0 d
197.567 705.671 m
157.391 705.455 117.215 705.671 77.039 705.887 C
72.719 705.887 68.039 705.671 63.647 706.103 C
60.335 707.039 58.463 709.703 58.103 713.087 C
57.239 724.823 57.095 736.703 57.599 748.511 C
58.391 760.751 59.975 772.703 62.351 784.727 C
63.431 788.975 67.463 791.855 71.711 792.215 C
127.367 793.367 183.095 792.935 238.751 792.215 C
243.359 791.783 246.599 788.687 248.183 784.511 C
254.087 763.703 259.127 742.607 263.015 721.367 C
263.879 716.831 L
264.671 712.223 265.751 709.415 261.216 706.895 C
260.063 706.319 258.983 706.103 257.687 705.959 C
237.671 705.887 217.511 705.671 197.567 705.671 C
s
0.000 0.000 0.000 1.000 K
0 j
0 J
0.287 w
[]0 d
0.000 0.000 0.000 1.000 k
112.247 838.583 m
135.215 838.583 154.007 857.375 154.007 880.415 c
154.007 903.383 135.215 922.175 112.247 922.175 c
89.207 922.175 70.415 903.383 70.415 880.415 c
70.415 857.375 89.207 838.583 112.247 838.583 c
b
0.000 0.000 0.000 1.000 K
0 j
0 J
0.287 w
[]0 d
0.000 0.000 0.000 1.000 k
505.295 559.439 m
482.327 559.439 463.463 578.231 463.463 601.271 c
463.463 624.240 482.327 643.031 505.295 643.031 c
528.336 643.031 547.127 624.240 547.127 601.271 c
547.127 578.231 528.336 559.439 505.295 559.439 c
b
0.000 0.000 0.000 1.000 K
0 j
0 J
0.287 w
[]0 d
0.000 0.000 0.000 0.098 k
112.247 853.631 m
126.935 853.631 139.031 865.655 139.031 880.415 c
139.031 895.175 126.935 907.199 112.247 907.199 c
97.487 907.199 85.391 895.175 85.391 880.415 c
85.391 865.655 97.487 853.631 112.247 853.631 c
b
0.000 0.000 0.000 1.000 K
0 j
0 J
0.287 w
[]0 d
0.000 0.000 0.000 0.098 k
505.295 574.487 m
490.607 574.487 478.511 586.511 478.511 601.271 c
478.511 616.031 490.607 628.055 505.295 628.055 c
520.055 628.055 532.151 616.031 532.151 601.271 c
532.151 586.511 520.055 574.487 505.295 574.487 c
b
0.000 0.000 0.000 1.000 K
0 j
0 J
0.287 w
[]0 d
0.000 0.000 0.000 0.098 k
461.447 853.631 m
476.207 853.631 488.231 865.655 488.231 880.415 c
488.231 895.175 476.207 907.199 461.447 907.199 c
446.687 907.199 434.591 895.175 434.591 880.415 c
434.591 865.655 446.687 853.631 461.447 853.631 c
b
0.000 0.000 0.000 1.000 K
0 j
0 J
0.287 w
[]0 d
0.000 0.000 0.000 0.098 k
156.095 574.487 m
141.335 574.487 129.311 586.511 129.311 601.271 c
129.311 616.031 141.335 628.055 156.095 628.055 c
170.855 628.055 182.879 616.031 182.879 601.271 c
182.879 586.511 170.855 574.487 156.095 574.487 c
b
0.000 0.000 0.000 1.000 K
0 j
0 J
0.287 w
[]0 d
0.000 0.000 0.000 0.400 k
112.247 855.287 m
126.071 855.287 137.304 866.591 137.304 880.415 c
137.304 894.239 126.071 905.543 112.247 905.543 c
98.423 905.543 87.119 894.239 87.119 880.415 c
87.119 866.591 98.423 855.287 112.247 855.287 c
b
0.000 0.000 0.000 1.000 K
0 j
0 J
0.287 w
[]0 d
0.000 0.000 0.000 0.400 k
505.295 576.144 m
491.471 576.144 480.239 587.447 480.239 601.271 c
480.239 615.096 491.471 626.399 505.295 626.399 c
519.120 626.399 530.423 615.096 530.423 601.271 c
530.423 587.447 519.120 576.144 505.295 576.144 c
b
0.000 0.000 0.000 1.000 K
0 j
0 J
0.287 w
[]0 d
0.000 0.000 0.000 0.400 k
461.447 855.287 m
475.271 855.287 486.575 866.591 486.575 880.415 c
486.575 894.239 475.271 905.543 461.447 905.543 c
447.623 905.543 436.319 894.239 436.319 880.415 c
436.319 866.591 447.623 855.287 461.447 855.287 c
b
0.000 0.000 0.000 1.000 K
0 j
0 J
0.287 w
[]0 d
0.000 0.000 0.000 0.400 k
156.095 576.144 m
142.271 576.144 130.967 587.447 130.967 601.271 c
130.967 615.096 142.271 626.399 156.095 626.399 c
169.919 626.399 181.223 615.096 181.223 601.271 c
181.223 587.447 169.919 576.144 156.095 576.144 c
b
0.000 0.000 0.000 1.000 K
0 j
0 J
0.287 w
[]0 d
0.000 0.000 0.000 0.098 k
29.447 936.863 m
31.967 939.311 38.015 940.607 39.815 939.455 c
45.215 935.927 44.711 929.015 41.615 923.831 c
37.583 916.919 31.319 917.135 20.231 916.631 C
20.879 928.007 24.839 932.183 29.447 936.863 c
b
0.000 0.000 0.000 1.000 K
0 j
0 J
0.287 w
[]0 d
0.000 0.000 0.000 0.098 k
588.096 657.719 m
585.575 660.168 579.527 661.463 577.727 660.311 c
572.327 656.783 572.831 649.871 575.927 644.687 c
579.959 637.775 586.223 637.991 597.311 637.487 C
596.663 648.863 592.703 653.039 588.096 657.719 c
b
0.000 0.000 0.000 1.000 K
0 j
0 J
0.287 w
[]0 d
0.000 0.000 0.000 0.498 k
307.584 963.791 m
209.447 961.775 L
209.447 988.487 L
223.559 999.791 238.967 1010.447 262.943 1020.311 C
281.807 1028.015 299.591 1029.887 316.799 1028.591 C
320.399 1027.943 321.695 1025.351 320.759 1020.959 C
307.584 963.791 L
b
0.000 0.000 0.000 1.000 K
0 j
0 J
0.287 w
[]0 d
0.000 0.000 0.000 0.498 k
309.887 684.647 m
408.095 682.631 L
408.095 709.343 L
393.983 720.647 378.575 731.303 354.527 741.167 C
335.735 748.871 317.951 750.743 300.743 749.447 C
297.144 748.799 295.775 746.207 296.711 741.815 C
309.887 684.647 L
b
0.000 0.000 0.000 1.000 K
0 j
0 J
0.287 w
[]0 d
0.000 0.000 0.000 0.200 k
224.495 997.199 m
241.703 1008.791 260.567 1018.727 280.799 1023.839 C
288.935 1025.567 297.072 1026.647 305.423 1026.864 C
309.096 1026.864 312.767 1026.720 316.439 1026.503 C
319.391 1025.855 319.103 1023.911 318.671 1021.391 C
305.927 965.879 L
211.535 963.935 L
211.535 987.479 L
215.711 990.719 220.175 994.103 224.495 997.199 C
b
0.000 0.000 0.000 1.000 K
0 j
0 J
0.287 w
[]0 d
0.000 0.000 0.000 0.200 k
393.047 718.055 m
375.767 729.647 356.975 739.583 336.671 744.695 C
328.607 746.423 320.399 747.503 312.120 747.719 C
308.447 747.719 304.703 747.575 301.031 747.359 C
298.151 746.711 298.439 744.767 298.799 742.247 C
311.615 686.735 L
405.935 684.791 L
405.935 708.335 L
401.759 711.575 397.295 714.959 393.047 718.055 C
b
u
u
0.000 0.000 0.000 1.000 K
0 j
0 J
0.287 w
[]0 d
317.591 881.279 m
172.151 881.279 L
S
U
U
u
u
0.000 0.000 0.000 1.000 K
0 j
0 J
0.287 w
[]0 d
299.951 602.135 m
445.319 602.135 L
S
U
U
u
u
0.000 0.000 0.000 1.000 K
0 j
0 J
0.287 w
[]0 d
171.791 873.503 m
408.743 873.503 L
S
U
U
u
u
0.000 0.000 0.000 1.000 K
0 j
0 J
0.287 w
[]0 d
445.751 594.359 m
208.799 594.359 L
S
U
U
u
u
0.000 0.000 0.000 1.000 K
0 j
0 J
0.863 w
[]0 d
179.927 881.279 m
171.215 917.567 169.847 945.575 177.047 965.231 c
177.839 967.535 179.639 969.839 182.879 972.287 C
211.103 994.967 235.007 1011.671 250.703 1018.367 c
258.263 1021.607 266.831 1025.423 275.543 1027.511 c
289.871 1030.895 310.463 1032.192 327.167 1031.975 C
315.863 963.935 l
311.255 936.431 312.263 908.855 317.231 881.351 C
S
U
U
u
u
0.000 0.000 0.000 1.000 K
0 j
0 J
0.863 w
[]0 d
437.615 602.135 m
446.255 638.423 447.695 666.431 440.495 686.087 c
439.631 688.391 437.903 690.695 434.591 693.143 C
406.439 715.823 382.463 732.527 366.839 739.223 c
359.279 742.463 350.711 746.279 341.927 748.367 c
327.599 751.751 307.007 753.047 290.303 752.831 C
301.679 684.791 l
306.215 657.287 305.279 629.711 300.239 602.207 C
S
U
U
u
u
0.000 0.000 0.000 1.000 K
0 j
0 J
0.287 w
[]0 d
81.575 918.791 m
76.823 927.071 L
S
U
U
u
u
0.000 0.000 0.000 1.000 K
0 j
0 J
0.287 w
[]0 d
535.967 639.647 m
540.719 647.927 L
S
U
U
u
u
0.000 0.000 0.000 1.000 K
0 j
0 J
0.287 w
[]0 d
25.487 869.543 m
60.407 869.543 L
60.407 893.591 66.095 911.519 80.207 920.879 C
S
U
U
u
u
0.000 0.000 0.000 1.000 K
0 j
0 J
0.287 w
[]0 d
592.055 590.399 m
557.135 590.399 L
557.135 614.447 551.447 632.375 537.336 641.735 C
S
U
U
u
u
0.000 0.000 0.000 1.000 K
0 j
0 J
0.287 w
[]0 d
18.863 882.359 m
18.863 879.191 L
55.151 879.191 L
57.095 899.135 63.143 915.695 77.975 924.767 C
S
U
U
u
u
0.000 0.000 0.000 1.000 K
0 j
0 J
0.287 w
[]0 d
598.679 603.216 m
598.679 600.048 L
562.391 600.048 L
560.447 619.991 554.399 636.551 539.567 645.623 C
S
U
U
u
u
0.000 0.000 0.000 1.000 K
0 j
0 J
0.287 w
[]0 d
41.903 923.183 m
77.975 925.919 L
S
U
U
u
u
0.000 0.000 0.000 1.000 K
0 j
0 J
0.287 w
[]0 d
575.639 644.039 m
539.567 646.775 L
S
U
U
0.000 0.000 0.000 1.000 K
0 j
0 J
0.287 w
[]0 d
0.000 0.000 0.000 1.000 k
21.383 894.959 m
52.847 894.959 L
51.263 892.007 L
22.535 892.007 L
21.383 894.959 L
b
0.000 0.000 0.000 1.000 K
0 j
0 J
0.287 w
[]0 d
0.000 0.000 0.000 1.000 k
596.159 615.815 m
564.695 615.815 L
566.279 612.863 L
595.007 612.863 L
596.159 615.815 L
b
0.000 0.000 0.000 1.000 K
0 j
0 J
0.287 w
[]0 d
0.000 0.000 0.000 1.000 k
24.551 889.559 m
53.495 889.559 L
51.911 886.535 L
25.703 886.535 L
24.551 889.559 L
b
0.000 0.000 0.000 1.000 K
0 j
0 J
0.287 w
[]0 d
0.000 0.000 0.000 1.000 k
592.991 610.415 m
564.048 610.415 L
565.631 607.391 L
591.839 607.391 L
592.991 610.415 L
b
0.000 0.000 0.000 1.000 K
0 j
0 J
0.287 w
[]0 d
0.000 0.000 0.000 1.000 k
22.319 883.223 m
53.495 883.223 L
54.359 880.703 L
20.663 880.703 L
22.319 883.223 L
b
0.000 0.000 0.000 1.000 K
0 j
0 J
0.287 w
[]0 d
0.000 0.000 0.000 1.000 k
595.223 604.079 m
564.048 604.079 L
563.183 601.559 L
596.879 601.559 L
595.223 604.079 L
b
u
u
0.000 0.000 0.000 1.000 K
0 j
0 J
0.287 w
[]0 d
10.151 905.975 m
62.855 907.775 L
S
U
U
u
u
0.000 0.000 0.000 1.000 K
0 j
0 J
0.287 w
[]0 d
607.391 626.831 m
554.687 628.631 L
S
U
U
u
u
0.000 0.000 0.000 1.000 K
0 j
0 J
0.287 w
[]0 d
10.367 909.647 m
64.512 911.231 L
S
U
U
u
u
0.000 0.000 0.000 1.000 K
0 j
0 J
0.287 w
[]0 d
607.175 630.503 m
553.031 632.087 L
S
U
U
u
u
0.000 0.000 0.000 1.000 K
0 j
0 J
0.287 w
[]0 d
10.151 911.231 m
63.359 913.319 L
11.087 913.319 L
S
U
U
u
u
0.000 0.000 0.000 1.000 K
0 j
0 J
0.287 w
[]0 d
607.391 632.087 m
554.183 634.175 L
606.455 634.175 L
S
U
U
u
u
0.000 0.000 0.000 1.000 K
0 j
0 J
0.287 w
[]0 d
39.095 939.383 m
49.463 946.367 66.959 952.631 88.847 956.735 c
114.119 961.487 139.607 964.943 165.024 969.047 C
S
U
U
u
u
0.000 0.000 0.000 1.000 K
0 j
0 J
0.287 w
[]0 d
578.447 660.239 m
568.079 667.223 550.583 673.487 528.695 677.591 c
503.423 682.343 477.935 685.799 452.519 689.903 C
S
U
U
0.000 0.000 0.000 1.000 K
0 j
0 J
0.287 w
[]0 d
0.000 0.000 0.000 0.298 k
590.183 970.199 m
569.231 970.199 L
566.279 970.199 563.831 967.751 563.831 964.799 C
563.831 946.079 L
563.831 943.127 566.279 940.751 569.231 940.751 C
590.687 940.751 L
590.183 970.199 L
b
0.000 0.000 0.000 1.000 K
0 j
0 J
0.287 w
[]0 d
0.000 0.000 0.000 0.298 k
27.359 691.055 m
48.311 691.055 L
51.263 691.055 53.711 688.607 53.711 685.655 C
53.711 666.935 L
53.711 663.983 51.263 661.607 48.311 661.607 C
26.855 661.607 L
27.359 691.055 L
b
0.000 0.000 0.000 1.000 K
0 j
0 J
0.287 w
[]0 d
0.000 0.000 0.000 0.298 k
676.151 970.199 m
664.919 970.199 L
661.967 970.199 659.591 967.751 659.591 964.799 C
659.591 946.079 L
659.591 943.127 661.967 940.751 664.919 940.751 C
676.151 940.751 L
676.151 970.199 L
b
0.000 0.000 0.000 1.000 K
0 j
0 J
0.287 w
[]0 d
0.000 0.000 0.000 0.298 k
875.087 970.199 m
886.319 970.199 L
889.271 970.199 891.647 967.751 891.647 964.799 C
891.647 946.079 L
891.647 943.127 889.271 940.751 886.319 940.751 C
875.087 940.751 L
875.087 970.199 L
b
0.000 0.000 0.000 1.000 K
0 j
0 J
0.287 w
[]0 d
0.000 0.000 0.000 0.098 k
590.471 962.351 m
577.871 962.351 L
576.144 962.351 574.775 960.983 574.775 959.255 C
574.775 950.399 L
574.775 948.671 576.144 947.303 577.871 947.303 C
590.831 947.303 L
590.471 962.351 L
b
0.000 0.000 0.000 1.000 K
0 j
0 J
0.287 w
[]0 d
0.000 0.000 0.000 0.098 k
27.071 683.207 m
39.671 683.207 L
41.399 683.207 42.767 681.839 42.767 680.111 C
42.767 671.255 L
42.767 669.527 41.399 668.159 39.671 668.159 C
26.711 668.159 L
27.071 683.207 L
b
0.000 0.000 0.000 1.000 K
0 j
0 J
0.287 w
[]0 d
0.000 0.000 0.000 0.098 k
676.079 962.351 m
664.775 962.351 L
663.048 962.351 661.679 960.983 661.679 959.255 C
661.679 950.399 L
661.679 948.671 663.048 947.303 664.775 947.303 C
676.151 947.303 L
676.079 962.351 L
b
0.000 0.000 0.000 1.000 K
0 j
0 J
0.287 w
[]0 d
0.000 0.000 0.000 0.098 k
875.087 962.351 m
887.615 962.351 L
889.343 962.351 890.711 960.983 890.711 959.255 C
890.711 950.399 L
890.711 948.671 889.343 947.303 887.615 947.303 C
875.087 947.303 L
875.087 962.351 L
b
0.000 0.000 0.000 0.498 K
0 j
0 J
0.287 w
[]0 d
357.119 975.095 m
590.039 975.095 L
590.039 965.375 L
357.119 965.375 l
355.175 965.375 353.663 966.887 353.663 968.831 c
353.663 971.567 l
353.663 973.511 355.175 975.095 357.119 975.095 c
s
0.000 0.000 0.000 0.498 K
0 j
0 J
0.287 w
[]0 d
260.351 695.951 m
27.503 695.951 L
27.503 686.231 L
260.351 686.231 l
262.295 686.231 263.879 687.743 263.879 689.687 c
263.879 692.423 l
263.879 694.367 262.295 695.951 260.351 695.951 c
s
0.000 0.000 0.000 0.498 K
0 j
0 J
0.287 w
[]0 d
354.959 960.263 m
590.759 960.263 L
590.759 950.543 l
354.959 950.543 l
353.015 950.543 351.431 952.055 351.431 953.999 c
351.431 956.735 l
351.431 958.679 353.015 960.263 354.959 960.263 c
s
0.000 0.000 0.000 0.498 K
0 j
0 J
0.287 w
[]0 d
262.584 681.120 m
26.783 681.120 L
26.783 671.399 l
262.584 671.399 l
264.527 671.399 266.039 672.911 266.039 674.855 c
266.039 677.591 l
266.039 679.535 264.527 681.120 262.584 681.120 c
s
0.000 0.000 0.000 0.498 K
0 j
0 J
0.287 w
[]0 d
353.447 945.431 m
590.759 945.431 L
590.759 935.711 L
353.447 935.711 l
351.503 935.711 349.991 937.223 349.991 939.167 c
349.991 941.903 l
349.991 943.847 351.503 945.431 353.447 945.431 c
s
0.000 0.000 0.000 0.498 K
0 j
0 J
0.287 w
[]0 d
264.024 666.287 m
26.783 666.287 L
26.783 656.567 L
264.024 656.567 l
265.967 656.567 267.551 658.079 267.551 660.024 c
267.551 662.759 l
267.551 664.703 265.967 666.287 264.024 666.287 c
s
u
u
0.000 0.000 0.000 0.498 K
0 j
0 J
0.287 w
[]0 d
352.223 955.223 m
590.543 955.223 L
S
U
U
u
u
0.000 0.000 0.000 0.498 K
0 j
0 J
0.287 w
[]0 d
265.247 676.079 m
26.999 676.079 L
S
U
U
u
u
0.000 0.000 0.000 0.498 K
0 j
0 J
0.287 w
[]0 d
354.455 970.199 m
590.543 970.199 L
S
U
U
u
u
0.000 0.000 0.000 0.498 K
0 j
0 J
0.287 w
[]0 d
263.087 691.055 m
26.999 691.055 L
S
U
U
u
u
0.000 0.000 0.000 0.498 K
0 j
0 J
0.287 w
[]0 d
656.063 970.199 m
894.815 970.199 L
S
U
U
u
u
0.000 0.000 0.000 0.498 K
0 j
0 J
0.287 w
[]0 d
656.207 975.095 m
894.599 975.095 L
S
U
U
u
u
0.000 0.000 0.000 0.498 K
0 j
0 J
0.287 w
[]0 d
655.991 965.375 m
894.959 965.375 L
S
U
U
u
u
0.000 0.000 0.000 0.498 K
0 j
0 J
0.287 w
[]0 d
655.919 960.191 m
895.031 960.191 L
S
U
U
u
u
0.000 0.000 0.000 0.498 K
0 j
0 J
0.287 w
[]0 d
655.919 955.223 m
895.103 955.223 L
S
U
U
u
u
0.000 0.000 0.000 0.498 K
0 j
0 J
0.287 w
[]0 d
655.847 950.471 m
895.103 950.471 L
S
U
U
u
u
0.000 0.000 0.000 0.498 K
0 j
0 J
0.287 w
[]0 d
655.847 945.359 m
895.103 945.359 L
S
U
U
u
u
0.000 0.000 0.000 0.498 K
0 j
0 J
0.287 w
[]0 d
655.775 940.751 m
895.247 940.751 L
S
U
U
u
u
0.000 0.000 0.000 0.498 K
0 j
0 J
0.287 w
[]0 d
655.703 935.639 m
895.175 935.639 L
S
U
U
u
u
0.000 0.000 0.000 0.498 K
0 j
0 J
0.287 w
[]0 d
349.703 940.535 m
590.543 940.535 L
S
U
U
u
u
0.000 0.000 0.000 0.498 K
0 j
0 J
0.287 w
[]0 d
267.767 661.391 m
26.999 661.391 L
S
U
U
u
u
0.000 0.000 0.000 1.000 K
0 j
0 J
0.287 w
[]0 d
345.527 873.575 m
331.703 943.703 343.871 1014.767 370.871 1086.407 C
S
U
U
u
u
0.000 0.000 0.000 1.000 K
0 j
0 J
0.287 w
[]0 d
271.943 594.431 m
285.767 664.559 273.599 735.623 246.599 807.263 C
S
U
U
u
u
0.000 0.000 0.000 1.000 K
0 j
0 J
0.287 w
[]0 d
248.543 1034.423 m
260.135 1027.655 L
S
U
U
u
u
0.000 0.000 0.000 1.000 K
0 j
0 J
0.287 w
[]0 d
369.000 755.279 m
357.407 748.511 L
S
U
U
u
u
0.000 0.000 0.000 1.000 K
0 j
0 J
0.287 w
[]0 d
254.303 1030.823 m
265.536 1044.864 279.359 1058.759 296.855 1072.151 c
301.823 1075.895 307.871 1079.279 316.871 1081.367 c
330.479 1084.535 344.663 1085.831 358.919 1087.055 C
S
U
U
u
u
0.000 0.000 0.000 1.000 K
0 j
0 J
0.287 w
[]0 d
363.239 751.679 m
352.007 765.719 338.111 779.615 320.615 793.007 c
315.647 796.751 309.599 800.135 300.671 802.223 c
286.991 805.391 272.879 806.687 258.623 807.911 C
S
U
U
u
u
0.000 0.000 0.000 1.000 K
0 j
0 J
0.287 w
[]0 d
252.647 1031.975 m
263.879 1046.015 277.775 1059.911 295.271 1073.303 c
300.239 1077.048 306.287 1080.432 315.215 1082.519 c
328.895 1085.615 344.807 1086.983 359.063 1088.207 C
S
U
U
u
u
0.000 0.000 0.000 1.000 K
0 j
0 J
0.287 w
[]0 d
364.823 752.831 m
353.591 766.871 339.767 780.767 322.271 794.159 c
317.303 797.903 311.183 801.287 302.255 803.375 c
288.647 806.471 272.735 807.839 258.479 809.063 C
S
U
U
u
u
0.000 0.000 0.000 1.000 K
0 j
0 J
0.287 w
[]0 d
250.919 1032.983 m
262.151 1047.023 275.975 1060.919 293.471 1074.311 c
298.439 1078.055 304.632 1081.367 313.487 1083.528 c
326.807 1086.768 344.879 1088.063 359.279 1089.215 C
S
U
U
u
u
0.000 0.000 0.000 1.000 K
0 j
0 J
0.287 w
[]0 d
366.623 753.839 m
355.391 767.879 341.495 781.775 324.000 795.167 c
319.031 798.911 312.911 802.223 304.055 804.383 c
290.663 807.623 272.591 808.919 258.192 810.071 C
S
U
U
u
u
0.000 0.000 0.000 1.000 K
0 j
0 J
0.287 w
[]0 d
359.207 1085.255 m
361.871 1086.336 366.047 1086.911 371.663 1087.127 C
433.943 1089.000 497.015 1088.423 560.663 1085.759 C
567.072 1085.255 570.815 1083.167 571.463 1081.295 c
582.911 1045.439 585.431 1008.143 585.503 971.495 C
585.575 906.767 L
S
U
U
u
u
0.000 0.000 0.000 1.000 K
0 j
0 J
0.287 w
[]0 d
258.335 806.111 m
255.599 807.191 251.495 807.767 245.807 807.983 C
183.527 809.855 120.527 809.279 56.879 806.615 C
50.471 806.111 46.727 804.023 46.079 802.151 c
34.631 766.295 32.111 729.000 32.039 692.351 C
31.967 627.623 L
S
U
U
0.000 0.000 0.000 1.000 K
0 j
0 J
0.287 w
[]0 d
0.000 0.000 0.000 0.498 k
576.863 1067.615 m
576.288 1070.135 577.439 1071.144 578.375 1071.720 C
585.000 1043.855 587.951 1012.967 589.607 980.711 C
587.663 980.495 586.151 980.927 586.151 982.367 c
586.079 1011.311 582.911 1039.823 576.863 1067.615 c
b
0.000 0.000 0.000 1.000 K
0 j
0 J
0.287 w
[]0 d
0.000 0.000 0.000 0.498 k
40.679 788.471 m
41.256 790.991 40.103 791.999 39.167 792.575 C
32.543 764.711 29.591 733.823 27.935 701.567 C
29.879 701.351 31.391 701.783 31.391 703.223 c
31.463 732.167 34.631 760.679 40.679 788.471 c
b
0.000 0.000 0.000 1.000 K
0 j
0 J
0.287 w
[]0 d
0.000 0.000 0.000 0.200 k
578.663 1070.423 m
585.359 1041.263 587.951 1011.239 589.607 981.431 C
588.743 981.431 586.943 981.431 586.871 982.439 C
586.727 996.767 585.935 1011.167 584.423 1025.495 C
582.839 1039.679 580.535 1053.791 577.583 1067.759 C
577.367 1068.768 578.159 1069.559 578.663 1070.423 C
578.663 1070.423 L
b
0.000 0.000 0.000 1.000 K
0 j
0 J
0.287 w
[]0 d
0.000 0.000 0.000 0.200 k
38.879 791.279 m
32.183 762.119 29.591 732.095 27.935 702.287 C
28.799 702.287 30.599 702.287 30.671 703.295 C
30.815 717.623 31.607 732.024 33.119 746.351 C
34.704 760.535 37.007 774.647 39.959 788.615 C
40.175 789.623 39.384 790.415 38.879 791.279 C
38.879 791.279 L
b
0.000 0.000 0.000 1.000 K
0 j
0 J
0.287 w
[]0 d
0.000 0.000 0.000 0.098 k
112.247 865.655 m
120.383 865.655 127.007 872.279 127.007 880.415 c
127.007 888.551 120.383 895.175 112.247 895.175 c
104.111 895.175 97.487 888.551 97.487 880.415 c
97.487 872.279 104.111 865.655 112.247 865.655 c
b
0.000 0.000 0.000 1.000 K
0 j
0 J
0.287 w
[]0 d
0.000 0.000 0.000 0.098 k
505.295 586.511 m
497.159 586.511 490.535 593.135 490.535 601.271 c
490.535 609.407 497.159 616.031 505.295 616.031 c
513.432 616.031 520.055 609.407 520.055 601.271 c
520.055 593.135 513.432 586.511 505.295 586.511 c
b
0.000 0.000 0.000 1.000 K
0 j
0 J
0.287 w
[]0 d
0.000 0.000 0.000 0.098 k
461.447 865.655 m
469.583 865.655 476.207 872.279 476.207 880.415 c
476.207 888.551 469.583 895.175 461.447 895.175 c
453.311 895.175 446.687 888.551 446.687 880.415 c
446.687 872.279 453.311 865.655 461.447 865.655 c
b
0.000 0.000 0.000 1.000 K
0 j
0 J
0.287 w
[]0 d
0.000 0.000 0.000 0.098 k
156.095 586.511 m
147.959 586.511 141.335 593.135 141.335 601.271 c
141.335 609.407 147.959 616.031 156.095 616.031 c
164.231 616.031 170.855 609.407 170.855 601.271 c
170.855 593.135 164.231 586.511 156.095 586.511 c
b
0.000 0.000 0.000 1.000 K
0 j
0 J
0.287 w
[]0 d
0.000 0.000 0.000 0.400 k
112.247 866.591 m
119.879 866.591 126.071 872.783 126.071 880.415 c
126.071 888.047 119.879 894.239 112.247 894.239 c
104.615 894.239 98.423 888.047 98.423 880.415 c
98.423 872.783 104.615 866.591 112.247 866.591 c
b
0.000 0.000 0.000 1.000 K
0 j
0 J
0.287 w
[]0 d
0.000 0.000 0.000 0.400 k
505.295 587.447 m
497.663 587.447 491.471 593.639 491.471 601.271 c
491.471 608.903 497.663 615.096 505.295 615.096 c
512.927 615.096 519.120 608.903 519.120 601.271 c
519.120 593.639 512.927 587.447 505.295 587.447 c
b
0.000 0.000 0.000 1.000 K
0 j
0 J
0.287 w
[]0 d
0.000 0.000 0.000 0.400 k
461.447 866.591 m
469.079 866.591 475.271 872.783 475.271 880.415 c
475.271 888.047 469.079 894.239 461.447 894.239 c
453.815 894.239 447.623 888.047 447.623 880.415 c
447.623 872.783 453.815 866.591 461.447 866.591 c
b
0.000 0.000 0.000 1.000 K
0 j
0 J
0.287 w
[]0 d
0.000 0.000 0.000 0.400 k
156.095 587.447 m
148.463 587.447 142.271 593.639 142.271 601.271 c
142.271 608.903 148.463 615.096 156.095 615.096 c
163.727 615.096 169.919 608.903 169.919 601.271 c
169.919 593.639 163.727 587.447 156.095 587.447 c
b
0.000 0.000 0.000 1.000 K
0 j
0 J
0.287 w
[]0 d
0.000 0.000 0.000 0.498 k
289.584 955.583 m
307.799 955.583 l
309.239 955.583 310.463 953.999 310.463 952.055 c
310.463 944.063 l
310.463 942.119 309.239 940.535 307.799 940.535 c
289.584 940.535 l
288.072 940.535 286.919 942.119 286.919 944.063 c
286.919 952.055 l
286.919 953.999 288.072 955.583 289.584 955.583 c
b
0.000 0.000 0.000 1.000 K
0 j
0 J
0.287 w
[]0 d
0.000 0.000 0.000 0.498 k
327.959 676.439 m
309.743 676.439 l
308.231 676.439 307.079 674.855 307.079 672.911 c
307.079 664.919 l
307.079 662.975 308.231 661.391 309.743 661.391 c
327.959 661.391 l
329.399 661.391 330.623 662.975 330.623 664.919 c
330.623 672.911 l
330.623 674.855 329.399 676.439 327.959 676.439 c
b
0.000 0.000 0.000 1.000 K
0 j
0 J
0.287 w
[]0 d
0.000 0.000 0.000 0.498 k
785.807 972.575 m
803.447 972.575 l
804.887 972.575 806.039 971.351 806.039 969.839 c
806.039 963.503 l
806.039 961.991 804.887 960.767 803.447 960.767 c
785.807 960.767 l
784.439 960.767 783.287 961.991 783.287 963.503 c
783.287 969.839 l
783.287 971.351 784.439 972.575 785.807 972.575 c
b
0.000 0.000 0.000 1.000 K
0 j
0 J
0.287 w
[]0 d
307.655 953.783 m
308.519 953.711 309.024 953.135 309.096 951.983 C
309.096 944.207 L
309.024 942.983 308.519 942.479 307.655 942.335 C
289.656 942.335 L
288.791 942.335 288.287 943.127 288.287 944.207 C
288.287 952.847 L
288.287 953.639 288.935 953.783 289.512 953.783 C
307.655 953.783 L
s
0.000 0.000 0.000 1.000 K
0 j
0 J
0.287 w
[]0 d
309.815 674.639 m
308.951 674.567 308.519 673.991 308.447 672.839 C
308.447 665.063 L
308.519 663.839 308.951 663.335 309.815 663.191 C
327.815 663.191 L
328.751 663.191 329.255 663.983 329.255 665.063 C
329.255 673.703 L
329.255 674.495 328.536 674.639 327.959 674.639 C
309.815 674.639 L
s
0.000 0.000 0.000 1.000 K
0 j
0 J
0.287 w
[]0 d
803.375 971.135 m
804.239 971.063 804.671 970.631 804.743 969.695 C
804.743 963.647 L
804.671 962.639 804.239 962.207 803.375 962.135 C
785.951 962.135 L
785.087 962.135 784.583 962.711 784.583 963.647 C
784.583 970.415 L
784.583 970.991 785.303 971.135 785.807 971.135 C
803.375 971.135 L
s
0.000 0.000 0.000 1.000 K
0 j
0 J
0.287 w
[]0 d
307.655 953.783 m
308.519 953.711 309.024 953.135 309.096 951.983 C
309.096 947.807 L
288.287 947.807 L
288.287 952.847 L
288.287 953.639 288.935 953.783 289.512 953.783 C
307.655 953.783 L
s
0.000 0.000 0.000 1.000 K
0 j
0 J
0.287 w
[]0 d
309.815 674.639 m
308.951 674.567 308.519 673.991 308.447 672.839 C
308.447 668.663 L
329.255 668.663 L
329.255 673.703 L
329.255 674.495 328.536 674.639 327.959 674.639 C
309.815 674.639 L
s
0.000 0.000 0.000 1.000 K
0 j
0 J
0.287 w
[]0 d
803.375 971.135 m
804.239 971.063 804.671 970.631 804.743 969.695 C
804.743 966.383 L
784.583 966.383 L
784.583 970.415 L
784.583 970.991 785.303 971.135 785.807 971.135 C
803.375 971.135 L
s
0.000 0.000 0.000 1.000 K
0 j
0 J
0.287 w
[]0 d
0.000 0.000 0.000 0.098 k
306.431 946.655 m
307.295 946.655 307.943 946.007 307.943 945.143 c
307.943 944.279 307.295 943.631 306.431 943.631 c
305.567 943.631 304.919 944.279 304.919 945.143 c
304.919 946.007 305.567 946.655 306.431 946.655 c
b
0.000 0.000 0.000 1.000 K
0 j
0 J
0.287 w
[]0 d
0.000 0.000 0.000 0.098 k
311.111 667.511 m
310.247 667.511 309.527 666.863 309.527 666.000 c
309.527 665.135 310.247 664.487 311.111 664.487 c
311.903 664.487 312.623 665.135 312.623 666.000 c
312.623 666.863 311.903 667.511 311.111 667.511 c
b
0.000 0.000 0.000 1.000 K
0 j
0 J
0.287 w
[]0 d
0.000 0.000 0.000 0.098 k
801.791 965.591 m
802.511 965.591 803.015 965.015 803.015 964.367 c
803.015 963.719 802.511 963.143 801.791 963.143 c
801.143 963.143 800.639 963.719 800.639 964.367 c
800.639 965.015 801.143 965.591 801.791 965.591 c
b
u
u
0.000 0.000 0.000 1.000 K
0 j
0 J
0.287 w
[]0 d
303.551 947.807 m
303.551 942.335 L
S
U
U
u
u
0.000 0.000 0.000 1.000 K
0 j
0 J
0.287 w
[]0 d
313.919 668.663 m
313.919 663.191 L
S
U
U
u
u
0.000 0.000 0.000 1.000 K
0 j
0 J
0.287 w
[]0 d
799.343 966.455 m
799.343 962.135 L
S
U
U
0.000 0.000 0.000 1.000 K
0 j
0 J
0.287 w
[]0 d
0.000 0.000 0.000 0.498 k
177.623 925.703 m
307.655 925.703 l
308.735 925.703 309.527 924.911 309.527 923.903 c
309.527 920.519 l
309.527 919.511 308.735 918.719 307.655 918.719 c
177.623 918.719 l
176.543 918.719 175.751 919.511 175.751 920.519 c
175.751 923.903 l
175.751 924.911 176.543 925.703 177.623 925.703 c
b
0.000 0.000 0.000 1.000 K
0 j
0 J
0.287 w
[]0 d
0.000 0.000 0.000 0.498 k
439.919 646.559 m
309.815 646.559 l
308.807 646.559 308.015 645.767 308.015 644.759 c
308.015 641.375 l
308.015 640.367 308.807 639.575 309.815 639.575 c
439.919 639.575 l
440.927 639.575 441.719 640.367 441.719 641.375 c
441.719 644.759 l
441.719 645.767 440.927 646.559 439.919 646.559 c
b
0.000 0.000 0.000 1.000 K
0 j
0 J
0.287 w
[]0 d
0.000 0.000 0.000 0.498 k
344.231 925.703 m
416.663 925.703 L
417.671 925.703 418.463 924.911 418.463 923.903 C
416.807 920.519 L
416.303 919.367 414.503 918.719 413.423 918.719 C
344.231 918.719 l
343.223 918.719 342.431 919.511 342.431 920.519 c
342.431 923.903 l
342.431 924.911 343.223 925.703 344.231 925.703 c
b
0.000 0.000 0.000 1.000 K
0 j
0 J
0.287 w
[]0 d
0.000 0.000 0.000 0.498 k
273.239 646.559 m
200.879 646.559 L
199.799 646.559 199.007 645.767 199.007 644.759 C
200.735 641.375 L
201.167 640.223 203.039 639.575 204.047 639.575 C
273.239 639.575 l
274.319 639.575 275.111 640.367 275.111 641.375 c
275.111 644.759 l
275.111 645.767 274.319 646.559 273.239 646.559 c
b
u
u
0.000 0.000 0.000 1.000 K
0 j
0 J
0.287 w
[]0 d
43.415 935.855 m
86.327 947.807 175.391 951.191 285.407 950.759 C
S
U
U
u
u
0.000 0.000 0.000 1.000 K
0 j
0 J
0.287 w
[]0 d
574.127 656.711 m
531.216 668.663 442.151 672.048 332.135 671.615 C
S
U
U
0.000 0.000 0.000 1.000 K
0 j
0 J
0.287 w
[]0 d
0.000 0.000 0.000 0.298 k
162.071 926.495 m
163.871 926.495 165.311 925.487 165.311 924.191 c
165.311 922.895 163.871 921.815 162.071 921.815 c
160.271 921.815 158.831 922.895 158.831 924.191 c
158.831 925.487 160.271 926.495 162.071 926.495 c
b
0.000 0.000 0.000 1.000 K
0 j
0 J
0.287 w
[]0 d
0.000 0.000 0.000 0.298 k
455.399 647.351 m
453.671 647.351 452.159 646.343 452.159 645.048 c
452.159 643.751 453.671 642.671 455.399 642.671 c
457.199 642.671 458.711 643.751 458.711 645.048 c
458.711 646.343 457.199 647.351 455.399 647.351 c
b
u
u
0.000 0.000 0.000 1.000 K
0 j
0 J
0.287 w
[]0 d
509.975 885.815 m
561.743 890.207 L
S
U
U
u
u
0.000 0.000 0.000 1.000 K
0 j
0 J
0.287 w
[]0 d
107.567 606.671 m
55.799 611.063 L
S
U
U
0.000 0.000 0.000 1.000 K
0 j
0 J
0.287 w
[]0 d
0.000 0.000 0.000 0.498 k
16.055 927.647 m
18.000 927.647 19.224 926.567 19.799 924.191 C
19.367 922.247 17.927 919.511 16.199 916.271 C
14.111 916.199 11.951 914.327 11.087 913.103 C
12.959 917.999 14.687 922.823 16.055 927.647 C
b
0.000 0.000 0.000 1.000 K
0 j
0 J
0.287 w
[]0 d
0.000 0.000 0.000 0.498 k
601.487 648.503 m
599.543 648.503 598.319 647.423 597.743 645.048 C
598.175 643.103 599.615 640.367 601.343 637.127 C
603.431 637.055 605.591 635.183 606.455 633.959 C
604.583 638.855 602.855 643.679 601.487 648.503 C
b
0.000 0.000 0.000 1.000 K
0 j
0 J
0.287 w
[]0 d
0.000 0.000 0.000 0.498 k
209.375 988.559 m
200.447 982.367 191.879 975.671 183.527 969.119 C
180.647 966.815 178.919 964.367 177.768 961.199 C
209.375 961.703 L
209.375 988.559 L
b
0.000 0.000 0.000 1.000 K
0 j
0 J
0.287 w
[]0 d
0.000 0.000 0.000 0.498 k
408.095 709.415 m
417.095 703.223 425.663 696.527 433.943 689.975 C
436.823 687.671 438.623 685.223 439.775 682.055 C
408.095 682.559 L
408.095 709.415 L
b
0.000 0.000 0.000 1.000 K
0 j
0 J
0.863 w
[]0 d
0.000 0.000 0.000 0.498 k
212.039 964.943 m
212.039 963.935 L
194.687 963.935 L
194.687 968.471 L
211.607 968.471 L
211.751 973.295 L
194.687 973.223 L
194.687 977.759 L
211.895 977.759 L
212.111 984.671 L
212.111 986.255 213.407 987.551 214.991 987.551 C
220.319 986.255 L
221.903 986.255 223.127 985.031 223.127 983.447 C
223.415 966.527 L
223.415 964.943 222.119 963.647 220.535 963.647 C
214.415 963.647 L
213.407 963.647 212.543 964.151 212.039 964.943 C
b
0.000 0.000 0.000 1.000 K
0 j
0 J
0.863 w
[]0 d
0.000 0.000 0.000 0.498 k
405.503 685.799 m
405.503 684.791 L
422.855 684.791 L
422.855 689.327 L
405.863 689.327 L
405.719 694.151 L
422.855 694.079 L
422.855 698.615 L
405.575 698.615 L
405.359 705.527 L
405.359 707.111 404.135 708.407 402.551 708.407 C
397.223 707.111 L
395.639 707.111 394.343 705.887 394.343 704.303 C
394.127 687.383 L
394.127 685.799 395.351 684.503 396.935 684.503 C
403.127 684.503 L
404.135 684.503 404.927 685.007 405.503 685.799 C
b
u
u
0.000 0.000 0.000 1.000 K
0 j
0 J
0.287 w
[]0 d
214.775 985.103 m
219.599 983.807 L
220.319 983.591 220.679 982.799 220.823 981.359 C
220.823 966.743 L
S
U
U
u
u
0.000 0.000 0.000 1.000 K
0 j
0 J
0.287 w
[]0 d
402.767 705.959 m
397.943 704.663 L
397.151 704.447 396.791 703.655 396.719 702.215 C
396.719 687.599 L
S
U
U
0.000 0.000 0.000 1.000 K
0 j
0 J
0.863 w
[]0 d
0.000 0.000 0.000 0.498 k
874.439 888.047 m
875.375 884.303 L
879.839 884.447 881.279 884.735 882.287 887.327 C
884.303 892.367 886.463 897.407 888.407 902.447 C
888.335 909.647 L
888.335 912.959 887.327 913.751 884.375 913.751 C
874.655 913.751 L
676.223 913.751 L
666.503 913.751 L
663.551 913.751 662.615 912.959 662.543 909.647 C
662.471 902.447 L
664.487 897.407 666.431 892.367 668.447 887.327 C
669.671 884.519 671.039 884.447 675.575 884.303 C
676.151 888.047 L
874.439 888.047 L
b
u
u
0.000 0.000 0.000 1.000 K
0 j
0 J
0.287 w
[]0 d
875.087 888.119 m
875.087 940.679 L
875.087 970.199 L
875.159 979.775 L
872.135 1012.967 868.391 1045.871 859.031 1077.839 C
857.303 1082.231 854.063 1085.327 847.223 1085.975 C
824.111 1087.559 799.847 1088.927 775.439 1088.567 C
751.031 1088.927 727.127 1087.559 704.015 1085.975 C
697.175 1085.327 693.935 1082.231 692.207 1077.839 C
682.847 1045.871 679.103 1012.967 676.079 979.775 C
676.151 970.199 L
676.151 940.679 L
676.151 888.119 L
S
U
U
u
u
0.000 0.000 0.000 1.000 K
0 j
0 J
0.287 w
[]0 d
676.223 917.783 m
875.015 917.783 L
S
U
U
0.000 0.000 0.000 1.000 K
0 j
0 J
0.287 w
[]0 d
699.191 986.471 m
852.695 986.471 l
859.391 986.471 864.647 992.015 864.863 998.639 c
865.583 1018.079 861.839 1037.087 857.231 1056.959 c
855.719 1063.439 851.687 1068.695 845.063 1069.127 c
799.559 1071.791 754.055 1071.864 708.623 1069.127 c
702.000 1068.695 696.239 1063.295 694.439 1056.959 c
688.679 1036.871 685.871 1018.007 687.024 998.639 c
687.455 992.015 692.495 986.471 699.191 986.471 c
s
0.000 0.000 0.000 1.000 K
0 j
0 J
0.287 w
[]0 d
0.000 0.000 0.000 0.498 k
756.071 992.735 m
737.063 991.799 718.343 993.455 700.775 994.463 c
696.167 994.751 692.711 998.207 692.423 1002.815 c
691.199 1022.111 695.447 1037.807 699.767 1055.159 c
700.847 1059.624 707.975 1062.791 712.511 1063.511 c
727.199 1065.743 741.599 1066.535 756.071 1066.463 c
760.607 1066.463 764.351 1062.720 764.351 1058.111 c
764.351 1039.103 764.351 1020.023 764.351 1001.015 c
764.351 996.407 760.607 992.951 756.071 992.735 c
b
0.000 0.000 0.000 1.000 K
0 j
0 J
0.287 w
[]0 d
0.000 0.000 0.000 0.498 k
794.159 992.735 m
813.167 991.799 831.815 993.455 849.455 994.463 c
853.991 994.751 857.447 998.207 857.735 1002.815 c
859.031 1022.111 854.711 1037.807 850.391 1055.159 c
849.311 1059.624 842.183 1062.791 837.647 1063.511 c
823.031 1065.743 808.631 1066.535 794.159 1066.463 c
789.551 1066.463 785.807 1062.720 785.807 1058.111 c
785.807 1039.103 785.807 1020.023 785.807 1001.015 c
785.807 996.407 789.551 992.951 794.159 992.735 c
b
0.000 0.000 0.000 1.000 K
0 j
0 J
0.287 w
[]0 d
0.000 0.000 0.000 0.200 k
717.767 996.263 m
712.223 996.623 706.535 996.983 700.991 997.343 C
698.039 997.487 695.807 999.503 695.375 1002.383 C
694.727 1007.999 695.087 1014.119 695.591 1019.735 C
696.599 1030.319 699.119 1040.903 701.783 1051.271 C
702.072 1052.567 702.359 1054.151 702.935 1055.375 C
705.239 1058.759 710.207 1060.199 714.024 1060.847 C
725.615 1062.359 737.567 1063.583 749.303 1063.583 C
753.983 1063.655 759.959 1064.879 761.399 1059.263 C
761.471 1058.687 L
761.543 1058.039 L
761.543 1001.087 L
761.327 997.991 759.527 996.263 756.575 995.615 C
743.759 994.967 730.583 995.471 717.767 996.263 C
b
0.000 0.000 0.000 1.000 K
0 j
0 J
0.287 w
[]0 d
0.000 0.000 0.000 0.200 k
832.463 996.263 m
838.007 996.623 843.695 996.983 849.239 997.343 C
852.119 997.487 854.351 999.503 854.855 1002.383 C
855.431 1007.999 855.143 1014.119 854.639 1019.735 C
853.559 1030.319 851.111 1040.903 848.447 1051.271 C
848.087 1052.567 847.799 1054.151 847.295 1055.375 C
844.919 1058.759 839.951 1060.199 836.207 1060.847 C
824.615 1062.359 812.663 1063.583 800.855 1063.583 C
796.247 1063.655 790.271 1064.879 788.759 1059.263 C
788.687 1058.687 L
788.687 1058.039 L
788.687 1001.087 L
788.831 997.991 790.703 996.263 793.655 995.615 C
806.471 994.967 819.647 995.471 832.463 996.263 C
b
u
u
0.000 0.000 0.000 1.000 K
0 j
0 J
0.287 w
[]0 d
775.295 1088.639 m
775.295 913.391 L
S
U
U
0.000 0.000 0.000 1.000 K
0 j
0 J
0.287 w
[]0 d
0.000 0.000 0.000 1.000 k
662.471 902.231 m
668.735 886.679 L
669.527 885.023 671.255 884.375 675.575 884.303 C
676.151 888.047 L
684.935 888.047 L
685.007 841.031 L
685.007 837.647 662.543 837.575 662.471 841.031 C
662.471 892.007 L
662.471 902.231 L
b
0.000 0.000 0.000 1.000 K
0 j
0 J
0.287 w
[]0 d
0.000 0.000 0.000 1.000 k
888.335 902.231 m
882.143 886.679 L
881.351 885.023 879.551 884.375 875.303 884.303 C
874.655 888.047 L
865.871 888.047 L
865.871 841.031 L
865.871 837.647 888.335 837.575 888.407 841.031 C
888.407 892.007 L
888.335 902.231 L
b
u
u
0.000 0.000 0.000 1.000 K
0 j
0 J
0.863 w
[]0 d
678.024 1070.207 m
679.103 1067.903 L
671.687 1046.231 666.431 1019.663 662.039 990.791 C
660.959 988.559 659.663 987.407 657.935 987.191 C
S
U
U
u
u
0.000 0.000 0.000 1.000 K
0 j
0 J
0.863 w
[]0 d
678.024 789.983 m
679.103 787.607 L
671.687 766.007 666.431 739.367 662.039 710.567 C
660.959 708.335 659.663 707.183 657.935 706.967 C
S
U
U
u
u
0.000 0.000 0.000 1.000 K
0 j
0 J
0.863 w
[]0 d
872.711 1070.207 m
871.631 1067.903 L
879.047 1046.231 884.303 1019.663 888.695 990.791 C
889.775 988.559 891.071 987.407 892.799 987.191 C
S
U
U
u
u
0.000 0.000 0.000 1.000 K
0 j
0 J
0.863 w
[]0 d
872.711 789.983 m
871.631 787.607 L
879.047 766.007 884.303 739.367 888.695 710.567 C
889.775 708.335 891.071 707.183 892.799 706.967 C
S
U
U
0.000 0.000 0.000 1.000 K
0 j
0 J
0.287 w
[]0 d
721.583 908.423 m
826.199 908.423 l
829.367 908.423 831.887 905.903 831.887 902.807 c
831.887 893.735 l
831.887 890.639 829.367 888.119 826.199 888.119 c
721.583 888.119 l
718.487 888.119 715.967 890.639 715.967 893.735 c
715.967 902.807 l
715.967 905.903 718.487 908.423 721.583 908.423 c
s
0.000 0.000 0.000 1.000 K
0 j
0 J
0.287 w
[]0 d
0.000 0.000 0.000 1.000 k
735.767 908.423 m
811.655 908.423 l
814.751 908.423 817.271 905.903 817.271 902.807 c
817.271 893.735 l
817.271 890.639 814.751 888.119 811.655 888.119 c
735.767 888.119 l
732.671 888.119 730.151 890.639 730.151 893.735 c
730.151 902.807 l
730.151 905.903 732.671 908.423 735.767 908.423 c
b
0.000 0.000 0.000 1.000 K
0 j
0 J
0.287 w
[]0 d
0.000 0.000 0.000 0.000 k
740.231 906.839 m
806.327 906.839 l
808.559 906.839 810.359 905.039 810.359 902.807 c
810.359 893.375 l
810.359 891.143 808.559 889.343 806.327 889.343 c
740.231 889.343 l
738.000 889.343 736.199 891.143 736.199 893.375 c
736.199 902.807 l
736.199 905.039 738.000 906.839 740.231 906.839 c
b
0.000 0.000 0.000 1.000 K
0 j
0 J
0.287 w
[]0 d
0.000 0.000 0.000 0.498 k
685.151 888.119 m
865.871 888.119 L
865.871 880.775 L
685.151 880.775 L
685.151 888.119 L
b
0.000 0.000 0.000 1.000 K
0 j
0 J
0.287 w
[]0 d
0.000 0.000 0.000 0.498 k
634.895 986.471 m
650.735 987.695 L
653.831 987.695 656.351 985.175 656.351 982.079 C
656.351 969.407 L
656.351 966.239 653.831 963.719 650.735 963.719 C
633.671 963.719 L
630.503 963.719 627.983 966.239 627.983 969.407 C
629.207 980.855 L
629.207 983.951 631.727 986.471 634.895 986.471 C
b
0.000 0.000 0.000 1.000 K
0 j
0 J
0.287 w
[]0 d
0.000 0.000 0.000 0.498 k
916.127 986.471 m
900.287 987.695 L
897.191 987.695 894.671 985.175 894.671 982.079 C
894.671 969.407 L
894.671 966.239 897.191 963.719 900.287 963.719 C
917.351 963.719 L
920.519 963.719 923.039 966.239 923.039 969.407 C
921.815 980.855 L
921.815 983.951 919.295 986.471 916.127 986.471 C
b
0.000 0.000 0.000 1.000 K
0 j
0 J
0.287 w
[]0 d
0.000 0.000 0.000 0.498 k
894.671 697.319 m
879.839 697.319 l
879.407 697.319 879.119 696.815 879.119 696.167 c
879.119 693.863 l
879.119 693.215 879.407 692.711 879.839 692.711 c
894.671 692.711 L
894.671 690.839 L
879.839 690.839 l
879.407 690.839 879.119 690.335 879.119 689.759 c
879.119 687.383 l
879.119 686.807 879.407 686.303 879.839 686.303 c
895.463 686.303 L
896.399 684.575 898.199 683.495 900.287 683.495 C
917.351 683.495 L
920.519 683.495 923.039 686.015 923.039 689.111 C
921.815 700.559 L
921.815 703.727 919.295 706.247 916.127 706.247 C
900.287 707.471 L
897.191 707.471 894.671 704.951 894.671 701.783 C
894.671 697.319 L
b
u
u
0.000 0.000 0.000 1.000 K
0 j
0 J
0.287 w
[]0 d
874.007 888.191 m
880.055 890.063 884.303 896.687 888.263 910.439 C
S
U
U
u
u
0.000 0.000 0.000 1.000 K
0 j
0 J
0.287 w
[]0 d
676.223 888.191 m
670.175 890.063 665.927 896.687 661.967 910.439 C
S
U
U
u
u
0.000 0.000 0.000 1.000 K
0 j
0 J
0.287 w
[]0 d
894.743 941.039 m
894.095 940.031 893.447 939.095 892.799 938.087 C
892.439 928.007 890.855 918.575 888.263 910.151 C
S
U
U
u
u
0.000 0.000 0.000 1.000 K
0 j
0 J
0.287 w
[]0 d
655.487 941.039 m
656.135 940.031 656.783 939.095 657.431 938.087 C
657.791 928.007 659.375 918.575 661.967 910.151 C
S
U
U
0.000 0.000 0.000 1.000 K
0 j
0 J
0.287 w
[]0 d
0.000 0.000 0.000 0.498 k
675.431 937.079 m
674.351 937.079 l
673.919 937.079 673.631 936.791 673.631 936.431 c
673.631 926.135 l
673.631 925.703 673.919 925.415 674.351 925.415 c
675.431 925.415 l
675.791 925.415 676.079 925.703 676.079 926.135 c
676.079 936.431 l
676.079 936.791 675.791 937.079 675.431 937.079 c
b
0.000 0.000 0.000 1.000 K
0 j
0 J
0.287 w
[]0 d
0.000 0.000 0.000 0.498 k
683.207 1043.927 m
682.199 1044.144 l
681.767 1044.215 681.479 1043.927 681.407 1043.567 c
679.679 1033.415 l
679.607 1033.055 679.823 1032.695 680.255 1032.624 c
681.263 1032.480 l
681.695 1032.407 681.983 1032.624 682.055 1032.983 c
683.783 1043.135 l
683.855 1043.567 683.639 1043.855 683.207 1043.927 c
b
0.000 0.000 0.000 1.000 K
0 j
0 J
0.287 w
[]0 d
0.000 0.000 0.000 0.498 k
867.599 1043.927 m
868.679 1044.144 l
869.039 1044.215 869.399 1043.927 869.471 1043.567 c
871.199 1033.415 l
871.271 1033.055 870.983 1032.695 870.623 1032.624 c
869.543 1032.480 l
869.183 1032.407 868.823 1032.624 868.751 1032.983 c
867.023 1043.135 l
866.951 1043.567 867.239 1043.855 867.599 1043.927 c
b
0.000 0.000 0.000 1.000 K
0 j
0 J
0.287 w
[]0 d
0.000 0.000 0.000 0.498 k
876.815 937.079 m
875.735 937.079 l
875.375 937.079 875.087 936.791 875.087 936.431 c
875.087 926.135 l
875.087 925.703 875.375 925.415 875.735 925.415 c
876.815 925.415 l
877.247 925.415 877.535 925.703 877.535 926.135 c
877.535 936.431 l
877.535 936.791 877.247 937.079 876.815 937.079 c
b
0.000 0.000 0.000 1.000 K
0 j
0 J
0.287 w
[]0 d
108.431 662.111 m
112.823 662.111 116.423 658.511 116.423 654.120 c
116.423 649.655 112.823 646.055 108.431 646.055 c
103.967 646.055 100.367 649.655 100.367 654.120 c
100.367 658.511 103.967 662.111 108.431 662.111 c
s
0.000 0.000 0.000 1.000 K
0 j
0 J
0.287 w
[]0 d
0.000 0.000 0.000 0.498 k
775.439 751.751 m
795.455 751.319 825.119 750.023 842.975 749.015 c
849.455 748.655 853.559 746.423 855.503 741.959 c
865.223 720.287 868.031 703.367 867.023 690.551 C
841.247 690.263 803.663 690.263 775.439 690.263 C
775.367 690.263 L
747.143 690.263 709.559 690.263 683.783 690.551 C
682.847 703.367 685.583 720.215 695.303 741.959 c
697.319 746.423 701.351 748.655 707.903 749.015 c
725.039 750.023 755.351 751.319 775.439 751.751 C
775.439 751.751 L
b
0.000 0.000 0.000 1.000 K
0 j
0 J
0.287 w
[]0 d
0.000 0.000 0.000 0.200 k
791.855 749.879 m
808.199 749.375 824.831 748.367 841.175 747.719 C
846.647 747.431 851.615 746.855 854.207 741.383 C
860.831 726.263 866.807 708.767 865.727 691.919 C
848.231 691.919 830.519 691.703 813.095 691.703 C
777.095 691.271 740.951 691.775 705.024 691.775 C
698.399 691.847 691.703 691.919 685.151 691.919 C
684.072 708.839 690.048 726.119 696.599 741.383 C
699.263 747.287 705.599 747.575 711.287 747.791 C
728.567 748.799 745.991 749.447 763.271 750.023 C
765.935 750.095 768.959 750.167 771.551 750.239 C
778.175 750.455 785.231 750.095 791.855 749.879 C
b
0.000 0.000 0.000 1.000 K
0 j
0 J
0.287 w
[]0 d
0.000 0.000 0.000 0.498 k
655.559 686.303 m
654.623 684.575 652.823 683.495 650.735 683.495 C
633.671 683.495 L
630.503 683.495 627.983 686.015 627.983 689.111 C
629.207 700.559 L
629.207 703.727 631.727 706.247 634.895 706.247 C
650.735 707.471 L
653.831 707.471 656.351 704.951 656.351 701.783 C
656.351 697.319 L
671.183 697.319 l
671.543 697.319 671.903 696.815 671.903 696.167 c
671.903 693.863 l
671.903 693.215 671.543 692.711 671.183 692.711 c
656.351 692.711 L
656.351 690.839 L
671.183 690.839 l
671.543 690.839 671.903 690.335 671.903 689.759 c
671.903 687.383 l
671.903 686.807 671.543 686.303 671.183 686.303 c
655.559 686.303 L
b
u
u
0.000 0.000 0.000 1.000 K
0 j
0 J
0.287 w
[]0 d
702.072 808.055 m
702.072 758.519 L
696.455 755.567 691.919 748.367 687.671 739.583 C
676.511 704.159 l
674.927 699.263 673.343 695.951 671.903 696.096 C
S
U
U
u
u
0.000 0.000 0.000 1.000 K
0 j
0 J
0.287 w
[]0 d
848.951 808.055 m
848.951 758.519 L
854.495 755.567 859.103 748.367 863.351 739.583 C
874.511 704.159 l
876.023 699.263 877.679 695.951 879.119 696.096 C
S
U
U
u
u
0.000 0.000 0.000 1.000 K
0 j
0 J
0.287 w
[]0 d
668.807 645.263 m
663.695 640.727 L
S
U
U
u
u
0.000 0.000 0.000 1.000 K
0 j
0 J
0.287 w
[]0 d
883.079 645.263 m
888.119 640.727 L
S
U
U
0.000 0.000 0.000 1.000 K
0 j
0 J
0.287 w
[]0 d
0.000 0.000 0.000 0.498 k
780.191 644.759 m
820.079 644.687 L
820.079 641.807 L
780.911 641.807 L
780.767 639.287 778.607 637.271 776.015 637.271 c
773.351 637.271 771.263 639.287 771.047 641.807 C
732.095 641.807 L
732.095 644.687 L
771.767 644.687 L
772.631 646.127 774.215 647.135 776.015 647.135 c
777.743 647.135 779.327 646.127 780.191 644.759 C
b
0.000 0.000 0.000 1.000 K
0 j
0 J
0.287 w
[]0 d
0.000 0.000 0.000 0.098 k
775.943 645.407 m
777.743 645.407 779.183 643.967 779.183 642.168 c
779.183 640.439 777.743 638.927 775.943 638.927 c
774.215 638.927 772.703 640.439 772.703 642.168 c
772.703 643.967 774.215 645.407 775.943 645.407 c
b
u
u
0.000 0.000 0.000 1.000 K
0 j
0 J
0.287 w
[]0 d
674.783 601.127 m
877.463 601.127 L
S
U
U
0.000 0.000 0.000 1.000 K
0 j
0 J
0.287 w
[]0 d
0.000 0.000 0.000 1.000 k
820.727 601.055 m
820.727 612.863 l
820.727 614.231 819.647 615.383 818.207 615.383 c
733.823 615.383 l
732.455 615.383 731.303 614.231 731.303 612.863 c
731.303 601.055 L
820.727 601.055 l
b
u
u
0.000 0.000 0.000 0.498 K
0 j
0 J
0.863 w
[]0 d
733.967 606.240 m
733.967 608.975 L
734.111 612.719 733.967 613.439 738.791 614.015 C
S
U
U
u
u
0.000 0.000 0.000 0.498 K
0 j
0 J
0.863 w
[]0 d
818.063 606.240 m
818.063 608.975 L
817.919 612.719 817.991 613.439 813.167 614.015 C
S
U
U
u
u
0.000 0.000 0.000 0.498 K
0 j
0 J
0.863 w
[]0 d
731.159 601.199 m
733.895 604.799 L
818.423 604.799 L
820.799 601.199 L
S
U
U
0.000 0.000 0.000 1.000 K
0 j
0 J
0.287 w
[]0 d
0.000 0.000 0.000 0.000 k
742.103 610.919 m
809.927 610.919 l
811.871 610.919 813.455 612.503 813.455 614.519 c
813.455 624.455 l
813.455 626.471 811.871 628.055 809.927 628.055 c
742.103 628.055 l
740.087 628.055 738.503 626.471 738.503 624.455 c
738.503 614.519 l
738.503 612.503 740.087 610.919 742.103 610.919 c
b
u
u
0.000 0.000 0.000 1.000 K
0 j
0 J
0.287 w
[]0 d
677.087 594.575 m
875.231 594.575 L
S
U
U
0.000 0.000 0.000 1.000 K
0 j
0 J
0.287 w
[]0 d
0.000 0.000 0.000 1.000 k
676.007 610.343 m
703.583 610.343 l
704.015 610.343 704.303 610.055 704.303 609.623 c
704.303 608.255 l
704.303 607.823 704.015 607.463 703.583 607.463 c
676.007 607.463 l
675.575 607.463 675.287 607.823 675.287 608.255 c
675.287 609.623 l
675.287 610.055 675.575 610.343 676.007 610.343 c
b
0.000 0.000 0.000 1.000 K
0 j
0 J
0.287 w
[]0 d
0.000 0.000 0.000 1.000 k
676.007 604.295 m
703.583 604.295 l
704.015 604.295 704.303 603.935 704.303 603.503 c
704.303 602.135 l
704.303 601.703 704.015 601.415 703.583 601.415 c
676.007 601.415 l
675.575 601.415 675.287 601.703 675.287 602.135 c
675.287 603.503 l
675.287 603.935 675.575 604.295 676.007 604.295 c
b
0.000 0.000 0.000 1.000 K
0 j
0 J
0.287 w
[]0 d
0.000 0.000 0.000 1.000 k
875.951 610.343 m
848.447 610.343 l
848.015 610.343 847.655 610.055 847.655 609.623 c
847.655 608.255 l
847.655 607.823 848.015 607.463 848.447 607.463 c
875.951 607.463 l
876.383 607.463 876.743 607.823 876.743 608.255 c
876.743 609.623 l
876.743 610.055 876.383 610.343 875.951 610.343 c
b
0.000 0.000 0.000 1.000 K
0 j
0 J
0.287 w
[]0 d
0.000 0.000 0.000 1.000 k
875.951 604.295 m
848.447 604.295 l
848.015 604.295 847.655 603.935 847.655 603.503 c
847.655 602.135 l
847.655 601.703 848.015 601.415 848.447 601.415 c
875.951 601.415 l
876.383 601.415 876.743 601.703 876.743 602.135 c
876.743 603.503 l
876.743 603.935 876.383 604.295 875.951 604.295 c
b
0.000 0.000 0.000 1.000 K
0 j
0 J
0.287 w
[]0 d
0.000 0.000 0.000 1.000 k
676.007 615.743 m
703.583 615.743 l
704.015 615.743 704.303 615.455 704.303 615.024 c
704.303 613.655 l
704.303 613.223 704.015 612.863 703.583 612.863 c
676.007 612.863 l
675.575 612.863 675.287 613.223 675.287 613.655 c
675.287 615.024 l
675.287 615.455 675.575 615.743 676.007 615.743 c
b
0.000 0.000 0.000 1.000 K
0 j
0 J
0.287 w
[]0 d
0.000 0.000 0.000 1.000 k
875.951 615.743 m
848.447 615.743 l
848.015 615.743 847.655 615.455 847.655 615.024 c
847.655 613.655 l
847.655 613.223 848.015 612.863 848.447 612.863 c
875.951 612.863 l
876.383 612.863 876.743 613.223 876.743 613.655 c
876.743 615.024 l
876.743 615.455 876.383 615.743 875.951 615.743 c
b
0.000 0.000 0.000 1.000 K
0 j
0 J
0.287 w
[]0 d
0.000 0.000 0.000 0.298 k
706.967 612.072 m
714.311 612.072 l
715.247 612.072 716.039 611.351 716.039 610.415 c
716.039 607.175 l
716.039 606.240 715.247 605.447 714.311 605.447 c
706.967 605.447 l
706.031 605.447 705.239 606.240 705.239 607.175 c
705.239 610.415 l
705.239 611.351 706.031 612.072 706.967 612.072 c
b
0.000 0.000 0.000 1.000 K
0 j
0 J
0.287 w
[]0 d
0.000 0.000 0.000 0.298 k
845.063 612.072 m
837.647 612.072 l
836.711 612.072 835.991 611.351 835.991 610.415 c
835.991 607.175 l
835.991 606.240 836.711 605.447 837.647 605.447 c
845.063 605.447 l
845.999 605.447 846.719 606.240 846.719 607.175 c
846.719 610.415 l
846.719 611.351 845.999 612.072 845.063 612.072 c
b
u
u
0.000 0.000 0.000 1.000 K
0 j
0 J
0.287 w
[]0 d
670.103 635.471 m
686.303 634.031 L
773.135 634.103 L
S
U
U
u
u
0.000 0.000 0.000 1.000 K
0 j
0 J
0.287 w
[]0 d
882.071 635.471 m
865.871 634.031 L
771.767 634.103 L
S
U
U
u
u
0.000 0.000 0.000 1.000 K
0 j
0 J
0.287 w
[]0 d
773.135 632.231 m
686.303 632.231 L
670.103 633.671 L
670.103 635.327 L
S
U
U
u
u
0.000 0.000 0.000 1.000 K
0 j
0 J
0.287 w
[]0 d
771.839 632.231 m
865.871 632.231 L
882.071 633.671 L
882.071 635.327 L
S
U
U
u
u
0.000 0.000 0.000 1.000 K
0 j
0 J
0.287 w
[]0 d
665.711 631.799 m
686.303 630.359 L
773.135 630.431 L
S
U
U
u
u
0.000 0.000 0.000 1.000 K
0 j
0 J
0.287 w
[]0 d
886.391 631.799 m
865.871 630.359 L
771.191 630.431 L
S
U
U
u
u
0.000 0.000 0.000 1.000 K
0 j
0 J
0.287 w
[]0 d
667.367 626.687 m
739.367 626.759 L
S
U
U
u
u
0.000 0.000 0.000 1.000 K
0 j
0 J
0.287 w
[]0 d
884.735 626.687 m
812.807 626.759 L
S
U
U
u
u
0.000 0.000 0.000 1.000 K
0 j
0 J
0.287 w
[]0 d
664.631 654.263 m
663.695 664.847 666.000 674.855 671.039 686.231 C
S
U
U
u
u
0.000 0.000 0.000 1.000 K
0 j
0 J
0.287 w
[]0 d
886.175 654.263 m
887.111 664.847 884.807 674.855 879.767 686.231 C
S
U
U
u
u
0.000 0.000 0.000 1.000 K
0 j
0 J
0.287 w
[]0 d
696.959 754.343 m
686.087 733.679 682.991 705.599 673.919 681.983 c
670.391 672.911 664.559 665.639 664.703 654.192 C
S
U
U
u
u
0.000 0.000 0.000 1.000 K
0 j
0 J
0.287 w
[]0 d
853.847 754.343 m
864.719 733.679 867.815 705.599 876.887 681.983 c
880.415 672.911 886.247 665.639 886.103 654.192 C
S
U
U
u
u
0.000 0.000 0.000 1.000 K
0 j
0 J
0.287 w
[]0 d
691.055 638.207 m
691.055 661.247 L
687.959 669.024 685.655 676.943 684.791 685.223 c
684.575 687.815 686.087 689.183 689.183 689.039 c
715.967 687.599 745.487 687.383 775.439 687.455 C
S
U
U
u
u
0.000 0.000 0.000 1.000 K
0 j
0 J
0.287 w
[]0 d
860.327 638.207 m
860.327 661.247 L
863.495 669.024 865.727 676.943 866.591 685.223 c
866.879 687.815 865.295 689.183 862.199 689.039 c
835.487 687.671 804.095 687.383 774.143 687.455 C
S
U
U
u
u
0.000 0.000 0.000 0.498 K
0 j
0 J
0.287 w
[]0 d
825.839 647.855 m
831.815 663.623 855.647 672.407 856.007 686.591 C
S
U
U
u
u
0.000 0.000 0.000 0.498 K
0 j
0 J
0.287 w
[]0 d
726.263 647.855 m
720.287 663.623 696.455 672.407 696.167 686.591 C
S
U
U
0.000 0.000 0.000 1.000 K
0 j
0 J
0.287 w
[]0 d
0.000 0.000 0.000 0.498 k
664.631 621.647 m
661.319 634.031 660.096 643.319 661.103 649.151 C
663.623 640.511 L
664.631 636.695 L
664.631 621.647 L
b
0.000 0.000 0.000 1.000 K
0 j
0 J
0.287 w
[]0 d
0.000 0.000 0.000 0.498 k
887.183 621.647 m
890.495 634.031 891.719 643.319 890.711 649.151 C
888.263 640.511 L
887.183 636.695 L
887.183 621.647 L
b
0.000 0.000 0.000 1.000 K
0 j
0 J
0.287 w
[]0 d
0.000 0.000 0.000 1.000 k
664.559 562.175 m
664.775 558.575 690.191 558.575 689.975 562.175 C
689.975 591.623 L
685.223 591.695 L
680.903 591.695 677.951 592.487 676.871 594.719 C
671.975 608.399 667.943 622.007 664.559 635.687 C
664.559 562.175 L
b
0.000 0.000 0.000 1.000 K
0 j
0 J
0.287 w
[]0 d
0.000 0.000 0.000 1.000 k
887.255 562.175 m
887.039 558.575 861.623 558.575 861.839 562.175 C
861.839 591.623 L
866.591 591.695 L
870.983 591.695 873.935 592.487 875.015 594.719 C
879.839 608.399 883.871 622.007 887.255 635.687 C
887.255 562.175 L
b
u
u
0.000 0.000 0.000 1.000 K
0 j
0 J
0.287 w
[]0 d
695.015 804.959 m
748.655 807.839 802.367 807.839 856.151 804.959 C
S
U
U
u
u
0.000 0.000 0.000 1.000 K
0 j
0 J
0.287 w
[]0 d
720.863 809.279 m
720.863 758.735 L
724.103 758.735 L
724.103 809.999 L
S
U
U
u
u
0.000 0.000 0.000 1.000 K
0 j
0 J
0.287 w
[]0 d
747.287 810.071 m
747.287 759.527 L
750.599 759.527 L
750.599 810.071 L
S
U
U
u
u
0.000 0.000 0.000 1.000 K
0 j
0 J
0.287 w
[]0 d
773.783 809.279 m
773.783 761.255 L
777.023 761.327 L
777.023 809.999 L
S
U
U
u
u
0.000 0.000 0.000 1.000 K
0 j
0 J
0.287 w
[]0 d
800.207 810.071 m
800.207 759.527 L
803.519 759.527 L
803.519 810.143 L
S
U
U
u
u
0.000 0.000 0.000 1.000 K
0 j
0 J
0.287 w
[]0 d
826.703 809.711 m
826.703 758.735 L
829.943 758.735 L
829.943 809.783 L
S
U
U
u
u
U
u
0.000 0.000 0.000 1.000 K
0 j
0 J
0.215 w
[]0 d
-10.223 540.935 m
237.599 540.935 L
S
U
U
u
u
U
u
0.000 0.000 0.000 1.000 K
0 j
0 J
0.215 w
[]0 d
336.959 540.935 m
516.024 540.935 L
S
U
U
u
u
U
u
0.000 0.000 0.000 1.000 K
0 j
0 J
0.215 w
[]0 d
-10.151 532.295 m
-10.151 550.007 L
S
U
U
u
u
U
u
0.000 0.000 0.000 1.000 K
0 j
0 J
0.215 w
[]0 d
515.807 530.567 m
515.807 550.007 L
S
U
U
0.000 0.000 0.000 1.000 k
510.551 546.479 m
515.447 541.295 L
510.479 536.255 L
510.551 546.479 L
f
0.000 0.000 0.000 1.000 k
-5.040 546.839 m
-10.080 541.727 L
-5.040 536.687 L
-5.040 546.839 L
f
0.000 0.000 0.000 1.000 k
304.919 540.791 m
304.919 541.295 305.063 542.015 305.351 542.447 c
305.711 542.951 306.215 543.168 306.791 543.168 c
307.799 543.168 308.087 542.591 308.087 541.727 c
308.087 537.408 L
308.807 537.408 L
308.807 540.791 l
308.807 541.295 308.879 542.015 309.239 542.447 c
309.599 542.951 310.103 543.168 310.608 543.168 c
311.615 543.168 311.975 542.591 311.975 541.727 c
311.975 537.408 L
312.695 537.408 L
312.695 541.367 l
312.695 542.591 312.407 543.815 310.751 543.815 c
309.815 543.815 309.096 543.384 308.735 542.591 C
308.447 543.240 308.015 543.815 306.863 543.815 c
306.072 543.815 305.351 543.384 304.991 542.735 C
304.919 542.735 L
304.919 543.599 L
304.199 543.599 L
304.199 537.408 L
304.919 537.408 L
304.919 540.791 l
f
0.000 0.000 0.000 1.000 k
294.983 540.791 m
294.983 541.295 295.055 542.015 295.415 542.447 c
295.775 542.951 296.279 543.168 296.783 543.168 c
297.791 543.168 298.151 542.591 298.151 541.727 c
298.151 537.408 L
298.871 537.408 L
298.871 540.791 l
298.871 541.295 298.943 542.015 299.231 542.447 c
299.591 542.951 300.096 543.168 300.671 543.168 c
301.679 543.168 301.967 542.591 301.967 541.727 c
301.967 537.408 L
302.687 537.408 L
302.687 541.367 l
302.687 542.591 302.471 543.815 300.743 543.815 c
299.879 543.815 299.159 543.384 298.727 542.591 C
298.512 543.240 298.079 543.815 296.927 543.815 c
296.135 543.815 295.343 543.384 294.983 542.735 C
294.983 542.735 L
294.983 543.599 L
294.263 543.599 L
294.263 537.408 L
294.983 537.408 L
294.983 540.791 l
f
0.000 0.000 0.000 1.000 k
286.847 545.903 m
284.399 545.903 283.967 543.743 283.967 541.583 c
283.967 539.279 284.471 537.192 286.847 537.192 c
289.151 537.192 289.656 539.279 289.656 541.511 c
289.656 543.455 289.295 545.903 286.847 545.903 c
f
0.000 0.000 0.000 1.000 k
279.503 541.511 m
280.943 541.583 282.168 541.151 282.168 539.783 c
282.239 538.847 281.303 537.911 280.079 537.911 c
278.855 537.911 277.991 538.559 277.991 539.855 C
277.199 539.855 L
277.415 537.911 278.279 537.192 280.223 537.192 c
281.951 537.264 282.959 538.415 282.959 539.855 c
282.959 540.575 282.671 541.511 281.447 541.943 C
282.311 542.231 282.671 542.951 282.671 543.815 c
282.671 545.183 281.591 545.903 280.223 545.903 c
279.575 545.903 278.855 545.759 278.351 545.327 c
277.775 544.751 277.487 544.175 277.487 543.384 C
278.279 543.384 L
278.279 544.463 279.000 545.255 280.079 545.255 c
281.087 545.255 281.879 544.751 281.879 543.743 c
281.879 542.447 280.871 542.087 279.503 542.159 C
279.503 541.511 L
f
0.000 0.000 0.000 1.000 k
271.799 543.096 m
271.727 544.247 272.519 545.255 273.671 545.255 c
274.680 545.255 275.471 544.607 275.471 543.455 c
275.471 541.511 273.168 541.511 271.367 539.495 c
270.863 538.847 270.719 538.199 270.719 537.408 C
276.263 537.408 L
276.263 538.055 L
271.584 538.055 L
271.584 538.847 272.087 539.351 272.663 539.783 c
273.887 540.719 276.335 541.295 276.335 543.527 c
276.335 544.823 275.471 545.903 273.743 545.903 c
272.087 545.903 271.007 544.751 271.007 543.096 C
271.799 543.096 L
f
0.000 0.000 0.000 1.000 k
267.767 537.408 m
268.560 537.408 L
268.560 539.495 L
269.711 539.495 L
269.711 540.144 L
268.560 540.144 L
268.560 545.759 L
267.839 545.759 L
263.951 540.144 L
263.951 539.495 L
267.767 539.495 L
267.767 537.408 L
f
0.000 0.000 0.000 0.000 k
288.935 541.583 m
288.935 539.855 288.647 537.911 286.847 537.911 c
285.191 537.911 284.687 539.351 284.687 541.511 c
284.687 543.384 285.120 545.255 286.775 545.255 c
288.575 545.255 288.935 543.384 288.935 541.583 c
f
0.000 0.000 0.000 0.000 k
267.767 544.607 m
267.767 540.144 L
264.671 540.144 L
267.767 544.607 L
f
%%Trailer
_E end