%!PS-Adobe-2.0 EPSF-1.2
%%Creator: Adobe Illustrator exported from Corel Draw 3.0
%%Title:6
%%BoundingBox:-14 580 814 1086
%%CreationDate:(Unknown)
%%ColorUsage:
%%TemplateBox:-14 580 814 1086
%%EndComments
%%BeginProcSet:Adobe_Illustrator_1.1 0 0
% Version 1.0 3/27/1990 $nokeywords$
% Copyright (C) 1990,1991,1992
% Corel Corporation
% All Rights Reserved

/wPmsDict 150 dict def 
wPmsDict begin 

/$debug 25 string def 

/bd {bind def} bind def 
/ld {load def} bd 
/xd {exch def} bd 
/_ null def 

/$c 0 def 
/$m 0 def 
/$y 0 def 
/$k 0 def 
/$t 1 def 
/$n _ def 
/$o 0 def 
/$pf false def 

/$C 0 def 
/$M 0 def 
/$Y 0 def 
/$K 0 def 
/$T 1 def 
/$N _ def 
/$O 0 def 
/$PF false def 

/$h false def 

/$al 0 def 
/$tr 0 def 
/$le 0 def 
/$lx 0 def 
/$ly 0 def 

/$ctm matrix currentmatrix def 
/$ptm matrix def 

/$pn () def 
/$pm matrix def 
/$px 0 def 
/$py 0 def 
/$pxf 0 def 
/$pyf 0 def 
/$psx 10 def 
/$psy 0 def 

/$llx 0 def 
/$lly 0 def 
/$urx 0 def 
/$ury 0 def 


/$Bbllx 0 def 
/$Bblly 0 def 
/$Bburx 0 def 
/$Bbury 0 def 

/$tllx 0 def 
/$tlly 0 def 
/$turx 0 def 
/$tury 0 def 

/$pd [] def 
/$tx 0 def 
/$ty 0 def 

/$sv 0 def 
/@cp /closepath ld 
/@gs /gsave ld 
/@gr /grestore ld 
/@np /newpath ld 
/@sv {/$sv save def}bd 
/@rs {$sv restore}bd 

/@MN { 
2 copy le{pop}{exch pop}ifelse 
}bd 

/setcmykcolor where {pop} 
{ 
/setcmykcolor 
{ 
4 1 roll 
3 {3 index add 1 @MN 1 exch sub 3 1 roll} repeat 
setrgbcolor 
pop 
}bd 
}ifelse 

/@tc 
{ 
dup 1 ge 
{pop} 
{ 
4 { 
dup 
6 -1 roll 
mul 
exch 
}repeat 
pop 
}ifelse 
}bd 

/@scc 
{ 
$c $m $y $k $t @tc 
setcmykcolor 
true 
}bd 
/@SCC 
{ 
$C $M $Y $K $T @tc 
setcmykcolor 
true 
}bd 

/@sft 
{ 
(setfirsttile sft )print 
/$tx $tllx $pxf add dup $tllx gt {$pwid $psx add sub}if def 
/$ty $tury $pyf sub dup $tury lt {$phei $psy add add}if def 
(setfirsttile exit )print 
}bd 

/@stb 
{ 
pathbbox /$ury xd /$urx xd /$lly xd /$llx xd 
}bd 

/@ep 
{ 
{ 
cvx exec 
}forall 
}bd 

/@tp 
{ 

(tile pattern tp )print 
@sv 
/$in true def 
2 copy 
dup $lly le {/$in false def}if 
$phei sub $ury ge {/$in false def}if 
dup $urx ge {/$in false def}if 
$pwid add $llx le {/$in false def}if 
$in 
{ 
@np 
2 copy moveto 
$pwid 0 rlineto 
0 $phei neg rlineto 
$pwid neg 0 rlineto 
0 $phei rlineto 
clip @np 

$pn cvlit load aload pop 
7 -1 roll 
5 index sub 
7 -1 roll 
3 index sub 
translate 
@ep 
pop pop pop pop 
} 
{pop pop}ifelse 
@rs 
(tile pattern exit )print 
}bd 

/@th 
{ 
(tile horizontal th)print 
@sft 
0 1 $tly 1 sub 
{ 
dup $psx mul $tx add 
{ 
dup $llx gt {$pwid sub}{exit}ifelse 
}loop 
exch $phei mul $ty exch sub 

0 1 $tlx 1 sub 
{ 
$pwid mul 
3 copy 
3 -1 roll add exch 
@tp 
pop 
}for 
pop pop 
} for 
(tile horizontal exiting )print 
}bd 

/@tv 
{ 
(tile vertical tv)print 
@sft 
0 1 $tlx 1 sub 
{ 
dup $pwid mul $tx add 
exch $psy mul $ty exch sub 
{ 
dup $ury lt {$phei add}{exit}ifelse 
}loop 

0 1 $tly 1 sub 
{ 
$phei mul 
3 copy sub 
@tp 
pop 
}for 
pop pop 
} for 
(tile vertical exit )print 
}bd 

/@pf 
{ 
(pattern fill pf)print 
@gs 
$pm concat 
@stb 
@gs 1 setgray eofill @gr 
eoclip 
$Bburx $Bbury $pm itransform /$tury xd /$turx xd 
$Bbllx $Bblly $pm itransform /$tlly xd /$tllx xd 
/$wid $turx $tllx sub def 
/$hei $tury $tlly sub def 
$wid 0 gt $hei 0 gt and 
{ 
$pn cvlit load aload pop 
$pd xd 
3 -1 roll sub /$phei xd 
exch sub /$pwid xd 
/$tlx $wid $pwid div ceiling 1 add def 
/$tly $hei $phei div ceiling 1 add def 
$psx 0 eq 
{ 
@tv 
} 
{ 
@th 
}ifelse 
}if 

@gr 
@np 
(pattern fill exit)print 
}bd 

/@xp 
{ 
{ 
dup (text Character is:) print == 
usertime (time before is:)print == 
(0) dup 3 -1 roll 0 exch put 
@gs 
true charpath currentpoint 
$ctm setmatrix 
@pf 
@gr 
@np 
moveto $tr 0 rmoveto 
usertime (time after is:)print == 
}forall 
pop 
}bd 

/@sm 
{ 
/$ctm $ctm currentmatrix def 
}bd 

%--@lorg  move to line origin   length string @torg length string
/@lorg    % moves currentpoint to line origin according to current alignment
  {      
  $lx $ly moveto    
  /$ly $ly $le sub def      % - prepare for next line(tracking)
  $al 0 ne
    {dup      % ->len str len str
    stringwidth   % ->len str len dx dy
    exch 3 index  % ->len str dy len dx
    1 sub         % ->len str dy len dx (len-1)
    $tr mul add   % ->len str dy len dx+(len-1)*$tr
    neg
    exch neg      % ->len str -dx_total dy len
    $al 1 eq      % check for centered alignment
    {2 div exch 2 div exch} if  
    rmoveto} if
  }bd

/@ft 
{ 
$pf 
{@xp} 
{ 
@scc 
{$tr exch 0 exch ashow pop} 
{pop pop}ifelse 
}ifelse 
}bd 

/@st 
{ 
$PF 
{} 
{ 
@SCC 
{ 
{ 
(0) dup 3 -1 roll 0 exch put 
@gs 
true charpath currentpoint 
$ctm setmatrix $ptm concat 
stroke 
@gr 
moveto $tr 0 rmoveto 
}forall 
pop 
} 
{pop pop}ifelse 
}ifelse 
}bd 
/@pt 
{ 
dup length exch 
}bd 
/@te 
{ 
@pt 
@lorg 
@ft 
}bd 

/@tr 
{ 
@pt 
@lorg 
@st 
}bd 
/@ta 
{ 
@pt 
@lorg 
2 copy 
@gs @ft @gr 
/$lx 0 def 
/$ly 0 def 
@st 
}bd 















/g { 
1 exch sub /$k xd 
/$c 0 def /$m 0 def /$y 0 def /$t 1 def /$n _ def /$pf false def 
}bd 

/G { 
1 exch sub /$K xd 
/$C 0 def /$M 0 def /$Y 0 def /$T 1 def /$N _ def /$PF false def 
}bd 

/k { 
/$k xd /$y xd /$m xd /$c xd 
/$t 1 def /$n _ def /$pf false def 
}bd 

/K { 
/$K xd /$Y xd /$M xd /$C xd 
/$T 1 def /$N _ def /$PF false def 
}bd 

/x { 
/$t xd /$n xd 
/$k xd /$y xd /$m xd /$c xd /$pf false def 
}bd 

/X { 
/$T xd /$N xd 
/$K xd /$Y xd /$M xd /$C xd /$PF false def 
}bd 

/d /setdash ld 

/i { 
dup 0 ne {setflat} {pop} ifelse 
}bd 

/j /setlinejoin ld 

/J /setlinecap ld 

/M /setmiterlimit ld 

/w /setlinewidth ld 

/O { 
/$o xd 
}bd 

/R { 
/$O xd 
}bd 


/c /curveto ld 

/C /c ld 

/v { 
currentpoint
6 2 roll 
curveto 
}bd

/V /v ld 

/y { 
2 copy curveto 
}bd 

/Y /y ld 

/l /lineto ld 

/L /l ld 

/m /moveto ld 



/n /newpath ld 

/N /newpath ld 

/F { 
$pf 
{@pf} 
{ 
@scc 
{eofill}if 
}ifelse 
}bd 

/f { 
@cp F 
}bd 
/S { 
$PF 
{} 
{ 
@SCC 
{ 
@sm 
$ptm concat 
stroke 
$ctm setmatrix 
}if 
}ifelse 
}bd 
/s { 
@cp 
S 
}bd 

/B { 
@gs F @gr 
S 
}bd 
/b { 
@cp 
B 
}bd 

/W { 
oeclip 
@np 
}bd 

/p { 
/$pm xd 
7 {pop} repeat 
/$pyf xd /$pxf xd 
/$pn xd 
/$pf true def 
}bd 

/P { 
11 {pop} repeat 
}bd 

/@p { 
/$pm xd 
/$psy xd 
/$psx xd 
/$pyf xd /$pxf xd 
/$pn xd 
/$pf true def 
}bd 

/@b { 
/$Bbury xd /$Bburx xd 
/$Bblly xd /$Bbllx xd 
}bd 


/z { 
/$al xd 
/$tr xd 
/$le xd 
exch findfont exch scalefont setfont 
}bd 

/Z { 
dup type 0 type eq { /$bDir xd } if
findfont 
dup maxlength 1 add dict exch 



dup 
{1 index /FID ne 
{ 
3 index 
3 1 roll put 
} 
{pop pop}ifelse 
} forall 



pop 
dup dup /Encoding get 
256 array copy 
dup /$fe xd
/Encoding exch put 

dup /Fontname 3 index put 

}bd 

/e { 
@sm 
concat 
[ 
/t {@te}def 
}bd 

/r { 
@sm 
concat 
[ 
/t {@tr}def 
}bd 

/o { 
@sm 
concat 
[ 
/t {pop}def 
}bd 

/a { 
@sm 
concat 
[ 
/t {@ta}def 
}bd 

/@o{
@sm 
concat 
[ 
/t {@t@a}def 
}bd 

/I { 
@sm 
concat 
[ 
/t {pop}def 
}bd 

/t {@te}def 

/T { 
cleartomark 
/$lx 0 def 
/$ly 0 def 
$ctm setmatrix 
}bd 


/u {}bd 

/U {}bd 

/A {pop}bd 

/h { 
$h true def 
}bd 

/h { 
$h true def 
}bd 

/q /@gs ld 

/Q /@gr ld 



/E { 
5 array astore 
exch cvlit exch def 
}bd 

/` {}bd 

/~ {}bd 

/@ {}bd 

/& {}bd 

/CorelDrawRencodeVect [ 
16#80/grave 
16#81/circumflex 
16#82/tilde 
16#83/dotlessi 
16#84/florin 
16#85/quotedblleft 
16#86/quotedblright 
16#87/guilsinglleft 
16#88/guilsinglright 
16#89/fi 
16#8a/fl 
16#8b/dagger 
16#8c/daggerdbl 
16#8d/endash 
16#8e/periodcentered 
16#8f/breve 
16#90/quotedblbase 
16#91/ellipsis 
16#92/perthousand 
16#a1/exclamdown 
16#a2/cent 
16#a3/sterling 
16#a4/currency 
16#a5/yen 
16#a6/bar 
16#a7/section 
16#a8/dieresis 
16#a9/copyright 
16#aa/ordfeminine 
16#ab/guillemotleft 
16#ac/logicalnot 
16#ad/emdash 
16#ae/registered 
16#af/spac 
16#b0/ring 
16#b1/spac 
16#b2/spac 
16#b3/spac 
16#b4/acute 
16#b5/spac 
16#b6/paragraph 
16#b7/bullet 
16#b8/cedilla 
16#b9/spac 
16#ba/ordmasculine 
16#bb/guillemotright 
16#bc/spac 
16#bd/spac 
16#be/spac 
16#bf/questiondown 
16#c0/Agrave 
16#c1/Aacute 
16#c2/Acircumflex 
16#c3/Atilde 
16#c4/Adieresis 
16#c5/Aring 
16#c6/AE 
16#c7/Ccedilla 
16#c8/Egrave 
16#c9/Eacute 
16#ca/Ecircumflex 
16#cb/Edieresis 
16#cc/Igrave 
16#cd/Iacute 
16#ce/Icircumflex 
16#cf/Idieresis 
16#d0/spac 
16#d1/Ntilde 
16#d2/Ograve 
16#d3/Oacute 
16#d4/Ocircumflex 
16#d5/Otilde 
16#d6/Odieresis 
16#d7/OE 
16#d8/Oslash 
16#d9/Ugrave 
16#da/Uacute 
16#db/Ucircumflex 
16#dc/Udieresis 
16#dd/space 
16#de/spac 
16#df/germandbls 
16#e0/agrave 
16#e1/aacute 
16#e2/acircumflex 
16#e3/atilde 
16#e4/adieresis 
16#e5/aring 
16#e6/ae 
16#e7/ccedilla 
16#e8/egrave 
16#e9/eacute 
16#ea/ecircumflex 
16#eb/edieresis 
16#ec/igrave 
16#ed/iacute 
16#ee/icircumflex 
16#ef/idieresis 
16#f0/space 
16#f1/ntilde 
16#f2/ograve 
16#f3/oacute 
16#f4/ocircumflex 
16#f5/otilde 
16#f6/odieresis 
16#f7/oe 
16#f8/oslash 
16#f9/ugrave 
16#fa/uacute 
16#fb/ucircumflex 
16#fc/udieresis 
16#fd/spac 
16#fe/spac 
16#ff/ydieresis 
] def
%%EndProlog
%%BeginSetup
%%BeginEncoding:_Times-Bold Times-Bold
[
]/_Times-Bold/Times-Bold Z
%%EndEncoding
%%EndSetup
0.000 0.000 0.000 1.000 K
0 j
0 J
0.863 w
[]0 d
0.000 0.000 0.000 0.000 k
601.487 1075.751 m
604.223 1080.647 607.679 1083.528 611.711 1083.816 C
658.007 1087.199 704.303 1087.199 750.743 1083.816 C
757.223 1083.528 759.815 1079.711 761.687 1075.751 C
781.271 1024.343 L
785.087 1011.743 L
788.255 1006.487 789.407 999.647 790.631 992.375 C
792.431 991.727 793.871 989.783 794.159 986.615 C
794.303 955.799 L
794.015 955.799 L
788.759 942.407 783.215 934.631 775.727 927.431 C
769.679 926.999 L
595.151 926.999 L
589.391 926.999 L
579.240 937.439 574.919 945.287 570.815 955.799 C
569.807 955.799 L
569.807 986.471 L
569.807 988.559 571.247 990.935 573.192 992.231 C
573.983 999.215 575.711 1005.911 577.943 1011.599 C
581.903 1024.343 L
601.487 1075.751 L
b
0.000 0.000 0.000 1.000 K
0 j
0 J
0.863 w
[]0 d
0.000 0.000 0.000 0.000 k
761.183 798.695 m
758.519 803.663 754.991 806.543 751.031 806.831 C
704.735 810.143 658.439 810.143 612.000 806.831 C
605.447 806.543 602.927 802.727 600.983 798.695 C
581.399 747.359 L
577.583 734.759 L
567.288 717.767 568.367 698.471 568.367 678.743 C
568.727 678.743 L
573.911 665.423 579.527 657.575 587.015 650.447 C
593.063 649.943 L
598.607 649.943 L
609.264 661.247 614.519 658.223 622.007 649.943 C
665.279 649.943 L
665.279 655.991 L
665.279 659.015 700.919 659.375 700.919 655.991 C
700.919 649.943 L
767.591 649.943 L
773.279 649.943 L
783.503 660.455 787.751 668.231 791.927 678.743 C
792.863 678.743 L
792.863 704.663 793.151 712.799 784.727 734.615 C
780.767 747.359 L
761.183 798.695 L
b
0.000 0.000 0.000 1.000 K
0 j
0 J
0.863 w
[]0 d
0.000 0.000 0.000 0.000 k
122.255 1016.927 m
124.343 1018.367 L
150.768 1039.175 183.311 1059.551 213.767 1078.127 C
219.311 1081.943 226.799 1083.743 235.367 1084.031 C
290.087 1086.551 340.560 1087.199 398.447 1082.447 C
404.351 1082.591 408.455 1081.367 412.775 1078.487 C
437.471 1060.343 463.247 1038.096 485.495 1017.071 C
492.839 1011.671 498.527 1004.831 501.551 997.199 C
502.559 991.583 L
481.391 990.647 L
481.391 967.391 L
450.791 967.391 L
432.503 973.799 407.663 972.359 396.863 966.023 C
383.615 956.159 378.215 936.863 379.223 920.951 C
129.383 921.095 L
127.367 933.191 119.519 960.263 96.623 969.623 C
80.711 977.615 52.919 975.887 40.031 963.431 C
-6.911 963.431 L
2.591 986.543 L
4.391 990.143 8.783 993.383 13.247 994.175 C
48.887 1004.327 84.887 1011.671 122.255 1016.927 C
b
0.000 0.000 0.000 1.000 K
0 j
0 J
0.863 w
[]0 d
0.000 0.000 0.000 0.000 k
370.943 740.591 m
368.855 742.031 L
342.503 762.839 309.887 783.215 279.503 801.863 C
273.887 805.679 266.399 807.407 257.831 807.695 C
203.111 810.287 152.639 810.935 94.751 806.111 C
88.847 806.327 84.743 805.031 80.423 802.151 C
55.799 784.007 30.023 761.759 7.703 740.735 C
0.431 735.335 -5.327 728.495 -8.351 720.863 C
-9.287 715.319 L
11.879 714.311 L
11.879 691.127 L
42.407 691.127 L
60.695 697.463 85.535 696.024 96.335 689.687 C
109.583 679.823 114.983 660.599 114.047 644.687 C
363.815 644.831 L
365.831 656.927 373.679 683.927 396.575 693.359 C
412.487 701.279 440.351 699.551 453.239 687.167 C
500.183 687.167 L
490.607 710.207 L
488.879 713.879 484.415 717.048 479.951 717.839 C
444.311 727.991 408.311 735.335 370.943 740.591 C
b
0.000 0.000 0.000 1.000 K
0 j
0 J
0.215 w
[]0 d
0.000 0.000 0.000 0.000 k
-7.199 963.575 m
40.031 963.575 L
31.895 952.127 28.727 940.175 30.023 927.143 C
12.815 926.063 L
7.919 926.063 6.623 928.727 5.183 931.103 C
-1.008 936.071 -5.471 940.175 -7.847 946.079 C
-15.983 950.399 -13.895 959.759 -7.199 963.575 C
b
0.000 0.000 0.000 1.000 K
0 j
0 J
0.215 w
[]0 d
0.000 0.000 0.000 0.000 k
500.471 687.311 m
453.167 687.311 L
461.303 675.791 464.471 663.911 463.247 650.879 C
480.383 649.727 L
485.351 649.727 486.647 652.463 488.015 654.839 C
494.279 659.735 498.671 663.911 501.119 669.743 C
509.183 674.063 507.167 683.495 500.471 687.311 C
b
0.000 0.000 0.000 1.000 K
0 j
0 J
0.215 w
[]0 d
0.000 0.000 0.000 0.098 k
19.151 982.295 m
20.807 984.527 18.575 986.903 15.983 986.903 C
2.663 986.903 L
-7.055 963.503 L
13.463 963.503 L
19.151 982.295 L
b
0.000 0.000 0.000 1.000 K
0 j
0 J
0.215 w
[]0 d
0.000 0.000 0.000 0.098 k
474.047 705.959 m
472.463 708.191 474.695 710.567 477.215 710.567 C
490.607 710.567 L
500.327 687.239 L
479.807 687.239 L
474.047 705.959 L
b
0.000 0.000 0.000 1.000 K
0 j
0 J
0.215 w
[]0 d
0.000 0.000 0.000 0.298 k
481.391 990.719 m
502.703 991.367 L
504.431 984.887 504.431 973.223 503.351 967.391 C
481.391 967.391 L
481.391 990.719 L
b
0.000 0.000 0.000 1.000 K
0 j
0 J
0.215 w
[]0 d
0.000 0.000 0.000 0.298 k
11.951 714.455 m
-9.359 715.103 L
-11.087 708.551 -11.087 696.959 -10.007 691.055 C
11.951 691.055 L
11.951 714.455 L
b
0.000 0.000 0.000 1.000 K
0 j
0 J
0.215 w
[]0 d
0.000 0.000 0.000 0.000 k
451.007 967.391 m
504.719 967.391 L
508.103 964.799 509.183 958.751 506.159 956.087 C
502.991 954.935 502.055 952.055 501.911 948.599 C
499.175 941.759 495.071 935.711 486.935 931.535 C
477.215 930.743 L
476.423 929.015 473.399 927.431 470.735 927.287 C
471.023 942.839 464.327 959.255 451.007 967.391 C
b
0.000 0.000 0.000 1.000 K
0 j
0 J
0.215 w
[]0 d
0.000 0.000 0.000 0.000 k
42.335 691.055 m
-11.447 691.055 L
-14.759 688.463 -15.839 682.487 -12.815 679.751 C
-9.647 678.599 -8.711 675.791 -8.567 672.263 C
-5.831 665.423 -1.727 659.375 6.407 655.271 C
16.128 654.479 L
16.919 652.679 19.943 651.096 22.607 650.951 C
22.319 666.575 29.015 682.919 42.335 691.055 C
b
0.000 0.000 0.000 1.000 K
0 j
0 J
0.215 w
[]0 d
0.000 0.000 0.000 0.498 k
212.975 1077.624 m
216.647 1078.415 218.735 1073.303 219.671 1070.423 C
196.415 1054.727 174.024 1036.079 154.151 1017.143 C
124.199 1018.439 L
151.271 1038.959 183.887 1059.983 212.975 1077.624 C
b
0.000 0.000 0.000 1.000 K
0 j
0 J
0.215 w
[]0 d
0.000 0.000 0.000 0.498 k
280.223 801.287 m
276.551 802.079 274.463 796.967 273.527 794.159 C
296.783 778.391 319.175 759.743 339.119 740.807 C
369.000 742.103 L
341.927 762.623 309.311 783.647 280.223 801.287 C
b
0.000 0.000 0.000 1.000 K
0 j
0 J
0.215 w
[]0 d
0.000 0.000 0.000 0.200 k
209.951 1075.535 m
213.623 1076.327 215.855 1073.663 216.791 1070.783 C
193.607 1055.015 174.671 1039.247 154.727 1020.311 C
128.015 1021.319 L
155.087 1041.839 180.863 1057.895 209.951 1075.535 C
b
0.000 0.000 0.000 1.000 K
0 j
0 J
0.215 w
[]0 d
0.000 0.000 0.000 0.200 k
283.247 799.199 m
279.575 799.991 277.343 797.327 276.407 794.447 C
299.663 778.679 318.599 762.983 338.471 744.047 C
365.183 744.983 L
338.111 765.503 312.335 781.559 283.247 799.199 C
b
0.000 0.000 0.000 1.000 K
0 j
0 J
0.215 w
[]0 d
0.000 0.000 0.000 0.498 k
169.919 1022.255 m
219.383 1065.240 L
228.455 1072.223 237.311 1074.816 250.559 1075.751 C
296.855 1076.975 L
280.799 1010.375 L
170.207 1006.559 L
158.615 1004.615 156.024 1012.247 169.919 1022.255 C
b
0.000 0.000 0.000 1.000 K
0 j
0 J
0.215 w
[]0 d
0.000 0.000 0.000 0.498 k
323.351 745.991 m
273.815 788.903 L
264.743 795.959 255.887 798.479 242.639 799.415 C
196.343 800.711 L
212.399 734.039 L
322.991 730.223 L
334.583 728.279 337.175 735.983 323.351 745.991 C
b
0.000 0.000 0.000 1.000 K
0 j
0 J
0.215 w
[]0 d
0.000 0.000 0.000 0.200 k
179.135 1027.079 m
220.967 1062.864 L
230.039 1069.847 237.311 1072.367 250.559 1073.375 C
293.687 1074.599 L
278.567 1013.183 L
177.839 1009.727 L
179.135 1027.079 L
b
0.000 0.000 0.000 1.000 K
0 j
0 J
0.215 w
[]0 d
0.000 0.000 0.000 0.200 k
314.063 750.743 m
272.231 786.527 L
263.159 793.511 255.887 796.103 242.639 797.039 C
199.511 798.335 L
214.631 736.919 L
315.359 733.391 L
314.063 750.743 L
b
0.000 0.000 0.000 1.000 K
0 j
0 J
0.215 w
[]0 d
0.000 0.000 0.000 0.498 k
306.215 1077.480 m
333.072 1077.983 376.847 1075.247 386.207 1072.727 C
387.791 1071.576 389.375 1070.495 390.959 1069.199 C
417.743 1024.199 L
419.687 1020.383 419.687 1016.063 415.511 1015.127 C
293.615 1010.663 L
306.215 1077.480 L
b
0.000 0.000 0.000 1.000 K
0 j
0 J
0.215 w
[]0 d
0.000 0.000 0.000 0.498 k
186.983 801.143 m
160.127 801.647 116.351 798.983 106.991 796.391 C
105.407 795.311 103.823 794.159 102.239 792.935 C
75.455 747.863 L
73.583 744.047 73.583 739.799 77.687 738.791 C
199.583 734.327 L
186.983 801.143 L
b
0.000 0.000 0.000 1.000 K
0 j
0 J
0.215 w
[]0 d
0.000 0.000 0.000 0.200 k
310.319 1074.959 m
330.839 1074.959 349.919 1073.663 371.447 1071.791 C
373.319 1071.432 376.199 1071.144 376.199 1068.263 C
376.199 1016.855 L
297.791 1013.975 L
310.319 1074.959 L
b
0.000 0.000 0.000 1.000 K
0 j
0 J
0.215 w
[]0 d
0.000 0.000 0.000 0.200 k
182.879 798.623 m
162.359 798.623 143.280 797.327 121.751 795.455 C
119.879 795.095 116.999 794.807 116.999 791.927 C
116.999 740.591 L
195.479 737.711 L
182.879 798.623 L
b
0.000 0.000 0.000 1.000 K
0 j
0 J
0.215 w
[]0 d
0.000 0.000 0.000 0.498 k
412.847 1072.943 m
410.399 1075.319 410.255 1077.407 412.487 1078.343 C
436.535 1062.144 465.335 1036.223 485.711 1016.639 C
485.711 1013.471 476.495 1012.967 475.055 1015.847 C
412.847 1072.943 L
b
0.000 0.000 0.000 1.000 K
0 j
0 J
0.215 w
[]0 d
0.000 0.000 0.000 0.498 k
80.495 796.607 m
82.871 799.055 83.015 801.071 80.783 802.079 C
56.735 785.807 27.935 759.887 7.631 740.303 C
7.631 737.135 16.847 736.631 18.288 739.511 C
80.495 796.607 L
b
0.000 0.000 0.000 1.000 K
0 j
0 J
0.215 w
[]0 d
0.000 0.000 0.000 0.200 k
415.871 1072.151 m
413.423 1074.528 412.199 1075.967 414.431 1076.903 C
438.335 1059.551 462.527 1038.887 482.831 1019.303 C
482.831 1016.135 475.559 1016.135 474.119 1019.015 C
415.871 1072.151 L
b
0.000 0.000 0.000 1.000 K
0 j
0 J
0.215 w
[]0 d
0.000 0.000 0.000 0.200 k
77.471 795.815 m
79.847 798.263 81.143 799.631 78.911 800.639 C
55.007 783.287 30.815 762.623 10.439 743.039 C
10.439 739.871 17.783 739.871 19.224 742.679 C
77.471 795.815 L
b
0.000 0.000 0.000 1.000 K
0 j
0 J
0.215 w
[]0 d
0.000 0.000 0.000 0.498 k
40.031 963.287 m
55.295 977.903 88.343 978.839 106.991 963.575 C
121.607 952.631 128.591 930.815 130.536 914.759 C
112.535 921.311 L
117.935 940.823 105.407 968.687 77.039 970.127 C
52.415 971.063 35.423 951.191 37.151 927.791 C
29.663 927.503 L
28.871 939.887 32.543 954.215 40.031 963.287 C
b
0.000 0.000 0.000 1.000 K
0 j
0 J
0.215 w
[]0 d
0.000 0.000 0.000 0.498 k
453.239 686.951 m
437.975 701.639 404.855 702.575 386.207 687.311 C
371.591 676.295 364.607 654.479 362.663 638.423 C
380.663 644.975 L
375.263 664.559 387.791 692.351 416.159 693.791 C
440.855 694.799 457.847 674.855 456.119 651.527 C
463.607 651.168 L
464.399 663.551 460.727 677.879 453.239 686.951 C
b
0.000 0.000 0.000 1.000 K
0 j
0 J
0.215 w
[]0 d
0.000 0.000 0.000 0.498 k
401.831 968.327 m
417.599 972.503 431.639 972.791 449.783 967.895 C
465.047 959.759 470.807 943.343 470.807 926.639 C
463.103 924.767 L
465.839 948.311 451.655 969.263 425.087 970.271 C
396.935 968.975 381.815 944.927 388.151 921.095 C
379.223 920.735 L
379.223 931.895 L
382.247 947.015 388.151 963.215 401.831 968.327 C
b
0.000 0.000 0.000 1.000 K
0 j
0 J
0.215 w
[]0 d
0.000 0.000 0.000 0.498 k
91.439 691.991 m
75.671 696.167 61.703 696.455 43.559 691.559 C
28.295 683.423 22.535 667.079 22.535 650.375 C
30.167 648.431 L
27.503 671.975 41.615 693.000 68.183 693.935 C
96.407 692.639 111.455 668.663 105.119 644.759 C
114.047 644.471 L
114.047 655.559 L
111.023 670.679 105.119 686.951 91.439 691.991 C
b
0.000 0.000 0.000 1.000 K
0 j
0 J
0.215 w
[]0 d
0.000 0.000 0.000 1.000 k
75.455 893.375 m
96.623 893.375 113.831 910.583 113.831 931.895 c
113.831 953.063 96.623 970.199 75.455 970.199 c
54.143 970.199 37.007 953.063 37.007 931.895 c
37.007 910.583 54.143 893.375 75.455 893.375 c
b
0.000 0.000 0.000 1.000 K
0 j
0 J
0.215 w
[]0 d
0.000 0.000 0.000 1.000 k
417.743 617.039 m
396.575 617.039 379.367 634.247 379.367 655.559 c
379.367 676.727 396.575 693.935 417.743 693.935 c
439.055 693.935 456.263 676.727 456.263 655.559 c
456.263 634.247 439.055 617.039 417.743 617.039 c
b
0.000 0.000 0.000 1.000 K
0 j
0 J
0.215 w
[]0 d
0.000 0.000 0.000 1.000 k
452.303 904.751 m
467.279 919.727 467.279 944.063 452.159 959.111 c
437.183 974.087 412.847 974.087 397.943 959.111 c
382.823 944.063 382.823 919.727 397.799 904.751 c
412.847 889.703 437.183 889.703 452.303 904.751 c
b
0.000 0.000 0.000 1.000 K
0 j
0 J
0.215 w
[]0 d
0.000 0.000 0.000 1.000 k
41.039 628.487 m
26.063 643.463 26.063 667.727 41.183 682.775 c
56.087 697.751 80.423 697.751 95.399 682.775 c
110.447 667.727 110.447 643.463 95.471 628.487 c
80.423 613.367 56.087 613.367 41.039 628.487 c
b
0.000 0.000 0.000 1.000 K
0 j
0 J
0.215 w
[]0 d
0.000 0.000 0.000 0.498 k
169.055 1019.951 m
169.703 1021.823 174.311 1023.551 174.599 1020.239 C
174.599 1006.703 L
169.199 1006.415 L
166.391 1009.727 166.175 1015.271 169.055 1019.951 C
b
0.000 0.000 0.000 1.000 K
0 j
0 J
0.215 w
[]0 d
0.000 0.000 0.000 0.498 k
324.143 743.615 m
323.495 745.487 318.887 747.287 318.599 743.903 C
318.599 730.367 L
324.000 730.079 L
326.879 733.391 327.024 739.007 324.143 743.615 C
b
u
u
0.000 0.000 0.000 1.000 K
0 j
0 J
0.215 w
[]0 d
171.000 1021.607 m
171.000 1006.487 L
S
U
U
u
u
0.000 0.000 0.000 1.000 K
0 j
0 J
0.215 w
[]0 d
322.271 745.343 m
322.271 730.223 L
S
U
U
0.000 0.000 0.000 1.000 K
0 j
0 J
0.215 w
[]0 d
0.000 0.000 0.000 0.200 k
379.151 1070.495 m
382.679 1071.144 385.559 1070.207 388.079 1067.615 C
414.503 1023.263 L
415.151 1021.031 415.367 1019.159 412.919 1018.511 C
379.799 1017.215 L
379.151 1070.495 L
b
0.000 0.000 0.000 1.000 K
0 j
0 J
0.215 w
[]0 d
0.000 0.000 0.000 0.200 k
114.119 794.231 m
110.591 794.807 107.711 793.871 105.191 791.351 C
78.768 746.927 L
78.119 744.695 77.975 742.823 80.351 742.175 C
113.471 740.879 L
114.119 794.231 L
b
0.000 0.000 0.000 0.000 k
75.311 957.671 m
61.127 957.671 49.391 946.007 49.391 931.679 C
49.391 917.567 61.127 905.759 75.311 905.759 C
89.639 905.759 101.231 917.567 101.231 931.679 C
101.231 946.007 89.639 957.671 75.311 957.671 C
f
0.000 0.000 0.000 0.000 k
418.031 681.335 m
432.143 681.335 443.951 669.743 443.951 655.415 C
443.951 641.231 432.143 629.495 418.031 629.495 C
403.631 629.495 392.039 641.231 392.039 655.415 C
392.039 669.743 403.631 681.335 418.031 681.335 C
f
0.000 0.000 0.000 1.000 K
0 j
0 J
0.215 w
[]0 d
75.311 956.015 m
88.703 956.015 99.647 945.071 99.647 931.679 C
99.647 918.503 88.703 907.343 75.311 907.343 C
62.135 907.343 50.975 918.503 50.975 931.679 C
50.975 945.071 62.135 956.015 75.311 956.015 C
s
0.000 0.000 0.000 1.000 K
0 j
0 J
0.215 w
[]0 d
418.031 679.751 m
404.639 679.751 393.623 668.735 393.623 655.415 C
393.623 642.168 404.639 631.079 418.031 631.079 C
431.207 631.079 442.367 642.168 442.367 655.415 C
442.367 668.735 431.207 679.751 418.031 679.751 C
s
0.000 0.000 0.000 1.000 K
0 j
0 J
0.215 w
[]0 d
0.000 0.000 0.000 0.498 k
90.431 946.799 m
88.487 939.311 L
95.975 937.295 L
90.431 946.799 L
b
0.000 0.000 0.000 1.000 K
0 j
0 J
0.215 w
[]0 d
0.000 0.000 0.000 0.498 k
402.839 670.535 m
404.783 663.048 L
397.295 660.959 L
402.839 670.535 L
b
0.000 0.000 0.000 1.000 K
0 j
0 J
0.215 w
[]0 d
0.000 0.000 0.000 0.498 k
95.975 926.135 m
90.575 916.559 L
88.487 924.047 L
95.975 926.135 L
b
0.000 0.000 0.000 1.000 K
0 j
0 J
0.215 w
[]0 d
0.000 0.000 0.000 0.498 k
397.295 649.799 m
402.695 640.295 L
404.783 647.783 L
397.295 649.799 L
b
0.000 0.000 0.000 1.000 K
0 j
0 J
0.215 w
[]0 d
0.000 0.000 0.000 0.498 k
80.855 910.871 m
75.311 916.415 L
69.768 910.871 L
80.855 910.871 L
b
0.000 0.000 0.000 1.000 K
0 j
0 J
0.215 w
[]0 d
0.000 0.000 0.000 0.498 k
412.415 634.535 m
418.031 640.151 L
423.575 634.535 L
412.415 634.535 L
b
0.000 0.000 0.000 1.000 K
0 j
0 J
0.215 w
[]0 d
0.000 0.000 0.000 0.498 k
60.191 915.983 m
62.423 924.191 L
54.143 926.423 L
60.191 915.983 L
b
0.000 0.000 0.000 1.000 K
0 j
0 J
0.215 w
[]0 d
0.000 0.000 0.000 0.498 k
433.151 639.647 m
430.919 647.927 L
439.199 650.159 L
433.151 639.647 L
b
0.000 0.000 0.000 1.000 K
0 j
0 J
0.215 w
[]0 d
0.000 0.000 0.000 0.498 k
54.143 936.935 m
60.191 947.447 L
62.423 939.167 L
54.143 936.935 L
b
0.000 0.000 0.000 1.000 K
0 j
0 J
0.215 w
[]0 d
0.000 0.000 0.000 0.498 k
439.199 660.671 m
433.151 671.111 L
430.919 662.903 L
439.199 660.671 L
b
0.000 0.000 0.000 1.000 K
0 j
0 J
0.215 w
[]0 d
0.000 0.000 0.000 0.498 k
69.768 952.415 m
80.855 952.415 L
75.311 946.943 L
69.768 952.415 L
b
0.000 0.000 0.000 1.000 K
0 j
0 J
0.215 w
[]0 d
0.000 0.000 0.000 0.498 k
423.575 676.079 m
412.415 676.079 L
418.031 670.679 L
423.575 676.079 L
b
0.000 0.000 0.000 1.000 K
0 j
0 J
0.215 w
[]0 d
0.000 0.000 0.000 0.498 k
75.311 942.191 m
69.551 942.191 64.799 937.439 64.799 931.679 C
64.799 925.991 69.551 921.239 75.311 921.239 C
81.071 921.239 85.823 925.991 85.823 931.679 C
85.823 937.439 81.071 942.191 75.311 942.191 C
b
0.000 0.000 0.000 1.000 K
0 j
0 J
0.215 w
[]0 d
0.000 0.000 0.000 0.498 k
418.031 665.927 m
423.719 665.927 428.543 661.103 428.543 655.415 C
428.543 649.655 423.719 644.903 418.031 644.903 C
412.271 644.903 407.447 649.655 407.447 655.415 C
407.447 661.103 412.271 665.927 418.031 665.927 C
b
0.000 0.000 0.000 1.000 K
0 j
0 J
0.215 w
[]0 d
0.000 0.000 0.000 0.000 k
75.311 939.527 m
79.631 939.527 83.087 935.999 83.087 931.679 C
83.087 927.431 79.631 924.047 75.311 924.047 C
70.991 924.047 67.679 927.431 67.679 931.679 C
67.679 935.999 70.991 939.527 75.311 939.527 C
b
0.000 0.000 0.000 1.000 K
0 j
0 J
0.215 w
[]0 d
0.000 0.000 0.000 0.000 k
418.031 663.191 m
413.711 663.191 410.183 659.663 410.183 655.415 C
410.183 651.096 413.711 647.783 418.031 647.783 C
422.279 647.783 425.663 651.096 425.663 655.415 C
425.663 659.663 422.279 663.191 418.031 663.191 C
b
0.000 0.000 0.000 0.000 k
406.655 950.039 m
396.647 940.031 396.575 923.471 406.655 913.319 C
416.735 903.311 433.367 903.311 443.375 913.319 C
453.527 923.471 453.383 940.031 443.375 950.039 C
433.295 960.119 416.807 960.119 406.655 950.039 C
f
0.000 0.000 0.000 0.000 k
86.615 673.703 m
96.623 663.695 96.767 647.135 86.615 637.055 C
76.607 627.048 59.975 627.048 49.967 637.055 C
39.815 647.135 39.959 663.695 49.967 673.703 C
60.047 683.855 76.463 683.855 86.615 673.703 C
f
0.000 0.000 0.000 1.000 K
0 j
0 J
0.215 w
[]0 d
407.807 948.887 m
417.311 958.319 432.791 958.319 442.295 948.887 C
451.583 939.599 451.727 923.903 442.295 914.471 C
432.935 905.111 417.167 905.111 407.807 914.471 C
398.375 923.903 398.447 939.599 407.807 948.887 C
s
0.000 0.000 0.000 1.000 K
0 j
0 J
0.215 w
[]0 d
85.463 672.623 m
76.031 682.055 60.479 682.055 51.047 672.623 C
41.759 663.263 41.615 647.639 51.047 638.135 C
60.407 628.847 76.175 628.847 85.463 638.135 C
94.967 647.639 94.823 663.263 85.463 672.623 C
s
0.000 0.000 0.000 1.000 K
0 j
0 J
0.215 w
[]0 d
0.000 0.000 0.000 0.498 k
425.087 953.063 m
428.975 946.439 L
435.743 950.255 L
425.087 953.063 L
b
0.000 0.000 0.000 1.000 K
0 j
0 J
0.215 w
[]0 d
0.000 0.000 0.000 0.498 k
68.256 676.727 m
64.367 670.103 L
57.599 673.919 L
68.256 676.727 L
b
0.000 0.000 0.000 1.000 K
0 j
0 J
0.215 w
[]0 d
0.000 0.000 0.000 0.498 k
443.591 942.407 m
446.543 931.823 L
439.775 935.639 L
443.591 942.407 L
b
0.000 0.000 0.000 1.000 K
0 j
0 J
0.215 w
[]0 d
0.000 0.000 0.000 0.498 k
49.679 666.072 m
46.799 655.487 L
53.567 659.303 L
49.679 666.072 L
b
0.000 0.000 0.000 1.000 K
0 j
0 J
0.215 w
[]0 d
0.000 0.000 0.000 0.498 k
443.735 920.879 m
435.887 920.879 L
435.887 913.031 L
443.735 920.879 L
b
0.000 0.000 0.000 1.000 K
0 j
0 J
0.215 w
[]0 d
0.000 0.000 0.000 0.498 k
49.607 644.543 m
57.455 644.543 L
57.455 636.695 L
49.607 644.543 L
b
0.000 0.000 0.000 1.000 K
0 j
0 J
0.215 w
[]0 d
0.000 0.000 0.000 0.498 k
425.519 909.863 m
421.199 917.279 L
413.783 913.031 L
425.519 909.863 L
b
0.000 0.000 0.000 1.000 K
0 j
0 J
0.215 w
[]0 d
0.000 0.000 0.000 0.498 k
67.823 633.527 m
72.071 640.943 L
79.487 636.695 L
67.823 633.527 L
b
0.000 0.000 0.000 1.000 K
0 j
0 J
0.215 w
[]0 d
0.000 0.000 0.000 0.498 k
406.367 920.447 m
403.199 932.111 L
410.615 927.863 L
406.367 920.447 L
b
0.000 0.000 0.000 1.000 K
0 j
0 J
0.215 w
[]0 d
0.000 0.000 0.000 0.498 k
86.975 644.111 m
90.071 655.847 L
82.655 651.527 L
86.975 644.111 L
b
0.000 0.000 0.000 1.000 K
0 j
0 J
0.215 w
[]0 d
0.000 0.000 0.000 0.498 k
406.439 942.407 m
414.359 950.255 L
414.287 942.479 L
406.439 942.407 L
b
0.000 0.000 0.000 1.000 K
0 j
0 J
0.215 w
[]0 d
0.000 0.000 0.000 0.498 k
86.831 666.072 m
78.983 673.919 L
79.055 666.144 L
86.831 666.072 L
b
0.000 0.000 0.000 1.000 K
0 j
0 J
0.215 w
[]0 d
0.000 0.000 0.000 0.498 k
417.599 939.095 m
413.567 935.063 413.567 928.295 417.599 924.263 C
421.703 920.231 428.399 920.231 432.503 924.263 C
436.535 928.295 436.535 935.063 432.503 939.095 C
428.399 943.199 421.703 943.199 417.599 939.095 C
b
0.000 0.000 0.000 1.000 K
0 j
0 J
0.215 w
[]0 d
0.000 0.000 0.000 0.498 k
75.671 662.831 m
79.775 658.727 79.775 652.031 75.671 647.927 C
71.640 643.895 64.871 643.895 60.839 647.927 C
56.807 652.031 56.807 658.727 60.839 662.831 C
64.871 666.863 71.640 666.863 75.671 662.831 C
b
0.000 0.000 0.000 1.000 K
0 j
0 J
0.215 w
[]0 d
0.000 0.000 0.000 0.000 k
419.543 937.223 m
422.567 940.247 427.535 940.247 430.559 937.223 C
433.583 934.199 433.511 929.303 430.487 926.279 C
427.391 923.255 422.711 923.255 419.687 926.279 C
416.591 929.303 416.519 934.199 419.543 937.223 C
b
0.000 0.000 0.000 1.000 K
0 j
0 J
0.215 w
[]0 d
0.000 0.000 0.000 0.000 k
73.799 660.887 m
70.775 663.911 65.807 663.911 62.783 660.887 C
59.759 657.863 59.831 653.039 62.855 649.943 C
65.879 646.919 70.631 646.919 73.655 649.943 C
76.679 653.039 76.823 657.863 73.799 660.887 C
b
0.000 0.000 0.000 1.000 K
0 j
0 J
0.215 w
[]0 d
0.000 0.000 0.000 0.498 k
451.151 967.391 m
504.647 967.391 L
508.895 965.951 509.039 956.735 504.791 955.439 C
462.959 955.439 L
460.727 959.255 454.823 964.655 451.151 967.391 C
b
0.000 0.000 0.000 1.000 K
0 j
0 J
0.215 w
[]0 d
0.000 0.000 0.000 0.498 k
42.192 691.055 m
-11.303 691.055 L
-15.551 689.615 -15.767 680.399 -11.447 679.103 C
30.383 679.103 L
32.615 682.919 38.519 688.319 42.192 691.055 C
b
u
u
0.000 0.000 0.000 1.000 K
0 j
0 J
0.215 w
[]0 d
498.383 991.223 m
499.823 983.231 499.823 975.311 498.383 967.319 C
S
U
U
u
u
0.000 0.000 0.000 1.000 K
0 j
0 J
0.215 w
[]0 d
-5.040 714.887 m
-6.479 706.967 -6.479 698.975 -5.040 691.055 C
S
U
U
u
u
0.000 0.000 0.000 1.000 K
0 j
0 J
0.215 w
[]0 d
481.391 980.423 m
499.535 980.423 L
S
U
U
u
u
0.000 0.000 0.000 1.000 K
0 j
0 J
0.215 w
[]0 d
11.951 704.159 m
-6.191 704.159 L
S
U
U
u
u
0.000 0.000 0.000 1.000 K
0 j
0 J
0.215 w
[]0 d
498.959 987.767 m
503.711 987.767 L
S
U
U
u
u
0.000 0.000 0.000 1.000 K
0 j
0 J
0.215 w
[]0 d
-5.615 711.431 m
-10.367 711.431 L
S
U
U
u
u
0.000 0.000 0.000 1.000 K
0 j
0 J
0.215 w
[]0 d
499.175 984.599 m
503.783 984.599 L
S
U
U
u
u
0.000 0.000 0.000 1.000 K
0 j
0 J
0.215 w
[]0 d
-5.831 708.263 m
-10.439 708.263 L
S
U
U
u
u
0.000 0.000 0.000 1.000 K
0 j
0 J
0.215 w
[]0 d
499.391 981.575 m
504.143 981.575 L
S
U
U
u
u
0.000 0.000 0.000 1.000 K
0 j
0 J
0.215 w
[]0 d
-6.047 705.239 m
-10.799 705.239 L
S
U
U
u
u
0.000 0.000 0.000 1.000 K
0 j
0 J
0.215 w
[]0 d
499.391 978.983 m
503.783 978.983 L
S
U
U
u
u
0.000 0.000 0.000 1.000 K
0 j
0 J
0.215 w
[]0 d
-6.047 702.647 m
-10.511 702.647 L
S
U
U
u
u
0.000 0.000 0.000 1.000 K
0 j
0 J
0.215 w
[]0 d
499.391 976.103 m
503.999 976.103 L
S
U
U
u
u
0.000 0.000 0.000 1.000 K
0 j
0 J
0.215 w
[]0 d
-6.047 699.767 m
-10.655 699.767 L
S
U
U
u
u
0.000 0.000 0.000 1.000 K
0 j
0 J
0.215 w
[]0 d
499.031 972.791 m
503.927 972.791 L
S
U
U
u
u
0.000 0.000 0.000 1.000 K
0 j
0 J
0.215 w
[]0 d
-5.687 696.455 m
-10.583 696.455 L
S
U
U
u
u
0.000 0.000 0.000 1.000 K
0 j
0 J
0.215 w
[]0 d
498.743 969.911 m
503.855 969.911 L
S
U
U
u
u
0.000 0.000 0.000 1.000 K
0 j
0 J
0.215 w
[]0 d
-5.399 693.575 m
-10.511 693.575 L
S
U
U
0.000 0.000 0.000 1.000 K
0 j
0 J
0.215 w
[]0 d
0.000 0.000 0.000 0.498 k
40.175 963.575 m
-7.127 963.575 L
-13.967 960.263 -15.047 951.767 -9.935 947.519 C
31.895 947.519 L
33.768 952.919 36.359 958.823 40.175 963.575 C
b
0.000 0.000 0.000 1.000 K
0 j
0 J
0.215 w
[]0 d
0.000 0.000 0.000 0.498 k
453.095 687.239 m
500.327 687.239 L
507.167 683.927 508.319 675.503 503.207 671.183 C
461.375 671.183 L
459.431 676.583 456.911 682.487 453.095 687.239 C
b
u
u
0.000 0.000 0.000 1.000 K
0 j
0 J
0.215 w
[]0 d
-11.087 960.551 m
37.583 960.551 L
S
U
U
u
u
0.000 0.000 0.000 1.000 K
0 j
0 J
0.215 w
[]0 d
504.287 684.215 m
455.615 684.215 L
S
U
U
u
u
0.000 0.000 0.000 1.000 K
0 j
0 J
0.215 w
[]0 d
-12.959 957.095 m
35.855 957.095 L
S
U
U
u
u
0.000 0.000 0.000 1.000 K
0 j
0 J
0.215 w
[]0 d
506.231 680.759 m
457.415 680.759 L
S
U
U
u
u
0.000 0.000 0.000 1.000 K
0 j
0 J
0.215 w
[]0 d
8.495 986.975 m
-0.431 963.431 L
S
U
U
u
u
0.000 0.000 0.000 1.000 K
0 j
0 J
0.215 w
[]0 d
484.775 710.639 m
493.703 687.096 L
S
U
U
u
u
0.000 0.000 0.000 1.000 K
0 j
0 J
0.215 w
[]0 d
14.183 966.095 m
-5.687 966.095 L
S
U
U
u
u
0.000 0.000 0.000 1.000 K
0 j
0 J
0.215 w
[]0 d
479.015 689.759 m
498.887 689.759 L
S
U
U
u
u
0.000 0.000 0.000 1.000 K
0 j
0 J
0.215 w
[]0 d
11.375 986.975 m
12.671 990.143 15.335 992.519 20.303 993.311 C
64.655 1004.471 103.535 1011.167 149.183 1014.335 C
154.583 1017.647 L
S
U
U
u
u
0.000 0.000 0.000 1.000 K
0 j
0 J
0.215 w
[]0 d
481.823 710.639 m
480.599 713.807 477.863 716.255 472.967 717.048 C
428.543 728.135 389.735 734.831 344.015 738.000 C
338.615 741.383 L
S
U
U
u
u
0.000 0.000 0.000 1.000 K
0 j
0 J
0.215 w
[]0 d
15.335 987.119 m
16.271 988.559 17.711 988.847 20.087 989.351 C
62.135 995.399 103.463 999.071 148.679 1001.591 C
471.815 1008.575 L
S
U
U
u
u
0.000 0.000 0.000 1.000 K
0 j
0 J
0.215 w
[]0 d
477.863 710.783 m
476.927 712.223 475.487 712.583 473.111 713.015 C
431.135 719.063 389.735 722.735 344.519 725.327 C
21.383 732.311 L
S
U
U
u
u
0.000 0.000 0.000 1.000 K
0 j
0 J
0.215 w
[]0 d
120.455 1016.423 m
151.199 1014.839 L
S
U
U
u
u
0.000 0.000 0.000 1.000 K
0 j
0 J
0.215 w
[]0 d
372.743 740.087 m
342.000 738.503 L
S
U
U
u
u
0.000 0.000 0.000 1.000 K
0 j
0 J
0.215 w
[]0 d
148.751 931.895 m
129.599 931.895 L
S
U
U
u
u
0.000 0.000 0.000 1.000 K
0 j
0 J
0.215 w
[]0 d
344.519 655.559 m
363.599 655.559 L
S
U
U
u
u
0.000 0.000 0.000 1.000 K
0 j
0 J
0.215 w
[]0 d
37.512 963.575 m
43.415 973.439 64.727 977.903 79.847 976.751 C
114.839 973.943 129.167 943.055 131.831 921.095 C
S
U
U
u
u
0.000 0.000 0.000 1.000 K
0 j
0 J
0.215 w
[]0 d
455.759 687.239 m
449.855 697.103 428.543 701.567 413.351 700.487 C
378.359 697.607 364.031 666.719 361.367 644.759 C
S
U
U
0.000 0.000 0.000 1.000 K
0 j
0 J
0.215 w
[]0 d
0.000 0.000 0.000 0.498 k
109.439 966.095 m
392.327 968.615 L
389.591 966.743 387.719 964.799 386.063 962.279 C
115.919 960.047 L
114.191 962.567 112.103 964.655 109.439 966.095 C
b
0.000 0.000 0.000 1.000 K
0 j
0 J
0.215 w
[]0 d
0.000 0.000 0.000 0.498 k
383.759 689.759 m
100.871 692.351 L
103.607 690.407 105.551 688.535 107.135 685.943 C
377.279 683.711 L
379.007 686.303 381.095 688.319 383.759 689.759 C
b
u
u
0.000 0.000 0.000 1.000 K
0 j
0 J
0.215 w
[]0 d
376.343 931.895 m
379.727 931.895 L
S
U
U
u
u
0.000 0.000 0.000 1.000 K
0 j
0 J
0.215 w
[]0 d
116.927 655.559 m
113.543 655.559 L
S
U
U
u
u
0.000 0.000 0.000 1.000 K
0 j
0 J
0.215 w
[]0 d
507.167 964.799 m
462.815 964.799 L
S
U
U
u
u
0.000 0.000 0.000 1.000 K
0 j
0 J
0.215 w
[]0 d
-13.823 688.463 m
30.527 688.463 L
S
U
U
u
u
0.000 0.000 0.000 1.000 K
0 j
0 J
0.215 w
[]0 d
465.047 962.783 m
507.815 962.783 L
S
U
U
u
u
0.000 0.000 0.000 1.000 K
0 j
0 J
0.215 w
[]0 d
28.295 686.519 m
-14.471 686.519 L
S
U
U
u
u
0.000 0.000 0.000 1.000 K
0 j
0 J
0.215 w
[]0 d
409.751 975.311 m
433.943 978.623 464.327 973.727 468.647 955.439 C
S
U
U
u
u
0.000 0.000 0.000 1.000 K
0 j
0 J
0.215 w
[]0 d
83.519 698.975 m
59.399 702.359 29.015 697.391 24.695 679.103 C
S
U
U
0.000 0.000 0.000 1.000 K
0 j
0 J
0.215 w
[]0 d
302.831 1079.423 m
329.399 1079.711 359.279 1078.775 384.767 1075.751 C
387.935 1074.816 390.167 1074.023 392.687 1071.432 C
407.159 1055.087 425.519 1025.783 426.167 1016.567 C
427.607 1005.623 417.527 986.687 409.535 974.879 C
384.911 969.623 377.927 948.311 376.343 931.967 C
282.599 931.967 L
276.839 954.647 277.991 981.575 284.543 1003.967 C
302.831 1079.423 L
s
0.000 0.000 0.000 1.000 K
0 j
0 J
0.215 w
[]0 d
190.367 803.087 m
163.799 803.447 133.919 802.439 108.431 799.415 C
105.263 798.479 103.031 797.687 100.511 795.167 C
86.039 778.751 67.751 749.519 67.103 740.231 C
65.664 729.287 75.671 710.351 83.663 698.543 C
108.287 693.359 115.271 671.975 116.927 655.631 C
210.599 655.631 L
216.359 678.383 215.207 705.239 208.727 727.703 C
190.367 803.087 L
s
0.000 0.000 0.000 1.000 K
0 j
0 J
0.215 w
[]0 d
247.751 1078.415 m
302.831 1079.423 L
284.183 1002.743 L
278.495 981.071 276.407 949.895 282.599 931.895 C
148.823 931.895 L
143.135 959.903 138.311 995.399 157.895 1015.415 C
218.015 1067.471 L
227.735 1075.751 234.071 1077.192 247.751 1078.415 C
s
0.000 0.000 0.000 1.000 K
0 j
0 J
0.215 w
[]0 d
245.447 802.151 m
190.367 803.087 L
209.015 726.407 L
214.703 704.735 216.791 673.559 210.599 655.631 C
344.375 655.631 L
350.135 683.639 354.887 719.063 335.303 739.151 C
275.183 791.135 L
265.463 799.415 259.127 800.855 245.447 802.151 C
s
u
u
0.000 0.000 0.000 1.000 K
0 j
0 J
0.215 w
[]0 d
400.535 1082.447 m
399.887 1078.343 L
427.607 1056.384 460.079 1026.144 479.303 998.279 C
480.743 996.191 481.895 993.527 481.391 990.647 C
S
U
U
u
u
0.000 0.000 0.000 1.000 K
0 j
0 J
0.215 w
[]0 d
92.735 806.111 m
93.383 802.007 L
65.735 780.047 33.263 749.807 14.039 721.943 C
12.599 719.927 11.447 717.191 11.951 714.311 C
S
U
U
u
u
0.000 0.000 0.000 1.000 K
0 j
0 J
0.215 w
[]0 d
393.983 1069.703 m
406.079 1058.543 416.015 1048.679 425.231 1034.495 C
435.743 1020.383 435.743 1010.519 426.023 1007.639 C
S
U
U
u
u
0.000 0.000 0.000 1.000 K
0 j
0 J
0.215 w
[]0 d
99.287 793.367 m
87.191 782.207 77.327 772.343 68.111 758.231 C
57.599 744.047 57.599 734.183 67.319 731.303 C
S
U
U
0.000 0.000 0.000 1.000 K
0 j
0 J
0.215 w
[]0 d
0.000 0.000 0.000 0.498 k
129.383 921.095 m
377.711 921.095 L
368.639 917.279 346.247 915.695 326.519 915.695 C
226.151 914.759 L
130.319 914.759 L
129.383 921.095 L
b
0.000 0.000 0.000 1.000 K
0 j
0 J
0.215 w
[]0 d
0.000 0.000 0.000 0.498 k
363.815 644.759 m
115.487 644.759 L
124.559 640.943 146.951 639.359 166.679 639.359 C
267.048 638.423 L
362.879 638.423 L
363.815 644.759 L
b
0.000 0.000 0.000 1.000 K
0 j
0 J
0.215 w
[]0 d
257.687 999.791 m
273.096 999.791 L
274.536 999.791 275.687 998.711 275.687 997.271 C
275.687 992.159 L
275.687 990.719 274.536 989.639 273.096 989.639 C
257.687 989.639 L
256.247 989.639 255.167 990.719 255.167 992.159 C
255.167 997.271 L
255.167 998.711 256.247 999.791 257.687 999.791 C
s
0.000 0.000 0.000 1.000 K
0 j
0 J
0.215 w
[]0 d
235.511 723.527 m
220.103 723.527 L
218.663 723.527 217.511 722.375 217.511 720.935 C
217.511 715.895 L
217.511 714.455 218.663 713.303 220.103 713.303 C
235.511 713.303 L
236.951 713.303 238.103 714.455 238.103 715.895 C
238.103 720.935 L
238.103 722.375 236.951 723.527 235.511 723.527 C
s
0.000 0.000 0.000 1.000 K
0 j
0 J
0.215 w
[]0 d
387.503 1002.527 m
402.911 1002.527 L
404.351 1002.527 405.503 1001.375 405.503 999.935 C
405.503 994.895 L
405.503 993.455 404.351 992.303 402.911 992.303 C
387.503 992.303 L
386.063 992.303 384.983 993.455 384.983 994.895 C
384.983 999.935 L
384.983 1001.375 386.063 1002.527 387.503 1002.527 C
s
0.000 0.000 0.000 1.000 K
0 j
0 J
0.215 w
[]0 d
105.767 726.191 m
90.359 726.191 L
88.919 726.191 87.839 725.111 87.839 723.671 C
87.839 718.559 L
87.839 717.119 88.919 716.039 90.359 716.039 C
105.767 716.039 L
107.207 716.039 108.359 717.119 108.359 718.559 C
108.359 723.671 L
108.359 725.111 107.207 726.191 105.767 726.191 C
s
0.000 0.000 0.000 1.000 K
0 j
0 J
0.215 w
[]0 d
0.000 0.000 0.000 0.498 k
257.687 999.791 m
273.096 999.791 L
274.536 999.791 275.687 998.711 275.687 997.271 C
275.687 993.455 L
255.167 993.455 L
255.167 997.271 L
255.167 998.711 256.247 999.791 257.687 999.791 C
b
0.000 0.000 0.000 1.000 K
0 j
0 J
0.215 w
[]0 d
0.000 0.000 0.000 0.498 k
235.511 723.527 m
220.103 723.527 L
218.663 723.527 217.511 722.375 217.511 720.935 C
217.511 717.119 L
238.103 717.119 L
238.103 720.935 L
238.103 722.375 236.951 723.527 235.511 723.527 C
b
0.000 0.000 0.000 1.000 K
0 j
0 J
0.215 w
[]0 d
0.000 0.000 0.000 0.498 k
387.503 1002.527 m
402.911 1002.527 L
404.351 1002.527 405.503 1001.375 405.503 999.935 C
405.503 996.119 L
384.983 996.119 L
384.983 999.935 L
384.983 1001.375 386.063 1002.527 387.503 1002.527 C
b
0.000 0.000 0.000 1.000 K
0 j
0 J
0.215 w
[]0 d
0.000 0.000 0.000 0.498 k
105.767 726.191 m
90.359 726.191 L
88.919 726.191 87.839 725.111 87.839 723.671 C
87.839 719.855 L
108.359 719.855 L
108.359 723.671 L
108.359 725.111 107.207 726.191 105.767 726.191 C
b
0.000 0.000 0.000 1.000 K
0 j
0 J
0.215 w
[]0 d
0.000 0.000 0.000 0.498 k
271.223 975.671 m
272.447 975.671 273.455 976.607 273.455 977.903 c
273.455 979.127 272.447 980.135 271.223 980.135 c
269.927 980.135 268.991 979.127 268.991 977.903 c
268.991 976.607 269.927 975.671 271.223 975.671 c
b
0.000 0.000 0.000 1.000 K
0 j
0 J
0.215 w
[]0 d
0.000 0.000 0.000 0.498 k
221.975 699.335 m
220.751 699.335 219.743 700.271 219.743 701.567 c
219.743 702.863 220.751 703.799 221.975 703.799 c
223.271 703.799 224.207 702.863 224.207 701.567 c
224.207 700.271 223.271 699.335 221.975 699.335 c
b
0.000 0.000 0.000 1.000 K
0 j
0 J
0.215 w
[]0 d
0.000 0.000 0.000 0.498 k
569.879 970.199 m
794.375 970.199 L
794.375 955.727 L
718.487 955.727 L
718.487 957.959 716.543 959.903 714.167 959.903 C
650.231 959.903 L
645.623 960.047 644.471 958.463 644.471 955.727 C
569.879 955.727 L
569.879 970.199 L
b
0.000 0.000 0.000 1.000 K
0 j
0 J
0.215 w
[]0 d
0.000 0.000 0.000 0.498 k
792.935 690.839 m
568.439 690.839 L
568.439 678.743 L
569.375 677.015 570.168 673.487 571.967 671.759 C
643.679 671.759 L
644.039 674.783 645.767 677.015 649.727 677.015 C
712.295 677.015 L
715.895 677.015 718.631 674.927 718.919 671.759 C
788.471 671.759 L
792.935 678.743 L
792.935 690.839 L
b
0.000 0.000 0.000 1.000 K
0 j
0 J
0.215 w
[]0 d
0.000 0.000 0.000 0.498 k
622.799 990.935 m
739.727 990.935 L
736.559 985.031 734.615 976.319 733.823 970.271 C
628.343 970.271 L
628.343 977.399 625.175 985.391 622.799 990.935 C
b
0.000 0.000 0.000 1.000 K
0 j
0 J
0.215 w
[]0 d
0.000 0.000 0.000 0.098 k
584.207 992.519 m
584.639 993.311 585.791 993.815 587.375 993.599 C
619.991 992.375 L
621.287 991.871 622.511 991.727 623.015 990.575 C
625.895 984.239 627.911 977.399 628.559 970.271 C
579.240 970.271 L
579.240 977.903 581.327 985.679 584.207 992.519 C
b
0.000 0.000 0.000 1.000 K
0 j
0 J
0.215 w
[]0 d
0.000 0.000 0.000 0.098 k
778.463 992.519 m
777.959 993.311 776.807 993.815 775.223 993.599 C
742.607 992.375 L
741.383 991.871 740.087 991.727 739.583 990.575 C
736.775 984.239 734.687 977.399 734.039 970.271 C
783.359 970.271 L
783.359 977.903 781.271 985.679 778.463 992.519 C
b
0.000 0.000 0.000 1.000 K
0 j
0 J
0.215 w
[]0 d
587.447 1019.879 m
649.511 1022.111 711.575 1022.399 773.639 1019.879 C
776.951 1012.535 776.663 1002.671 771.983 995.543 C
746.711 994.463 L
741.455 994.247 737.207 993.455 735.119 990.935 C
627.048 990.935 L
625.319 993.023 622.007 994.103 617.039 994.463 C
590.615 995.543 L
586.799 1002.671 585.863 1011.455 587.447 1019.879 C
s
0.000 0.000 0.000 1.000 K
0 j
0 J
0.215 w
[]0 d
0.000 0.000 0.000 0.498 k
613.151 1076.471 m
658.943 1078.415 704.951 1078.415 750.887 1076.327 C
755.207 1076.183 758.231 1074.887 759.311 1071.576 C
765.863 1058.975 771.407 1037.375 773.783 1021.247 C
713.663 1023.983 647.783 1023.983 587.663 1021.247 C
590.831 1037.375 596.591 1057.535 604.727 1072.007 C
606.455 1074.599 609.479 1076.615 613.151 1076.471 C
b
0.000 0.000 0.000 1.000 K
0 j
0 J
0.215 w
[]0 d
0.000 0.000 0.000 0.498 k
743.687 799.559 m
697.895 801.503 663.335 801.503 617.399 799.415 C
613.079 799.271 610.055 797.975 608.903 794.591 C
602.423 782.063 593.639 759.167 591.264 743.111 C
589.823 739.439 592.703 737.855 596.375 737.855 C
766.439 737.855 L
770.111 737.855 773.135 738.935 772.343 743.111 C
769.175 759.167 760.247 780.623 752.111 795.095 C
750.383 797.615 747.359 799.703 743.687 799.559 C
b
0.000 0.000 0.000 1.000 K
0 j
0 J
0.215 w
[]0 d
0.000 0.000 0.000 0.200 k
614.591 1074.887 m
659.231 1076.327 703.943 1076.831 748.871 1074.743 C
753.119 1074.599 756.143 1073.303 757.295 1069.991 C
763.775 1057.391 768.887 1039.391 771.263 1023.335 C
711.143 1026.071 651.024 1026.071 590.831 1023.335 C
594.072 1039.391 598.031 1055.951 606.096 1070.423 C
607.895 1072.943 610.919 1075.031 614.591 1074.887 C
b
0.000 0.000 0.000 1.000 K
0 j
0 J
0.215 w
[]0 d
0.000 0.000 0.000 0.200 k
742.607 797.975 m
697.895 799.415 664.271 799.847 619.415 797.831 C
615.168 797.615 612.144 796.391 610.991 793.007 C
604.511 780.479 597.311 760.895 594.935 744.839 C
594.647 741.959 595.223 739.727 598.607 740.087 C
764.495 740.087 L
768.671 740.087 769.319 742.319 768.671 744.839 C
765.503 760.895 759.095 779.039 751.031 793.511 C
749.231 796.031 746.207 798.119 742.607 797.975 C
b
0.000 0.000 0.000 1.000 k
570.815 955.727 m
574.631 944.639 581.111 934.919 589.391 926.927 C
595.151 926.927 L
595.151 916.919 595.151 906.911 595.151 896.903 C
593.063 892.439 573.192 892.439 570.815 896.903 C
570.815 955.727 L
f
0.000 0.000 0.000 1.000 k
791.927 678.743 m
788.111 667.583 781.559 657.863 773.279 649.943 C
767.591 649.943 L
767.591 639.935 767.591 629.927 767.591 619.847 C
769.679 615.455 789.551 615.455 791.927 619.847 C
791.927 678.743 L
f
0.000 0.000 0.000 1.000 k
793.943 955.727 m
790.127 944.639 783.647 934.919 775.367 926.927 C
769.607 926.927 L
769.607 916.919 769.607 906.911 769.607 896.903 C
771.695 892.439 791.567 892.439 793.943 896.903 C
793.943 955.727 L
f
0.000 0.000 0.000 1.000 k
568.727 678.743 m
572.543 667.583 579.096 657.863 587.375 649.943 C
593.063 649.943 L
593.063 639.935 593.063 629.927 593.063 619.847 C
591.048 615.455 571.103 615.455 568.727 619.847 C
568.727 678.743 L
f
0.000 0.000 0.000 1.000 K
0 j
0 J
0.215 w
[]0 d
0.000 0.000 0.000 1.000 k
629.783 950.039 m
644.111 950.039 L
644.111 945.935 L
644.543 943.991 646.199 942.407 650.015 942.407 C
713.159 942.407 L
716.039 942.407 718.055 943.991 718.271 945.935 C
718.271 950.039 L
730.943 950.039 L
732.239 950.039 733.031 949.247 733.031 948.023 C
731.735 938.951 L
731.735 937.655 730.943 936.863 729.719 936.863 C
630.719 936.863 L
629.495 936.863 628.703 937.655 628.703 938.951 C
627.695 948.023 L
627.695 949.247 628.487 950.039 629.783 950.039 C
b
0.000 0.000 0.000 1.000 K
0 j
0 J
0.215 w
[]0 d
0.000 0.000 0.000 0.000 k
648.575 959.255 m
714.167 959.255 l
715.895 959.255 717.335 957.815 717.335 956.087 c
717.335 946.655 l
717.335 944.927 715.895 943.487 714.167 943.487 c
648.575 943.487 l
646.847 943.487 645.407 944.927 645.407 946.655 c
645.407 956.087 l
645.407 957.815 646.847 959.255 648.575 959.255 c
b
0.000 0.000 0.000 1.000 K
0 j
0 J
0.215 w
[]0 d
0.000 0.000 0.000 0.000 k
714.095 675.863 m
648.575 675.863 l
646.775 675.863 645.335 674.423 645.335 672.695 c
645.335 663.335 l
645.335 661.535 646.775 660.168 648.575 660.168 c
714.095 660.168 l
715.823 660.168 717.263 661.535 717.263 663.335 c
717.263 672.695 l
717.263 674.423 715.823 675.863 714.095 675.863 c
b
u
u
0.000 0.000 0.000 1.000 K
0 j
0 J
0.215 w
[]0 d
588.959 993.671 m
588.959 970.271 L
S
U
U
u
u
0.000 0.000 0.000 1.000 K
0 j
0 J
0.215 w
[]0 d
773.639 993.671 m
773.639 970.271 L
S
U
U
u
u
0.000 0.000 0.000 1.000 K
0 j
0 J
0.215 w
[]0 d
591.048 993.455 m
591.048 970.271 L
S
U
U
u
u
0.000 0.000 0.000 1.000 K
0 j
0 J
0.215 w
[]0 d
771.551 993.455 m
771.551 970.271 L
S
U
U
0.000 0.000 0.000 1.000 K
0 j
0 J
0.215 w
[]0 d
0.000 0.000 0.000 0.498 k
553.607 1025.783 m
569.663 1025.783 L
571.391 1025.783 572.687 1024.487 572.687 1022.759 C
581.903 1024.343 L
577.943 1011.599 L
572.687 1012.103 L
572.687 1010.375 571.391 1009.871 569.663 1009.871 C
563.255 1009.727 557.423 1010.519 552.599 1011.959 C
550.871 1011.959 549.575 1013.255 549.575 1014.983 C
550.583 1022.759 L
550.583 1024.487 551.807 1025.783 553.607 1025.783 C
b
0.000 0.000 0.000 1.000 K
0 j
0 J
0.215 w
[]0 d
0.000 0.000 0.000 0.498 k
809.135 748.799 m
793.079 748.799 L
791.279 748.799 790.055 747.503 790.055 745.775 C
780.839 747.359 L
784.799 734.615 L
790.055 735.119 L
790.055 733.319 791.279 732.887 793.079 732.887 C
799.415 732.743 805.319 733.535 810.071 734.975 C
811.799 734.975 813.095 736.199 813.095 738.000 C
812.159 745.775 L
812.159 747.503 810.863 748.799 809.135 748.799 C
b
0.000 0.000 0.000 1.000 K
0 j
0 J
0.215 w
[]0 d
0.000 0.000 0.000 0.498 k
809.567 1025.783 m
793.511 1025.783 L
791.711 1025.783 790.487 1024.487 790.487 1022.759 C
781.271 1024.343 L
785.231 1011.599 L
790.487 1012.103 L
790.487 1010.375 791.711 1009.871 793.511 1009.871 C
799.847 1009.727 805.751 1010.519 810.503 1011.959 C
812.231 1011.959 813.527 1013.255 813.527 1014.983 C
812.591 1022.759 L
812.591 1024.487 811.295 1025.783 809.567 1025.783 C
b
0.000 0.000 0.000 1.000 K
0 j
0 J
0.215 w
[]0 d
0.000 0.000 0.000 0.498 k
553.175 748.799 m
569.231 748.799 L
570.959 748.799 572.255 747.503 572.255 745.775 C
581.471 747.359 L
577.511 734.615 L
572.255 735.119 L
572.255 733.319 570.959 732.887 569.231 732.887 C
562.823 732.743 556.991 733.535 552.168 734.975 C
550.439 734.975 549.144 736.199 549.144 738.000 C
550.151 745.775 L
550.151 747.503 551.375 748.799 553.175 748.799 C
b
u
u
0.000 0.000 0.000 1.000 K
0 j
0 J
0.215 w
[]0 d
572.903 1022.759 m
572.903 1012.103 L
S
U
U
u
u
0.000 0.000 0.000 1.000 K
0 j
0 J
0.215 w
[]0 d
789.839 745.775 m
789.839 735.119 L
S
U
U
u
u
0.000 0.000 0.000 1.000 K
0 j
0 J
0.215 w
[]0 d
790.343 1022.759 m
790.343 1012.103 L
S
U
U
u
u
0.000 0.000 0.000 1.000 K
0 j
0 J
0.215 w
[]0 d
572.327 745.775 m
572.327 735.119 L
S
U
U
u
u
0.000 0.000 0.000 1.000 K
0 j
0 J
0.215 w
[]0 d
794.447 966.887 m
569.807 966.887 L
S
U
U
u
u
0.000 0.000 0.000 1.000 K
0 j
0 J
0.215 w
[]0 d
568.295 685.295 m
792.935 685.295 L
S
U
U
u
u
0.000 0.000 0.000 1.000 K
0 j
0 J
0.215 w
[]0 d
794.375 964.007 m
569.879 964.007 L
S
U
U
u
u
0.000 0.000 0.000 1.000 K
0 j
0 J
0.215 w
[]0 d
568.439 687.024 m
792.935 687.024 L
S
U
U
u
u
0.000 0.000 0.000 1.000 K
0 j
0 J
0.215 w
[]0 d
587.663 1021.463 m
581.903 1024.127 L
S
U
U
u
u
0.000 0.000 0.000 1.000 K
0 j
0 J
0.215 w
[]0 d
774.287 1021.463 m
781.271 1024.127 L
S
U
U
u
u
0.000 0.000 0.000 1.000 K
0 j
0 J
0.215 w
[]0 d
571.463 989.783 m
573.048 988.991 573.336 981.359 573.551 970.199 C
S
U
U
u
u
0.000 0.000 0.000 1.000 K
0 j
0 J
0.215 w
[]0 d
793.151 989.783 m
791.567 988.991 791.279 981.359 791.063 970.199 C
S
U
U
u
u
0.000 0.000 0.000 1.000 K
0 j
0 J
0.215 w
[]0 d
615.311 1020.455 m
621.072 1014.623 623.591 1006.127 625.175 997.703 C
S
U
U
u
u
0.000 0.000 0.000 1.000 K
0 j
0 J
0.215 w
[]0 d
749.879 1020.455 m
744.191 1014.623 741.599 1006.127 740.015 997.703 C
S
U
U
0.000 0.000 0.000 1.000 K
0 j
0 J
0.215 w
[]0 d
0.000 0.000 0.000 0.298 k
675.647 989.063 m
688.103 989.063 L
688.103 973.439 L
675.647 973.439 L
675.647 989.063 L
b
u
u
0.000 0.000 0.000 1.000 K
0 j
0 J
0.215 w
[]0 d
623.951 989.063 m
675.647 989.063 L
S
U
U
u
u
0.000 0.000 0.000 1.000 K
0 j
0 J
0.215 w
[]0 d
688.175 989.063 m
738.935 989.063 L
S
U
U
u
u
0.000 0.000 0.000 1.000 K
0 j
0 J
0.215 w
[]0 d
625.103 985.247 m
675.647 985.247 L
S
U
U
u
u
0.000 0.000 0.000 1.000 K
0 j
0 J
0.215 w
[]0 d
737.711 985.247 m
688.103 985.247 L
S
U
U
u
u
0.000 0.000 0.000 1.000 K
0 j
0 J
0.215 w
[]0 d
626.687 981.359 m
675.647 981.359 L
S
U
U
u
u
0.000 0.000 0.000 1.000 K
0 j
0 J
0.215 w
[]0 d
736.127 981.359 m
688.103 981.359 L
S
U
U
u
u
0.000 0.000 0.000 1.000 K
0 j
0 J
0.215 w
[]0 d
627.335 977.543 m
675.647 977.543 L
S
U
U
u
u
0.000 0.000 0.000 1.000 K
0 j
0 J
0.215 w
[]0 d
735.335 977.543 m
688.103 977.543 L
S
U
U
u
u
0.000 0.000 0.000 1.000 K
0 j
0 J
0.215 w
[]0 d
627.911 973.727 m
675.647 973.727 L
S
U
U
u
u
0.000 0.000 0.000 1.000 K
0 j
0 J
0.215 w
[]0 d
734.399 973.727 m
688.103 973.727 L
S
U
U
0.000 0.000 0.000 1.000 K
0 j
0 J
0.215 w
[]0 d
0.000 0.000 0.000 0.298 k
576.719 713.447 m
606.599 713.447 L
606.599 690.839 L
575.423 690.839 L
575.423 698.759 574.775 706.895 576.719 713.447 C
b
0.000 0.000 0.000 1.000 K
0 j
0 J
0.215 w
[]0 d
0.000 0.000 0.000 0.298 k
784.439 713.447 m
754.559 713.447 L
754.559 690.839 L
785.735 690.839 L
785.735 698.759 786.383 706.895 784.439 713.447 C
b
u
u
0.000 0.000 0.000 1.000 K
0 j
0 J
0.215 w
[]0 d
587.231 690.839 m
587.231 697.967 L
587.231 699.767 588.312 700.991 590.831 700.991 C
606.599 700.991 L
S
U
U
u
u
0.000 0.000 0.000 1.000 K
0 j
0 J
0.215 w
[]0 d
773.927 690.839 m
773.927 697.967 L
773.927 699.767 772.847 700.991 770.255 700.991 C
754.487 700.991 L
S
U
U
0.000 0.000 0.000 1.000 K
0 j
0 J
0.215 w
[]0 d
617.039 803.087 m
659.375 806.255 701.711 806.255 744.047 803.087 C
752.615 799.847 L
770.255 776.015 777.887 742.247 784.439 713.447 C
754.559 713.447 L
754.559 690.911 L
606.599 690.911 L
606.599 713.447 L
576.359 713.447 L
582.695 742.463 592.919 778.535 609.120 800.207 C
617.039 803.087 L
s
0.000 0.000 0.000 1.000 K
0 j
0 J
0.215 w
[]0 d
0.000 0.000 0.000 0.498 k
606.527 713.231 m
754.343 713.231 L
754.343 690.983 L
606.527 690.983 L
606.527 713.231 L
b
0.000 0.000 0.000 1.000 K
0 j
0 J
0.215 w
[]0 d
0.000 0.000 0.000 0.298 k
681.695 705.743 m
683.711 705.743 685.295 703.367 685.295 700.343 c
685.295 697.535 683.711 695.087 681.695 695.087 c
679.607 695.087 678.024 697.535 678.024 700.343 c
678.024 703.367 679.607 705.743 681.695 705.743 c
b
u
u
0.000 0.000 0.000 1.000 K
0 j
0 J
0.215 w
[]0 d
606.599 710.135 m
754.703 710.135 L
S
U
U
u
u
0.000 0.000 0.000 1.000 K
0 j
0 J
0.215 w
[]0 d
606.599 706.895 m
754.703 706.895 L
S
U
U
u
u
0.000 0.000 0.000 1.000 K
0 j
0 J
0.215 w
[]0 d
606.599 703.799 m
679.319 703.799 L
S
U
U
u
u
0.000 0.000 0.000 1.000 K
0 j
0 J
0.215 w
[]0 d
754.199 703.799 m
684.359 703.799 L
S
U
U
u
u
0.000 0.000 0.000 1.000 K
0 j
0 J
0.215 w
[]0 d
606.599 700.559 m
678.024 700.559 L
S
U
U
u
u
0.000 0.000 0.000 1.000 K
0 j
0 J
0.215 w
[]0 d
754.199 700.559 m
685.007 700.559 L
S
U
U
u
u
0.000 0.000 0.000 1.000 K
0 j
0 J
0.215 w
[]0 d
606.599 697.319 m
678.671 697.319 L
S
U
U
u
u
0.000 0.000 0.000 1.000 K
0 j
0 J
0.215 w
[]0 d
754.199 697.319 m
684.359 697.319 L
S
U
U
u
u
0.000 0.000 0.000 1.000 K
0 j
0 J
0.215 w
[]0 d
606.599 694.223 m
754.703 694.223 L
S
U
U
u
u
0.000 0.000 0.000 1.000 K
0 j
0 J
0.215 w
[]0 d
718.271 673.559 m
789.695 673.559 L
S
U
U
u
u
0.000 0.000 0.000 1.000 K
0 j
0 J
0.215 w
[]0 d
571.103 673.559 m
644.327 673.559 L
S
U
U
0.000 0.000 0.000 1.000 K
0 j
0 J
0.215 w
[]0 d
0.000 0.000 0.000 0.298 k
618.983 669.959 m
635.543 669.959 l
636.767 669.959 637.775 669.024 637.775 667.727 c
637.775 663.120 l
637.775 661.895 636.767 660.887 635.543 660.887 c
618.983 660.887 l
617.687 660.887 616.751 661.895 616.751 663.120 c
616.751 667.727 l
616.751 669.024 617.687 669.959 618.983 669.959 c
b
0.000 0.000 0.000 1.000 K
0 j
0 J
0.215 w
[]0 d
0.000 0.000 0.000 0.298 k
728.279 669.959 m
744.839 669.959 l
746.135 669.959 747.071 669.024 747.071 667.727 c
747.071 663.120 l
747.071 661.895 746.135 660.887 744.839 660.887 c
728.279 660.887 l
726.983 660.887 726.048 661.895 726.048 663.120 c
726.048 667.727 l
726.048 669.024 726.983 669.959 728.279 669.959 c
b
0.000 0.000 0.000 1.000 K
0 j
0 J
0.215 w
[]0 d
0.000 0.000 0.000 0.498 k
665.279 650.015 m
700.919 650.015 L
700.919 656.639 L
699.623 659.087 666.863 658.871 665.279 656.639 C
665.279 650.015 L
b
0.000 0.000 0.000 1.000 K
0 j
0 J
0.215 w
[]0 d
0.000 0.000 0.000 0.498 k
609.264 642.815 m
615.168 642.815 621.503 646.487 621.503 650.303 C
618.983 653.471 616.751 656.639 609.264 657.287 C
603.719 655.703 601.127 653.183 599.255 650.303 C
599.255 646.487 603.359 642.815 609.264 642.815 C
b
u
u
0.000 0.000 0.000 1.000 K
0 j
0 J
0.215 w
[]0 d
590.975 742.679 m
589.535 737.639 591.623 734.111 597.815 734.255 C
766.007 734.255 L
772.991 734.255 772.991 738.287 772.487 742.679 C
S
U
U
u
u
0.000 0.000 0.000 1.000 K
0 j
0 J
0.215 w
[]0 d
582.623 738.287 m
580.391 743.327 L
S
U
U
u
u
0.000 0.000 0.000 1.000 K
0 j
0 J
0.215 w
[]0 d
778.535 738.287 m
782.063 743.327 L
S
U
U
u
u
0.000 0.000 0.000 1.000 K
0 j
0 J
0.215 w
[]0 d
609.192 800.639 m
613.439 806.543 L
S
U
U
u
u
0.000 0.000 0.000 1.000 K
0 j
0 J
0.215 w
[]0 d
752.471 800.639 m
748.223 806.543 L
S
U
U
u
u
0.000 0.000 0.000 1.000 K
0 j
0 J
0.215 w
[]0 d
568.727 696.887 m
570.599 690.551 L
S
U
U
u
u
0.000 0.000 0.000 1.000 K
0 j
0 J
0.215 w
[]0 d
792.719 696.887 m
790.631 690.551 L
S
U
U
u
u
U
u
0.000 0.000 0.000 1.000 K
0 j
0 J
0.215 w
[]0 d
-12.311 596.735 m
238.031 596.735 L
S
U
U
u
u
U
u
0.000 0.000 0.000 1.000 K
0 j
0 J
0.215 w
[]0 d
298.367 596.735 m
502.271 596.735 L
S
U
U
u
u
U
u
0.000 0.000 0.000 1.000 K
0 j
0 J
0.215 w
[]0 d
-14.831 609.479 m
-14.831 581.111 L
S
U
U
0.000 0.000 0.000 1.000 k
-14.975 596.807 m
-5.615 594.000 L
-5.615 599.615 L
-14.975 596.807 L
f
u
u
U
u
0.000 0.000 0.000 1.000 K
0 j
0 J
0.215 w
[]0 d
505.799 607.607 m
505.799 579.527 L
S
U
U
0.000 0.000 0.000 1.000 k
505.871 596.807 m
496.511 594.000 L
496.511 599.615 L
505.871 596.807 L
f
0.000 0.000 0.000 1.000 k
286.271 589.679 m
287.063 589.679 L
287.063 593.135 L
287.063 594.503 287.567 595.439 288.863 595.439 C
289.799 595.439 290.159 594.719 290.159 593.855 C
290.159 589.679 L
290.951 589.679 L
290.951 593.135 L
290.951 594.288 291.311 595.439 292.608 595.439 C
293.759 595.439 294.120 594.935 294.120 593.855 C
294.120 589.679 L
294.839 589.679 L
294.839 593.855 L
294.839 595.367 294.191 596.015 292.751 596.015 C
292.031 596.015 291.239 595.655 290.807 594.791 C
290.591 595.655 289.799 596.015 289.079 596.015 C
288.000 596.015 287.423 595.583 286.991 594.791 C
286.991 594.791 L
286.991 595.871 L
286.271 595.871 L
286.271 589.679 L
286.271 589.679 L
f
0.000 0.000 0.000 1.000 k
276.192 589.679 m
276.983 589.679 L
276.983 593.135 L
276.983 594.503 277.487 595.439 278.783 595.439 C
279.719 595.439 280.079 594.719 280.079 593.855 C
280.079 589.679 L
280.871 589.679 L
280.871 593.135 L
280.871 594.288 281.231 595.439 282.527 595.439 C
283.680 595.439 284.039 594.935 284.039 593.855 C
284.039 589.679 L
284.759 589.679 L
284.759 593.855 L
284.759 595.367 284.111 596.015 282.671 596.015 C
281.951 596.015 281.159 595.655 280.727 594.791 C
280.512 595.655 279.719 596.015 279.000 596.015 C
277.919 596.015 277.343 595.583 276.911 594.791 C
276.911 594.791 L
276.911 595.871 L
276.192 595.871 L
276.192 589.679 L
276.192 589.679 L
f
0.000 0.000 0.000 1.000 k
262.871 592.055 m
262.871 590.471 264.024 589.535 265.680 589.535 C
267.263 589.535 268.560 590.615 268.560 592.271 C
268.560 594.000 267.479 595.223 265.751 595.223 C
265.031 595.223 264.383 595.007 263.951 594.503 C
263.951 594.503 L
264.455 597.311 L
268.199 597.311 L
268.199 598.031 L
263.951 598.031 L
263.087 593.567 L
263.735 593.567 L
264.168 594.288 264.887 594.647 265.680 594.647 C
266.903 594.647 267.839 593.711 267.839 592.415 C
267.839 591.192 266.975 590.111 265.680 590.111 C
264.527 590.111 263.663 590.903 263.591 592.055 C
262.871 592.055 L
f
0.000 0.000 0.000 1.000 k
259.055 598.175 m
256.608 598.175 256.103 595.799 256.103 593.783 C
256.103 591.839 256.608 589.535 259.055 589.535 C
261.575 589.535 262.007 591.839 262.007 593.855 C
262.007 595.799 261.575 598.175 259.055 598.175 C
f
0.000 0.000 0.000 1.000 k
249.695 597.311 m
254.303 597.311 L
251.927 594.647 251.063 592.487 250.847 589.679 C
251.711 589.679 L
251.855 593.567 254.015 596.231 255.095 597.311 C
255.095 598.031 L
249.695 598.031 L
249.695 597.311 L
f
0.000 0.000 0.000 1.000 k
242.711 592.415 m
242.639 590.543 243.863 589.535 245.591 589.535 C
247.175 589.535 248.543 590.399 248.543 592.055 C
248.543 593.135 247.895 593.927 246.815 594.144 C
246.815 594.144 L
247.679 594.359 248.183 595.079 248.183 596.015 C
248.183 597.527 246.887 598.175 245.591 598.175 C
243.935 598.175 242.927 597.024 242.927 595.439 C
243.719 595.439 L
243.719 596.663 244.367 597.527 245.591 597.527 C
246.671 597.527 247.463 597.096 247.463 595.943 C
247.463 594.935 246.527 594.359 245.807 594.359 C
245.087 594.359 L
245.087 593.783 L
245.807 593.783 L
246.887 593.783 247.751 593.135 247.751 591.983 C
247.751 590.759 246.743 590.111 245.591 590.111 C
244.223 590.111 243.431 590.975 243.503 592.415 C
242.711 592.415 L
f
0.000 0.000 0.000 0.000 k
259.055 597.527 m
261.000 597.527 261.216 595.223 261.216 593.855 C
261.216 592.415 261.000 590.111 259.055 590.111 C
257.183 590.111 256.895 592.415 256.895 593.855 C
256.895 595.223 257.183 597.527 259.055 597.527 C
f
%%Trailer
_E end