%!PS-Adobe-2.0 EPSF-1.2
%%Creator: Adobe Illustrator exported from Corel Draw 3.0
%%Title:6
%%BoundingBox:5 415 807 939
%%CreationDate:(Unknown)
%%ColorUsage:
%%TemplateBox:5 415 807 939
%%EndComments
%%BeginProcSet:Adobe_Illustrator_1.1 0 0
% Version 1.0 3/27/1990 $nokeywords$
% Copyright (C) 1990,1991,1992
% Corel Corporation
% All Rights Reserved

/wPmsDict 150 dict def 
wPmsDict begin 

/$debug 25 string def 

/bd {bind def} bind def 
/ld {load def} bd 
/xd {exch def} bd 
/_ null def 

/$c 0 def 
/$m 0 def 
/$y 0 def 
/$k 0 def 
/$t 1 def 
/$n _ def 
/$o 0 def 
/$pf false def 

/$C 0 def 
/$M 0 def 
/$Y 0 def 
/$K 0 def 
/$T 1 def 
/$N _ def 
/$O 0 def 
/$PF false def 

/$h false def 

/$al 0 def 
/$tr 0 def 
/$le 0 def 
/$lx 0 def 
/$ly 0 def 

/$ctm matrix currentmatrix def 
/$ptm matrix def 

/$pn () def 
/$pm matrix def 
/$px 0 def 
/$py 0 def 
/$pxf 0 def 
/$pyf 0 def 
/$psx 10 def 
/$psy 0 def 

/$llx 0 def 
/$lly 0 def 
/$urx 0 def 
/$ury 0 def 


/$Bbllx 0 def 
/$Bblly 0 def 
/$Bburx 0 def 
/$Bbury 0 def 

/$tllx 0 def 
/$tlly 0 def 
/$turx 0 def 
/$tury 0 def 

/$pd [] def 
/$tx 0 def 
/$ty 0 def 

/$sv 0 def 
/@cp /closepath ld 
/@gs /gsave ld 
/@gr /grestore ld 
/@np /newpath ld 
/@sv {/$sv save def}bd 
/@rs {$sv restore}bd 

/@MN { 
2 copy le{pop}{exch pop}ifelse 
}bd 

/setcmykcolor where {pop} 
{ 
/setcmykcolor 
{ 
4 1 roll 
3 {3 index add 1 @MN 1 exch sub 3 1 roll} repeat 
setrgbcolor 
pop 
}bd 
}ifelse 

/@tc 
{ 
dup 1 ge 
{pop} 
{ 
4 { 
dup 
6 -1 roll 
mul 
exch 
}repeat 
pop 
}ifelse 
}bd 

/@scc 
{ 
$c $m $y $k $t @tc 
setcmykcolor 
true 
}bd 
/@SCC 
{ 
$C $M $Y $K $T @tc 
setcmykcolor 
true 
}bd 

/@sft 
{ 
(setfirsttile sft )print 
/$tx $tllx $pxf add dup $tllx gt {$pwid $psx add sub}if def 
/$ty $tury $pyf sub dup $tury lt {$phei $psy add add}if def 
(setfirsttile exit )print 
}bd 

/@stb 
{ 
pathbbox /$ury xd /$urx xd /$lly xd /$llx xd 
}bd 

/@ep 
{ 
{ 
cvx exec 
}forall 
}bd 

/@tp 
{ 

(tile pattern tp )print 
@sv 
/$in true def 
2 copy 
dup $lly le {/$in false def}if 
$phei sub $ury ge {/$in false def}if 
dup $urx ge {/$in false def}if 
$pwid add $llx le {/$in false def}if 
$in 
{ 
@np 
2 copy moveto 
$pwid 0 rlineto 
0 $phei neg rlineto 
$pwid neg 0 rlineto 
0 $phei rlineto 
clip @np 

$pn cvlit load aload pop 
7 -1 roll 
5 index sub 
7 -1 roll 
3 index sub 
translate 
@ep 
pop pop pop pop 
} 
{pop pop}ifelse 
@rs 
(tile pattern exit )print 
}bd 

/@th 
{ 
(tile horizontal th)print 
@sft 
0 1 $tly 1 sub 
{ 
dup $psx mul $tx add 
{ 
dup $llx gt {$pwid sub}{exit}ifelse 
}loop 
exch $phei mul $ty exch sub 

0 1 $tlx 1 sub 
{ 
$pwid mul 
3 copy 
3 -1 roll add exch 
@tp 
pop 
}for 
pop pop 
} for 
(tile horizontal exiting )print 
}bd 

/@tv 
{ 
(tile vertical tv)print 
@sft 
0 1 $tlx 1 sub 
{ 
dup $pwid mul $tx add 
exch $psy mul $ty exch sub 
{ 
dup $ury lt {$phei add}{exit}ifelse 
}loop 

0 1 $tly 1 sub 
{ 
$phei mul 
3 copy sub 
@tp 
pop 
}for 
pop pop 
} for 
(tile vertical exit )print 
}bd 

/@pf 
{ 
(pattern fill pf)print 
@gs 
$pm concat 
@stb 
@gs 1 setgray eofill @gr 
eoclip 
$Bburx $Bbury $pm itransform /$tury xd /$turx xd 
$Bbllx $Bblly $pm itransform /$tlly xd /$tllx xd 
/$wid $turx $tllx sub def 
/$hei $tury $tlly sub def 
$wid 0 gt $hei 0 gt and 
{ 
$pn cvlit load aload pop 
$pd xd 
3 -1 roll sub /$phei xd 
exch sub /$pwid xd 
/$tlx $wid $pwid div ceiling 1 add def 
/$tly $hei $phei div ceiling 1 add def 
$psx 0 eq 
{ 
@tv 
} 
{ 
@th 
}ifelse 
}if 

@gr 
@np 
(pattern fill exit)print 
}bd 

/@xp 
{ 
{ 
dup (text Character is:) print == 
usertime (time before is:)print == 
(0) dup 3 -1 roll 0 exch put 
@gs 
true charpath currentpoint 
$ctm setmatrix 
@pf 
@gr 
@np 
moveto $tr 0 rmoveto 
usertime (time after is:)print == 
}forall 
pop 
}bd 

/@sm 
{ 
/$ctm $ctm currentmatrix def 
}bd 

%--@lorg  move to line origin   length string @torg length string
/@lorg    % moves currentpoint to line origin according to current alignment
  {      
  $lx $ly moveto    
  /$ly $ly $le sub def      % - prepare for next line(tracking)
  $al 0 ne
    {dup      % ->len str len str
    stringwidth   % ->len str len dx dy
    exch 3 index  % ->len str dy len dx
    1 sub         % ->len str dy len dx (len-1)
    $tr mul add   % ->len str dy len dx+(len-1)*$tr
    neg
    exch neg      % ->len str -dx_total dy len
    $al 1 eq      % check for centered alignment
    {2 div exch 2 div exch} if  
    rmoveto} if
  }bd

/@ft 
{ 
$pf 
{@xp} 
{ 
@scc 
{$tr exch 0 exch ashow pop} 
{pop pop}ifelse 
}ifelse 
}bd 

/@st 
{ 
$PF 
{} 
{ 
@SCC 
{ 
{ 
(0) dup 3 -1 roll 0 exch put 
@gs 
true charpath currentpoint 
$ctm setmatrix $ptm concat 
stroke 
@gr 
moveto $tr 0 rmoveto 
}forall 
pop 
} 
{pop pop}ifelse 
}ifelse 
}bd 
/@pt 
{ 
dup length exch 
}bd 
/@te 
{ 
@pt 
@lorg 
@ft 
}bd 

/@tr 
{ 
@pt 
@lorg 
@st 
}bd 
/@ta 
{ 
@pt 
@lorg 
2 copy 
@gs @ft @gr 
/$lx 0 def 
/$ly 0 def 
@st 
}bd 















/g { 
1 exch sub /$k xd 
/$c 0 def /$m 0 def /$y 0 def /$t 1 def /$n _ def /$pf false def 
}bd 

/G { 
1 exch sub /$K xd 
/$C 0 def /$M 0 def /$Y 0 def /$T 1 def /$N _ def /$PF false def 
}bd 

/k { 
/$k xd /$y xd /$m xd /$c xd 
/$t 1 def /$n _ def /$pf false def 
}bd 

/K { 
/$K xd /$Y xd /$M xd /$C xd 
/$T 1 def /$N _ def /$PF false def 
}bd 

/x { 
/$t xd /$n xd 
/$k xd /$y xd /$m xd /$c xd /$pf false def 
}bd 

/X { 
/$T xd /$N xd 
/$K xd /$Y xd /$M xd /$C xd /$PF false def 
}bd 

/d /setdash ld 

/i { 
dup 0 ne {setflat} {pop} ifelse 
}bd 

/j /setlinejoin ld 

/J /setlinecap ld 

/M /setmiterlimit ld 

/w /setlinewidth ld 

/O { 
/$o xd 
}bd 

/R { 
/$O xd 
}bd 


/c /curveto ld 

/C /c ld 

/v { 
currentpoint
6 2 roll 
curveto 
}bd

/V /v ld 

/y { 
2 copy curveto 
}bd 

/Y /y ld 

/l /lineto ld 

/L /l ld 

/m /moveto ld 



/n /newpath ld 

/N /newpath ld 

/F { 
$pf 
{@pf} 
{ 
@scc 
{eofill}if 
}ifelse 
}bd 

/f { 
@cp F 
}bd 
/S { 
$PF 
{} 
{ 
@SCC 
{ 
@sm 
$ptm concat 
stroke 
$ctm setmatrix 
}if 
}ifelse 
}bd 
/s { 
@cp 
S 
}bd 

/B { 
@gs F @gr 
S 
}bd 
/b { 
@cp 
B 
}bd 

/W { 
oeclip 
@np 
}bd 

/p { 
/$pm xd 
7 {pop} repeat 
/$pyf xd /$pxf xd 
/$pn xd 
/$pf true def 
}bd 

/P { 
11 {pop} repeat 
}bd 

/@p { 
/$pm xd 
/$psy xd 
/$psx xd 
/$pyf xd /$pxf xd 
/$pn xd 
/$pf true def 
}bd 

/@b { 
/$Bbury xd /$Bburx xd 
/$Bblly xd /$Bbllx xd 
}bd 


/z { 
/$al xd 
/$tr xd 
/$le xd 
exch findfont exch scalefont setfont 
}bd 

/Z { 
dup type 0 type eq { /$bDir xd } if
findfont 
dup maxlength 1 add dict exch 



dup 
{1 index /FID ne 
{ 
3 index 
3 1 roll put 
} 
{pop pop}ifelse 
} forall 



pop 
dup dup /Encoding get 
256 array copy 
dup /$fe xd
/Encoding exch put 

dup /Fontname 3 index put 

}bd 

/e { 
@sm 
concat 
[ 
/t {@te}def 
}bd 

/r { 
@sm 
concat 
[ 
/t {@tr}def 
}bd 

/o { 
@sm 
concat 
[ 
/t {pop}def 
}bd 

/a { 
@sm 
concat 
[ 
/t {@ta}def 
}bd 

/@o{
@sm 
concat 
[ 
/t {@t@a}def 
}bd 

/I { 
@sm 
concat 
[ 
/t {pop}def 
}bd 

/t {@te}def 

/T { 
cleartomark 
/$lx 0 def 
/$ly 0 def 
$ctm setmatrix 
}bd 


/u {}bd 

/U {}bd 

/A {pop}bd 

/h { 
$h true def 
}bd 

/h { 
$h true def 
}bd 

/q /@gs ld 

/Q /@gr ld 



/E { 
5 array astore 
exch cvlit exch def 
}bd 

/` {}bd 

/~ {}bd 

/@ {}bd 

/& {}bd 

/CorelDrawRencodeVect [ 
16#80/grave 
16#81/circumflex 
16#82/tilde 
16#83/dotlessi 
16#84/florin 
16#85/quotedblleft 
16#86/quotedblright 
16#87/guilsinglleft 
16#88/guilsinglright 
16#89/fi 
16#8a/fl 
16#8b/dagger 
16#8c/daggerdbl 
16#8d/endash 
16#8e/periodcentered 
16#8f/breve 
16#90/quotedblbase 
16#91/ellipsis 
16#92/perthousand 
16#a1/exclamdown 
16#a2/cent 
16#a3/sterling 
16#a4/currency 
16#a5/yen 
16#a6/bar 
16#a7/section 
16#a8/dieresis 
16#a9/copyright 
16#aa/ordfeminine 
16#ab/guillemotleft 
16#ac/logicalnot 
16#ad/emdash 
16#ae/registered 
16#af/spac 
16#b0/ring 
16#b1/spac 
16#b2/spac 
16#b3/spac 
16#b4/acute 
16#b5/spac 
16#b6/paragraph 
16#b7/bullet 
16#b8/cedilla 
16#b9/spac 
16#ba/ordmasculine 
16#bb/guillemotright 
16#bc/spac 
16#bd/spac 
16#be/spac 
16#bf/questiondown 
16#c0/Agrave 
16#c1/Aacute 
16#c2/Acircumflex 
16#c3/Atilde 
16#c4/Adieresis 
16#c5/Aring 
16#c6/AE 
16#c7/Ccedilla 
16#c8/Egrave 
16#c9/Eacute 
16#ca/Ecircumflex 
16#cb/Edieresis 
16#cc/Igrave 
16#cd/Iacute 
16#ce/Icircumflex 
16#cf/Idieresis 
16#d0/spac 
16#d1/Ntilde 
16#d2/Ograve 
16#d3/Oacute 
16#d4/Ocircumflex 
16#d5/Otilde 
16#d6/Odieresis 
16#d7/OE 
16#d8/Oslash 
16#d9/Ugrave 
16#da/Uacute 
16#db/Ucircumflex 
16#dc/Udieresis 
16#dd/space 
16#de/spac 
16#df/germandbls 
16#e0/agrave 
16#e1/aacute 
16#e2/acircumflex 
16#e3/atilde 
16#e4/adieresis 
16#e5/aring 
16#e6/ae 
16#e7/ccedilla 
16#e8/egrave 
16#e9/eacute 
16#ea/ecircumflex 
16#eb/edieresis 
16#ec/igrave 
16#ed/iacute 
16#ee/icircumflex 
16#ef/idieresis 
16#f0/space 
16#f1/ntilde 
16#f2/ograve 
16#f3/oacute 
16#f4/ocircumflex 
16#f5/otilde 
16#f6/odieresis 
16#f7/oe 
16#f8/oslash 
16#f9/ugrave 
16#fa/uacute 
16#fb/ucircumflex 
16#fc/udieresis 
16#fd/spac 
16#fe/spac 
16#ff/ydieresis 
] def
%%EndProlog
%%BeginSetup
%%BeginEncoding:_Times-Bold Times-Bold
[
]/_Times-Bold/Times-Bold Z
%%EndEncoding
%%EndSetup
0.000 0.000 0.000 1.000 K
0 j
0 J
0.215 w
[]0 d
0.000 0.000 0.000 0.098 k
667.295 551.879 m
772.127 551.879 L
776.951 552.887 780.407 551.879 777.743 568.727 C
776.735 583.631 771.551 581.759 760.823 582.336 C
664.127 582.336 L
640.223 582.336 L
588.383 582.336 L
577.655 581.759 572.471 583.631 571.391 568.727 C
568.799 551.879 572.255 552.887 577.007 551.879 C
667.295 551.879 L
b
0.000 0.000 0.000 1.000 K
0 j
0 J
0.863 w
[]0 d
0.000 0.000 0.000 0.000 k
34.559 838.007 m
39.311 842.687 L
79.487 851.903 109.727 858.743 156.599 862.415 C
173.519 860.543 L
191.663 883.727 208.079 901.799 228.527 922.391 C
224.783 925.415 L
246.311 942.623 302.471 938.879 334.007 939.383 C
343.367 939.455 351.791 937.367 351.791 931.319 C
363.024 863.711 L
363.239 860.975 365.903 858.887 369.863 858.959 C
480.383 861.263 L
481.463 861.263 485.063 862.127 485.927 858.959 C
486.935 852.119 L
491.687 847.655 492.407 837.575 495.143 830.231 C
493.271 828.431 L
491.615 800.495 L
503.783 793.943 L
509.687 789.335 507.455 776.015 500.687 775.151 C
467.495 770.759 L
460.583 804.671 442.655 815.183 411.119 815.831 C
376.271 815.687 353.303 803.231 349.703 748.943 C
159.768 748.367 L
152.423 810.143 131.687 818.855 99.863 819.071 C
77.111 818.639 48.167 814.103 44.351 779.183 C
17.207 781.631 L
12.167 781.919 6.047 780.839 5.399 789.263 C
7.631 796.823 17.567 798.623 18.719 799.559 C
34.559 838.007 L
b
0.000 0.000 0.000 1.000 K
0 j
0 J
0.863 w
[]0 d
0.000 0.000 0.000 0.000 k
490.607 586.727 m
485.855 591.407 L
445.679 600.623 415.439 607.463 368.567 611.135 C
351.647 609.264 L
333.503 632.447 317.015 650.519 296.639 671.111 C
300.383 674.135 L
278.783 691.343 222.623 687.599 191.159 688.103 C
181.727 688.175 173.303 686.087 173.375 680.039 C
162.071 612.431 L
161.927 609.695 159.191 607.607 155.304 607.679 C
44.783 609.983 L
43.703 609.983 40.103 610.847 39.239 607.679 C
38.231 600.839 L
33.479 596.375 32.759 586.295 30.023 578.951 C
31.895 577.151 L
33.551 549.216 L
21.383 542.663 L
15.479 538.055 17.711 524.735 24.479 523.871 C
57.671 519.479 L
64.583 553.391 82.512 563.903 114.047 564.551 C
148.823 564.407 171.791 551.951 175.391 497.663 C
365.327 497.087 L
372.743 558.863 393.407 567.575 425.303 567.791 C
448.055 567.360 476.999 562.823 480.815 527.903 C
507.959 530.351 L
513.000 530.639 519.120 529.559 519.767 537.983 C
517.535 545.543 507.599 547.343 506.447 548.279 C
490.607 586.727 L
b
0.000 0.000 0.000 1.000 K
0 j
0 J
0.863 w
[]0 d
0.000 0.000 0.000 0.000 k
369.863 859.175 m
366.551 859.391 363.959 860.759 363.311 863.711 C
352.007 931.463 L
351.647 933.047 351.431 933.551 351.000 934.127 C
351.431 933.335 351.791 932.471 351.791 931.319 C
363.024 863.711 L
363.239 860.975 365.903 858.887 369.863 858.959 C
480.383 861.263 L
483.191 861.263 L
482.687 861.479 480.671 861.407 479.231 861.407 C
369.863 859.175 L
b
0.000 0.000 0.000 1.000 K
0 j
0 J
0.863 w
[]0 d
0.000 0.000 0.000 0.000 k
155.231 607.895 m
158.615 608.111 161.207 609.479 161.783 612.431 C
173.159 680.183 L
173.519 681.767 173.735 682.271 174.167 682.847 C
173.663 682.055 173.375 681.191 173.375 680.039 C
162.071 612.431 L
161.927 609.695 159.191 607.607 155.304 607.679 C
44.783 609.983 L
41.975 609.983 L
42.479 610.199 44.495 610.127 45.935 610.127 C
155.231 607.895 L
b
0.000 0.000 0.000 1.000 K
0 j
0 J
0.863 w
[]0 d
568.079 771.407 m
553.751 772.343 556.919 780.983 556.199 789.119 C
555.048 793.007 556.487 796.895 560.447 800.855 C
561.743 811.871 560.015 821.951 564.264 833.903 C
569.447 840.383 L
574.055 870.335 583.343 895.751 591.767 919.151 C
598.607 940.607 603.359 927.215 610.775 931.535 C
660.599 935.063 694.367 935.063 743.687 931.535 C
750.239 927.575 753.767 939.959 761.471 921.383 C
770.111 892.511 776.591 871.559 780.695 841.679 C
785.663 835.919 L
788.399 823.751 788.543 811.079 789.119 800.567 C
792.359 795.023 792.863 797.255 793.151 790.775 C
791.639 770.831 792.071 771.983 780.551 771.767 C
750.527 771.767 L
719.495 771.695 L
719.423 781.055 L
719.351 785.447 716.543 784.583 712.511 784.799 C
640.151 784.799 L
633.168 784.727 630.935 784.367 630.791 780.839 C
630.791 771.983 L
568.079 771.407 L
s
0.000 0.000 0.000 1.000 K
0 j
0 J
0.863 w
[]0 d
566.855 518.615 m
556.559 518.615 556.919 529.343 556.199 537.551 C
555.048 541.511 554.543 547.703 558.575 551.735 C
559.871 562.895 558.144 573.120 562.463 585.288 C
567.719 591.767 L
572.327 622.223 581.759 647.927 590.399 671.687 C
597.311 693.431 602.063 679.895 609.623 684.215 C
660.168 687.815 694.367 687.815 744.335 684.215 C
751.031 680.255 754.631 692.783 762.407 673.919 C
771.191 644.687 777.743 623.375 781.919 593.135 C
786.887 587.303 L
789.695 574.919 789.911 562.103 790.415 551.447 C
793.727 545.831 794.231 548.063 794.519 541.511 C
793.007 521.279 794.015 518.759 782.279 518.543 C
566.855 518.615 L
s
0.000 0.000 0.000 1.000 K
0 j
0 J
0.215 w
[]0 d
0.000 0.000 0.000 0.200 k
158.256 862.415 m
173.519 860.759 L
190.727 883.367 208.799 902.879 228.383 922.103 C
224.999 925.199 L
202.967 906.911 179.927 885.887 158.256 862.415 C
b
0.000 0.000 0.000 1.000 K
0 j
0 J
0.215 w
[]0 d
0.000 0.000 0.000 0.200 k
366.839 611.135 m
351.647 609.479 L
334.367 632.087 316.295 651.599 296.711 670.823 C
300.096 673.919 L
322.199 655.631 345.239 634.607 366.839 611.135 C
b
0.000 0.000 0.000 1.000 K
0 j
0 J
0.215 w
[]0 d
0.000 0.000 0.000 0.498 k
215.351 848.015 m
228.239 847.151 239.975 854.927 252.143 855.647 C
326.519 857.447 L
330.191 925.559 L
308.735 925.487 287.639 925.199 267.048 924.983 C
247.319 925.055 241.631 925.055 232.127 914.543 C
218.663 901.871 207.791 887.543 196.487 874.583 C
208.223 874.655 L
215.567 874.511 212.975 856.871 215.351 848.015 C
b
0.000 0.000 0.000 1.000 K
0 j
0 J
0.215 w
[]0 d
0.000 0.000 0.000 0.498 k
309.815 596.735 m
296.855 595.871 285.120 603.647 272.951 604.367 C
198.647 606.168 L
194.975 674.279 L
216.431 674.207 237.527 673.919 258.120 673.703 C
277.775 673.775 283.536 673.775 292.967 663.263 C
306.503 650.591 317.375 636.263 328.607 623.303 C
316.871 623.375 L
309.527 623.231 312.120 605.591 309.815 596.735 C
b
u
u
0.000 0.000 0.000 0.000 k
35.567 838.007 m
156.239 848.231 318.455 847.439 460.655 849.023 C
473.255 849.887 475.991 850.823 475.847 858.671 C
S
U
u
0.000 0.000 0.000 1.000 K
0 j
0 J
0.215 w
[]0 d
35.567 838.007 m
156.239 848.231 318.455 847.439 460.655 849.023 C
473.255 849.887 475.991 850.823 475.847 858.671 C
S
U
U
u
u
0.000 0.000 0.000 0.000 k
489.599 586.727 m
368.855 596.951 206.639 596.159 64.512 597.743 C
51.911 598.607 49.175 599.543 49.319 607.391 C
S
U
u
0.000 0.000 0.000 1.000 K
0 j
0 J
0.215 w
[]0 d
489.599 586.727 m
368.855 596.951 206.639 596.159 64.512 597.743 C
51.911 598.607 49.175 599.543 49.319 607.391 C
S
U
U
u
u
0.000 0.000 0.000 0.000 k
337.679 927.575 m
337.679 856.799 L
343.512 842.687 336.527 799.055 325.512 759.095 C
176.615 759.095 L
175.175 785.879 173.447 815.975 175.391 842.759 C
178.775 858.959 L
132.768 854.927 90.791 851.111 46.871 841.823 C
S
U
u
0.000 0.000 0.000 1.000 K
0 j
0 J
0.215 w
[]0 d
337.679 927.575 m
337.679 856.799 L
343.512 842.687 336.527 799.055 325.512 759.095 C
176.615 759.095 L
175.175 785.879 173.447 815.975 175.391 842.759 C
178.775 858.959 L
132.768 854.927 90.791 851.111 46.871 841.823 C
S
U
U
u
u
0.000 0.000 0.000 0.000 k
187.415 676.295 m
187.415 605.519 L
181.583 591.407 188.639 547.775 199.583 507.815 C
348.479 507.815 L
349.991 534.599 351.719 564.695 349.703 591.479 C
346.319 607.679 L
392.399 603.647 434.375 599.831 478.295 590.543 C
S
U
u
0.000 0.000 0.000 1.000 K
0 j
0 J
0.215 w
[]0 d
187.415 676.295 m
187.415 605.519 L
181.583 591.407 188.639 547.775 199.583 507.815 C
348.479 507.815 L
349.991 534.599 351.719 564.695 349.703 591.479 C
346.319 607.679 L
392.399 603.647 434.375 599.831 478.295 590.543 C
S
U
U
u
u
0.000 0.000 0.000 0.000 k
151.560 844.271 m
152.567 853.847 153.575 858.239 158.831 862.199 C
S
U
u
0.000 0.000 0.000 1.000 K
0 j
0 J
0.215 w
[]0 d
151.560 844.271 m
152.567 853.847 153.575 858.239 158.831 862.199 C
S
U
U
u
u
0.000 0.000 0.000 0.000 k
373.607 592.991 m
372.527 602.567 371.519 606.959 366.263 610.919 C
S
U
u
0.000 0.000 0.000 1.000 K
0 j
0 J
0.215 w
[]0 d
373.607 592.991 m
372.527 602.567 371.519 606.959 366.263 610.919 C
S
U
U
u
u
0.000 0.000 0.000 0.000 k
169.847 828.719 m
125.279 827.711 89.639 827.855 44.064 824.615 C
71.280 832.175 125.639 831.455 166.967 830.447 C
S
U
u
0.000 0.000 0.000 1.000 K
0 j
0 J
0.215 w
[]0 d
169.847 828.719 m
125.279 827.711 89.639 827.855 44.064 824.615 C
71.280 832.175 125.639 831.455 166.967 830.447 C
S
U
U
u
u
0.000 0.000 0.000 0.000 k
355.319 577.439 m
399.815 576.431 435.527 576.575 481.103 573.336 C
453.887 580.895 399.527 580.175 358.127 579.168 C
S
U
u
0.000 0.000 0.000 1.000 K
0 j
0 J
0.215 w
[]0 d
355.319 577.439 m
399.815 576.431 435.527 576.575 481.103 573.336 C
453.887 580.895 399.527 580.175 358.127 579.168 C
S
U
U
u
u
0.000 0.000 0.000 0.000 k
486.359 833.255 m
447.695 832.895 391.967 832.895 342.143 829.655 C
374.111 835.631 413.567 839.447 486.575 840.023 C
S
U
u
0.000 0.000 0.000 1.000 K
0 j
0 J
0.215 w
[]0 d
486.359 833.255 m
447.695 832.895 391.967 832.895 342.143 829.655 C
374.111 835.631 413.567 839.447 486.575 840.023 C
S
U
U
u
u
0.000 0.000 0.000 0.000 k
38.807 581.975 m
77.471 581.615 133.199 581.615 182.951 578.375 C
151.055 584.351 111.599 588.168 38.591 588.743 C
S
U
u
0.000 0.000 0.000 1.000 K
0 j
0 J
0.215 w
[]0 d
38.807 581.975 m
77.471 581.615 133.199 581.615 182.951 578.375 C
151.055 584.351 111.599 588.168 38.591 588.743 C
S
U
U
0.000 0.000 0.000 1.000 K
0 j
0 J
0.215 w
[]0 d
0.000 0.000 0.000 0.498 k
12.599 781.919 m
43.991 779.111 L
40.679 758.447 L
33.983 754.415 L
25.559 760.319 L
28.943 772.631 13.247 769.967 12.599 781.919 C
b
0.000 0.000 0.000 1.000 K
0 j
0 J
0.215 w
[]0 d
0.000 0.000 0.000 0.498 k
512.567 530.639 m
481.175 527.831 L
484.487 507.167 L
491.183 503.135 L
499.607 509.039 L
496.223 521.351 511.919 518.687 512.567 530.639 C
b
0.000 0.000 0.000 1.000 K
0 j
0 J
0.215 w
[]0 d
0.000 0.000 0.000 0.498 k
477.719 755.423 m
475.343 748.223 L
470.807 747.791 L
467.423 770.975 L
501.551 775.007 L
497.951 763.775 489.887 759.599 477.719 755.423 C
b
0.000 0.000 0.000 1.000 K
0 j
0 J
0.215 w
[]0 d
0.000 0.000 0.000 0.498 k
47.447 504.143 m
49.823 496.943 L
54.359 496.511 L
57.743 519.695 L
23.615 523.727 L
27.215 512.495 35.279 508.319 47.447 504.143 C
b
0.000 0.000 0.000 1.000 K
0 j
0 J
0.215 w
[]0 d
0.000 0.000 0.000 0.498 k
475.127 748.727 m
471.383 748.079 L
467.063 770.903 L
479.879 772.343 L
478.583 764.927 479.375 757.295 475.127 748.727 C
b
0.000 0.000 0.000 1.000 K
0 j
0 J
0.215 w
[]0 d
0.000 0.000 0.000 0.498 k
50.039 497.447 m
53.783 496.799 L
58.103 519.623 L
45.287 521.063 L
46.583 513.647 45.791 506.015 50.039 497.447 C
b
0.000 0.000 0.000 1.000 K
0 j
0 J
0.215 w
[]0 d
159.695 754.199 m
177.407 757.583 L
323.135 757.871 L
349.631 754.055 L
159.695 754.199 L
s
0.000 0.000 0.000 1.000 K
0 j
0 J
0.215 w
[]0 d
365.399 502.919 m
347.759 506.303 L
201.959 506.591 L
175.463 502.775 L
365.399 502.919 L
s
0.000 0.000 0.000 1.000 K
0 j
0 J
0.215 w
[]0 d
0.000 0.000 0.000 0.498 k
193.247 866.519 m
198.935 874.511 L
211.319 875.159 211.535 874.727 212.975 868.535 C
215.063 848.519 L
215.063 844.775 L
188.927 844.919 L
188.639 848.087 L
193.247 866.519 L
b
0.000 0.000 0.000 1.000 K
0 j
0 J
0.215 w
[]0 d
0.000 0.000 0.000 0.498 k
331.919 615.240 m
326.159 623.231 L
313.847 623.879 313.560 623.447 312.120 617.255 C
310.103 597.240 L
310.103 593.495 L
336.239 593.639 L
336.455 596.807 L
331.919 615.240 L
b
0.000 0.000 0.000 1.000 K
0 j
0 J
0.215 w
[]0 d
0.000 0.000 0.000 0.298 k
141.263 822.887 m
149.327 822.887 l
149.975 822.887 150.479 822.455 150.479 821.735 c
150.479 819.431 l
150.479 818.783 149.975 818.279 149.327 818.279 c
141.263 818.279 l
140.615 818.279 140.111 818.783 140.111 819.431 c
140.111 821.735 l
140.111 822.455 140.615 822.887 141.263 822.887 c
b
0.000 0.000 0.000 1.000 K
0 j
0 J
0.215 w
[]0 d
0.000 0.000 0.000 0.298 k
383.831 571.607 m
375.767 571.607 l
375.119 571.607 374.615 571.175 374.615 570.455 c
374.615 568.151 l
374.615 567.503 375.119 567.000 375.767 567.000 c
383.831 567.000 l
384.551 567.000 384.983 567.503 384.983 568.151 c
384.983 570.455 l
384.983 571.175 384.551 571.607 383.831 571.607 c
b
0.000 0.000 0.000 1.000 K
0 j
0 J
0.215 w
[]0 d
0.000 0.000 0.000 1.000 k
97.559 804.311 m
70.199 804.311 47.807 781.919 47.807 754.559 c
47.807 727.199 70.199 704.807 97.559 704.807 c
124.919 704.807 147.311 727.199 147.311 754.559 c
147.311 781.919 124.919 804.311 97.559 804.311 c
b
0.000 0.000 0.000 1.000 K
0 j
0 J
0.215 w
[]0 d
0.000 0.000 0.000 1.000 k
427.607 553.031 m
454.967 553.031 477.359 530.639 477.359 503.279 c
477.359 475.919 454.967 453.527 427.607 453.527 c
400.175 453.527 377.855 475.919 377.855 503.279 c
377.855 530.639 400.175 553.031 427.607 553.031 c
b
0.000 0.000 0.000 1.000 K
0 j
0 J
0.215 w
[]0 d
0.000 0.000 0.000 1.000 k
409.463 804.311 m
382.031 804.311 359.711 781.919 359.711 754.559 c
359.711 727.199 382.031 704.807 409.463 704.807 c
436.823 704.807 459.215 727.199 459.215 754.559 c
459.215 781.919 436.823 804.311 409.463 804.311 c
b
0.000 0.000 0.000 1.000 K
0 j
0 J
0.215 w
[]0 d
0.000 0.000 0.000 1.000 k
115.703 553.031 m
143.063 553.031 165.455 530.639 165.455 503.279 c
165.455 475.919 143.063 453.527 115.703 453.527 c
88.343 453.527 65.951 475.919 65.951 503.279 c
65.951 530.639 88.343 553.031 115.703 553.031 c
b
0.000 0.000 0.000 1.000 K
0 j
0 J
0.215 w
[]0 d
0.000 0.000 0.000 0.000 k
409.535 787.895 m
391.175 787.895 376.127 772.847 376.127 754.487 c
376.127 736.127 391.175 721.151 409.535 721.151 c
427.895 721.151 442.943 736.127 442.943 754.487 c
442.943 772.847 427.895 787.895 409.535 787.895 c
b
0.000 0.000 0.000 1.000 K
0 j
0 J
0.215 w
[]0 d
0.000 0.000 0.000 0.000 k
115.631 536.615 m
133.991 536.615 148.967 521.567 148.967 503.207 c
148.967 484.847 133.991 469.871 115.631 469.871 c
97.271 469.871 82.223 484.847 82.223 503.207 c
82.223 521.567 97.271 536.615 115.631 536.615 c
b
0.000 0.000 0.000 1.000 K
0 j
0 J
0.215 w
[]0 d
0.000 0.000 0.000 0.000 k
97.559 787.895 m
79.199 787.895 64.223 772.847 64.223 754.487 c
64.223 736.127 79.199 721.151 97.559 721.151 c
115.919 721.151 130.967 736.127 130.967 754.487 c
130.967 772.847 115.919 787.895 97.559 787.895 c
b
0.000 0.000 0.000 1.000 K
0 j
0 J
0.215 w
[]0 d
0.000 0.000 0.000 0.000 k
427.607 536.615 m
445.967 536.615 460.943 521.567 460.943 503.207 c
460.943 484.847 445.967 469.871 427.607 469.871 c
409.247 469.871 394.199 484.847 394.199 503.207 c
394.199 521.567 409.247 536.615 427.607 536.615 c
b
0.000 0.000 0.000 1.000 K
0 j
0 J
0.215 w
[]0 d
0.000 0.000 0.000 0.200 k
409.535 782.999 m
393.839 782.999 381.023 770.183 381.023 754.487 c
381.023 738.791 393.839 725.975 409.535 725.975 c
425.231 725.975 438.047 738.791 438.047 754.487 c
438.047 770.183 425.231 782.999 409.535 782.999 c
b
0.000 0.000 0.000 1.000 K
0 j
0 J
0.215 w
[]0 d
0.000 0.000 0.000 0.200 k
115.631 531.719 m
131.328 531.719 144.143 518.903 144.143 503.207 c
144.143 487.511 131.328 474.695 115.631 474.695 c
99.935 474.695 87.119 487.511 87.119 503.207 c
87.119 518.903 99.935 531.719 115.631 531.719 c
b
0.000 0.000 0.000 1.000 K
0 j
0 J
0.215 w
[]0 d
0.000 0.000 0.000 0.200 k
97.559 782.999 m
81.863 782.999 69.048 770.183 69.048 754.487 c
69.048 738.791 81.863 725.975 97.559 725.975 c
113.255 725.975 126.071 738.791 126.071 754.487 c
126.071 770.183 113.255 782.999 97.559 782.999 c
b
0.000 0.000 0.000 1.000 K
0 j
0 J
0.215 w
[]0 d
0.000 0.000 0.000 0.200 k
427.607 531.719 m
443.303 531.719 456.119 518.903 456.119 503.207 c
456.119 487.511 443.303 474.695 427.607 474.695 c
411.911 474.695 399.095 487.511 399.095 503.207 c
399.095 518.903 411.911 531.719 427.607 531.719 c
b
0.000 0.000 0.000 1.000 K
0 j
0 J
0.215 w
[]0 d
0.000 0.000 0.000 1.000 k
409.535 761.975 m
405.431 761.975 402.047 758.591 402.047 754.487 c
402.047 750.383 405.431 747.000 409.535 747.000 c
413.639 747.000 417.023 750.383 417.023 754.487 c
417.023 758.591 413.639 761.975 409.535 761.975 c
b
0.000 0.000 0.000 1.000 K
0 j
0 J
0.215 w
[]0 d
0.000 0.000 0.000 1.000 k
115.631 510.695 m
119.735 510.695 123.119 507.311 123.119 503.207 c
123.119 499.103 119.735 495.719 115.631 495.719 c
111.527 495.719 108.143 499.103 108.143 503.207 c
108.143 507.311 111.527 510.695 115.631 510.695 c
b
0.000 0.000 0.000 1.000 K
0 j
0 J
0.215 w
[]0 d
0.000 0.000 0.000 1.000 k
97.559 761.975 m
93.383 761.975 90.071 758.591 90.071 754.487 c
90.071 750.383 93.383 747.000 97.559 747.000 c
101.663 747.000 105.047 750.383 105.047 754.487 c
105.047 758.591 101.663 761.975 97.559 761.975 c
b
0.000 0.000 0.000 1.000 K
0 j
0 J
0.215 w
[]0 d
0.000 0.000 0.000 1.000 k
427.607 510.695 m
431.783 510.695 435.095 507.311 435.095 503.207 c
435.095 499.103 431.783 495.719 427.607 495.719 c
423.503 495.719 420.119 499.103 420.119 503.207 c
420.119 507.311 423.503 510.695 427.607 510.695 c
b
u
u
U
u
0.000 0.000 0.000 1.000 K
0 j
0 J
0.215 w
[]0 d
486.431 799.271 m
486.359 853.415 L
S
U
U
u
u
U
u
0.000 0.000 0.000 1.000 K
0 j
0 J
0.215 w
[]0 d
38.735 547.991 m
38.807 602.135 L
S
U
U
u
u
U
u
0.000 0.000 0.000 1.000 K
0 j
0 J
0.215 w
[]0 d
492.407 799.991 m
455.327 799.991 L
S
U
U
u
u
U
u
0.000 0.000 0.000 1.000 K
0 j
0 J
0.215 w
[]0 d
32.759 548.711 m
69.839 548.711 L
S
U
U
u
u
0.000 0.000 0.000 0.000 k
480.671 799.847 m
481.535 841.751 L
481.535 847.439 480.743 853.991 479.519 861.119 C
S
U
u
0.000 0.000 0.000 1.000 K
0 j
0 J
0.215 w
[]0 d
480.671 799.847 m
481.535 841.751 L
481.535 847.439 480.743 853.991 479.519 861.119 C
S
U
U
u
u
0.000 0.000 0.000 0.000 k
44.495 548.567 m
43.631 590.471 L
43.631 596.159 44.423 602.711 45.647 609.839 C
S
U
u
0.000 0.000 0.000 1.000 K
0 j
0 J
0.215 w
[]0 d
44.495 548.567 m
43.631 590.471 L
43.631 596.159 44.423 602.711 45.647 609.839 C
S
U
U
0.000 0.000 0.000 1.000 K
0 j
0 J
0.215 w
[]0 d
0.000 0.000 0.000 0.498 k
490.679 845.855 m
490.751 881.495 L
490.463 892.583 496.151 892.223 505.079 892.799 C
514.079 892.439 518.687 892.079 518.831 881.207 C
519.479 814.751 L
519.767 799.847 517.751 795.311 504.143 794.303 C
491.543 800.783 L
493.343 828.719 L
494.999 830.087 L
490.679 845.855 L
b
0.000 0.000 0.000 1.000 K
0 j
0 J
0.215 w
[]0 d
0.000 0.000 0.000 0.498 k
34.487 594.575 m
34.415 630.216 L
34.704 641.303 29.015 640.943 20.087 641.519 C
11.087 641.159 6.479 640.799 6.335 629.927 C
5.687 563.471 L
5.399 548.567 7.415 544.031 21.023 543.024 C
33.623 549.503 L
31.823 577.439 L
30.167 578.807 L
34.487 594.575 L
b
0.000 0.000 0.000 1.000 K
0 j
0 J
0.215 w
[]0 d
0.000 0.000 0.000 0.098 k
31.751 832.247 m
38.087 832.679 41.903 831.599 40.895 826.847 C
36.071 803.735 L
20.375 804.023 L
31.751 832.247 L
b
0.000 0.000 0.000 1.000 K
0 j
0 J
0.215 w
[]0 d
0.000 0.000 0.000 0.098 k
493.415 580.967 m
487.079 581.399 483.263 580.319 484.271 575.567 C
489.095 552.455 L
504.791 552.743 L
493.415 580.967 L
b
0.000 0.000 0.000 1.000 K
0 j
0 J
0.215 w
[]0 d
0.000 0.000 0.000 0.498 k
359.495 795.527 m
357.551 792.719 L
153.071 792.719 L
149.615 799.055 L
361.943 799.127 L
359.495 795.527 L
b
0.000 0.000 0.000 1.000 K
0 j
0 J
0.215 w
[]0 d
0.000 0.000 0.000 0.498 k
165.671 544.247 m
167.543 541.439 L
372.023 541.439 L
375.551 547.775 L
163.151 547.847 L
165.671 544.247 L
b
0.000 0.000 0.000 1.000 K
0 j
0 J
0.215 w
[]0 d
0.000 0.000 0.000 0.498 k
41.471 759.239 m
44.567 810.503 64.152 817.343 98.711 818.855 C
132.983 819.287 151.991 809.783 159.768 748.439 C
350.207 748.943 L
352.512 806.399 380.015 815.039 411.623 815.831 C
444.167 815.687 464.687 803.159 469.367 757.367 C
459.719 756.791 L
457.055 783.431 436.247 804.311 409.679 804.311 C
380.375 803.879 351.431 776.231 362.807 737.423 C
330.191 742.103 L
301.175 739.511 L
279.791 742.679 L
208.583 742.247 L
172.727 739.007 L
164.807 741.815 L
144.359 737.711 L
156.311 776.303 126.359 804.311 97.847 804.311 C
72.143 804.167 50.111 786.383 47.591 756.719 C
41.471 759.239 L
b
0.000 0.000 0.000 1.000 K
0 j
0 J
0.215 w
[]0 d
0.000 0.000 0.000 0.498 k
483.695 507.959 m
480.599 559.223 461.015 566.063 426.455 567.575 C
392.111 568.007 373.175 558.503 365.399 497.159 C
174.959 497.663 L
172.583 555.120 145.151 563.759 113.543 564.551 C
81.000 564.407 60.479 551.879 55.799 506.087 C
65.447 505.511 L
68.111 532.151 88.919 553.031 115.487 553.031 C
144.792 552.599 173.663 524.951 162.359 486.143 C
194.975 490.823 L
223.991 488.231 L
245.375 491.399 L
316.584 490.967 L
352.439 487.727 L
360.287 490.535 L
380.807 486.431 L
368.783 525.024 398.735 553.031 427.319 553.031 C
453.023 552.887 475.055 535.103 477.575 505.439 C
483.695 507.959 L
b
u
u
0.000 0.000 0.000 0.000 k
230.471 923.039 m
241.199 936.935 293.471 933.263 337.031 933.767 C
351.000 934.055 L
S
U
u
0.000 0.000 0.000 1.000 K
0 j
0 J
0.215 w
[]0 d
230.471 923.039 m
241.199 936.935 293.471 933.263 337.031 933.767 C
351.000 934.055 L
S
U
U
u
u
0.000 0.000 0.000 0.000 k
294.695 671.759 m
283.967 685.655 231.695 681.983 188.135 682.487 C
174.167 682.775 L
S
U
u
0.000 0.000 0.000 1.000 K
0 j
0 J
0.215 w
[]0 d
294.695 671.759 m
283.967 685.655 231.695 681.983 188.135 682.487 C
174.167 682.775 L
S
U
U
u
u
U
u
0.000 0.000 0.000 1.000 K
0 j
0 J
0.215 w
[]0 d
20.087 802.151 m
52.919 802.151 L
S
U
U
u
u
U
u
0.000 0.000 0.000 1.000 K
0 j
0 J
0.215 w
[]0 d
505.079 550.871 m
472.247 550.871 L
S
U
U
u
u
0.000 0.000 0.000 0.000 k
19.655 799.487 m
15.695 762.983 34.487 776.159 38.159 758.159 C
S
U
u
0.000 0.000 0.000 1.000 K
0 j
0 J
0.215 w
[]0 d
19.655 799.487 m
15.695 762.983 34.487 776.159 38.159 758.159 C
S
U
U
u
u
0.000 0.000 0.000 0.000 k
505.511 548.207 m
509.471 511.703 490.679 524.879 487.007 506.879 C
S
U
u
0.000 0.000 0.000 1.000 K
0 j
0 J
0.215 w
[]0 d
505.511 548.207 m
509.471 511.703 490.679 524.879 487.007 506.879 C
S
U
U
u
u
0.000 0.000 0.000 0.000 k
311.543 839.951 m
319.175 839.951 l
320.687 839.951 321.911 838.727 321.911 837.215 c
321.911 831.383 l
321.911 829.871 320.687 828.719 319.175 828.719 c
303.911 828.719 l
302.399 828.719 301.247 829.871 301.247 831.383 c
301.247 837.215 l
301.247 838.727 302.399 839.951 303.911 839.951 c
311.543 839.951 L
S
U
u
0.000 0.000 0.000 1.000 K
0 j
0 J
0.215 w
[]0 d
311.543 839.951 m
319.175 839.951 l
320.687 839.951 321.911 838.727 321.911 837.215 c
321.911 831.383 l
321.911 829.871 320.687 828.719 319.175 828.719 c
303.911 828.719 l
302.399 828.719 301.247 829.871 301.247 831.383 c
301.247 837.215 l
301.247 838.727 302.399 839.951 303.911 839.951 c
311.543 839.951 L
S
U
U
u
u
0.000 0.000 0.000 0.000 k
213.623 588.671 m
205.991 588.671 l
204.479 588.671 203.255 587.447 203.255 585.935 c
203.255 580.103 l
203.255 578.591 204.479 577.439 205.991 577.439 c
221.183 577.439 l
222.695 577.439 223.919 578.591 223.919 580.103 c
223.919 585.935 l
223.919 587.447 222.695 588.671 221.183 588.671 c
213.623 588.671 L
S
U
u
0.000 0.000 0.000 1.000 K
0 j
0 J
0.215 w
[]0 d
213.623 588.671 m
205.991 588.671 l
204.479 588.671 203.255 587.447 203.255 585.935 c
203.255 580.103 l
203.255 578.591 204.479 577.439 205.991 577.439 c
221.183 577.439 l
222.695 577.439 223.919 578.591 223.919 580.103 c
223.919 585.935 l
223.919 587.447 222.695 588.671 221.183 588.671 c
213.623 588.671 L
S
U
U
0.000 0.000 0.000 1.000 K
0 j
0 J
0.215 w
[]0 d
0.000 0.000 0.000 0.498 k
304.127 833.975 m
318.815 833.975 l
319.463 833.975 319.967 833.471 319.967 832.823 c
319.967 831.455 l
319.967 830.807 319.463 830.303 318.815 830.303 c
304.127 830.303 l
303.479 830.303 302.975 830.807 302.975 831.455 c
302.975 832.823 l
302.975 833.471 303.479 833.975 304.127 833.975 c
b
0.000 0.000 0.000 1.000 K
0 j
0 J
0.215 w
[]0 d
0.000 0.000 0.000 0.498 k
221.039 582.695 m
206.351 582.695 l
205.703 582.695 205.199 582.192 205.199 581.543 c
205.199 580.175 l
205.199 579.527 205.703 579.024 206.351 579.024 c
221.039 579.024 l
221.687 579.024 222.191 579.527 222.191 580.175 c
222.191 581.543 l
222.191 582.192 221.687 582.695 221.039 582.695 c
b
u
u
0.000 0.000 0.000 0.000 k
352.223 928.079 m
263.375 928.151 L
248.039 927.503 240.263 927.287 230.471 915.191 C
214.415 898.631 195.263 879.335 178.847 859.103 C
S
U
u
0.000 0.000 0.000 1.000 K
0 j
0 J
0.215 w
[]0 d
352.223 928.079 m
263.375 928.151 L
248.039 927.503 240.263 927.287 230.471 915.191 C
214.415 898.631 195.263 879.335 178.847 859.103 C
S
U
U
u
u
0.000 0.000 0.000 0.000 k
172.943 676.799 m
261.791 676.871 L
277.055 676.223 284.831 676.007 294.695 663.911 C
310.679 647.351 329.831 628.055 346.319 607.823 C
S
U
u
0.000 0.000 0.000 1.000 K
0 j
0 J
0.215 w
[]0 d
172.943 676.799 m
261.791 676.871 L
277.055 676.223 284.831 676.007 294.695 663.911 C
310.679 647.351 329.831 628.055 346.319 607.823 C
S
U
U
u
u
U
u
0.000 0.000 0.000 1.000 K
0 j
0 J
0.215 w
[]0 d
158.687 754.199 m
350.423 754.199 L
S
U
U
u
u
U
u
0.000 0.000 0.000 1.000 K
0 j
0 J
0.215 w
[]0 d
366.407 502.919 m
174.743 502.919 L
S
U
U
0.000 0.000 0.000 1.000 K
0 j
0 J
0.215 w
[]0 d
0.000 0.000 0.000 0.200 k
215.135 849.671 m
228.023 848.807 239.759 856.727 251.927 857.447 C
324.647 859.175 L
328.103 922.031 L
262.151 921.815 L
242.423 921.887 242.279 921.599 232.775 911.087 C
219.311 898.415 213.047 887.543 201.815 874.655 C
206.999 874.727 L
215.495 875.375 212.687 861.335 215.135 849.671 C
b
0.000 0.000 0.000 1.000 K
0 j
0 J
0.215 w
[]0 d
0.000 0.000 0.000 0.200 k
309.959 598.391 m
297.072 597.527 285.407 605.447 273.239 606.168 C
200.447 607.895 L
196.991 670.751 L
263.015 670.535 L
282.671 670.607 282.887 670.319 292.319 659.807 C
305.783 647.135 312.048 636.263 323.351 623.375 C
318.167 623.447 L
309.599 624.096 312.479 610.055 309.959 598.391 C
b
0.000 0.000 0.000 1.000 K
0 j
0 J
0.215 w
[]0 d
0.000 0.000 0.000 0.498 k
34.631 830.375 m
40.967 830.879 39.384 829.007 38.375 824.255 C
33.983 805.175 L
25.703 805.535 L
34.631 830.375 L
b
0.000 0.000 0.000 1.000 K
0 j
0 J
0.215 w
[]0 d
0.000 0.000 0.000 0.498 k
490.535 579.096 m
484.199 579.599 485.783 577.727 486.791 572.975 C
491.183 553.895 L
499.463 554.255 L
490.535 579.096 L
b
u
u
U
u
0.000 0.000 0.000 1.000 K
0 j
0 J
0.215 w
[]0 d
152.207 794.663 m
358.847 794.663 L
S
U
U
u
u
U
u
0.000 0.000 0.000 1.000 K
0 j
0 J
0.215 w
[]0 d
372.959 543.384 m
166.247 543.384 L
S
U
U
u
u
0.000 0.000 0.000 1.000 k
196.055 867.887 m
204.911 867.887 L
206.855 849.671 L
S
U
u
0.000 0.000 0.000 1.000 K
0 j
0 J
0.215 w
[]0 d
196.055 867.887 m
204.911 867.887 L
206.855 849.671 L
S
U
U
u
u
0.000 0.000 0.000 1.000 k
329.111 616.607 m
320.255 616.607 L
318.239 598.391 L
S
U
u
0.000 0.000 0.000 1.000 K
0 j
0 J
0.215 w
[]0 d
329.111 616.607 m
320.255 616.607 L
318.239 598.391 L
S
U
U
u
u
U
u
0.000 0.000 0.000 1.000 K
0 j
0 J
0.215 w
[]0 d
204.983 867.815 m
209.087 871.415 L
S
U
U
u
u
U
u
0.000 0.000 0.000 1.000 K
0 j
0 J
0.215 w
[]0 d
320.183 616.535 m
316.079 620.135 L
S
U
U
u
u
U
u
0.000 0.000 0.000 1.000 K
0 j
0 J
0.215 w
[]0 d
189.503 849.671 m
214.847 850.175 L
S
U
U
u
u
U
u
0.000 0.000 0.000 1.000 K
0 j
0 J
0.215 w
[]0 d
335.663 598.391 m
310.319 598.895 L
S
U
U
0.000 0.000 0.000 1.000 K
0 j
0 J
0.215 w
[]0 d
0.000 0.000 0.000 0.298 k
489.887 799.991 m
489.887 818.567 L
492.623 818.639 L
491.471 799.991 L
489.887 799.991 L
b
0.000 0.000 0.000 1.000 K
0 j
0 J
0.215 w
[]0 d
0.000 0.000 0.000 0.298 k
35.279 548.711 m
35.279 567.288 L
32.543 567.360 L
33.695 548.711 L
35.279 548.711 L
b
0.000 0.000 0.000 1.000 K
0 j
0 J
0.215 w
[]0 d
0.000 0.000 0.000 0.098 k
706.895 892.727 m
733.967 892.727 755.999 870.695 755.999 843.551 c
755.999 816.551 733.967 794.447 706.895 794.447 c
679.751 794.447 657.719 816.551 657.719 843.551 c
657.719 870.695 679.751 892.727 706.895 892.727 c
b
0.000 0.000 0.000 1.000 K
0 j
0 J
0.863 w
[]0 d
0.000 0.000 0.000 0.498 k
560.591 772.199 m
630.935 771.911 L
633.383 763.271 L
715.535 763.271 L
719.351 771.767 L
789.047 771.767 L
786.959 760.607 788.615 749.015 779.111 750.095 C
752.903 749.951 L
742.895 758.375 L
608.759 758.447 L
596.447 750.023 L
568.151 749.879 L
561.743 750.311 562.967 764.711 560.591 772.199 C
b
0.000 0.000 0.000 1.000 K
0 j
0 J
0.215 w
[]0 d
0.000 0.000 0.000 1.000 k
560.591 772.919 m
560.663 724.679 L
561.024 708.191 561.240 704.735 574.775 704.879 C
594.000 704.951 591.264 710.135 592.055 722.519 C
592.055 750.311 L
568.007 750.167 L
562.391 750.383 562.031 762.767 560.591 772.919 C
b
0.000 0.000 0.000 1.000 K
0 j
0 J
0.215 w
[]0 d
0.000 0.000 0.000 1.000 k
789.191 772.919 m
789.119 724.679 L
788.831 708.191 788.615 704.735 775.007 704.879 C
755.855 704.951 758.519 710.135 757.799 722.519 C
757.799 750.311 L
781.775 750.167 L
787.391 750.383 787.751 762.767 789.191 772.919 C
b
0.000 0.000 0.000 1.000 K
0 j
0 J
0.215 w
[]0 d
0.000 0.000 0.000 0.498 k
562.103 800.495 m
562.463 812.663 562.967 823.895 565.559 833.399 C
570.024 839.447 L
580.391 839.447 L
580.391 800.495 L
562.103 800.495 L
b
0.000 0.000 0.000 1.000 K
0 j
0 J
0.215 w
[]0 d
0.000 0.000 0.000 0.498 k
787.679 800.495 m
787.319 812.663 786.815 823.895 784.223 833.399 C
779.759 839.447 L
769.391 839.447 L
769.391 800.567 L
787.679 800.495 L
b
0.000 0.000 0.000 1.000 K
0 j
0 J
0.215 w
[]0 d
0.000 0.000 0.000 0.200 k
565.199 825.623 m
566.567 833.039 L
570.527 838.079 L
579.455 838.079 L
579.455 825.623 L
565.199 825.623 L
b
0.000 0.000 0.000 1.000 K
0 j
0 J
0.215 w
[]0 d
0.000 0.000 0.000 0.200 k
784.583 825.623 m
783.287 833.039 L
779.255 838.079 L
770.543 838.079 L
770.543 825.623 L
784.583 825.623 L
b
0.000 0.000 0.000 1.000 K
0 j
0 J
0.215 w
[]0 d
0.000 0.000 0.000 0.000 k
565.415 825.551 m
579.455 825.551 L
579.455 817.919 L
564.767 817.919 L
565.415 825.551 L
b
0.000 0.000 0.000 1.000 K
0 j
0 J
0.215 w
[]0 d
0.000 0.000 0.000 0.000 k
784.439 825.551 m
770.327 825.551 L
770.327 817.919 L
785.015 817.919 L
784.439 825.551 L
b
0.000 0.000 0.000 1.000 K
0 j
0 J
0.215 w
[]0 d
0.000 0.000 0.000 0.298 k
564.911 817.919 m
579.455 817.919 L
579.455 801.863 L
563.831 801.863 L
564.911 817.919 L
b
0.000 0.000 0.000 1.000 K
0 j
0 J
0.215 w
[]0 d
0.000 0.000 0.000 0.298 k
784.871 817.919 m
770.327 817.919 L
770.327 801.863 L
785.951 801.863 L
784.871 817.919 L
b
u
u
U
u
0.000 0.000 0.000 1.000 K
0 j
0 J
0.215 w
[]0 d
555.623 791.855 m
793.079 791.855 L
S
U
U
0.000 0.000 0.000 1.000 K
0 j
0 J
0.215 w
[]0 d
0.000 0.000 0.000 0.498 k
581.831 787.823 m
612.287 787.823 l
612.863 787.823 613.223 787.463 613.223 786.815 c
613.223 778.175 l
613.223 777.599 612.863 777.239 612.287 777.239 c
581.831 777.239 l
581.255 777.239 580.895 777.599 580.895 778.175 c
580.895 786.815 l
580.895 787.463 581.255 787.823 581.831 787.823 c
b
0.000 0.000 0.000 1.000 K
0 j
0 J
0.215 w
[]0 d
0.000 0.000 0.000 0.498 k
767.879 787.823 m
737.495 787.823 l
736.847 787.823 736.487 787.463 736.487 786.815 c
736.487 778.175 l
736.487 777.599 736.847 777.239 737.495 777.239 c
767.879 777.239 l
768.527 777.239 768.887 777.599 768.887 778.175 c
768.887 786.815 l
768.887 787.463 768.527 787.823 767.879 787.823 c
b
0.000 0.000 0.000 1.000 K
0 j
0 J
0.215 w
[]0 d
0.000 0.000 0.000 0.298 k
594.072 786.239 m
610.271 786.239 L
610.271 778.679 L
594.072 778.679 L
594.072 786.239 L
b
0.000 0.000 0.000 1.000 K
0 j
0 J
0.215 w
[]0 d
0.000 0.000 0.000 0.298 k
755.711 786.239 m
739.511 786.239 L
739.511 778.679 L
755.711 778.679 L
755.711 786.239 L
b
u
u
0.000 0.000 0.000 0.000 k
585.935 860.039 m
583.559 854.423 581.327 845.135 580.463 839.591 C
580.463 798.983 L
584.495 794.663 L
693.719 794.663 L
S
U
u
0.000 0.000 0.000 1.000 K
0 j
0 J
0.215 w
[]0 d
585.935 860.039 m
583.559 854.423 581.327 845.135 580.463 839.591 C
580.463 798.983 L
584.495 794.663 L
693.719 794.663 L
S
U
U
u
u
0.000 0.000 0.000 0.000 k
766.223 860.687 m
767.159 855.215 769.175 844.631 769.319 839.375 C
769.319 798.839 L
765.143 794.663 L
715.679 794.663 L
S
U
u
0.000 0.000 0.000 1.000 K
0 j
0 J
0.215 w
[]0 d
766.223 860.687 m
767.159 855.215 769.175 844.631 769.319 839.375 C
769.319 798.839 L
765.143 794.663 L
715.679 794.663 L
S
U
U
u
u
U
u
0.000 0.000 0.000 1.000 K
0 j
0 J
0.215 w
[]0 d
580.463 839.447 m
656.279 839.447 L
S
U
U
0.000 0.000 0.000 1.000 K
0 j
0 J
0.215 w
[]0 d
0.000 0.000 0.000 0.498 k
585.935 860.255 m
589.175 885.167 597.024 906.623 600.911 918.071 C
604.511 928.511 615.599 928.151 618.695 928.727 C
660.671 930.959 694.295 931.535 735.407 928.295 C
746.927 927.431 749.375 926.351 750.671 922.175 C
755.711 905.327 762.767 881.639 766.151 860.759 C
752.687 860.759 L
736.343 902.447 677.519 903.959 660.599 860.255 C
585.935 860.255 L
b
u
u
U
u
0.000 0.000 0.000 1.000 K
0 j
0 J
0.863 w
[]0 d
607.031 926.855 m
606.096 930.455 L
S
U
U
u
u
U
u
0.000 0.000 0.000 1.000 K
0 j
0 J
0.863 w
[]0 d
745.415 927.791 m
746.279 931.391 L
S
U
U
u
u
U
u
0.000 0.000 0.000 1.000 K
0 j
0 J
0.863 w
[]0 d
611.279 927.215 m
610.415 931.175 L
S
U
U
u
u
U
u
0.000 0.000 0.000 1.000 K
0 j
0 J
0.863 w
[]0 d
741.095 928.079 m
741.959 932.039 L
S
U
U
0.000 0.000 0.000 1.000 K
0 j
0 J
0.215 w
[]0 d
0.000 0.000 0.000 1.000 k
706.895 886.031 m
730.223 886.031 749.303 866.951 749.303 843.479 c
749.303 820.151 730.223 801.071 706.895 801.071 c
683.495 801.071 664.415 820.151 664.415 843.479 c
664.415 866.951 683.495 886.031 706.895 886.031 c
b
0.000 0.000 0.000 1.000 K
0 j
0 J
0.215 w
[]0 d
0.000 0.000 0.000 0.000 k
603.144 836.423 m
636.983 836.423 L
636.983 829.295 L
603.144 829.295 L
603.144 836.423 L
b
u
u
0.000 0.000 0.000 0.000 k
603.000 836.639 m
604.943 831.959 L
635.111 831.959 L
636.911 836.567 L
S
U
u
0.000 0.000 0.000 1.000 K
0 j
0 J
0.215 w
[]0 d
603.000 836.639 m
604.943 831.959 L
635.111 831.959 L
636.911 836.567 L
S
U
U
0.000 0.000 0.000 1.000 K
0 j
0 J
0.215 w
[]0 d
0.000 0.000 0.000 0.498 k
599.903 849.599 m
601.055 849.599 602.135 848.519 602.135 847.223 c
602.135 846.071 601.055 844.991 599.903 844.991 c
598.607 844.991 597.527 846.071 597.527 847.223 c
597.527 848.519 598.607 849.599 599.903 849.599 c
b
u
u
U
u
0.000 0.000 0.000 1.000 K
0 j
0 J
0.215 w
[]0 d
754.271 839.447 m
769.247 839.447 L
S
U
U
0.000 0.000 0.000 1.000 K
0 j
0 J
0.215 w
[]0 d
0.000 0.000 0.000 0.000 k
639.287 782.711 m
710.279 782.711 l
711.287 782.711 712.007 781.919 712.007 780.839 c
712.007 766.943 l
712.007 765.863 711.287 765.071 710.279 765.071 c
639.287 765.071 l
638.351 765.071 637.559 765.863 637.559 766.943 c
637.559 780.839 l
637.559 781.919 638.351 782.711 639.287 782.711 c
b
u
u
U
u
0.000 0.000 0.000 1.000 K
0 j
0 J
0.863 w
[]0 d
715.031 762.479 m
715.031 784.223 L
S
U
U
u
u
U
u
0.000 0.000 0.000 1.000 K
0 j
0 J
0.863 w
[]0 d
634.607 762.479 m
634.607 784.223 L
S
U
U
u
u
U
u
0.000 0.000 0.000 1.000 K
0 j
0 J
0.215 w
[]0 d
633.527 762.479 m
562.175 762.479 L
S
U
U
u
u
U
u
0.000 0.000 0.000 1.000 K
0 j
0 J
0.215 w
[]0 d
714.527 762.983 m
788.975 762.551 L
S
U
U
0.000 0.000 0.000 1.000 K
0 j
0 J
0.215 w
[]0 d
0.000 0.000 0.000 0.498 k
780.047 847.223 m
795.959 848.303 L
803.375 848.015 805.679 850.967 806.759 858.527 C
804.887 866.159 804.527 870.623 794.231 871.487 C
775.799 870.047 L
780.047 847.223 L
b
0.000 0.000 0.000 1.000 K
0 j
0 J
0.215 w
[]0 d
0.000 0.000 0.000 0.498 k
570.455 847.223 m
554.399 848.303 L
546.983 848.015 544.607 850.967 543.599 858.527 C
545.471 866.159 545.831 870.623 556.055 871.487 C
575.711 870.047 L
570.455 847.223 L
b
0.000 0.000 0.000 1.000 K
0 j
0 J
0.215 w
[]0 d
0.000 0.000 0.000 0.498 k
555.911 791.711 m
555.911 794.087 557.063 797.183 558.935 798.983 C
580.391 798.983 L
585.000 794.087 L
764.639 794.087 L
769.319 798.983 L
789.479 798.983 L
792.503 795.671 L
792.791 791.711 L
555.911 791.711 L
b
0.000 0.000 0.000 1.000 K
0 j
0 J
0.215 w
[]0 d
0.000 0.000 0.000 0.498 k
455.399 799.415 m
493.487 799.415 L
505.295 792.863 L
460.151 792.863 L
455.399 799.415 L
b
0.000 0.000 0.000 1.000 K
0 j
0 J
0.215 w
[]0 d
0.000 0.000 0.000 0.498 k
69.768 548.135 m
31.679 548.135 L
19.871 541.583 L
65.015 541.583 L
69.768 548.135 L
b
0.000 0.000 0.000 1.000 K
0 j
0 J
0.215 w
[]0 d
0.000 0.000 0.000 0.498 k
19.511 800.927 m
51.983 800.927 L
49.319 795.671 L
10.583 795.671 L
18.071 798.623 L
19.511 800.927 L
b
0.000 0.000 0.000 1.000 K
0 j
0 J
0.215 w
[]0 d
0.000 0.000 0.000 0.498 k
505.655 549.647 m
473.183 549.647 L
475.847 544.391 L
514.583 544.391 L
507.095 547.343 L
505.655 549.647 L
b
0.000 0.000 0.000 1.000 K
0 j
0 J
0.215 w
[]0 d
0.000 0.000 0.000 0.000 k
489.887 818.567 m
489.887 825.911 L
493.127 825.839 L
492.767 818.495 L
489.887 818.567 L
b
0.000 0.000 0.000 1.000 K
0 j
0 J
0.215 w
[]0 d
0.000 0.000 0.000 0.000 k
35.279 567.288 m
35.279 574.631 L
32.039 574.559 L
32.399 567.216 L
35.279 567.288 L
b
0.000 0.000 0.000 1.000 K
0 j
0 J
0.215 w
[]0 d
0.000 0.000 0.000 0.298 k
489.887 825.695 m
489.887 839.447 L
492.335 839.375 L
493.199 825.767 L
489.887 825.695 L
b
0.000 0.000 0.000 1.000 K
0 j
0 J
0.215 w
[]0 d
0.000 0.000 0.000 0.298 k
35.279 574.415 m
35.279 588.168 L
32.832 588.096 L
31.967 574.487 L
35.279 574.415 L
b
0.000 0.000 0.000 1.000 K
0 j
0 J
0.215 w
[]0 d
0.000 0.000 0.000 0.498 k
558.791 522.647 m
564.839 518.687 L
789.335 518.543 L
790.415 522.288 L
788.327 510.983 789.479 505.079 781.343 505.943 C
754.703 505.799 L
743.615 508.679 L
607.607 508.751 L
593.279 505.871 L
564.623 505.727 L
558.072 506.087 561.168 515.159 558.791 522.647 C
b
0.000 0.000 0.000 1.000 K
0 j
0 J
0.215 w
[]0 d
0.000 0.000 0.000 1.000 k
558.719 523.367 m
558.791 474.407 L
559.079 457.703 559.295 454.247 573.048 454.391 C
592.559 454.463 589.823 459.719 590.543 472.319 C
590.543 505.727 L
566.207 505.583 L
558.575 505.295 560.159 513.144 558.719 523.367 C
b
0.000 0.000 0.000 1.000 K
0 j
0 J
0.215 w
[]0 d
0.000 0.000 0.000 1.000 k
790.559 523.367 m
790.487 474.407 L
790.127 457.703 789.911 454.247 776.159 454.391 C
756.719 454.463 759.455 459.719 758.663 472.319 C
758.663 505.727 L
782.999 505.583 L
788.687 505.799 789.119 513.144 790.559 523.367 C
b
0.000 0.000 0.000 1.000 K
0 j
0 J
0.215 w
[]0 d
0.000 0.000 0.000 0.498 k
581.543 615.671 m
584.855 638.279 594.647 659.159 598.607 669.527 C
600.479 676.943 612.000 675.072 615.168 675.575 C
657.719 677.663 696.671 678.024 738.359 675.144 C
750.023 674.279 752.543 673.343 753.839 669.527 C
758.951 654.335 764.783 634.895 768.311 615.959 C
581.543 615.671 L
b
0.000 0.000 0.000 1.000 K
0 j
0 J
0.215 w
[]0 d
0.000 0.000 0.000 0.200 k
585.863 617.399 m
589.103 640.799 596.735 657.287 600.695 668.087 C
602.567 675.287 607.175 672.048 619.919 673.415 C
660.815 676.151 693.575 676.151 735.191 673.127 C
748.007 672.120 750.239 672.479 751.679 667.511 C
756.143 653.039 761.039 633.887 763.487 617.543 C
585.863 617.399 L
b
u
u
U
u
0.000 0.000 0.000 1.000 K
0 j
0 J
0.863 w
[]0 d
605.735 679.463 m
604.871 683.063 L
S
U
U
u
u
U
u
0.000 0.000 0.000 1.000 K
0 j
0 J
0.863 w
[]0 d
746.063 680.471 m
747.000 684.072 L
S
U
U
u
u
U
u
0.000 0.000 0.000 1.000 K
0 j
0 J
0.863 w
[]0 d
610.127 679.823 m
609.264 683.855 L
S
U
U
u
u
U
u
0.000 0.000 0.000 1.000 K
0 j
0 J
0.863 w
[]0 d
741.743 680.831 m
742.607 684.863 L
S
U
U
u
u
U
u
0.000 0.000 0.000 1.000 K
0 j
0 J
0.215 w
[]0 d
632.663 512.855 m
560.303 512.855 L
S
U
U
u
u
U
u
0.000 0.000 0.000 1.000 K
0 j
0 J
0.215 w
[]0 d
630.144 512.855 m
790.343 512.855 L
S
U
U
0.000 0.000 0.000 1.000 K
0 j
0 J
0.215 w
[]0 d
0.000 0.000 0.000 0.498 k
569.519 608.399 m
555.695 608.903 L
549.503 609.551 547.919 612.287 547.919 618.623 C
550.367 624.743 551.159 628.343 559.799 627.911 C
575.135 626.831 L
569.519 608.399 L
b
0.000 0.000 0.000 1.000 K
0 j
0 J
0.215 w
[]0 d
0.000 0.000 0.000 0.498 k
780.551 608.111 m
794.375 608.615 L
800.567 609.264 802.151 612.000 802.151 618.335 C
799.703 624.455 798.911 628.055 790.271 627.623 C
774.935 626.543 L
780.551 608.111 L
b
u
u
0.000 0.000 0.000 0.000 k
569.303 588.959 m
570.024 610.775 593.279 679.463 597.743 683.423 C
S
U
u
0.000 0.000 0.000 1.000 K
0 j
0 J
0.215 w
[]0 d
569.303 588.959 m
570.024 610.775 593.279 679.463 597.743 683.423 C
S
U
U
u
u
0.000 0.000 0.000 0.000 k
777.815 594.288 m
777.671 597.168 776.015 609.839 773.207 611.423 C
S
U
u
0.000 0.000 0.000 1.000 K
0 j
0 J
0.215 w
[]0 d
777.815 594.288 m
777.671 597.168 776.015 609.839 773.207 611.423 C
S
U
U
u
u
0.000 0.000 0.000 0.000 k
780.551 590.903 m
776.447 618.695 767.951 648.791 759.167 680.615 C
S
U
u
0.000 0.000 0.000 1.000 K
0 j
0 J
0.215 w
[]0 d
780.551 590.903 m
776.447 618.695 767.951 648.791 759.167 680.615 C
S
U
U
0.000 0.000 0.000 1.000 K
0 j
0 J
0.215 w
[]0 d
0.000 0.000 0.000 0.498 k
555.623 545.255 m
555.623 546.551 L
557.855 549.791 L
790.847 549.791 L
793.871 547.703 L
794.159 545.255 L
555.623 545.255 L
b
0.000 0.000 0.000 1.000 K
0 j
0 J
0.215 w
[]0 d
0.000 0.000 0.000 0.298 k
573.551 567.935 m
575.639 576.359 576.144 579.096 579.815 579.743 C
621.503 579.743 L
627.263 554.543 L
578.231 554.615 L
573.983 554.543 571.463 553.175 573.551 567.935 C
b
0.000 0.000 0.000 1.000 K
0 j
0 J
0.215 w
[]0 d
0.000 0.000 0.000 0.298 k
775.655 567.935 m
773.567 576.359 773.063 579.096 769.391 579.743 C
727.703 579.743 L
721.943 554.543 L
770.975 554.615 L
775.223 554.543 777.743 553.175 775.655 567.935 C
b
0.000 0.000 0.000 1.000 K
0 j
0 J
0.215 w
[]0 d
0.000 0.000 0.000 0.000 k
586.799 577.295 m
619.415 577.367 L
624.599 556.055 L
587.879 555.983 L
586.799 577.295 L
b
0.000 0.000 0.000 1.000 K
0 j
0 J
0.215 w
[]0 d
0.000 0.000 0.000 0.000 k
762.335 577.295 m
729.719 577.367 L
724.607 556.055 L
761.255 555.983 L
762.335 577.295 L
b
0.000 0.000 0.000 1.000 K
0 j
0 J
0.215 w
[]0 d
0.000 0.000 0.000 0.498 k
585.000 577.295 m
586.007 556.055 L
576.503 556.055 573.264 554.255 575.567 566.711 C
577.727 578.303 579.024 576.791 585.000 577.295 C
b
0.000 0.000 0.000 1.000 K
0 j
0 J
0.215 w
[]0 d
0.000 0.000 0.000 0.498 k
764.207 577.295 m
763.199 556.055 L
772.703 556.055 775.943 554.255 773.639 566.711 C
771.479 578.303 770.183 576.791 764.207 577.295 C
b
u
u
0.000 0.000 0.000 1.000 k
559.367 552.743 m
564.479 553.247 L
569.015 589.175 L
S
U
u
0.000 0.000 0.000 1.000 K
0 j
0 J
0.215 w
[]0 d
559.367 552.743 m
564.479 553.247 L
569.015 589.175 L
S
U
U
u
u
0.000 0.000 0.000 1.000 k
789.983 552.743 m
784.871 553.247 L
781.055 590.255 L
S
U
u
0.000 0.000 0.000 1.000 K
0 j
0 J
0.215 w
[]0 d
789.983 552.743 m
784.871 553.247 L
781.055 590.255 L
S
U
U
0.000 0.000 0.000 1.000 K
0 j
0 J
0.215 w
[]0 d
0.000 0.000 0.000 0.498 k
616.967 526.463 m
622.079 530.207 L
730.367 530.207 L
734.687 526.391 L
616.967 526.463 L
b
0.000 0.000 0.000 1.000 K
0 j
0 J
0.215 w
[]0 d
0.000 0.000 0.000 0.498 k
616.967 520.847 m
622.079 524.591 L
730.367 524.591 L
734.687 520.775 L
616.967 520.847 L
b
u
u
0.000 0.000 0.000 1.000 k
570.599 593.135 m
574.127 588.168 576.719 587.951 584.567 588.024 C
675.072 588.024 L
S
U
u
0.000 0.000 0.000 1.000 K
0 j
0 J
0.215 w
[]0 d
570.599 593.135 m
574.127 588.168 576.719 587.951 584.567 588.024 C
675.072 588.024 L
S
U
U
u
u
0.000 0.000 0.000 1.000 k
778.607 593.135 m
775.151 588.168 772.487 587.951 764.711 588.024 C
674.135 588.024 L
S
U
u
0.000 0.000 0.000 1.000 K
0 j
0 J
0.215 w
[]0 d
778.607 593.135 m
775.151 588.168 772.487 587.951 764.711 588.024 C
674.135 588.024 L
S
U
U
0.000 0.000 0.000 1.000 K
0 j
0 J
0.215 w
[]0 d
772.631 611.423 m
769.319 594.935 L
767.663 589.247 762.767 590.543 750.167 590.255 C
599.111 590.255 L
586.511 590.543 581.543 589.247 579.887 594.935 C
576.647 611.423 L
613.223 612.791 L
615.527 614.663 L
733.751 614.663 L
736.055 612.791 L
772.631 611.423 L
s
u
u
U
u
0.000 0.000 0.000 1.000 K
0 j
0 J
0.215 w
[]0 d
621.719 593.639 m
613.223 612.431 L
S
U
U
u
u
U
u
0.000 0.000 0.000 1.000 K
0 j
0 J
0.215 w
[]0 d
727.559 593.639 m
736.055 612.431 L
S
U
U
u
u
U
u
0.000 0.000 0.000 1.000 K
0 j
0 J
0.215 w
[]0 d
615.096 614.231 m
620.711 598.679 L
S
U
U
u
u
U
u
0.000 0.000 0.000 1.000 K
0 j
0 J
0.215 w
[]0 d
734.255 614.231 m
728.639 598.679 L
S
U
U
u
u
U
u
0.000 0.000 0.000 1.000 K
0 j
0 J
0.215 w
[]0 d
556.919 532.079 m
793.295 532.223 L
S
U
U
0.000 0.000 0.000 1.000 K
0 j
0 J
0.215 w
[]0 d
0.000 0.000 0.000 1.000 k
623.951 579.527 m
726.191 579.527 L
725.183 575.711 L
624.887 575.711 L
623.951 579.527 L
b
0.000 0.000 0.000 1.000 K
0 j
0 J
0.215 w
[]0 d
0.000 0.000 0.000 1.000 k
625.895 572.471 m
669.599 572.471 L
668.519 568.727 L
626.831 568.727 L
625.895 572.471 L
b
0.000 0.000 0.000 1.000 K
0 j
0 J
0.215 w
[]0 d
0.000 0.000 0.000 1.000 k
724.103 572.471 m
679.391 572.471 L
680.471 568.727 L
723.095 568.727 L
724.103 572.471 L
b
0.000 0.000 0.000 1.000 K
0 j
0 J
0.215 w
[]0 d
0.000 0.000 0.000 1.000 k
627.767 565.487 m
720.863 565.487 L
719.927 561.743 L
628.631 561.743 L
627.767 565.487 L
b
0.000 0.000 0.000 1.000 K
0 j
0 J
0.215 w
[]0 d
0.000 0.000 0.000 1.000 k
629.711 558.431 m
718.055 558.431 L
717.119 554.615 L
630.575 554.615 L
629.711 558.431 L
b
0.000 0.000 0.000 1.000 k
209.231 802.727 m
209.591 803.519 L
211.535 803.519 L
211.679 802.727 L
213.623 802.727 L
212.471 808.775 L
210.527 808.775 L
207.287 802.727 L
209.231 802.727 L
f
0.000 0.000 0.000 1.000 k
337.463 551.447 m
337.823 552.240 L
339.767 552.240 L
339.911 551.447 L
341.855 551.447 L
340.703 557.495 L
338.759 557.495 L
335.519 551.447 L
337.463 551.447 L
f
0.000 0.000 0.000 1.000 k
204.407 804.815 m
205.415 804.815 205.487 804.599 205.343 803.807 c
205.199 803.303 205.199 802.871 205.199 802.727 C
207.287 802.727 L
207.287 802.871 L
207.071 802.871 207.143 803.231 207.287 804.023 c
207.431 805.175 207.071 805.319 206.567 805.607 C
207.287 805.751 207.719 806.327 207.791 807.119 c
208.007 808.271 207.431 808.775 205.415 808.775 c
202.535 808.775 L
201.455 802.727 L
203.471 802.727 L
203.831 804.815 L
204.407 804.815 l
f
0.000 0.000 0.000 1.000 k
332.639 553.535 m
333.647 553.535 333.719 553.319 333.575 552.527 c
333.431 552.024 333.431 551.591 333.431 551.447 C
335.519 551.447 L
335.519 551.591 L
335.303 551.591 335.375 551.951 335.519 552.743 c
335.663 553.895 335.303 554.039 334.799 554.327 C
335.519 554.471 335.951 555.048 336.024 555.839 c
336.239 556.991 335.663 557.495 333.647 557.495 c
330.767 557.495 L
329.687 551.447 L
331.703 551.447 L
332.063 553.535 L
332.639 553.535 l
f
0.000 0.000 0.000 1.000 k
196.991 802.727 m
197.423 803.519 L
199.295 803.519 L
199.439 802.727 L
201.455 802.727 L
200.303 808.775 L
198.287 808.775 L
195.119 802.727 L
196.991 802.727 L
f
0.000 0.000 0.000 1.000 k
325.223 551.447 m
325.655 552.240 L
327.527 552.240 L
327.671 551.447 L
329.687 551.447 L
328.536 557.495 L
326.519 557.495 L
323.351 551.447 L
325.223 551.447 L
f
0.000 0.000 0.000 1.000 k
191.663 807.191 m
193.463 807.191 L
192.671 802.727 L
194.687 802.727 L
195.479 807.191 L
197.207 807.191 L
197.567 808.775 L
191.951 808.775 L
191.663 807.191 L
f
0.000 0.000 0.000 1.000 k
319.895 555.911 m
321.695 555.911 L
320.903 551.447 L
322.919 551.447 L
323.711 555.911 L
325.439 555.911 L
325.799 557.495 L
320.183 557.495 L
319.895 555.911 L
f
0.000 0.000 0.000 1.000 k
190.583 802.727 m
191.663 808.775 L
189.647 808.775 L
188.639 802.727 L
190.583 802.727 L
f
0.000 0.000 0.000 1.000 k
318.815 551.447 m
319.895 557.495 L
317.879 557.495 L
316.871 551.447 L
318.815 551.447 L
f
0.000 0.000 0.000 1.000 k
184.247 802.727 m
186.263 802.727 L
189.431 808.775 L
187.415 808.775 L
185.615 804.743 L
185.255 808.775 L
183.239 808.775 L
184.247 802.727 L
f
0.000 0.000 0.000 1.000 k
312.479 551.447 m
314.495 551.447 L
317.663 557.495 L
315.647 557.495 L
313.847 553.463 L
313.487 557.495 L
311.471 557.495 L
312.479 551.447 L
f
0.000 0.000 0.000 0.000 k
211.391 804.815 m
210.167 804.815 L
211.175 806.975 L
211.391 804.815 L
f
0.000 0.000 0.000 0.000 k
339.623 553.535 m
338.399 553.535 L
339.407 555.695 L
339.623 553.535 L
f
0.000 0.000 0.000 0.000 k
204.335 807.407 m
205.199 807.407 l
205.703 807.407 205.991 807.119 205.919 806.759 c
205.847 806.327 205.487 806.183 204.839 806.183 c
204.047 806.183 L
204.335 807.407 L
f
0.000 0.000 0.000 0.000 k
332.567 556.127 m
333.431 556.127 l
333.935 556.127 334.223 555.839 334.151 555.479 c
334.079 555.048 333.719 554.903 333.072 554.903 c
332.279 554.903 L
332.567 556.127 L
f
0.000 0.000 0.000 0.000 k
199.223 804.815 m
197.999 804.815 L
198.935 806.975 L
199.223 804.815 L
f
0.000 0.000 0.000 0.000 k
327.455 553.535 m
326.231 553.535 L
327.167 555.695 L
327.455 553.535 L
f
u
u
0.000 0.000 0.000 1.000 K
0 j
0 J
0.287 w
[]0 d
604.871 832.031 m
604.871 829.439 L
S
U
U
u
u
0.000 0.000 0.000 1.000 K
0 j
0 J
0.287 w
[]0 d
635.039 832.031 m
635.039 829.439 L
S
U
U
0.000 0.000 0.000 0.498 k
679.319 572.255 m
678.527 571.175 677.231 570.743 676.295 571.391 C
673.415 573.551 L
673.271 573.695 673.127 573.407 673.271 573.336 C
679.175 568.799 L
677.519 568.079 676.079 567.072 674.783 565.775 C
669.743 569.663 L
670.751 570.599 671.831 570.959 672.695 570.312 C
675.575 568.079 L
675.647 568.007 675.863 568.223 675.791 568.295 C
669.815 572.975 L
671.543 573.623 673.271 574.703 674.423 575.711 C
679.319 572.255 L
f
u
u
U
u
0.000 0.000 0.000 1.000 K
0 j
0 J
0.215 w
[]0 d
115.055 432.503 m
224.711 432.503 L
S
U
U
u
u
U
u
0.000 0.000 0.000 1.000 K
0 j
0 J
0.215 w
[]0 d
308.447 432.503 m
424.871 432.503 L
S
U
U
u
u
U
u
0.000 0.000 0.000 1.000 K
0 j
0 J
0.215 w
[]0 d
115.271 445.895 m
115.271 416.159 L
S
U
U
0.000 0.000 0.000 1.000 k
115.055 432.647 m
124.847 429.695 L
124.847 435.527 L
115.055 432.647 L
f
u
u
U
u
0.000 0.000 0.000 1.000 K
0 j
0 J
0.215 w
[]0 d
426.959 443.879 m
426.959 414.503 L
S
U
U
0.000 0.000 0.000 1.000 k
427.031 432.647 m
417.239 429.695 L
417.239 435.527 L
427.031 432.647 L
f
0.000 0.000 0.000 1.000 k
302.399 437.687 m
303.048 437.687 L
303.983 436.103 304.560 434.663 304.560 432.791 c
304.560 430.847 303.983 429.047 303.048 427.607 C
302.399 427.607 L
303.407 429.191 303.911 431.135 303.911 433.007 c
303.911 434.591 303.263 436.391 302.399 437.687 C
f
0.000 0.000 0.000 1.000 k
300.959 434.879 m
300.959 437.543 L
301.536 437.543 L
301.536 434.879 L
300.959 434.879 L
f
0.000 0.000 0.000 1.000 k
299.447 434.879 m
299.447 437.543 L
300.167 437.543 L
300.167 434.879 L
299.447 434.879 L
f
0.000 0.000 0.000 1.000 k
297.935 435.527 m
297.215 435.527 L
297.144 436.391 296.567 436.895 295.703 436.895 c
293.903 436.895 293.543 434.879 293.543 433.439 C
293.615 433.439 L
293.975 434.231 294.767 434.735 295.632 434.735 c
297.144 434.735 298.223 433.727 298.223 432.215 c
298.223 430.703 297.072 429.551 295.632 429.551 c
293.759 429.551 292.967 430.703 292.967 433.727 c
292.967 434.591 293.111 437.471 295.632 437.471 c
296.927 437.471 297.791 436.823 297.935 435.527 C
f
0.000 0.000 0.000 1.000 k
290.447 430.991 m
291.383 430.991 L
291.383 429.695 l
291.383 429.047 291.096 428.399 290.447 428.255 C
290.447 428.687 L
290.807 428.831 291.024 429.335 290.879 429.767 C
290.447 429.767 L
290.447 430.991 L
f
0.000 0.000 0.000 1.000 k
288.863 435.527 m
288.144 435.527 L
288.072 436.391 287.495 436.895 286.632 436.895 c
284.831 436.895 284.471 434.879 284.471 433.439 C
284.543 433.439 L
284.903 434.231 285.695 434.735 286.560 434.735 c
288.072 434.735 289.079 433.727 289.079 432.215 c
289.079 430.703 288.000 429.551 286.560 429.551 c
284.615 429.551 283.895 430.703 283.895 433.727 c
283.895 434.591 284.039 437.471 286.560 437.471 c
287.855 437.471 288.719 436.823 288.863 435.527 C
f
0.000 0.000 0.000 1.000 k
282.671 435.599 m
282.671 434.735 282.239 434.087 281.447 433.871 C
281.447 433.871 L
281.447 433.871 l
282.455 433.727 283.031 432.935 283.031 431.927 c
283.031 430.415 281.807 429.551 280.439 429.551 c
278.927 429.551 277.775 430.415 277.775 431.927 c
277.775 432.935 278.423 433.727 279.359 433.871 c
279.359 433.871 L
278.567 434.087 278.063 434.735 278.063 435.599 c
278.063 436.895 279.215 437.471 280.439 437.471 c
281.519 437.471 282.671 436.895 282.671 435.599 c
f
0.000 0.000 0.000 1.000 k
277.415 427.607 m
276.911 427.607 L
275.903 429.263 275.327 430.775 275.327 432.647 c
275.327 434.591 275.975 436.247 276.911 437.687 C
277.415 437.687 L
276.407 436.175 276.048 434.303 276.048 432.431 c
276.048 430.847 276.623 428.975 277.415 427.607 C
f
0.000 0.000 0.000 1.000 k
263.303 429.767 m
263.303 429.839 L
263.303 435.455 L
263.879 435.455 L
263.879 434.447 L
264.024 434.447 L
264.311 435.095 264.959 435.599 265.823 435.599 c
266.543 435.599 267.192 435.167 267.407 434.447 C
267.767 435.167 268.415 435.599 269.207 435.599 c
270.503 435.599 271.079 434.951 271.079 433.655 c
271.079 429.767 L
270.431 429.767 L
270.431 433.511 l
270.431 434.447 270.000 434.951 269.063 434.951 c
267.911 434.951 267.479 434.015 267.479 433.007 c
267.479 429.767 L
266.903 429.767 L
266.903 433.655 l
266.903 434.303 266.543 434.951 265.680 434.951 c
264.455 434.951 264.024 434.087 264.024 432.935 c
264.024 429.767 L
263.303 429.767 L
f
0.000 0.000 0.000 1.000 k
254.231 429.767 m
254.231 429.839 L
254.231 435.455 L
254.807 435.455 L
254.807 434.447 L
254.879 434.447 L
255.239 435.095 255.815 435.599 256.680 435.599 c
257.471 435.599 258.120 435.167 258.335 434.447 C
258.695 435.167 259.343 435.599 260.135 435.599 c
261.431 435.599 262.007 434.951 262.007 433.655 c
262.007 429.767 L
261.359 429.767 L
261.359 433.511 l
261.359 434.447 260.927 434.951 259.991 434.951 c
258.839 434.951 258.407 434.015 258.407 433.007 c
258.407 429.767 L
257.831 429.767 L
257.831 433.655 l
257.831 434.303 257.471 434.951 256.608 434.951 c
255.383 434.951 254.879 434.087 254.879 432.935 c
254.879 429.767 L
254.231 429.767 L
f
0.000 0.000 0.000 1.000 k
247.535 437.471 m
249.767 437.471 250.199 435.311 250.199 433.511 c
250.199 431.711 249.767 429.551 247.535 429.551 c
245.303 429.551 244.871 431.711 244.871 433.511 c
244.871 435.311 245.303 437.471 247.535 437.471 c
f
0.000 0.000 0.000 1.000 k
241.559 437.471 m
243.719 437.471 244.151 435.311 244.151 433.511 c
244.151 431.711 243.719 429.551 241.559 429.551 c
239.255 429.551 238.895 431.711 238.895 433.511 c
238.895 435.311 239.255 437.471 241.559 437.471 c
f
0.000 0.000 0.000 1.000 k
237.815 430.415 m
237.815 429.767 L
232.847 429.767 L
232.919 432.071 235.151 432.575 236.519 433.943 c
236.879 434.303 237.167 434.735 237.167 435.311 c
237.167 436.391 236.375 436.895 235.439 436.895 c
234.143 436.895 233.711 435.887 233.711 434.807 C
232.991 434.807 L
232.991 436.391 233.783 437.471 235.511 437.471 c
236.735 437.471 237.815 436.751 237.815 435.311 c
237.815 434.015 236.879 433.223 235.871 432.575 c
235.151 432.143 233.783 431.423 233.639 430.415 C
237.815 430.415 L
f
0.000 0.000 0.000 1.000 k
231.839 430.415 m
231.839 429.767 L
226.799 429.767 L
226.871 432.071 229.175 432.575 230.471 433.943 c
230.903 434.303 231.119 434.735 231.119 435.311 c
231.119 436.391 230.327 436.895 229.391 436.895 c
228.167 436.895 227.663 435.887 227.663 434.807 C
226.943 434.807 L
226.943 436.391 227.735 437.471 229.463 437.471 c
230.759 437.471 231.839 436.751 231.839 435.311 c
231.839 434.015 230.903 433.223 229.895 432.575 c
229.175 432.143 227.735 431.423 227.591 430.415 C
231.839 430.415 L
f
0.000 0.000 0.000 0.000 k
295.632 434.159 m
294.407 434.159 293.759 433.295 293.759 432.143 c
293.759 431.135 294.263 430.199 295.632 430.199 c
296.711 430.199 297.503 431.135 297.503 432.143 c
297.503 433.223 296.783 434.159 295.632 434.159 c
f
0.000 0.000 0.000 0.000 k
286.560 434.159 m
285.335 434.159 284.615 433.295 284.615 432.143 c
284.615 431.135 285.191 430.199 286.560 430.199 c
287.639 430.199 288.431 431.135 288.431 432.143 c
288.431 433.223 287.711 434.159 286.560 434.159 c
f
0.000 0.000 0.000 0.000 k
280.439 434.159 m
281.231 434.087 282.024 434.591 282.024 435.599 c
282.024 436.463 281.303 436.895 280.439 436.895 c
279.575 436.895 278.783 436.463 278.783 435.599 c
278.783 434.591 279.575 434.087 280.439 434.159 c
f
0.000 0.000 0.000 0.000 k
280.439 430.199 m
281.447 430.199 282.311 430.703 282.311 431.927 c
282.311 433.007 281.447 433.655 280.439 433.511 c
279.359 433.655 278.495 433.079 278.495 431.927 c
278.495 430.775 279.359 430.199 280.439 430.199 c
f
0.000 0.000 0.000 0.000 k
247.535 436.895 m
245.735 436.895 245.519 434.879 245.519 433.511 c
245.519 432.215 245.735 430.199 247.535 430.199 c
249.263 430.199 249.479 432.215 249.479 433.511 c
249.479 434.879 249.263 436.895 247.535 436.895 c
f
0.000 0.000 0.000 0.000 k
241.559 436.895 m
239.759 436.895 239.471 434.879 239.471 433.511 c
239.471 432.215 239.759 430.199 241.559 430.199 c
243.215 430.199 243.503 432.215 243.503 433.511 c
243.503 434.879 243.215 436.895 241.559 436.895 c
f
u
u
0.000 0.000 0.000 1.000 K
0 j
0 J
0.863 w
[]0 d
572.615 858.527 m
659.879 858.527 L
S
U
U
u
u
0.000 0.000 0.000 1.000 K
0 j
0 J
0.863 w
[]0 d
753.767 858.527 m
778.679 858.527 L
S
U
U
0.000 0.000 0.000 1.000 K
0 j
0 J
0.215 w
[]0 d
0.000 0.000 0.000 0.098 k
588.743 860.255 m
591.983 885.167 599.831 905.183 603.791 916.703 C
607.319 927.071 618.479 926.711 621.503 927.287 C
663.479 929.591 690.048 928.655 731.087 925.415 C
742.679 924.551 745.127 923.471 746.423 919.295 C
751.391 902.519 758.447 880.271 761.903 859.319 C
752.687 860.759 L
736.343 902.447 677.519 903.959 660.599 860.255 C
588.743 860.255 L
b
0.000 0.000 0.000 1.000 K
0 j
0 J
0.287 w
[]0 d
0.000 0.000 0.000 0.498 k
649.583 860.183 m
647.783 867.815 L
647.783 870.407 645.767 872.423 643.175 872.423 C
612.144 872.423 L
609.623 872.423 607.535 870.407 607.535 867.815 C
605.807 860.183 L
649.583 860.183 L
b
0.000 0.000 0.000 1.000 K
0 j
0 J
0.287 w
[]0 d
0.000 0.000 0.000 0.200 k
617.039 872.423 m
619.631 872.423 L
619.631 875.015 L
617.039 875.015 L
617.039 872.423 L
b
0.000 0.000 0.000 1.000 K
0 j
0 J
0.287 w
[]0 d
0.000 0.000 0.000 0.200 k
635.111 872.423 m
637.631 872.423 L
637.631 875.015 L
635.111 875.015 L
635.111 872.423 L
b
0.000 0.000 0.000 1.000 K
0 j
0 J
0.287 w
[]0 d
0.000 0.000 0.000 0.498 k
615.311 875.015 m
639.216 875.015 L
640.871 875.015 642.239 876.383 642.239 878.111 C
644.255 893.663 L
644.255 895.391 642.887 896.759 641.231 896.759 C
613.367 896.759 L
611.639 896.759 610.271 895.391 610.271 893.663 C
612.287 878.111 L
612.287 876.383 613.655 875.015 615.311 875.015 C
b
0.000 0.000 0.000 1.000 K
0 j
0 J
0.287 w
[]0 d
55.007 575.927 m
66.959 575.927 l
69.408 575.927 71.423 573.911 71.423 571.463 c
71.423 559.511 l
71.423 557.063 69.408 555.048 66.959 555.048 c
55.007 555.048 l
52.559 555.048 50.543 557.063 50.543 559.511 c
50.543 571.463 l
50.543 573.911 52.559 575.927 55.007 575.927 c
s
%%Trailer
_E end