%!PS-Adobe-2.0 EPSF-1.2
%%Creator: Adobe Illustrator exported from Corel Draw 3.0
%%Title:6
%%BoundingBox:6 423 2011 1567
%%CreationDate:(Unknown)
%%ColorUsage:
%%TemplateBox:6 423 2011 1567
%%EndComments
%%BeginProcSet:Adobe_Illustrator_1.1 0 0
% Version 1.0 3/27/1990 $nokeywords$
% Copyright (C) 1990,1991,1992
% Corel Corporation
% All Rights Reserved

/wPmsDict 150 dict def 
wPmsDict begin 

/$debug 25 string def 

/bd {bind def} bind def 
/ld {load def} bd 
/xd {exch def} bd 
/_ null def 

/$c 0 def 
/$m 0 def 
/$y 0 def 
/$k 0 def 
/$t 1 def 
/$n _ def 
/$o 0 def 
/$pf false def 

/$C 0 def 
/$M 0 def 
/$Y 0 def 
/$K 0 def 
/$T 1 def 
/$N _ def 
/$O 0 def 
/$PF false def 

/$h false def 

/$al 0 def 
/$tr 0 def 
/$le 0 def 
/$lx 0 def 
/$ly 0 def 

/$ctm matrix currentmatrix def 
/$ptm matrix def 

/$pn () def 
/$pm matrix def 
/$px 0 def 
/$py 0 def 
/$pxf 0 def 
/$pyf 0 def 
/$psx 10 def 
/$psy 0 def 

/$llx 0 def 
/$lly 0 def 
/$urx 0 def 
/$ury 0 def 


/$Bbllx 0 def 
/$Bblly 0 def 
/$Bburx 0 def 
/$Bbury 0 def 

/$tllx 0 def 
/$tlly 0 def 
/$turx 0 def 
/$tury 0 def 

/$pd [] def 
/$tx 0 def 
/$ty 0 def 

/$sv 0 def 
/@cp /closepath ld 
/@gs /gsave ld 
/@gr /grestore ld 
/@np /newpath ld 
/@sv {/$sv save def}bd 
/@rs {$sv restore}bd 

/@MN { 
2 copy le{pop}{exch pop}ifelse 
}bd 

/setcmykcolor where {pop} 
{ 
/setcmykcolor 
{ 
4 1 roll 
3 {3 index add 1 @MN 1 exch sub 3 1 roll} repeat 
setrgbcolor 
pop 
}bd 
}ifelse 

/@tc 
{ 
dup 1 ge 
{pop} 
{ 
4 { 
dup 
6 -1 roll 
mul 
exch 
}repeat 
pop 
}ifelse 
}bd 

/@scc 
{ 
$c $m $y $k $t @tc 
setcmykcolor 
true 
}bd 
/@SCC 
{ 
$C $M $Y $K $T @tc 
setcmykcolor 
true 
}bd 

/@sft 
{ 
(setfirsttile sft )print 
/$tx $tllx $pxf add dup $tllx gt {$pwid $psx add sub}if def 
/$ty $tury $pyf sub dup $tury lt {$phei $psy add add}if def 
(setfirsttile exit )print 
}bd 

/@stb 
{ 
pathbbox /$ury xd /$urx xd /$lly xd /$llx xd 
}bd 

/@ep 
{ 
{ 
cvx exec 
}forall 
}bd 

/@tp 
{ 

(tile pattern tp )print 
@sv 
/$in true def 
2 copy 
dup $lly le {/$in false def}if 
$phei sub $ury ge {/$in false def}if 
dup $urx ge {/$in false def}if 
$pwid add $llx le {/$in false def}if 
$in 
{ 
@np 
2 copy moveto 
$pwid 0 rlineto 
0 $phei neg rlineto 
$pwid neg 0 rlineto 
0 $phei rlineto 
clip @np 

$pn cvlit load aload pop 
7 -1 roll 
5 index sub 
7 -1 roll 
3 index sub 
translate 
@ep 
pop pop pop pop 
} 
{pop pop}ifelse 
@rs 
(tile pattern exit )print 
}bd 

/@th 
{ 
(tile horizontal th)print 
@sft 
0 1 $tly 1 sub 
{ 
dup $psx mul $tx add 
{ 
dup $llx gt {$pwid sub}{exit}ifelse 
}loop 
exch $phei mul $ty exch sub 

0 1 $tlx 1 sub 
{ 
$pwid mul 
3 copy 
3 -1 roll add exch 
@tp 
pop 
}for 
pop pop 
} for 
(tile horizontal exiting )print 
}bd 

/@tv 
{ 
(tile vertical tv)print 
@sft 
0 1 $tlx 1 sub 
{ 
dup $pwid mul $tx add 
exch $psy mul $ty exch sub 
{ 
dup $ury lt {$phei add}{exit}ifelse 
}loop 

0 1 $tly 1 sub 
{ 
$phei mul 
3 copy sub 
@tp 
pop 
}for 
pop pop 
} for 
(tile vertical exit )print 
}bd 

/@pf 
{ 
(pattern fill pf)print 
@gs 
$pm concat 
@stb 
@gs 1 setgray eofill @gr 
eoclip 
$Bburx $Bbury $pm itransform /$tury xd /$turx xd 
$Bbllx $Bblly $pm itransform /$tlly xd /$tllx xd 
/$wid $turx $tllx sub def 
/$hei $tury $tlly sub def 
$wid 0 gt $hei 0 gt and 
{ 
$pn cvlit load aload pop 
$pd xd 
3 -1 roll sub /$phei xd 
exch sub /$pwid xd 
/$tlx $wid $pwid div ceiling 1 add def 
/$tly $hei $phei div ceiling 1 add def 
$psx 0 eq 
{ 
@tv 
} 
{ 
@th 
}ifelse 
}if 

@gr 
@np 
(pattern fill exit)print 
}bd 

/@xp 
{ 
{ 
dup (text Character is:) print == 
usertime (time before is:)print == 
(0) dup 3 -1 roll 0 exch put 
@gs 
true charpath currentpoint 
$ctm setmatrix 
@pf 
@gr 
@np 
moveto $tr 0 rmoveto 
usertime (time after is:)print == 
}forall 
pop 
}bd 

/@sm 
{ 
/$ctm $ctm currentmatrix def 
}bd 

%--@lorg  move to line origin   length string @torg length string
/@lorg    % moves currentpoint to line origin according to current alignment
  {      
  $lx $ly moveto    
  /$ly $ly $le sub def      % - prepare for next line(tracking)
  $al 0 ne
    {dup      % ->len str len str
    stringwidth   % ->len str len dx dy
    exch 3 index  % ->len str dy len dx
    1 sub         % ->len str dy len dx (len-1)
    $tr mul add   % ->len str dy len dx+(len-1)*$tr
    neg
    exch neg      % ->len str -dx_total dy len
    $al 1 eq      % check for centered alignment
    {2 div exch 2 div exch} if  
    rmoveto} if
  }bd

/@ft 
{ 
$pf 
{@xp} 
{ 
@scc 
{$tr exch 0 exch ashow pop} 
{pop pop}ifelse 
}ifelse 
}bd 

/@st 
{ 
$PF 
{} 
{ 
@SCC 
{ 
{ 
(0) dup 3 -1 roll 0 exch put 
@gs 
true charpath currentpoint 
$ctm setmatrix $ptm concat 
stroke 
@gr 
moveto $tr 0 rmoveto 
}forall 
pop 
} 
{pop pop}ifelse 
}ifelse 
}bd 
/@pt 
{ 
dup length exch 
}bd 
/@te 
{ 
@pt 
@lorg 
@ft 
}bd 

/@tr 
{ 
@pt 
@lorg 
@st 
}bd 
/@ta 
{ 
@pt 
@lorg 
2 copy 
@gs @ft @gr 
/$lx 0 def 
/$ly 0 def 
@st 
}bd 















/g { 
1 exch sub /$k xd 
/$c 0 def /$m 0 def /$y 0 def /$t 1 def /$n _ def /$pf false def 
}bd 

/G { 
1 exch sub /$K xd 
/$C 0 def /$M 0 def /$Y 0 def /$T 1 def /$N _ def /$PF false def 
}bd 

/k { 
/$k xd /$y xd /$m xd /$c xd 
/$t 1 def /$n _ def /$pf false def 
}bd 

/K { 
/$K xd /$Y xd /$M xd /$C xd 
/$T 1 def /$N _ def /$PF false def 
}bd 

/x { 
/$t xd /$n xd 
/$k xd /$y xd /$m xd /$c xd /$pf false def 
}bd 

/X { 
/$T xd /$N xd 
/$K xd /$Y xd /$M xd /$C xd /$PF false def 
}bd 

/d /setdash ld 

/i { 
dup 0 ne {setflat} {pop} ifelse 
}bd 

/j /setlinejoin ld 

/J /setlinecap ld 

/M /setmiterlimit ld 

/w /setlinewidth ld 

/O { 
/$o xd 
}bd 

/R { 
/$O xd 
}bd 


/c /curveto ld 

/C /c ld 

/v { 
currentpoint
6 2 roll 
curveto 
}bd

/V /v ld 

/y { 
2 copy curveto 
}bd 

/Y /y ld 

/l /lineto ld 

/L /l ld 

/m /moveto ld 



/n /newpath ld 

/N /newpath ld 

/F { 
$pf 
{@pf} 
{ 
@scc 
{eofill}if 
}ifelse 
}bd 

/f { 
@cp F 
}bd 
/S { 
$PF 
{} 
{ 
@SCC 
{ 
@sm 
$ptm concat 
stroke 
$ctm setmatrix 
}if 
}ifelse 
}bd 
/s { 
@cp 
S 
}bd 

/B { 
@gs F @gr 
S 
}bd 
/b { 
@cp 
B 
}bd 

/W { 
oeclip 
@np 
}bd 

/p { 
/$pm xd 
7 {pop} repeat 
/$pyf xd /$pxf xd 
/$pn xd 
/$pf true def 
}bd 

/P { 
11 {pop} repeat 
}bd 

/@p { 
/$pm xd 
/$psy xd 
/$psx xd 
/$pyf xd /$pxf xd 
/$pn xd 
/$pf true def 
}bd 

/@b { 
/$Bbury xd /$Bburx xd 
/$Bblly xd /$Bbllx xd 
}bd 


/z { 
/$al xd 
/$tr xd 
/$le xd 
exch findfont exch scalefont setfont 
}bd 

/Z { 
dup type 0 type eq { /$bDir xd } if
findfont 
dup maxlength 1 add dict exch 



dup 
{1 index /FID ne 
{ 
3 index 
3 1 roll put 
} 
{pop pop}ifelse 
} forall 



pop 
dup dup /Encoding get 
256 array copy 
dup /$fe xd
/Encoding exch put 

dup /Fontname 3 index put 

}bd 

/e { 
@sm 
concat 
[ 
/t {@te}def 
}bd 

/r { 
@sm 
concat 
[ 
/t {@tr}def 
}bd 

/o { 
@sm 
concat 
[ 
/t {pop}def 
}bd 

/a { 
@sm 
concat 
[ 
/t {@ta}def 
}bd 

/@o{
@sm 
concat 
[ 
/t {@t@a}def 
}bd 

/I { 
@sm 
concat 
[ 
/t {pop}def 
}bd 

/t {@te}def 

/T { 
cleartomark 
/$lx 0 def 
/$ly 0 def 
$ctm setmatrix 
}bd 


/u {}bd 

/U {}bd 

/A {pop}bd 

/h { 
$h true def 
}bd 

/h { 
$h true def 
}bd 

/q /@gs ld 

/Q /@gr ld 



/E { 
5 array astore 
exch cvlit exch def 
}bd 

/` {}bd 

/~ {}bd 

/@ {}bd 

/& {}bd 

/CorelDrawRencodeVect [ 
16#80/grave 
16#81/circumflex 
16#82/tilde 
16#83/dotlessi 
16#84/florin 
16#85/quotedblleft 
16#86/quotedblright 
16#87/guilsinglleft 
16#88/guilsinglright 
16#89/fi 
16#8a/fl 
16#8b/dagger 
16#8c/daggerdbl 
16#8d/endash 
16#8e/periodcentered 
16#8f/breve 
16#90/quotedblbase 
16#91/ellipsis 
16#92/perthousand 
16#a1/exclamdown 
16#a2/cent 
16#a3/sterling 
16#a4/currency 
16#a5/yen 
16#a6/bar 
16#a7/section 
16#a8/dieresis 
16#a9/copyright 
16#aa/ordfeminine 
16#ab/guillemotleft 
16#ac/logicalnot 
16#ad/emdash 
16#ae/registered 
16#af/spac 
16#b0/ring 
16#b1/spac 
16#b2/spac 
16#b3/spac 
16#b4/acute 
16#b5/spac 
16#b6/paragraph 
16#b7/bullet 
16#b8/cedilla 
16#b9/spac 
16#ba/ordmasculine 
16#bb/guillemotright 
16#bc/spac 
16#bd/spac 
16#be/spac 
16#bf/questiondown 
16#c0/Agrave 
16#c1/Aacute 
16#c2/Acircumflex 
16#c3/Atilde 
16#c4/Adieresis 
16#c5/Aring 
16#c6/AE 
16#c7/Ccedilla 
16#c8/Egrave 
16#c9/Eacute 
16#ca/Ecircumflex 
16#cb/Edieresis 
16#cc/Igrave 
16#cd/Iacute 
16#ce/Icircumflex 
16#cf/Idieresis 
16#d0/spac 
16#d1/Ntilde 
16#d2/Ograve 
16#d3/Oacute 
16#d4/Ocircumflex 
16#d5/Otilde 
16#d6/Odieresis 
16#d7/OE 
16#d8/Oslash 
16#d9/Ugrave 
16#da/Uacute 
16#db/Ucircumflex 
16#dc/Udieresis 
16#dd/space 
16#de/spac 
16#df/germandbls 
16#e0/agrave 
16#e1/aacute 
16#e2/acircumflex 
16#e3/atilde 
16#e4/adieresis 
16#e5/aring 
16#e6/ae 
16#e7/ccedilla 
16#e8/egrave 
16#e9/eacute 
16#ea/ecircumflex 
16#eb/edieresis 
16#ec/igrave 
16#ed/iacute 
16#ee/icircumflex 
16#ef/idieresis 
16#f0/space 
16#f1/ntilde 
16#f2/ograve 
16#f3/oacute 
16#f4/ocircumflex 
16#f5/otilde 
16#f6/odieresis 
16#f7/oe 
16#f8/oslash 
16#f9/ugrave 
16#fa/uacute 
16#fb/ucircumflex 
16#fc/udieresis 
16#fd/spac 
16#fe/spac 
16#ff/ydieresis 
] def
%%EndProlog
%%BeginSetup
%%BeginEncoding:_Times-Bold Times-Bold
[
]/_Times-Bold/Times-Bold Z
%%EndEncoding
%%EndSetup
0.000 0.000 0.000 1.000 K
0 j
0 J
0.215 w
[]0 d
0.000 0.000 0.000 0.000 k
1582.703 1563.839 m
1685.375 1567.439 1788.047 1566.719 1890.863 1563.839 C
1910.015 1560.959 1918.511 1551.887 1924.559 1540.799 C
1963.439 1423.151 L
1971.503 1398.383 1986.047 1372.319 1986.047 1340.207 C
1986.191 1319.615 L
1998.431 1313.567 L
1993.247 1301.039 1994.399 1285.487 1991.519 1271.519 C
1470.959 1271.519 L
1468.511 1286.783 1468.943 1297.583 1464.191 1314.000 C
1474.127 1319.759 L
1475.855 1326.240 1476.431 1331.711 1476.719 1336.751 C
1473.839 1366.127 1488.527 1395.359 1496.879 1420.991 c
1536.623 1540.799 L
1544.255 1554.911 1561.103 1564.415 1582.703 1563.839 C
b
0.000 0.000 0.000 1.000 K
0 j
0 J
0.215 w
[]0 d
0.000 0.000 0.000 1.000 k
1472.831 1207.583 m
1497.167 1201.247 1495.583 1186.991 1503.503 1172.447 C
1551.887 1172.447 L
1551.887 1103.039 L
1552.319 1088.783 1472.543 1090.079 1472.543 1103.039 C
1472.831 1207.583 L
b
0.000 0.000 0.000 1.000 K
0 j
0 J
0.215 w
[]0 d
0.000 0.000 0.000 1.000 k
1911.311 1172.447 m
1962.431 1172.447 L
1968.191 1192.031 1979.999 1204.271 1990.655 1207.583 C
1990.655 1100.879 L
1991.375 1088.063 1910.879 1089.215 1911.311 1100.879 C
1911.311 1172.447 L
b
0.000 0.000 0.000 1.000 K
0 j
0 J
0.215 w
[]0 d
0.000 0.000 0.000 0.498 k
1989.359 1271.375 m
2001.599 1270.943 2001.023 1206.576 1988.927 1206.719 C
1970.063 1199.231 1966.031 1180.655 1962.575 1172.015 C
1924.127 1172.303 1886.255 1172.447 1848.527 1172.447 C
1810.655 1172.447 1772.927 1172.447 1734.911 1172.447 C
1697.039 1172.447 1659.455 1172.447 1621.583 1172.447 C
1583.855 1172.447 1540.223 1172.303 1502.927 1172.015 C
1499.759 1177.631 1496.447 1200.671 1477.295 1205.855 C
1465.055 1203.983 1462.319 1272.384 1474.415 1271.375 C
1989.359 1271.375 L
b
0.000 0.000 0.000 1.000 K
0 j
0 J
0.215 w
[]0 d
0.000 0.000 0.000 0.498 k
1568.303 1552.607 m
1676.303 1557.215 1784.879 1556.927 1893.023 1552.607 C
1902.239 1552.175 1914.767 1543.967 1919.231 1529.711 C
1924.271 1513.295 1929.311 1497.023 1934.351 1480.895 c
1939.103 1464.623 1944.431 1448.495 1949.615 1431.935 C
1804.751 1427.183 1659.167 1426.463 1514.447 1431.935 C
1519.343 1448.495 1524.527 1464.911 1529.567 1481.471 c
1534.463 1497.455 1539.647 1514.159 1544.543 1530.719 c
1547.999 1541.951 1554.191 1552.031 1568.303 1552.607 c
b
0.000 0.000 0.000 1.000 K
0 j
0 J
0.215 w
[]0 d
0.000 0.000 0.000 0.200 k
1852.127 1548.287 m
1865.951 1548.143 1880.207 1547.855 1894.031 1547.135 C
1905.119 1544.543 1911.599 1536.047 1914.767 1525.247 C
1923.263 1497.887 1931.471 1470.239 1940.399 1442.879 C
1941.263 1439.855 L
1941.839 1437.983 L
1802.447 1433.087 1661.903 1432.223 1522.367 1437.983 C
1529.567 1462.175 1537.343 1486.367 1544.543 1510.703 C
1546.703 1517.327 1548.863 1524.527 1550.879 1531.295 C
1554.335 1540.511 1558.511 1546.559 1568.879 1547.135 C
1663.199 1550.879 1758.095 1551.023 1852.127 1548.287 C
b
u
u
0.000 0.000 0.000 1.000 K
0 j
0 J
0.215 w
[]0 d
1516.031 1422.863 m
1591.487 1419.407 L
1596.095 1399.823 1596.959 1384.991 1597.679 1363.103 C
1596.959 1419.407 L
1686.527 1415.807 1775.951 1416.239 1865.519 1419.407 C
1865.519 1363.103 L
1867.103 1386.575 1867.103 1397.663 1870.991 1419.407 C
1945.583 1422.863 L
S
U
U
u
u
0.000 0.000 0.000 1.000 K
0 j
0 J
0.215 w
[]0 d
1511.279 1418.543 m
1495.439 1359.647 L
1495.727 1344.383 L
S
U
U
u
u
0.000 0.000 0.000 1.000 K
0 j
0 J
0.215 w
[]0 d
1945.727 1417.823 m
1963.439 1358.783 L
1963.439 1345.247 L
S
U
U
0.000 0.000 0.000 1.000 K
0 j
0 J
0.215 w
[]0 d
0.000 0.000 0.000 0.498 k
1600.703 1337.183 m
1862.063 1337.039 L
1853.711 1283.039 L
1610.063 1283.039 L
1600.703 1337.183 L
b
u
u
u
0.000 0.000 0.000 1.000 K
0 j
0 J
0.215 w
[]0 d
1476.143 1345.103 m
1645.487 1339.343 1814.975 1339.487 1984.607 1344.959 C
S
U
U
u
u
0.000 0.000 0.000 1.000 K
0 j
0 J
0.215 w
[]0 d
1476.143 1345.103 m
1645.487 1339.343 1814.975 1339.487 1984.607 1344.959 C
S
U
U
U
u
u
u
0.000 0.000 0.000 1.000 K
0 j
0 J
0.215 w
[]0 d
1473.983 1283.183 m
1645.775 1276.415 1817.567 1276.847 1989.359 1283.183 C
S
U
U
u
u
0.000 0.000 0.000 1.000 K
0 j
0 J
0.215 w
[]0 d
1473.983 1283.183 m
1645.775 1276.415 1817.567 1276.847 1989.359 1283.183 C
S
U
U
U
0.000 0.000 0.000 1.000 K
0 j
0 J
0.215 w
[]0 d
0.000 0.000 0.000 0.498 k
1981.871 1302.623 m
1863.503 1298.591 L
1862.207 1298.591 1860.335 1296.288 1860.191 1294.127 c
1859.615 1287.215 L
1859.471 1285.199 1858.319 1282.895 1863.071 1283.039 c
1981.871 1287.215 L
1983.599 1287.215 1985.327 1289.231 1985.327 1291.823 c
1985.327 1298.591 L
1985.327 1301.039 1983.599 1302.623 1981.871 1302.623 c
b
0.000 0.000 0.000 1.000 K
0 j
0 J
0.215 w
[]0 d
0.000 0.000 0.000 0.298 k
1982.447 1298.879 m
1982.447 1299.167 L
1982.303 1299.599 L
1982.015 1299.743 L
1864.079 1295.855 L
1861.775 1294.271 1863.359 1288.079 1862.351 1286.063 C
1863.071 1285.919 L
1981.727 1290.096 L
1983.023 1290.096 1982.447 1298.879 1982.447 1298.879 C
b
0.000 0.000 0.000 1.000 K
0 j
0 J
0.215 w
[]0 d
0.000 0.000 0.000 0.498 k
1481.183 1302.623 m
1599.263 1298.591 L
1600.847 1298.591 1602.719 1296.288 1602.863 1294.127 c
1603.439 1287.215 L
1603.583 1285.199 1604.735 1282.895 1599.983 1283.039 c
1481.183 1287.215 L
1479.455 1287.215 1477.727 1289.087 1477.727 1291.823 c
1477.727 1298.447 L
1477.727 1300.895 1479.455 1302.623 1481.183 1302.623 c
b
0.000 0.000 0.000 1.000 K
0 j
0 J
0.215 w
[]0 d
0.000 0.000 0.000 0.298 k
1599.695 1294.847 m
1600.703 1292.255 1599.695 1288.223 1600.703 1286.063 C
1599.983 1285.919 L
1481.327 1290.096 L
1479.743 1290.815 1480.175 1299.167 1481.183 1299.743 C
1481.183 1299.887 L
1598.975 1295.855 L
1599.407 1295.567 L
1599.695 1294.847 L
b
0.000 0.000 0.000 1.000 K
0 j
0 J
0.215 w
[]0 d
0.000 0.000 0.000 0.498 k
1984.319 1341.215 m
1966.895 1340.351 L
1966.319 1340.351 1965.887 1339.487 1965.887 1337.615 c
1965.887 1309.823 L
1965.887 1307.951 1966.319 1307.231 1966.895 1307.231 c
1984.319 1308.096 L
1985.039 1308.096 1985.327 1308.815 1985.327 1310.831 c
1985.327 1338.623 L
1985.327 1340.495 1984.895 1341.215 1984.319 1341.215 c
b
0.000 0.000 0.000 1.000 K
0 j
0 J
0.215 w
[]0 d
0.000 0.000 0.000 0.098 k
1968.623 1337.615 m
1968.623 1310.255 L
1982.447 1310.831 L
1982.447 1338.192 L
1968.623 1337.615 L
b
0.000 0.000 0.000 1.000 K
0 j
0 J
0.215 w
[]0 d
0.000 0.000 0.000 0.498 k
1478.447 1341.215 m
1493.423 1340.495 L
1494.143 1340.495 1494.431 1339.631 1494.431 1337.759 c
1494.431 1309.967 L
1494.431 1307.951 1494.143 1307.375 1493.423 1307.375 c
1478.447 1308.096 L
1477.871 1308.096 1477.439 1308.815 1477.439 1310.831 c
1477.439 1338.623 L
1477.439 1340.351 1477.727 1341.215 1478.447 1341.215 c
b
0.000 0.000 0.000 1.000 K
0 j
0 J
0.215 w
[]0 d
0.000 0.000 0.000 0.098 k
1491.551 1337.759 m
1491.551 1310.399 L
1480.319 1310.831 L
1480.319 1338.192 L
1491.551 1337.759 L
b
0.000 0.000 0.000 1.000 K
0 j
0 J
0.215 w
[]0 d
0.000 0.000 0.000 0.498 k
1953.215 1339.775 m
1872.719 1337.183 L
1868.687 1337.183 1866.239 1334.159 1865.663 1330.847 c
1861.487 1309.247 L
1860.911 1305.935 1859.759 1302.767 1868.399 1303.055 c
1953.215 1305.647 L
1956.815 1305.791 1959.983 1308.671 1959.983 1312.271 c
1959.983 1333.871 L
1959.983 1337.327 1957.103 1339.775 1953.215 1339.775 c
b
0.000 0.000 0.000 1.000 K
0 j
0 J
0.215 w
[]0 d
0.000 0.000 0.000 0.000 k
1869.983 1333.151 m
1869.119 1332.288 1868.831 1331.567 1868.543 1330.271 C
1864.367 1308.815 L
1864.223 1308.096 1863.935 1307.087 1864.079 1306.367 C
1864.511 1306.223 L
1865.951 1305.935 L
1868.543 1305.935 L
1952.927 1308.527 L
1955.231 1308.671 1956.959 1310.255 1957.103 1312.559 C
1957.103 1333.871 L
1956.959 1336.031 1955.375 1336.751 1953.215 1336.895 C
1872.863 1334.447 L
1871.423 1334.303 1870.991 1334.159 1869.983 1333.151 C
b
0.000 0.000 0.000 1.000 K
0 j
0 J
0.215 w
[]0 d
0.000 0.000 0.000 0.498 k
1506.527 1339.919 m
1589.471 1337.183 L
1593.647 1337.183 1595.951 1334.015 1596.671 1330.847 c
1600.991 1309.247 L
1601.567 1305.935 1602.863 1302.623 1593.935 1302.911 c
1506.527 1305.935 L
1502.639 1305.935 1499.471 1308.815 1499.471 1312.415 c
1499.471 1334.015 L
1499.471 1337.471 1502.351 1339.919 1506.527 1339.919 c
b
0.000 0.000 0.000 1.000 K
0 j
0 J
0.215 w
[]0 d
0.000 0.000 0.000 0.000 k
1592.495 1333.151 m
1593.071 1332.431 1593.647 1331.423 1593.935 1330.271 C
1598.255 1308.671 L
1598.399 1308.096 1598.543 1307.087 1598.543 1306.367 C
1598.111 1306.079 L
1596.527 1305.935 L
1593.935 1305.791 L
1506.815 1308.815 L
1504.367 1308.959 1502.495 1310.255 1502.351 1312.703 C
1502.351 1333.871 L
1502.495 1336.319 1504.367 1337.039 1506.527 1337.039 C
1589.327 1334.447 L
1590.767 1334.303 1591.487 1333.871 1592.495 1333.151 C
b
0.000 0.000 0.000 1.000 K
0 j
0 J
0.215 w
[]0 d
0.000 0.000 0.000 1.000 k
1569.167 1199.519 m
1589.327 1199.519 L
1593.791 1199.519 1597.247 1196.063 1597.247 1191.167 c
1597.247 1186.415 L
1597.247 1181.663 1593.791 1178.063 1589.327 1178.063 c
1569.167 1178.063 L
1564.703 1178.063 1561.247 1181.663 1561.247 1186.415 c
1561.247 1191.167 L
1561.247 1196.063 1564.703 1199.519 1569.167 1199.519 c
b
0.000 0.000 0.000 1.000 K
0 j
0 J
0.215 w
[]0 d
0.000 0.000 0.000 1.000 k
1881.647 1199.519 m
1906.271 1199.519 L
1909.583 1199.519 1912.031 1196.927 1912.031 1193.471 c
1912.031 1184.111 L
1912.031 1180.511 1909.583 1178.063 1906.271 1178.063 c
1881.647 1178.063 L
1878.335 1178.063 1876.031 1180.511 1876.031 1184.111 c
1876.031 1193.471 L
1876.031 1196.927 1878.335 1199.519 1881.647 1199.519 c
b
0.000 0.000 0.000 1.000 K
0 j
0 J
0.215 w
[]0 d
0.000 0.000 0.000 1.000 k
1615.391 1199.519 m
1854.431 1199.519 L
1858.895 1199.519 1862.351 1196.063 1862.351 1191.167 c
1862.351 1186.415 L
1862.351 1181.663 1858.895 1178.063 1854.431 1178.063 c
1615.391 1178.063 L
1610.927 1178.063 1607.471 1181.663 1607.471 1186.415 c
1607.471 1191.167 L
1607.471 1196.063 1610.927 1199.519 1615.391 1199.519 c
b
0.000 0.000 0.000 1.000 K
0 j
0 J
0.215 w
[]0 d
0.000 0.000 0.000 1.000 k
1606.895 1250.207 m
1836.143 1250.207 L
1840.031 1250.207 1842.767 1247.327 1842.767 1243.151 c
1842.767 1238.111 L
1842.767 1233.935 1840.031 1230.911 1836.143 1230.911 c
1606.895 1230.911 L
1603.151 1230.911 1600.271 1233.935 1600.271 1238.111 c
1600.271 1243.151 L
1600.271 1247.327 1603.151 1250.207 1606.895 1250.207 c
b
0.000 0.000 0.000 1.000 K
0 j
0 J
0.215 w
[]0 d
0.000 0.000 0.000 0.000 k
1654.703 1210.751 m
1821.455 1210.751 L
1821.455 1240.415 L
1654.703 1240.415 L
1654.703 1210.751 L
b
0.000 0.000 0.000 1.000 K
0 j
0 J
0.215 w
[]0 d
0.000 0.000 0.000 1.000 k
1587.887 1251.215 m
1473.839 1251.647 L
1473.119 1242.719 L
1589.327 1242.719 L
1587.887 1251.215 L
b
0.000 0.000 0.000 1.000 K
0 j
0 J
0.215 w
[]0 d
0.000 0.000 0.000 1.000 k
1969.055 1251.791 m
1852.847 1251.647 L
1852.847 1242.719 L
1969.919 1242.719 L
1969.055 1251.791 L
b
0.000 0.000 0.000 1.000 K
0 j
0 J
0.215 w
[]0 d
0.000 0.000 0.000 1.000 k
1981.007 1207.151 m
1485.071 1207.439 L
1489.103 1202.687 L
1979.567 1203.263 L
1981.007 1207.151 L
b
0.000 0.000 0.000 1.000 K
0 j
0 J
0.215 w
[]0 d
0.000 0.000 0.000 0.498 k
1496.735 1442.303 m
1459.583 1442.303 L
1454.687 1442.303 1450.799 1438.559 1450.799 1433.519 C
1450.799 1417.247 L
1450.799 1412.207 1454.687 1408.319 1459.583 1408.319 C
1493.135 1405.727 L
1501.343 1436.543 L
1501.343 1441.583 1499.759 1442.303 1496.735 1442.303 C
b
0.000 0.000 0.000 1.000 K
0 j
0 J
0.215 w
[]0 d
0.000 0.000 0.000 0.498 k
1964.879 1442.303 m
2002.175 1442.303 L
2007.215 1442.303 2011.103 1438.559 2011.103 1433.519 C
2011.103 1417.247 L
2011.103 1412.207 2007.215 1408.319 2002.175 1408.319 C
1968.623 1405.727 L
1960.415 1436.543 L
1960.415 1441.583 1961.855 1442.303 1964.879 1442.303 C
b
0.000 0.000 0.000 1.000 K
0 j
0 J
0.215 w
[]0 d
0.000 0.000 0.000 0.298 k
1613.375 1300.607 m
1850.399 1300.607 L
1848.815 1289.663 L
1616.543 1289.663 L
1613.375 1300.607 L
b
0.000 0.000 0.000 1.000 K
0 j
0 J
0.215 w
[]0 d
0.000 0.000 0.000 0.298 k
1610.063 1315.871 m
1853.711 1315.871 L
1852.127 1304.927 L
1613.231 1304.783 L
1610.063 1315.871 L
b
0.000 0.000 0.000 1.000 K
0 j
0 J
0.215 w
[]0 d
0.000 0.000 0.000 0.298 k
1606.607 1332.000 m
1857.023 1332.144 L
1855.439 1320.911 L
1610.063 1320.911 L
1606.607 1332.000 L
b
u
u
u
0.000 0.000 0.000 1.000 K
0 j
0 J
0.215 w
[]0 d
19.439 457.343 m
456.335 457.343 L
S
U
U
u
u
0.000 0.000 0.000 1.000 K
0 j
0 J
0.215 w
[]0 d
19.439 457.343 m
456.335 457.343 L
S
U
U
U
u
u
u
0.000 0.000 0.000 1.000 K
0 j
0 J
0.215 w
[]0 d
987.983 457.343 m
1392.911 457.343 L
S
U
U
u
u
0.000 0.000 0.000 1.000 K
0 j
0 J
0.215 w
[]0 d
987.983 457.343 m
1392.911 457.343 L
S
U
U
U
u
u
u
0.000 0.000 0.000 1.000 K
0 j
0 J
0.215 w
[]0 d
8.208 482.687 m
8.208 426.239 L
S
U
U
u
u
0.000 0.000 0.000 1.000 K
0 j
0 J
0.215 w
[]0 d
8.208 482.687 m
8.208 426.239 L
S
U
U
U
0.000 0.000 0.000 1.000 k
10.799 457.487 m
29.375 452.015 L
29.375 463.103 L
10.799 457.487 L
f
u
u
u
0.000 0.000 0.000 1.000 K
0 j
0 J
0.215 w
[]0 d
1395.503 479.231 m
1395.503 423.359 L
S
U
U
u
u
0.000 0.000 0.000 1.000 K
0 j
0 J
0.215 w
[]0 d
1395.503 479.231 m
1395.503 423.359 L
S
U
U
U
0.000 0.000 0.000 1.000 k
1395.647 457.487 m
1376.927 452.015 L
1376.927 463.103 L
1395.647 457.487 L
f
0.000 0.000 0.000 1.000 k
815.183 469.151 m
817.199 465.839 818.495 461.375 818.495 457.631 C
818.495 452.735 817.487 448.559 815.183 444.671 C
816.335 444.671 L
818.639 448.415 820.223 452.447 820.223 456.767 C
820.223 461.663 818.927 465.119 816.335 469.151 C
815.183 469.151 L
f
0.000 0.000 0.000 1.000 k
794.735 449.711 m
796.463 449.711 L
796.463 457.343 L
796.463 460.223 797.615 462.383 800.495 462.383 C
802.511 462.383 803.375 460.799 803.375 458.927 C
803.375 449.711 L
805.103 449.711 L
805.103 457.343 L
805.103 459.935 805.823 462.383 808.703 462.383 C
811.151 462.383 812.015 461.231 812.015 458.927 C
812.015 449.711 L
813.743 449.711 L
813.743 458.927 L
813.743 462.239 812.159 463.679 809.135 463.679 C
807.407 463.679 805.679 462.959 804.671 461.087 C
804.239 462.959 802.511 463.679 800.783 463.679 C
798.479 463.679 797.183 462.815 796.175 461.087 C
796.175 461.087 L
796.175 463.391 L
794.735 463.391 L
794.735 449.711 L
794.735 449.711 L
f
0.000 0.000 0.000 1.000 k
772.703 449.711 m
774.431 449.711 L
774.431 457.343 L
774.431 460.223 775.583 462.383 778.463 462.383 C
780.479 462.383 781.343 460.799 781.343 458.927 C
781.343 449.711 L
783.071 449.711 L
783.071 457.343 L
783.071 459.935 783.791 462.383 786.671 462.383 C
789.119 462.383 789.839 461.231 789.839 458.927 C
789.839 449.711 L
791.567 449.711 L
791.567 458.927 L
791.567 462.239 790.127 463.679 786.959 463.679 C
785.375 463.679 783.647 462.959 782.639 461.087 C
782.207 462.959 780.479 463.679 778.751 463.679 C
776.447 463.679 775.151 462.815 774.143 461.087 C
774.143 461.087 L
774.143 463.391 L
772.703 463.391 L
772.703 449.711 L
772.703 449.711 L
f
0.000 0.000 0.000 1.000 k
745.055 466.559 m
755.135 466.559 L
749.951 460.655 748.079 455.903 747.503 449.711 C
749.375 449.711 L
749.807 458.351 754.559 464.111 756.863 466.559 C
756.863 468.143 L
745.055 468.143 L
745.055 466.559 L
f
0.000 0.000 0.000 1.000 k
730.223 454.175 m
730.655 450.863 732.527 449.279 735.983 449.279 C
741.887 449.279 742.463 456.191 742.463 458.495 C
742.463 465.839 740.591 468.575 735.983 468.575 C
732.383 468.575 729.647 465.839 729.647 462.239 C
729.647 458.495 732.239 455.903 735.839 455.903 C
738.000 455.903 740.015 457.199 740.735 458.927 C
741.023 458.927 L
741.023 455.615 740.015 450.719 735.839 450.719 C
733.535 450.719 732.239 452.015 731.807 454.175 C
730.223 454.175 L
f
0.000 0.000 0.000 1.000 k
727.199 463.679 m
727.199 466.991 724.319 468.575 721.439 468.575 C
718.703 468.575 715.823 466.991 715.823 463.679 C
715.823 461.807 716.831 460.223 718.703 459.647 C
718.703 459.647 L
716.399 459.071 715.103 457.199 715.103 454.895 C
715.103 451.007 717.983 449.279 721.439 449.279 C
724.895 449.279 727.919 451.007 727.919 454.895 C
727.919 457.343 726.479 459.071 724.175 459.647 C
724.175 459.647 L
724.175 459.647 L
726.048 460.223 727.199 461.807 727.199 463.679 C
f
0.000 0.000 0.000 1.000 k
700.127 454.319 m
708.767 454.319 L
708.767 449.711 L
710.351 449.711 L
710.351 454.319 L
712.943 454.319 L
712.943 455.615 L
710.351 455.615 L
710.351 468.287 L
708.767 468.287 L
700.127 455.903 L
700.127 454.319 L
f
0.000 0.000 0.000 1.000 k
699.407 444.671 m
697.391 447.983 695.951 452.159 695.951 456.047 C
695.951 460.799 697.103 465.263 699.407 469.151 C
697.967 469.151 L
695.663 465.407 694.367 461.231 694.367 456.767 C
694.367 452.015 695.663 448.559 697.967 444.671 C
699.407 444.671 L
f
0.000 0.000 0.000 1.000 k
676.367 462.239 m
678.096 462.239 L
678.096 468.719 L
676.367 468.719 L
676.367 462.239 L
f
0.000 0.000 0.000 1.000 k
672.911 462.239 m
674.495 462.239 L
674.495 468.719 L
672.911 468.719 L
672.911 462.239 L
f
0.000 0.000 0.000 1.000 k
668.879 463.679 m
668.879 466.991 666.000 468.575 663.120 468.575 C
660.383 468.575 657.503 466.991 657.503 463.679 C
657.503 461.807 658.511 460.223 660.383 459.647 C
660.383 459.647 L
658.079 459.071 656.783 457.199 656.783 454.895 C
656.783 451.007 659.663 449.279 663.120 449.279 C
666.575 449.279 669.599 451.007 669.599 454.895 C
669.599 457.343 668.159 459.071 665.855 459.647 C
665.855 459.647 L
665.855 459.647 L
667.727 460.223 668.879 461.807 668.879 463.679 C
f
0.000 0.000 0.000 1.000 k
653.327 449.711 m
653.327 452.447 L
651.024 452.447 L
651.024 449.711 L
653.327 449.711 L
f
0.000 0.000 0.000 1.000 k
646.991 451.295 m
636.767 451.295 L
637.055 453.743 640.367 455.327 642.239 456.623 C
644.543 458.207 646.847 460.079 646.847 463.103 C
646.847 466.559 644.255 468.575 641.087 468.575 C
637.055 468.575 634.895 465.695 635.183 461.807 C
636.911 461.807 L
636.767 464.687 638.063 466.991 641.087 466.991 C
643.247 466.991 645.120 465.695 645.120 463.103 C
645.120 461.807 644.687 460.799 643.535 459.647 C
640.511 456.623 634.751 455.039 634.751 449.711 C
646.991 449.711 L
646.991 451.295 L
f
0.000 0.000 0.000 1.000 k
620.351 454.175 m
620.783 450.863 622.655 449.279 626.111 449.279 C
632.015 449.279 632.591 456.191 632.591 458.495 C
632.591 465.839 630.863 468.575 626.111 468.575 C
622.511 468.575 619.775 465.839 619.775 462.239 C
619.775 458.495 622.223 455.903 625.967 455.903 C
627.983 455.903 630.144 457.199 630.863 458.927 C
631.151 458.927 L
631.151 455.615 630.144 450.719 625.967 450.719 C
623.663 450.719 622.223 452.015 621.935 454.175 C
620.351 454.175 L
f
0.000 0.000 0.000 1.000 k
606.671 463.535 m
611.711 463.535 L
611.711 449.855 L
611.711 449.711 L
613.295 449.711 L
613.295 463.391 L
613.295 468.287 L
611.855 468.287 L
611.567 464.831 609.551 464.831 606.671 464.687 C
606.671 463.535 L
f
0.000 0.000 0.000 0.000 k
735.983 457.343 m
733.103 457.343 731.375 459.503 731.375 462.239 C
731.375 464.831 733.103 466.991 735.839 466.991 C
739.007 466.991 740.591 464.831 740.591 462.239 C
740.591 459.503 738.863 457.343 735.983 457.343 C
f
0.000 0.000 0.000 0.000 k
721.439 460.223 m
719.567 460.223 717.407 461.231 717.407 463.679 C
717.407 465.983 719.279 466.991 721.439 466.991 C
723.743 466.991 725.471 465.983 725.471 463.679 C
725.471 461.375 723.599 460.223 721.439 460.223 C
f
0.000 0.000 0.000 0.000 k
721.439 450.719 m
718.991 450.719 716.687 452.015 716.687 454.895 C
716.687 457.631 718.991 458.927 721.439 458.927 C
723.887 458.927 726.191 457.631 726.191 454.895 C
726.191 452.015 724.175 450.719 721.439 450.719 C
f
0.000 0.000 0.000 0.000 k
701.711 455.615 m
708.623 465.839 L
708.767 465.839 L
708.767 455.615 L
701.711 455.615 L
f
0.000 0.000 0.000 0.000 k
663.120 460.223 m
661.247 460.223 659.087 461.231 659.087 463.679 C
659.087 465.983 660.959 466.991 663.120 466.991 C
665.423 466.991 667.151 465.983 667.151 463.679 C
667.151 461.375 665.279 460.223 663.120 460.223 C
f
0.000 0.000 0.000 0.000 k
663.120 450.719 m
660.671 450.719 658.367 452.015 658.367 454.895 C
658.367 457.631 660.671 458.927 663.120 458.927 C
665.567 458.927 667.871 457.631 667.871 454.895 C
667.871 452.015 665.855 450.719 663.120 450.719 C
f
0.000 0.000 0.000 0.000 k
626.111 457.343 m
623.231 457.343 621.503 459.503 621.503 462.239 C
621.503 464.831 623.231 466.991 625.967 466.991 C
629.135 466.991 630.863 464.831 630.863 462.239 C
630.863 459.503 628.991 457.343 626.111 457.343 C
f
0.000 0.000 0.000 1.000 K
0 j
0 J
0.215 w
[]0 d
0.000 0.000 0.000 0.000 k
1983.311 685.151 m
1924.271 685.151 L
1924.271 667.151 1918.079 632.015 1890.575 632.015 C
1570.607 632.015 L
1544.543 632.591 1544.543 669.455 1543.247 685.151 C
1482.623 685.151 L
1480.895 699.695 1481.327 713.519 1476.863 729.215 C
1485.503 734.831 L
1487.087 741.311 1487.807 746.351 1487.951 751.247 C
1499.327 823.535 1518.047 886.031 1553.471 953.999 C
1560.671 967.679 1576.223 976.751 1596.239 976.175 C
1624.751 976.175 1619.135 976.319 1647.503 976.319 C
1676.015 976.319 1704.959 976.175 1733.327 976.175 C
1761.695 976.175 1789.775 976.175 1818.431 976.175 C
1846.799 976.175 1852.847 976.175 1881.503 976.175 C
1899.215 973.439 1907.135 964.799 1912.751 953.999 C
1949.183 883.439 1966.751 823.247 1978.127 751.247 C
1981.439 731.375 L
1991.231 725.471 L
1986.479 713.519 1985.903 698.399 1983.311 685.151 C
b
0.000 0.000 0.000 1.000 K
0 j
0 J
0.215 w
[]0 d
0.000 0.000 0.000 1.000 k
1480.607 618.192 m
1486.511 596.303 1497.887 578.591 1514.159 578.159 C
1554.191 578.159 L
1554.191 511.199 L
1554.479 499.535 1480.607 500.111 1480.607 511.199 C
1480.607 618.192 L
b
0.000 0.000 0.000 1.000 K
0 j
0 J
0.215 w
[]0 d
0.000 0.000 0.000 1.000 k
1911.023 579.168 m
1957.391 579.168 L
1967.615 581.039 1979.999 598.607 1985.327 619.199 C
1984.463 509.903 L
1984.175 498.527 1911.167 498.959 1911.023 509.903 C
1911.023 579.168 L
b
u
u
0.000 0.000 0.000 1.000 K
0 j
0 J
0.215 w
[]0 d
1961.567 685.007 m
1960.559 691.343 1961.567 698.543 1961.567 710.639 C
1961.423 736.847 1962.575 764.351 1958.831 790.127 c
1950.623 844.271 1928.447 903.599 1909.007 950.255 C
1902.239 967.823 1893.167 968.399 1874.303 969.263 C
1791.647 972.143 1666.799 972.143 1584.863 969.263 C
1569.167 969.839 1562.975 965.519 1557.215 950.255 C
1540.943 906.623 1518.335 843.263 1508.975 791.567 c
1503.215 759.599 1507.391 741.887 1505.519 708.767 C
1505.519 685.439 L
S
U
U
0.000 0.000 0.000 1.000 K
0 j
0 J
0.215 w
[]0 d
1646.351 747.791 m
1646.351 753.551 1652.255 755.855 1657.007 755.855 C
1807.631 755.855 L
1812.239 755.855 1816.703 753.983 1816.559 747.791 C
1816.559 712.223 L
1816.415 699.839 1808.207 692.063 1791.071 692.063 C
1670.111 692.063 L
1652.255 692.063 1646.351 700.847 1646.351 712.223 C
1646.351 747.791 L
s
0.000 0.000 0.000 1.000 K
0 j
0 J
0.215 w
[]0 d
0.000 0.000 0.000 0.498 k
1646.351 747.791 m
1646.351 753.551 1652.255 755.855 1657.007 755.855 C
1807.631 755.855 L
1812.239 755.855 1816.703 753.983 1816.559 747.791 C
1816.559 743.327 L
1646.351 743.327 L
1646.351 747.791 L
b
u
u
0.000 0.000 0.000 1.000 K
0 j
0 J
0.215 w
[]0 d
1660.463 738.719 m
1660.463 715.391 L
1660.463 705.311 1668.959 695.951 1682.351 695.951 C
1780.991 695.951 L
1793.231 695.951 1802.303 705.311 1802.591 715.391 C
1802.591 738.719 L
S
U
U
0.000 0.000 0.000 1.000 K
0 j
0 J
0.215 w
[]0 d
1541.663 760.031 m
1541.663 766.079 1536.191 768.815 1528.559 768.815 C
1506.239 768.815 L
1505.663 744.911 1504.799 715.967 1505.087 689.327 C
1541.663 689.327 L
1541.663 760.031 L
s
0.000 0.000 0.000 1.000 K
0 j
0 J
0.215 w
[]0 d
1924.271 760.031 m
1924.271 766.079 1929.743 768.815 1937.375 768.815 C
1959.695 768.815 L
1960.271 744.911 1961.135 715.967 1960.847 689.327 C
1924.271 689.327 L
1924.271 760.031 L
s
0.000 0.000 0.000 1.000 K
0 j
0 J
0.215 w
[]0 d
0.000 0.000 0.000 0.200 k
1541.663 762.767 m
1541.663 764.783 1536.191 768.815 1528.559 768.815 C
1506.239 768.815 L
1505.663 761.039 1504.799 751.823 1505.087 743.327 C
1541.663 743.327 L
1541.663 762.767 L
b
0.000 0.000 0.000 1.000 K
0 j
0 J
0.215 w
[]0 d
0.000 0.000 0.000 0.200 k
1924.271 762.767 m
1924.271 764.783 1929.743 768.815 1937.375 768.815 C
1959.695 768.815 L
1960.271 761.039 1961.135 751.823 1960.847 743.327 C
1924.271 743.327 L
1924.271 762.767 L
b
0.000 0.000 0.000 1.000 K
0 j
0 J
0.215 w
[]0 d
0.000 0.000 0.000 0.498 k
1581.551 953.855 m
1631.663 956.735 1682.495 958.895 1733.183 958.895 c
1783.583 958.895 1834.703 957.023 1885.103 953.855 c
1891.295 953.855 1898.207 948.239 1900.799 941.471 c
1914.047 908.495 1939.679 855.935 1947.311 823.103 c
1948.895 816.911 1943.567 811.583 1935.503 811.583 c
1870.127 811.583 1798.703 811.583 1732.895 811.583 c
1667.519 811.583 1596.671 811.583 1531.871 811.583 c
1523.807 811.583 1519.199 816.623 1520.495 823.103 c
1528.415 857.519 1553.039 906.911 1565.999 941.471 c
1568.591 948.095 1575.791 953.855 1581.551 953.855 c
b
0.000 0.000 0.000 1.000 K
0 j
0 J
0.215 w
[]0 d
0.000 0.000 0.000 0.200 k
1585.439 950.111 m
1635.695 953.135 1682.495 954.863 1733.183 954.863 c
1783.583 954.863 1831.391 953.423 1881.791 950.111 c
1888.127 949.967 1895.327 943.343 1897.631 937.295 c
1911.599 900.575 1924.559 882.575 1933.775 844.127 c
1935.215 838.079 1930.175 832.463 1921.967 832.463 c
1856.735 832.463 1794.959 832.463 1729.295 832.463 c
1663.775 832.463 1608.911 832.031 1543.967 832.031 c
1535.903 832.031 1531.151 837.359 1532.591 843.551 c
1542.095 883.439 1554.479 900.431 1568.303 937.295 c
1570.607 943.343 1579.535 949.967 1585.439 950.111 c
b
0.000 0.000 0.000 1.000 K
0 j
0 J
0.215 w
[]0 d
0.000 0.000 0.000 0.498 k
1982.879 685.727 m
2012.111 688.319 1982.159 578.447 1956.671 578.447 C
1918.799 578.591 1881.503 578.879 1844.351 578.879 C
1807.199 578.879 1770.047 578.879 1732.751 578.879 C
1695.455 578.879 1658.447 578.879 1621.151 578.879 C
1584.287 578.879 1546.991 578.591 1510.559 578.447 C
1480.463 577.151 1460.447 686.015 1478.879 685.727 C
1542.815 685.727 L
1544.255 669.455 1544.255 632.735 1570.319 631.871 C
1890.575 631.871 L
1918.223 631.871 1924.127 667.007 1924.415 685.727 C
1982.879 685.727 L
b
u
u
0.000 0.000 0.000 1.000 K
0 j
0 J
0.215 w
[]0 d
1493.567 769.679 m
1974.095 769.679 L
S
U
U
0.000 0.000 0.000 1.000 K
0 j
0 J
0.215 w
[]0 d
0.000 0.000 0.000 1.000 k
1541.087 671.615 m
1472.687 671.615 L
1470.959 668.591 1472.255 668.591 1471.535 662.543 C
1542.383 662.543 L
1541.087 671.615 L
b
0.000 0.000 0.000 1.000 K
0 j
0 J
0.215 w
[]0 d
0.000 0.000 0.000 1.000 k
1924.703 671.615 m
1993.103 671.615 L
1994.831 668.591 1993.535 668.591 1994.255 662.543 C
1923.407 662.543 L
1924.703 671.615 L
b
0.000 0.000 0.000 1.000 K
0 j
0 J
0.215 w
[]0 d
0.000 0.000 0.000 0.498 k
1501.919 838.367 m
1466.063 838.367 L
1461.311 838.367 1457.567 834.623 1457.567 829.871 C
1457.567 814.175 L
1457.567 809.279 1461.311 805.535 1466.063 805.535 C
1498.463 803.087 L
1506.239 832.751 L
1506.239 837.647 1504.799 838.367 1501.919 838.367 C
b
0.000 0.000 0.000 1.000 K
0 j
0 J
0.215 w
[]0 d
0.000 0.000 0.000 0.498 k
1964.015 838.367 m
2000.015 838.367 L
2005.055 838.367 2008.655 834.623 2008.655 829.871 C
2008.655 814.175 L
2008.655 809.279 2005.055 805.535 2000.015 805.535 C
1967.615 803.087 L
1959.695 832.751 L
1959.695 837.647 1961.135 838.367 1964.015 838.367 C
b
0.000 0.000 0.000 1.000 K
0 j
0 J
0.215 w
[]0 d
0.000 0.000 0.000 1.000 k
1625.183 624.527 m
1487.519 624.383 L
1487.663 620.783 L
1625.615 620.639 L
1625.183 624.527 L
b
0.000 0.000 0.000 1.000 K
0 j
0 J
0.215 w
[]0 d
0.000 0.000 0.000 1.000 k
1808.783 624.383 m
1652.255 624.383 L
1652.399 620.783 L
1808.639 620.639 L
1808.783 624.383 L
b
0.000 0.000 0.000 1.000 K
0 j
0 J
0.215 w
[]0 d
0.000 0.000 0.000 1.000 k
1976.543 624.527 m
1838.015 624.383 L
1837.727 620.783 L
1976.399 620.639 L
1976.543 624.527 L
b
0.000 0.000 0.000 1.000 K
0 j
0 J
0.215 w
[]0 d
0.000 0.000 0.000 1.000 k
1971.071 604.943 m
1494.000 604.367 L
1494.287 600.623 L
1969.631 601.199 L
1971.071 604.943 L
b
0.000 0.000 0.000 1.000 K
0 j
0 J
0.215 w
[]0 d
0.000 0.000 0.000 1.000 k
1634.975 628.559 m
1644.191 628.559 L
1646.207 628.559 1647.503 627.120 1647.503 625.103 c
1647.503 590.543 L
1647.503 588.527 1646.207 586.943 1644.191 586.943 c
1634.975 586.943 L
1632.959 586.943 1631.663 588.527 1631.663 590.543 c
1631.663 625.103 L
1631.663 627.120 1632.959 628.559 1634.975 628.559 c
b
0.000 0.000 0.000 1.000 K
0 j
0 J
0.215 w
[]0 d
0.000 0.000 0.000 1.000 k
1818.719 628.559 m
1827.935 628.559 L
1829.951 628.559 1831.391 627.120 1831.391 625.103 c
1831.391 590.543 L
1831.391 588.527 1829.951 586.943 1827.935 586.943 c
1818.719 586.943 L
1816.847 586.943 1815.407 588.527 1815.407 590.543 c
1815.407 625.103 L
1815.407 627.120 1816.847 628.559 1818.719 628.559 c
b
0.000 0.000 0.000 1.000 K
0 j
0 J
0.215 w
[]0 d
1731.599 687.311 m
1734.767 687.311 1737.503 684.719 1737.503 681.407 c
1737.503 678.096 1734.767 675.503 1731.599 675.503 c
1728.287 675.503 1725.695 678.096 1725.695 681.407 c
1725.695 684.719 1728.287 687.311 1731.599 687.311 c
s
0.000 0.000 0.000 1.000 K
0 j
0 J
0.215 w
[]0 d
0.000 0.000 0.000 0.200 k
1504.799 728.351 m
1541.087 728.351 L
1541.087 743.327 L
1504.799 743.327 L
1504.799 728.351 L
b
u
0.000 0.000 0.000 1.000 K
0 j
0 J
0.215 w
[]0 d
0.000 0.000 0.000 0.200 k
1960.991 743.327 m
1924.559 743.327 L
1924.559 728.351 L
1960.991 728.351 L
1960.991 743.327 L
1960.991 743.327 L
b
0.000 0.000 0.000 1.000 K
0 j
0 J
0.215 w
[]0 d
1960.991 743.327 m
1924.559 743.327 L
1924.559 728.351 L
1960.991 728.351 L
1960.991 743.327 L
s
U
0.000 0.000 0.000 1.000 K
0 j
0 J
0.215 w
[]0 d
0.000 0.000 0.000 0.200 k
1504.799 713.375 m
1541.087 713.375 L
1541.087 728.351 L
1504.799 728.351 L
1504.799 713.375 L
b
u
0.000 0.000 0.000 1.000 K
0 j
0 J
0.215 w
[]0 d
0.000 0.000 0.000 0.200 k
1960.991 728.351 m
1924.559 728.351 L
1924.559 713.375 L
1960.991 713.375 L
1960.991 728.351 L
1960.991 728.351 L
b
0.000 0.000 0.000 1.000 K
0 j
0 J
0.215 w
[]0 d
1960.991 728.351 m
1924.559 728.351 L
1924.559 713.375 L
1960.991 713.375 L
1960.991 728.351 L
s
U
0.000 0.000 0.000 1.000 K
0 j
0 J
0.215 w
[]0 d
0.000 0.000 0.000 0.200 k
1504.799 689.471 m
1541.087 689.471 L
1541.087 713.375 L
1504.799 713.375 L
1504.799 689.471 L
b
u
0.000 0.000 0.000 1.000 K
0 j
0 J
0.215 w
[]0 d
0.000 0.000 0.000 0.200 k
1960.991 713.375 m
1924.559 713.375 L
1924.559 689.327 L
1960.991 689.327 L
1960.991 713.375 L
1960.991 713.375 L
b
0.000 0.000 0.000 1.000 K
0 j
0 J
0.215 w
[]0 d
1960.991 713.375 m
1924.559 713.375 L
1924.559 689.327 L
1960.991 689.327 L
1960.991 713.375 L
s
U
0.000 0.000 0.000 1.000 K
0 j
0 J
0.215 w
[]0 d
0.000 0.000 0.000 0.000 k
1086.192 673.199 m
1087.631 673.055 L
1098.432 686.591 1120.895 717.119 1178.351 717.119 c
1236.096 717.119 1258.847 690.911 1271.663 673.775 C
1396.079 673.631 L
1395.647 682.847 1364.399 688.175 1354.319 691.199 C
1350.431 698.111 1351.583 702.431 1348.703 716.111 C
1347.695 728.351 1342.223 764.927 1320.192 772.847 C
1249.487 802.223 1180.223 817.343 1106.351 836.495 C
947.519 940.319 L
924.767 952.271 877.823 964.511 850.463 965.519 C
668.735 978.911 300.383 972.431 171.791 972.431 c
149.039 972.431 116.207 965.087 109.007 947.807 C
82.223 899.855 62.927 870.911 41.759 817.919 C
34.704 812.447 23.327 807.407 37.007 795.599 C
34.704 765.647 L
34.704 685.295 L
33.551 682.127 L
231.551 680.543 L
233.567 682.703 235.871 685.439 237.887 687.311 c
251.279 700.559 273.743 713.519 320.543 713.519 C
371.087 713.663 399.887 690.335 412.847 675.503 C
431.855 653.759 435.455 618.048 437.615 590.975 C
1059.119 591.839 L
1064.015 620.351 1071.359 650.447 1086.192 673.199 C
b
0.000 0.000 0.000 1.000 K
0 j
0 J
0.215 w
[]0 d
0.000 0.000 0.000 0.000 k
316.512 1266.336 m
315.072 1266.336 L
304.271 1280.015 281.807 1310.255 224.495 1310.255 c
166.607 1310.255 143.855 1284.048 131.039 1267.055 C
6.623 1266.767 L
7.055 1275.983 38.303 1281.455 48.383 1284.336 C
52.271 1291.391 51.119 1295.567 53.999 1309.391 C
55.007 1321.487 60.479 1358.351 82.512 1366.271 C
153.215 1395.647 222.479 1410.767 296.351 1429.775 C
455.327 1533.743 L
478.223 1545.695 524.879 1557.935 552.384 1558.943 C
733.967 1572.335 1102.319 1565.855 1230.911 1565.855 c
1253.663 1565.855 1286.495 1558.511 1293.695 1541.231 C
1320.479 1493.279 1339.775 1464.335 1360.943 1411.199 C
1368.000 1405.727 1379.375 1400.687 1365.695 1388.879 C
1368.000 1359.071 L
1368.000 1278.432 L
1369.151 1275.407 L
1171.151 1273.823 L
1169.279 1275.983 1166.831 1278.575 1164.959 1280.591 c
1151.423 1293.839 1129.103 1306.655 1082.159 1306.655 C
1031.615 1306.799 1002.959 1283.471 989.855 1268.783 C
970.991 1247.039 967.247 1211.183 965.087 1184.255 C
343.583 1184.975 L
338.687 1213.631 331.343 1243.583 316.512 1266.336 C
b
0.000 0.000 0.000 1.000 K
0 j
0 J
0.215 w
[]0 d
0.000 0.000 0.000 0.498 k
416.735 591.264 m
416.015 573.264 410.399 555.839 399.743 540.575 c
369.647 497.663 309.743 487.007 266.687 517.103 c
241.631 534.671 227.519 562.319 226.079 590.975 C
199.295 589.967 L
203.471 634.463 214.127 665.567 232.271 680.543 C
233.999 682.703 236.591 685.439 238.463 687.311 c
251.855 700.559 274.319 713.519 321.263 713.519 C
371.663 713.663 400.607 690.335 413.567 675.503 C
432.431 654.048 436.175 618.335 438.335 591.407 C
417.023 591.264 L
417.023 591.264 L
416.735 591.264 L
b
0.000 0.000 0.000 1.000 K
0 j
0 J
0.215 w
[]0 d
0.000 0.000 0.000 0.498 k
985.967 1184.399 m
986.831 1166.399 992.303 1149.119 1003.103 1133.855 c
1033.199 1090.799 1093.103 1080.144 1136.015 1110.384 c
1161.071 1127.951 1175.183 1155.599 1176.767 1184.111 C
1203.407 1183.247 L
1199.231 1227.743 1188.576 1258.847 1170.432 1273.823 C
1168.703 1275.983 1166.111 1278.575 1164.240 1280.591 c
1150.847 1293.695 1128.384 1306.655 1081.439 1306.655 C
1031.039 1306.799 1002.095 1283.471 989.279 1268.783 C
970.271 1247.327 966.671 1211.471 964.511 1184.543 C
985.679 1184.399 L
985.823 1184.399 L
985.967 1184.399 L
b
0.000 0.000 0.000 1.000 K
0 j
0 J
0.215 w
[]0 d
0.000 0.000 0.000 0.498 k
266.687 517.103 m
223.775 547.199 212.975 607.103 243.215 650.159 c
273.311 693.072 333.359 703.871 376.415 673.631 c
419.327 643.535 429.839 583.631 399.743 540.575 c
369.647 497.663 309.743 487.007 266.687 517.103 c
b
0.000 0.000 0.000 1.000 K
0 j
0 J
0.215 w
[]0 d
0.000 0.000 0.000 0.498 k
1136.015 1110.384 m
1178.927 1140.480 1189.727 1200.240 1159.487 1243.295 c
1129.391 1286.351 1069.343 1297.007 1026.288 1266.911 c
983.375 1236.815 972.863 1176.911 1003.103 1133.855 c
1033.199 1090.799 1093.103 1080.144 1136.015 1110.384 c
b
0.000 0.000 0.000 1.000 K
0 j
0 J
0.215 w
[]0 d
0.000 0.000 0.000 0.498 k
266.687 517.103 m
223.775 547.199 212.975 607.103 243.215 650.159 c
273.311 693.072 333.359 703.871 376.415 673.631 c
419.327 643.535 429.839 583.631 399.743 540.575 c
369.647 497.663 309.743 487.007 266.687 517.103 c
b
0.000 0.000 0.000 1.000 K
0 j
0 J
0.215 w
[]0 d
0.000 0.000 0.000 0.498 k
1136.015 1110.384 m
1178.927 1140.480 1189.727 1200.240 1159.487 1243.295 c
1129.391 1286.351 1069.343 1297.007 1026.288 1266.911 c
983.375 1236.815 972.863 1176.911 1003.103 1133.855 c
1033.199 1090.799 1093.103 1080.144 1136.015 1110.384 c
b
0.000 0.000 0.000 1.000 K
0 j
0 J
0.215 w
[]0 d
0.000 0.000 0.000 1.000 k
266.687 517.103 m
223.775 547.199 212.975 607.103 243.215 650.159 c
273.311 693.072 333.359 703.871 376.415 673.631 c
419.327 643.535 429.839 583.631 399.743 540.575 c
369.647 497.663 309.743 487.007 266.687 517.103 c
b
0.000 0.000 0.000 1.000 K
0 j
0 J
0.215 w
[]0 d
0.000 0.000 0.000 1.000 k
1136.015 1110.384 m
1178.927 1140.480 1189.727 1200.240 1159.487 1243.295 c
1129.391 1286.351 1069.343 1297.007 1026.288 1266.911 c
983.375 1236.815 972.863 1176.911 1003.103 1133.855 c
1033.199 1090.799 1093.103 1080.144 1136.015 1110.384 c
b
u
u
u
0.000 0.000 0.000 1.000 K
0 j
0 J
0.215 w
[]0 d
446.255 604.511 m
445.391 648.863 429.263 681.983 404.927 705.743 C
S
U
U
u
u
0.000 0.000 0.000 1.000 K
0 j
0 J
0.215 w
[]0 d
446.255 604.511 m
445.391 648.863 429.263 681.983 404.927 705.743 C
S
U
U
U
u
u
u
0.000 0.000 0.000 1.000 K
0 j
0 J
0.215 w
[]0 d
956.447 1197.791 m
957.311 1242.144 973.583 1275.263 997.775 1298.879 C
S
U
U
u
u
0.000 0.000 0.000 1.000 K
0 j
0 J
0.215 w
[]0 d
956.447 1197.791 m
957.311 1242.144 973.583 1275.263 997.775 1298.879 C
S
U
U
U
0.000 0.000 0.000 1.000 K
0 j
0 J
0.215 w
[]0 d
0.000 0.000 0.000 0.498 k
198.863 575.423 m
201.311 608.831 205.919 649.295 226.079 674.639 c
227.519 676.511 229.535 679.247 231.407 681.551 C
33.119 682.847 L
21.743 683.711 18.143 679.967 15.119 674.639 C
5.615 669.743 9.503 662.975 8.208 660.383 C
10.367 615.455 L
10.799 601.055 29.519 595.151 41.759 593.855 C
45.503 581.759 52.127 575.855 79.919 575.855 C
198.863 575.423 L
b
0.000 0.000 0.000 1.000 K
0 j
0 J
0.215 w
[]0 d
0.000 0.000 0.000 0.498 k
1203.839 1168.703 m
1201.391 1202.111 1196.783 1242.575 1176.767 1268.063 c
1175.183 1269.647 1173.167 1272.384 1171.295 1274.687 C
1369.583 1275.983 L
1380.959 1276.847 1384.559 1273.247 1387.583 1268.063 C
1397.087 1262.879 1393.199 1256.255 1394.495 1253.663 C
1392.335 1208.591 L
1391.903 1194.192 1373.183 1188.432 1360.943 1187.135 C
1357.199 1174.895 1350.575 1169.135 1322.783 1169.135 C
1203.839 1168.703 L
b
u
u
u
0.000 0.000 0.000 1.000 K
0 j
0 J
0.215 w
[]0 d
219.023 682.127 m
237.887 716.255 279.072 736.847 315.647 737.135 c
358.559 737.567 400.895 717.983 418.895 689.183 C
S
U
U
u
u
0.000 0.000 0.000 1.000 K
0 j
0 J
0.215 w
[]0 d
219.023 682.127 m
237.887 716.255 279.072 736.847 315.647 737.135 c
358.559 737.567 400.895 717.983 418.895 689.183 C
S
U
U
U
u
u
u
0.000 0.000 0.000 1.000 K
0 j
0 J
0.215 w
[]0 d
1183.679 1275.263 m
1164.959 1309.679 1123.631 1330.127 1087.199 1330.415 c
1044.144 1330.703 1001.807 1311.263 983.807 1282.319 C
S
U
U
u
u
0.000 0.000 0.000 1.000 K
0 j
0 J
0.215 w
[]0 d
1183.679 1275.263 m
1164.959 1309.679 1123.631 1330.127 1087.199 1330.415 c
1044.144 1330.703 1001.807 1311.263 983.807 1282.319 C
S
U
U
U
0.000 0.000 0.000 1.000 K
0 j
0 J
0.215 w
[]0 d
0.000 0.000 0.000 0.000 k
360.000 649.871 m
390.815 628.415 398.303 586.079 376.991 555.695 C
355.391 525.024 313.055 517.679 282.383 539.135 C
252.143 560.303 244.511 602.639 265.967 633.168 C
287.279 663.551 329.903 671.039 360.000 649.871 C
b
0.000 0.000 0.000 1.000 K
0 j
0 J
0.215 w
[]0 d
0.000 0.000 0.000 0.000 k
1042.703 1243.151 m
1011.887 1221.695 1004.399 1179.359 1025.711 1148.831 C
1047.311 1118.303 1089.647 1110.959 1120.319 1132.415 C
1150.559 1153.583 1158.192 1196.063 1136.735 1226.303 C
1115.423 1256.831 1072.799 1264.319 1042.703 1243.151 C
b
0.000 0.000 0.000 1.000 K
0 j
0 J
0.215 w
[]0 d
0.000 0.000 0.000 1.000 k
216.143 668.303 m
10.655 668.303 L
10.655 661.823 L
210.383 661.823 L
216.143 668.303 L
b
0.000 0.000 0.000 1.000 K
0 j
0 J
0.215 w
[]0 d
0.000 0.000 0.000 1.000 k
1186.559 1261.583 m
1392.048 1261.583 L
1392.048 1254.959 L
1192.319 1254.959 L
1186.559 1261.583 L
b
0.000 0.000 0.000 1.000 K
0 j
0 J
0.215 w
[]0 d
0.000 0.000 0.000 1.000 k
199.583 620.927 m
11.951 620.927 L
12.815 616.895 L
199.007 616.895 L
199.583 620.927 L
b
0.000 0.000 0.000 1.000 K
0 j
0 J
0.215 w
[]0 d
0.000 0.000 0.000 1.000 k
1203.119 1214.207 m
1390.751 1214.207 L
1389.887 1210.175 L
1203.695 1210.175 L
1203.119 1214.207 L
b
0.000 0.000 0.000 1.000 K
0 j
0 J
0.215 w
[]0 d
935.423 1318.895 m
925.343 1318.895 916.991 1310.543 916.991 1300.463 c
916.991 1290.384 925.343 1282.175 935.423 1282.175 c
945.503 1282.175 953.711 1290.384 953.711 1300.463 c
953.711 1310.543 945.503 1318.895 935.423 1318.895 c
s
0.000 0.000 0.000 1.000 K
0 j
0 J
0.215 w
[]0 d
0.000 0.000 0.000 0.498 k
183.743 954.575 m
413.855 954.575 L
428.111 954.575 432.575 943.919 431.711 934.415 C
425.087 830.879 L
425.087 819.791 415.151 811.007 397.439 810.575 C
139.103 810.575 L
124.559 809.279 103.391 819.791 110.015 838.943 C
147.311 933.551 L
153.935 946.943 166.031 955.151 183.743 954.575 C
b
0.000 0.000 0.000 1.000 K
0 j
0 J
0.215 w
[]0 d
0.000 0.000 0.000 0.498 k
1219.103 1547.999 m
988.847 1547.999 L
974.735 1547.999 970.127 1537.343 970.991 1527.839 C
977.615 1424.303 L
977.615 1413.215 987.551 1404.287 1005.263 1403.855 C
1263.599 1403.855 L
1278.144 1402.559 1299.311 1413.215 1292.687 1432.223 C
1255.391 1526.975 L
1248.911 1540.367 1236.671 1548.575 1219.103 1547.999 C
b
u
u
0.000 0.000 0.000 1.000 K
0 j
0 J
0.215 w
[]0 d
142.127 961.343 m
105.695 894.383 72.863 843.983 70.271 767.519 C
S
U
U
u
u
0.000 0.000 0.000 1.000 K
0 j
0 J
0.215 w
[]0 d
1260.575 1554.767 m
1297.007 1487.807 1329.839 1437.407 1332.431 1360.943 C
S
U
U
u
u
0.000 0.000 0.000 1.000 K
0 j
0 J
0.215 w
[]0 d
124.271 961.199 m
80.351 899.423 46.655 834.479 40.607 767.231 C
S
U
U
u
u
0.000 0.000 0.000 1.000 K
0 j
0 J
0.215 w
[]0 d
1278.432 1554.623 m
1322.351 1492.847 1356.048 1427.759 1362.096 1360.511 C
S
U
U
0.000 0.000 0.000 1.000 K
0 j
0 J
0.215 w
[]0 d
0.000 0.000 0.000 0.498 k
69.839 763.919 m
435.455 763.919 L
435.167 759.455 L
70.128 759.455 L
69.839 763.919 L
b
0.000 0.000 0.000 1.000 K
0 j
0 J
0.215 w
[]0 d
0.000 0.000 0.000 0.498 k
1332.863 1357.343 m
967.391 1357.343 L
967.535 1352.735 L
1332.575 1352.735 L
1332.863 1357.343 L
b
0.000 0.000 0.000 1.000 K
0 j
0 J
0.215 w
[]0 d
0.000 0.000 0.000 0.498 k
1277.135 592.127 m
1276.559 574.127 1270.943 556.127 1260.000 540.431 c
1229.759 497.375 1170.000 486.863 1126.943 516.959 c
1101.311 534.959 1087.343 563.327 1086.192 592.415 C
1059.407 591.983 L
1064.303 620.639 1071.647 650.735 1086.480 673.487 C
1087.631 673.343 L
1098.432 686.591 1120.895 717.119 1178.351 717.119 c
1236.096 717.119 1258.847 690.911 1271.663 674.063 C
1283.759 658.799 1290.384 632.159 1290.384 592.127 C
1277.135 592.127 L
b
0.000 0.000 0.000 1.000 K
0 j
0 J
0.215 w
[]0 d
0.000 0.000 0.000 0.498 k
125.567 1185.407 m
126.143 1167.407 131.759 1149.407 142.703 1133.711 c
172.943 1090.655 232.703 1080.000 275.759 1110.240 c
301.391 1128.096 315.503 1156.463 316.512 1185.695 C
343.295 1185.263 L
338.399 1214.063 331.055 1244.015 316.223 1266.623 C
315.072 1266.623 L
304.271 1280.015 281.807 1310.255 224.495 1310.255 c
166.607 1310.255 143.855 1284.048 131.039 1267.199 C
118.943 1251.935 112.319 1225.439 112.319 1185.407 C
125.567 1185.407 L
b
0.000 0.000 0.000 1.000 K
0 j
0 J
0.215 w
[]0 d
0.000 0.000 0.000 0.498 k
1271.087 673.631 m
1291.823 645.551 1290.527 610.559 1291.103 578.159 C
1324.367 578.447 1357.487 567.935 1358.927 595.295 C
1365.695 604.511 1381.823 608.831 1388.447 619.919 C
1392.767 635.903 1394.927 652.895 1395.647 668.447 C
1395.791 669.887 1397.087 673.343 1395.791 673.343 c
1271.087 673.631 L
b
0.000 0.000 0.000 1.000 K
0 j
0 J
0.215 w
[]0 d
0.000 0.000 0.000 0.498 k
131.615 1266.767 m
110.879 1238.831 112.175 1203.695 111.599 1171.439 C
78.335 1171.583 45.215 1161.071 43.775 1188.432 C
37.007 1197.647 20.879 1202.111 14.255 1213.055 C
9.935 1229.183 7.775 1245.887 7.055 1261.583 C
6.911 1263.167 5.615 1266.623 6.911 1266.623 c
131.615 1266.767 L
b
0.000 0.000 0.000 1.000 K
0 j
0 J
0.215 w
[]0 d
741.743 961.199 m
812.015 961.199 L
855.359 961.199 888.191 947.951 916.703 928.223 C
1017.359 847.727 L
1033.343 835.199 1040.831 821.231 1040.831 802.367 C
1040.831 734.399 1040.831 667.151 1013.471 604.799 C
735.839 604.799 L
734.111 723.599 735.839 842.399 741.743 961.199 C
s
0.000 0.000 0.000 1.000 K
0 j
0 J
0.215 w
[]0 d
660.959 1554.623 m
590.543 1554.623 L
547.487 1554.623 514.511 1541.375 486.143 1521.647 C
385.343 1441.151 L
369.359 1428.623 361.871 1414.655 361.871 1395.647 C
361.871 1327.823 361.871 1260.432 389.231 1197.935 C
666.719 1197.935 L
668.447 1316.879 666.719 1435.679 660.959 1554.623 C
s
u
u
0.000 0.000 0.000 1.000 K
0 j
0 J
0.215 w
[]0 d
734.111 604.511 m
477.791 604.511 L
476.927 648.863 460.799 681.983 436.463 705.743 C
436.463 760.463 L
436.463 777.455 437.615 792.575 439.343 809.567 C
447.983 961.343 L
S
U
U
u
u
0.000 0.000 0.000 1.000 K
0 j
0 J
0.215 w
[]0 d
146.735 764.639 m
1053.791 764.639 L
1334.303 759.743 L
S
U
U
u
u
0.000 0.000 0.000 1.000 K
0 j
0 J
0.215 w
[]0 d
1255.967 1357.919 m
348.911 1357.919 L
68.399 1353.023 L
S
U
U
u
u
0.000 0.000 0.000 1.000 K
0 j
0 J
0.215 w
[]0 d
176.687 759.023 m
1053.791 759.023 L
1334.303 754.127 L
S
U
U
u
u
0.000 0.000 0.000 1.000 K
0 j
0 J
0.215 w
[]0 d
1226.015 1352.303 m
348.911 1352.303 L
68.399 1347.407 L
S
U
U
u
u
0.000 0.000 0.000 1.000 K
0 j
0 J
0.215 w
[]0 d
904.175 936.431 m
873.647 952.271 854.927 960.911 797.471 961.199 C
232.271 961.199 L
S
U
U
u
u
0.000 0.000 0.000 1.000 K
0 j
0 J
0.215 w
[]0 d
498.527 1529.855 m
529.199 1545.695 547.919 1554.335 605.231 1554.623 C
1170.432 1554.623 L
S
U
U
u
u
0.000 0.000 0.000 1.000 K
0 j
0 J
0.215 w
[]0 d
1051.343 835.631 m
1069.199 824.687 1087.775 822.527 1107.503 819.071 C
1183.823 802.655 1255.967 791.279 1329.551 765.791 C
S
U
U
u
u
0.000 0.000 0.000 1.000 K
0 j
0 J
0.215 w
[]0 d
351.359 1428.911 m
333.647 1417.967 314.927 1415.807 295.199 1412.351 C
218.879 1396.079 146.735 1384.559 73.152 1359.215 C
S
U
U
u
u
0.000 0.000 0.000 1.000 K
0 j
0 J
0.215 w
[]0 d
1049.615 591.407 m
1052.207 618.767 1058.399 639.647 1066.895 663.983 C
1075.967 716.111 1137.599 736.703 1173.743 737.135 c
1216.799 737.567 1259.135 717.983 1277.135 689.183 C
1357.199 688.463 L
S
U
U
u
u
0.000 0.000 0.000 1.000 K
0 j
0 J
0.215 w
[]0 d
354.527 1185.263 m
352.799 1208.303 344.879 1238.111 337.967 1256.831 C
314.207 1324.511 252.143 1329.983 228.959 1330.415 c
185.903 1330.991 143.567 1311.263 125.567 1282.319 C
45.503 1281.743 L
S
U
U
u
u
0.000 0.000 0.000 1.000 K
0 j
0 J
0.215 w
[]0 d
1067.327 663.551 m
1074.096 706.751 1123.343 736.559 1173.743 737.135 c
1216.799 737.855 1259.135 717.983 1277.135 689.183 C
1357.199 688.463 L
S
U
U
u
u
0.000 0.000 0.000 1.000 K
0 j
0 J
0.215 w
[]0 d
338.255 1256.831 m
320.255 1306.511 280.656 1329.695 228.959 1330.415 c
185.903 1330.847 143.567 1311.263 125.567 1282.319 C
45.503 1281.743 L
S
U
U
0.000 0.000 0.000 1.000 K
0 j
0 J
0.215 w
[]0 d
0.000 0.000 0.000 1.000 k
1126.943 516.959 m
1083.887 547.199 1073.231 607.103 1103.327 650.159 c
1133.567 693.215 1193.471 703.871 1236.671 673.631 c
1279.727 643.535 1290.240 583.631 1260.000 540.431 c
1229.759 497.375 1170.000 486.863 1126.943 516.959 c
b
0.000 0.000 0.000 1.000 K
0 j
0 J
0.215 w
[]0 d
0.000 0.000 0.000 1.000 k
275.759 1110.240 m
318.815 1140.336 329.471 1200.240 299.375 1243.295 c
269.135 1286.495 209.231 1297.007 166.031 1266.911 c
122.975 1236.671 112.463 1176.767 142.703 1133.711 c
172.943 1090.655 232.703 1080.000 275.759 1110.240 c
b
0.000 0.000 0.000 1.000 K
0 j
0 J
0.215 w
[]0 d
0.000 0.000 0.000 0.000 k
1220.255 650.015 m
1251.071 628.415 1258.559 585.935 1237.247 555.407 C
1215.791 524.735 1173.311 517.391 1142.495 539.135 C
1112.255 560.159 1104.768 602.495 1126.079 633.168 C
1147.391 663.695 1190.015 671.183 1220.255 650.015 C
b
0.000 0.000 0.000 1.000 K
0 j
0 J
0.215 w
[]0 d
0.000 0.000 0.000 0.000 k
182.447 1243.151 m
151.631 1221.695 144.143 1179.071 165.455 1148.687 C
186.911 1118.015 229.391 1110.672 260.207 1132.127 C
290.447 1153.295 298.079 1195.775 276.623 1226.447 C
255.311 1256.831 212.687 1264.319 182.447 1243.151 C
b
0.000 0.000 0.000 1.000 K
0 j
0 J
0.215 w
[]0 d
0.000 0.000 0.000 0.098 k
972.575 865.439 m
1002.383 842.687 L
1013.183 835.631 1021.679 818.351 1004.975 816.911 C
972.575 817.055 L
972.575 865.439 L
b
0.000 0.000 0.000 1.000 K
0 j
0 J
0.215 w
[]0 d
0.000 0.000 0.000 0.098 k
430.271 1458.863 m
400.319 1436.111 L
389.519 1428.911 381.023 1411.775 397.727 1410.191 C
430.271 1410.479 L
430.271 1458.863 L
b
0.000 0.000 0.000 1.000 K
0 j
0 J
0.215 w
[]0 d
0.000 0.000 0.000 1.000 k
10.799 1262.735 m
118.799 1262.735 L
115.055 1253.951 L
10.943 1253.951 L
10.943 1257.263 9.791 1260.000 10.799 1262.735 C
b
0.000 0.000 0.000 1.000 K
0 j
0 J
0.215 w
[]0 d
0.000 0.000 0.000 1.000 k
1388.015 628.415 m
1291.679 628.415 L
1293.119 624.671 L
1387.727 624.671 L
1388.015 628.415 L
b
0.000 0.000 0.000 1.000 K
0 j
0 J
0.215 w
[]0 d
0.000 0.000 0.000 1.000 k
14.687 1221.695 m
111.023 1221.695 L
109.583 1217.807 L
14.975 1217.807 L
14.687 1221.695 L
b
0.000 0.000 0.000 1.000 K
0 j
0 J
0.215 w
[]0 d
0.000 0.000 0.000 0.498 k
498.095 955.295 m
708.335 955.295 L
722.591 955.295 727.199 944.639 726.335 934.847 C
725.471 831.455 L
725.471 820.079 715.535 811.295 697.679 810.863 C
483.695 810.863 L
461.807 811.295 457.055 818.639 457.199 839.231 C
461.807 934.127 L
464.399 949.247 472.031 955.295 498.095 955.295 C
b
0.000 0.000 0.000 1.000 K
0 j
0 J
0.215 w
[]0 d
0.000 0.000 0.000 0.498 k
904.607 1548.719 m
694.223 1548.719 L
679.967 1548.719 675.503 1538.063 676.367 1528.271 C
677.231 1424.735 L
677.231 1413.503 687.167 1404.575 705.024 1404.144 C
919.007 1404.144 L
941.039 1404.575 945.791 1412.063 945.503 1432.655 C
941.039 1527.551 L
938.447 1542.671 930.671 1548.719 904.607 1548.719 C
b
0.000 0.000 0.000 1.000 K
0 j
0 J
0.215 w
[]0 d
0.000 0.000 0.000 0.498 k
1003.391 848.015 m
892.799 932.975 L
871.775 944.927 847.151 951.407 820.511 954.143 C
771.119 955.295 L
757.007 955.295 752.399 944.495 753.263 934.847 C
754.127 831.311 L
754.127 820.079 764.063 811.151 781.919 810.719 C
985.823 810.719 L
1011.599 811.007 L
1031.615 810.287 1020.095 836.063 1003.391 848.015 C
b
0.000 0.000 0.000 1.000 K
0 j
0 J
0.215 w
[]0 d
0.000 0.000 0.000 0.498 k
399.311 1441.439 m
509.903 1526.399 L
531.072 1538.351 555.551 1544.831 582.192 1547.567 C
631.439 1548.719 L
645.839 1548.719 650.159 1537.919 649.295 1528.271 C
648.431 1424.735 L
648.431 1413.359 638.495 1404.575 620.639 1404.144 C
416.879 1404.144 L
391.103 1404.287 L
371.087 1403.711 382.607 1429.343 399.311 1441.439 C
b
0.000 0.000 0.000 1.000 K
0 j
0 J
0.215 w
[]0 d
0.000 0.000 0.000 0.200 k
708.191 949.391 m
716.111 949.103 719.711 946.223 720.431 938.159 C
720.431 936.719 L
720.431 934.991 L
719.567 831.599 L
718.991 824.543 715.967 821.519 709.631 818.639 C
705.743 817.199 701.711 816.623 697.391 816.479 C
483.695 816.479 L
478.223 816.623 472.031 816.767 467.423 820.223 C
462.671 824.543 462.815 833.039 462.815 839.087 C
467.279 933.263 L
469.295 943.055 472.895 946.367 482.687 948.383 C
487.727 949.247 493.199 949.391 498.095 949.391 C
708.191 949.391 L
b
0.000 0.000 0.000 1.000 K
0 j
0 J
0.215 w
[]0 d
0.000 0.000 0.000 0.200 k
694.511 1542.815 m
686.591 1542.527 682.991 1539.647 682.127 1531.583 C
682.127 1530.143 L
682.271 1528.415 L
683.135 1425.023 L
683.711 1417.823 686.735 1414.943 692.927 1412.063 C
696.959 1410.479 700.847 1410.048 705.167 1409.759 C
919.151 1409.759 L
924.623 1410.048 930.815 1410.191 935.423 1413.503 C
940.175 1417.967 939.887 1426.463 939.887 1432.367 C
935.423 1526.687 L
933.551 1536.479 929.951 1539.791 920.015 1541.807 C
914.975 1542.671 909.791 1542.815 904.607 1542.815 C
694.511 1542.815 L
b
0.000 0.000 0.000 1.000 K
0 j
0 J
0.215 w
[]0 d
0.000 0.000 0.000 0.200 k
866.015 938.591 m
858.383 941.183 850.175 943.631 841.967 945.071 C
834.911 946.511 827.855 947.519 820.799 948.383 C
771.839 949.391 L
763.775 948.815 760.319 945.791 759.455 938.303 C
759.455 902.735 760.175 867.311 760.463 831.743 C
761.039 823.247 766.511 819.503 774.575 817.487 C
777.023 817.055 L
779.759 816.767 L
782.639 816.623 L
970.271 816.623 L
970.559 866.447 L
889.919 928.367 L
882.143 932.543 874.367 935.999 866.015 938.591 C
b
0.000 0.000 0.000 1.000 K
0 j
0 J
0.215 w
[]0 d
0.000 0.000 0.000 0.200 k
536.687 1532.015 m
544.319 1534.607 552.527 1537.055 560.879 1538.495 C
567.647 1539.935 574.847 1540.943 581.903 1541.807 C
630.863 1542.815 L
638.783 1542.239 642.383 1539.215 643.103 1531.727 C
643.103 1496.159 642.527 1460.591 642.239 1425.167 C
641.519 1416.527 636.048 1412.927 628.127 1410.911 C
625.535 1410.479 L
622.799 1410.048 L
619.919 1409.903 L
432.575 1409.903 L
432.143 1459.871 L
512.783 1521.791 L
520.559 1525.967 528.336 1529.423 536.687 1532.015 C
b
0.000 0.000 0.000 1.000 K
0 j
0 J
0.215 w
[]0 d
0.000 0.000 0.000 0.498 k
907.487 948.095 m
958.319 909.071 1002.527 874.223 1057.535 836.927 C
1110.096 833.615 L
949.247 939.743 L
930.671 949.679 916.127 952.991 907.487 948.095 C
b
0.000 0.000 0.000 1.000 K
0 j
0 J
0.215 w
[]0 d
0.000 0.000 0.000 0.498 k
495.359 1541.519 m
444.527 1502.495 400.175 1467.647 345.167 1430.351 C
292.608 1426.895 L
453.455 1533.167 L
472.319 1543.103 486.575 1546.415 495.359 1541.519 C
b
0.000 0.000 0.000 1.000 K
0 j
0 J
0.215 w
[]0 d
0.000 0.000 0.000 0.200 k
973.583 900.719 m
1001.087 879.695 1030.031 859.391 1058.543 839.519 C
1099.727 836.927 L
947.951 937.151 L
937.871 942.479 925.055 948.527 913.247 946.943 C
933.407 932.255 953.423 915.839 973.583 900.719 C
b
0.000 0.000 0.000 1.000 K
0 j
0 J
0.215 w
[]0 d
0.000 0.000 0.000 0.200 k
429.263 1494.143 m
401.615 1473.119 372.671 1452.671 344.159 1432.943 C
302.975 1430.207 L
454.895 1530.575 L
464.975 1535.903 477.791 1541.951 489.599 1540.367 C
469.295 1525.679 449.279 1509.263 429.263 1494.143 C
b
0.000 0.000 0.000 1.000 K
0 j
0 J
0.215 w
[]0 d
767.087 749.663 m
808.559 749.663 L
810.719 749.663 812.303 747.935 812.303 745.631 c
812.303 731.231 L
812.303 728.927 810.719 727.199 808.559 727.199 c
767.087 727.199 L
764.927 727.199 763.343 728.927 763.343 731.231 c
763.343 745.631 L
763.343 747.935 764.927 749.663 767.087 749.663 c
s
0.000 0.000 0.000 1.000 K
0 j
0 J
0.215 w
[]0 d
635.471 1342.799 m
594.144 1342.799 L
591.983 1342.799 590.255 1341.071 590.255 1338.767 c
590.255 1324.511 L
590.255 1322.207 591.983 1320.479 594.144 1320.479 c
635.471 1320.479 L
637.631 1320.479 639.359 1322.207 639.359 1324.511 c
639.359 1338.767 L
639.359 1341.071 637.631 1342.799 635.471 1342.799 c
s
0.000 0.000 0.000 1.000 K
0 j
0 J
0.215 w
[]0 d
682.415 705.024 m
682.415 746.495 L
682.415 748.655 684.287 750.239 686.591 750.239 c
700.847 750.239 L
703.151 750.239 704.879 748.655 704.879 746.495 c
704.879 705.024 L
704.879 702.863 703.151 701.279 700.847 701.279 c
686.591 701.279 L
684.287 701.279 682.415 702.863 682.415 705.024 c
s
u
u
0.000 0.000 0.000 1.000 K
0 j
0 J
0.215 w
[]0 d
423.215 687.024 m
1099.295 687.024 L
S
U
U
u
u
0.000 0.000 0.000 1.000 K
0 j
0 J
0.215 w
[]0 d
979.631 1280.159 m
303.407 1280.159 L
S
U
U
u
u
0.000 0.000 0.000 1.000 K
0 j
0 J
0.215 w
[]0 d
435.023 663.120 m
1079.423 663.120 L
S
U
U
u
u
0.000 0.000 0.000 1.000 K
0 j
0 J
0.215 w
[]0 d
967.823 1256.399 m
323.279 1256.399 L
S
U
U
0.000 0.000 0.000 1.000 K
0 j
0 J
0.215 w
[]0 d
0.000 0.000 0.000 0.200 k
416.303 948.671 m
424.511 947.807 426.815 942.191 426.527 934.559 C
419.903 831.311 L
419.759 829.727 419.615 828.431 419.183 826.847 C
415.583 818.351 406.079 816.479 397.871 816.191 C
139.247 816.191 L
128.879 815.903 115.199 820.079 114.479 832.031 C
114.623 834.335 L
115.343 837.071 L
152.639 931.103 L
158.399 942.479 168.047 948.239 180.719 948.815 C
414.287 948.815 L
416.303 948.671 L
b
0.000 0.000 0.000 1.000 K
0 j
0 J
0.215 w
[]0 d
0.000 0.000 0.000 0.200 k
986.399 1542.095 m
978.335 1541.231 976.031 1535.615 976.319 1527.983 C
982.943 1424.735 L
982.943 1423.151 983.087 1421.711 983.519 1420.271 C
987.263 1411.775 996.767 1409.903 1004.831 1409.471 C
1263.455 1409.471 L
1273.823 1409.327 1287.503 1413.359 1288.223 1425.311 C
1288.079 1427.759 L
1287.359 1430.351 L
1250.063 1524.527 L
1244.303 1535.903 1234.655 1541.663 1221.983 1542.239 C
988.415 1542.239 L
986.399 1542.095 L
b
u
u
0.000 0.000 0.000 1.000 K
0 j
0 J
0.215 w
[]0 d
478.799 604.511 m
446.687 604.511 L
S
U
U
u
u
0.000 0.000 0.000 1.000 K
0 j
0 J
0.215 w
[]0 d
659.231 1197.791 m
956.015 1197.791 L
S
U
U
0.000 0.000 0.000 1.000 K
0 j
0 J
0.215 w
[]0 d
0.000 0.000 0.000 0.498 k
118.079 1346.543 m
71.280 1346.543 L
67.967 1346.543 66.527 1343.087 65.664 1340.639 c
60.335 1324.223 56.879 1307.375 55.583 1290.527 c
55.295 1287.791 58.751 1284.479 61.199 1284.479 c
106.703 1284.479 L
109.151 1284.479 111.599 1287.503 112.175 1290.527 c
115.919 1306.943 119.231 1324.223 123.695 1340.639 C
124.847 1343.663 122.687 1346.543 118.079 1346.543 c
b
0.000 0.000 0.000 1.000 K
0 j
0 J
0.215 w
[]0 d
0.000 0.000 0.000 0.098 k
115.775 1342.367 m
77.615 1342.367 L
74.447 1342.367 70.847 1338.767 69.695 1334.303 c
65.087 1318.031 L
63.791 1313.567 65.087 1309.823 68.256 1309.823 c
106.415 1309.823 L
109.583 1309.823 113.183 1313.567 114.191 1318.031 c
118.943 1334.303 L
120.095 1338.767 118.943 1342.367 115.775 1342.367 c
b
0.000 0.000 0.000 1.000 K
0 j
0 J
0.215 w
[]0 d
0.000 0.000 0.000 0.298 k
104.399 1294.847 m
63.935 1294.847 L
62.207 1294.847 59.039 1293.407 60.047 1291.391 c
60.191 1291.103 L
61.055 1289.087 60.191 1287.503 61.919 1287.503 c
102.383 1287.503 L
104.111 1287.503 107.135 1289.087 106.271 1291.103 c
106.127 1291.391 L
105.119 1293.407 106.127 1294.847 104.399 1294.847 c
b
0.000 0.000 0.000 1.000 K
0 j
0 J
0.215 w
[]0 d
0.000 0.000 0.000 0.298 k
106.847 1305.071 m
66.384 1305.071 L
64.655 1305.071 64.223 1302.767 62.495 1301.039 c
62.351 1300.895 L
60.623 1299.167 62.351 1296.863 64.079 1296.863 c
104.543 1296.863 L
106.271 1296.863 106.703 1299.167 108.431 1300.895 c
108.575 1301.039 L
110.303 1302.767 108.575 1305.071 106.847 1305.071 c
b
0.000 0.000 0.000 1.000 K
0 j
0 J
0.215 w
[]0 d
0.000 0.000 0.000 0.200 k
1340.063 1357.199 m
1361.951 1357.199 L
1364.975 1357.199 1367.279 1355.471 1367.279 1353.311 c
1367.279 1337.615 L
1367.279 1335.311 1364.975 1333.583 1361.951 1333.583 c
1340.063 1333.583 L
1337.039 1333.583 1334.735 1335.311 1334.735 1337.615 c
1334.735 1353.311 L
1334.735 1355.471 1337.039 1357.199 1340.063 1357.199 c
b
0.000 0.000 0.000 1.000 K
0 j
0 J
0.215 w
[]0 d
0.000 0.000 0.000 0.200 k
1339.199 1302.623 m
1361.951 1302.623 L
1364.975 1302.623 1367.279 1300.895 1367.279 1298.735 c
1367.279 1283.039 L
1367.279 1280.735 1364.975 1279.007 1361.951 1279.007 c
1339.199 1279.007 L
1336.175 1279.007 1333.871 1280.735 1333.871 1283.039 c
1333.871 1298.735 L
1333.871 1300.895 1336.175 1302.623 1339.199 1302.623 c
b
0.000 0.000 0.000 1.000 K
0 j
0 J
0.215 w
[]0 d
0.000 0.000 0.000 0.200 k
1340.063 1317.311 m
1361.951 1317.311 L
1364.831 1317.311 1367.279 1315.151 1367.279 1312.991 c
1367.279 1307.231 L
1367.279 1305.071 1364.831 1302.911 1361.951 1302.911 c
1340.063 1302.911 L
1337.039 1302.911 1334.735 1305.071 1334.735 1307.231 c
1334.735 1312.991 L
1334.735 1315.151 1337.039 1317.311 1340.063 1317.311 c
b
0.000 0.000 0.000 1.000 K
0 j
0 J
0.215 w
[]0 d
0.000 0.000 0.000 0.200 k
1339.775 1333.439 m
1361.951 1333.439 L
1364.831 1333.439 1367.279 1330.991 1367.279 1328.543 c
1367.279 1322.351 L
1367.279 1319.903 1364.831 1317.455 1361.951 1317.455 c
1339.775 1317.455 L
1336.895 1317.455 1334.447 1319.903 1334.447 1322.351 c
1334.447 1328.543 L
1334.447 1330.991 1336.895 1333.439 1339.775 1333.439 c
b
0.000 0.000 0.000 1.000 K
0 j
0 J
0.215 w
[]0 d
1334.159 1357.199 m
1367.711 1357.199 L
1367.711 1278.863 L
1334.159 1278.863 L
1334.159 1357.199 L
s
0.000 0.000 0.000 1.000 K
0 j
0 J
0.215 w
[]0 d
0.000 0.000 0.000 0.498 k
1284.767 753.263 m
1331.423 753.263 L
1334.735 753.263 1336.175 749.951 1337.039 747.359 c
1342.367 730.943 1345.823 714.095 1347.119 697.247 c
1347.407 694.511 1343.951 691.343 1341.503 691.343 c
1296.144 691.343 L
1293.551 691.343 1291.103 694.223 1290.527 697.247 c
1286.783 713.663 1283.471 730.943 1279.007 747.359 C
1277.855 750.383 1280.015 753.263 1284.767 753.263 c
b
0.000 0.000 0.000 1.000 K
0 j
0 J
0.215 w
[]0 d
0.000 0.000 0.000 0.098 k
1286.927 749.231 m
1324.943 749.231 L
1328.255 749.231 1331.711 745.487 1333.007 741.023 c
1337.615 724.751 L
1338.911 720.287 1337.615 716.543 1334.447 716.543 c
1296.288 716.543 L
1292.975 716.543 1289.519 720.287 1288.367 724.751 c
1283.759 741.023 L
1282.463 745.487 1283.759 749.231 1286.927 749.231 c
b
0.000 0.000 0.000 1.000 K
0 j
0 J
0.215 w
[]0 d
0.000 0.000 0.000 0.298 k
1298.303 701.711 m
1338.911 701.711 L
1340.495 701.711 1343.663 700.127 1342.655 698.111 c
1342.511 697.823 L
1341.647 695.807 1342.511 694.367 1340.783 694.367 c
1300.319 694.367 L
1298.591 694.367 1295.567 695.807 1296.431 697.823 c
1296.575 698.111 L
1297.583 700.127 1296.575 701.711 1298.303 701.711 c
b
0.000 0.000 0.000 1.000 K
0 j
0 J
0.215 w
[]0 d
0.000 0.000 0.000 0.298 k
1295.855 711.935 m
1336.319 711.935 L
1338.048 711.935 1338.479 709.631 1340.207 707.903 c
1340.351 707.759 L
1342.079 706.031 1340.351 703.583 1338.767 703.583 c
1298.159 703.583 L
1296.431 703.583 1296.000 706.031 1294.271 707.759 c
1294.127 707.903 L
1292.399 709.631 1294.127 711.935 1295.855 711.935 c
b
0.000 0.000 0.000 1.000 K
0 j
0 J
0.215 w
[]0 d
0.000 0.000 0.000 1.000 k
1391.903 669.599 m
1283.903 669.599 L
1287.647 660.671 L
1391.759 660.671 L
1391.759 664.127 1392.911 666.719 1391.903 669.599 C
b
0.000 0.000 0.000 1.000 K
0 j
0 J
0.215 w
[]0 d
0.000 0.000 0.000 0.200 k
62.783 763.775 m
40.895 763.775 L
37.871 763.775 35.567 762.191 35.567 759.887 c
35.567 744.335 L
35.567 742.175 37.871 740.447 40.895 740.447 c
62.783 740.447 L
65.807 740.447 67.967 742.175 67.967 744.335 c
67.967 759.887 L
67.967 762.191 65.807 763.775 62.783 763.775 c
b
0.000 0.000 0.000 1.000 K
0 j
0 J
0.215 w
[]0 d
0.000 0.000 0.000 0.200 k
63.503 709.343 m
40.895 709.343 L
37.871 709.343 35.423 707.759 35.423 705.455 c
35.423 689.759 L
35.423 687.599 37.871 685.871 40.895 685.871 c
63.503 685.871 L
66.527 685.871 68.975 687.599 68.975 689.759 c
68.975 705.455 L
68.975 707.759 66.527 709.343 63.503 709.343 c
b
0.000 0.000 0.000 1.000 K
0 j
0 J
0.215 w
[]0 d
0.000 0.000 0.000 0.200 k
62.783 724.031 m
40.751 724.031 L
37.871 724.031 35.567 722.015 35.567 719.855 c
35.567 713.951 L
35.567 711.791 37.871 709.631 40.751 709.631 c
62.783 709.631 L
65.664 709.631 68.111 711.791 68.111 713.951 c
68.111 719.855 L
68.111 722.015 65.664 724.031 62.783 724.031 c
b
0.000 0.000 0.000 1.000 K
0 j
0 J
0.215 w
[]0 d
0.000 0.000 0.000 0.200 k
62.927 740.159 m
40.895 740.159 L
37.871 740.159 35.567 737.711 35.567 735.263 c
35.567 729.071 L
35.567 726.767 37.871 724.175 40.895 724.175 c
62.927 724.175 L
65.951 724.175 68.256 726.767 68.256 729.071 c
68.256 735.263 L
68.256 737.711 65.951 740.159 62.927 740.159 c
b
0.000 0.000 0.000 1.000 K
0 j
0 J
0.215 w
[]0 d
35.135 685.871 m
68.543 685.871 L
68.543 763.775 L
35.135 763.775 L
35.135 685.871 L
s
%%Trailer
_E end