%!PS-Adobe-2.0 EPSF-1.2
%%Creator: Adobe Illustrator exported from Corel Draw 3.0
%%Title:6
%%BoundingBox:97 246 958 845
%%CreationDate:(Unknown)
%%ColorUsage:
%%TemplateBox:97 246 958 845
%%EndComments
%%BeginProcSet:Adobe_Illustrator_1.1 0 0
% Version 1.0 3/27/1990 $nokeywords$
% Copyright (C) 1990,1991,1992
% Corel Corporation
% All Rights Reserved

/wPmsDict 150 dict def 
wPmsDict begin 

/$debug 25 string def 

/bd {bind def} bind def 
/ld {load def} bd 
/xd {exch def} bd 
/_ null def 

/$c 0 def 
/$m 0 def 
/$y 0 def 
/$k 0 def 
/$t 1 def 
/$n _ def 
/$o 0 def 
/$pf false def 

/$C 0 def 
/$M 0 def 
/$Y 0 def 
/$K 0 def 
/$T 1 def 
/$N _ def 
/$O 0 def 
/$PF false def 

/$h false def 

/$al 0 def 
/$tr 0 def 
/$le 0 def 
/$lx 0 def 
/$ly 0 def 

/$ctm matrix currentmatrix def 
/$ptm matrix def 

/$pn () def 
/$pm matrix def 
/$px 0 def 
/$py 0 def 
/$pxf 0 def 
/$pyf 0 def 
/$psx 10 def 
/$psy 0 def 

/$llx 0 def 
/$lly 0 def 
/$urx 0 def 
/$ury 0 def 


/$Bbllx 0 def 
/$Bblly 0 def 
/$Bburx 0 def 
/$Bbury 0 def 

/$tllx 0 def 
/$tlly 0 def 
/$turx 0 def 
/$tury 0 def 

/$pd [] def 
/$tx 0 def 
/$ty 0 def 

/$sv 0 def 
/@cp /closepath ld 
/@gs /gsave ld 
/@gr /grestore ld 
/@np /newpath ld 
/@sv {/$sv save def}bd 
/@rs {$sv restore}bd 

/@MN { 
2 copy le{pop}{exch pop}ifelse 
}bd 

/setcmykcolor where {pop} 
{ 
/setcmykcolor 
{ 
4 1 roll 
3 {3 index add 1 @MN 1 exch sub 3 1 roll} repeat 
setrgbcolor 
pop 
}bd 
}ifelse 

/@tc 
{ 
dup 1 ge 
{pop} 
{ 
4 { 
dup 
6 -1 roll 
mul 
exch 
}repeat 
pop 
}ifelse 
}bd 

/@scc 
{ 
$c $m $y $k $t @tc 
setcmykcolor 
true 
}bd 
/@SCC 
{ 
$C $M $Y $K $T @tc 
setcmykcolor 
true 
}bd 

/@sft 
{ 
(setfirsttile sft )print 
/$tx $tllx $pxf add dup $tllx gt {$pwid $psx add sub}if def 
/$ty $tury $pyf sub dup $tury lt {$phei $psy add add}if def 
(setfirsttile exit )print 
}bd 

/@stb 
{ 
pathbbox /$ury xd /$urx xd /$lly xd /$llx xd 
}bd 

/@ep 
{ 
{ 
cvx exec 
}forall 
}bd 

/@tp 
{ 

(tile pattern tp )print 
@sv 
/$in true def 
2 copy 
dup $lly le {/$in false def}if 
$phei sub $ury ge {/$in false def}if 
dup $urx ge {/$in false def}if 
$pwid add $llx le {/$in false def}if 
$in 
{ 
@np 
2 copy moveto 
$pwid 0 rlineto 
0 $phei neg rlineto 
$pwid neg 0 rlineto 
0 $phei rlineto 
clip @np 

$pn cvlit load aload pop 
7 -1 roll 
5 index sub 
7 -1 roll 
3 index sub 
translate 
@ep 
pop pop pop pop 
} 
{pop pop}ifelse 
@rs 
(tile pattern exit )print 
}bd 

/@th 
{ 
(tile horizontal th)print 
@sft 
0 1 $tly 1 sub 
{ 
dup $psx mul $tx add 
{ 
dup $llx gt {$pwid sub}{exit}ifelse 
}loop 
exch $phei mul $ty exch sub 

0 1 $tlx 1 sub 
{ 
$pwid mul 
3 copy 
3 -1 roll add exch 
@tp 
pop 
}for 
pop pop 
} for 
(tile horizontal exiting )print 
}bd 

/@tv 
{ 
(tile vertical tv)print 
@sft 
0 1 $tlx 1 sub 
{ 
dup $pwid mul $tx add 
exch $psy mul $ty exch sub 
{ 
dup $ury lt {$phei add}{exit}ifelse 
}loop 

0 1 $tly 1 sub 
{ 
$phei mul 
3 copy sub 
@tp 
pop 
}for 
pop pop 
} for 
(tile vertical exit )print 
}bd 

/@pf 
{ 
(pattern fill pf)print 
@gs 
$pm concat 
@stb 
@gs 1 setgray eofill @gr 
eoclip 
$Bburx $Bbury $pm itransform /$tury xd /$turx xd 
$Bbllx $Bblly $pm itransform /$tlly xd /$tllx xd 
/$wid $turx $tllx sub def 
/$hei $tury $tlly sub def 
$wid 0 gt $hei 0 gt and 
{ 
$pn cvlit load aload pop 
$pd xd 
3 -1 roll sub /$phei xd 
exch sub /$pwid xd 
/$tlx $wid $pwid div ceiling 1 add def 
/$tly $hei $phei div ceiling 1 add def 
$psx 0 eq 
{ 
@tv 
} 
{ 
@th 
}ifelse 
}if 

@gr 
@np 
(pattern fill exit)print 
}bd 

/@xp 
{ 
{ 
dup (text Character is:) print == 
usertime (time before is:)print == 
(0) dup 3 -1 roll 0 exch put 
@gs 
true charpath currentpoint 
$ctm setmatrix 
@pf 
@gr 
@np 
moveto $tr 0 rmoveto 
usertime (time after is:)print == 
}forall 
pop 
}bd 

/@sm 
{ 
/$ctm $ctm currentmatrix def 
}bd 

%--@lorg  move to line origin   length string @torg length string
/@lorg    % moves currentpoint to line origin according to current alignment
  {      
  $lx $ly moveto    
  /$ly $ly $le sub def      % - prepare for next line(tracking)
  $al 0 ne
    {dup      % ->len str len str
    stringwidth   % ->len str len dx dy
    exch 3 index  % ->len str dy len dx
    1 sub         % ->len str dy len dx (len-1)
    $tr mul add   % ->len str dy len dx+(len-1)*$tr
    neg
    exch neg      % ->len str -dx_total dy len
    $al 1 eq      % check for centered alignment
    {2 div exch 2 div exch} if  
    rmoveto} if
  }bd

/@ft 
{ 
$pf 
{@xp} 
{ 
@scc 
{$tr exch 0 exch ashow pop} 
{pop pop}ifelse 
}ifelse 
}bd 

/@st 
{ 
$PF 
{} 
{ 
@SCC 
{ 
{ 
(0) dup 3 -1 roll 0 exch put 
@gs 
true charpath currentpoint 
$ctm setmatrix $ptm concat 
stroke 
@gr 
moveto $tr 0 rmoveto 
}forall 
pop 
} 
{pop pop}ifelse 
}ifelse 
}bd 
/@pt 
{ 
dup length exch 
}bd 
/@te 
{ 
@pt 
@lorg 
@ft 
}bd 

/@tr 
{ 
@pt 
@lorg 
@st 
}bd 
/@ta 
{ 
@pt 
@lorg 
2 copy 
@gs @ft @gr 
/$lx 0 def 
/$ly 0 def 
@st 
}bd 















/g { 
1 exch sub /$k xd 
/$c 0 def /$m 0 def /$y 0 def /$t 1 def /$n _ def /$pf false def 
}bd 

/G { 
1 exch sub /$K xd 
/$C 0 def /$M 0 def /$Y 0 def /$T 1 def /$N _ def /$PF false def 
}bd 

/k { 
/$k xd /$y xd /$m xd /$c xd 
/$t 1 def /$n _ def /$pf false def 
}bd 

/K { 
/$K xd /$Y xd /$M xd /$C xd 
/$T 1 def /$N _ def /$PF false def 
}bd 

/x { 
/$t xd /$n xd 
/$k xd /$y xd /$m xd /$c xd /$pf false def 
}bd 

/X { 
/$T xd /$N xd 
/$K xd /$Y xd /$M xd /$C xd /$PF false def 
}bd 

/d /setdash ld 

/i { 
dup 0 ne {setflat} {pop} ifelse 
}bd 

/j /setlinejoin ld 

/J /setlinecap ld 

/M /setmiterlimit ld 

/w /setlinewidth ld 

/O { 
/$o xd 
}bd 

/R { 
/$O xd 
}bd 


/c /curveto ld 

/C /c ld 

/v { 
currentpoint
6 2 roll 
curveto 
}bd

/V /v ld 

/y { 
2 copy curveto 
}bd 

/Y /y ld 

/l /lineto ld 

/L /l ld 

/m /moveto ld 



/n /newpath ld 

/N /newpath ld 

/F { 
$pf 
{@pf} 
{ 
@scc 
{eofill}if 
}ifelse 
}bd 

/f { 
@cp F 
}bd 
/S { 
$PF 
{} 
{ 
@SCC 
{ 
@sm 
$ptm concat 
stroke 
$ctm setmatrix 
}if 
}ifelse 
}bd 
/s { 
@cp 
S 
}bd 

/B { 
@gs F @gr 
S 
}bd 
/b { 
@cp 
B 
}bd 

/W { 
oeclip 
@np 
}bd 

/p { 
/$pm xd 
7 {pop} repeat 
/$pyf xd /$pxf xd 
/$pn xd 
/$pf true def 
}bd 

/P { 
11 {pop} repeat 
}bd 

/@p { 
/$pm xd 
/$psy xd 
/$psx xd 
/$pyf xd /$pxf xd 
/$pn xd 
/$pf true def 
}bd 

/@b { 
/$Bbury xd /$Bburx xd 
/$Bblly xd /$Bbllx xd 
}bd 


/z { 
/$al xd 
/$tr xd 
/$le xd 
exch findfont exch scalefont setfont 
}bd 

/Z { 
dup type 0 type eq { /$bDir xd } if
findfont 
dup maxlength 1 add dict exch 



dup 
{1 index /FID ne 
{ 
3 index 
3 1 roll put 
} 
{pop pop}ifelse 
} forall 



pop 
dup dup /Encoding get 
256 array copy 
dup /$fe xd
/Encoding exch put 

dup /Fontname 3 index put 

}bd 

/e { 
@sm 
concat 
[ 
/t {@te}def 
}bd 

/r { 
@sm 
concat 
[ 
/t {@tr}def 
}bd 

/o { 
@sm 
concat 
[ 
/t {pop}def 
}bd 

/a { 
@sm 
concat 
[ 
/t {@ta}def 
}bd 

/@o{
@sm 
concat 
[ 
/t {@t@a}def 
}bd 

/I { 
@sm 
concat 
[ 
/t {pop}def 
}bd 

/t {@te}def 

/T { 
cleartomark 
/$lx 0 def 
/$ly 0 def 
$ctm setmatrix 
}bd 


/u {}bd 

/U {}bd 

/A {pop}bd 

/h { 
$h true def 
}bd 

/h { 
$h true def 
}bd 

/q /@gs ld 

/Q /@gr ld 



/E { 
5 array astore 
exch cvlit exch def 
}bd 

/` {}bd 

/~ {}bd 

/@ {}bd 

/& {}bd 

/CorelDrawRencodeVect [ 
16#80/grave 
16#81/circumflex 
16#82/tilde 
16#83/dotlessi 
16#84/florin 
16#85/quotedblleft 
16#86/quotedblright 
16#87/guilsinglleft 
16#88/guilsinglright 
16#89/fi 
16#8a/fl 
16#8b/dagger 
16#8c/daggerdbl 
16#8d/endash 
16#8e/periodcentered 
16#8f/breve 
16#90/quotedblbase 
16#91/ellipsis 
16#92/perthousand 
16#a1/exclamdown 
16#a2/cent 
16#a3/sterling 
16#a4/currency 
16#a5/yen 
16#a6/bar 
16#a7/section 
16#a8/dieresis 
16#a9/copyright 
16#aa/ordfeminine 
16#ab/guillemotleft 
16#ac/logicalnot 
16#ad/emdash 
16#ae/registered 
16#af/spac 
16#b0/ring 
16#b1/spac 
16#b2/spac 
16#b3/spac 
16#b4/acute 
16#b5/spac 
16#b6/paragraph 
16#b7/bullet 
16#b8/cedilla 
16#b9/spac 
16#ba/ordmasculine 
16#bb/guillemotright 
16#bc/spac 
16#bd/spac 
16#be/spac 
16#bf/questiondown 
16#c0/Agrave 
16#c1/Aacute 
16#c2/Acircumflex 
16#c3/Atilde 
16#c4/Adieresis 
16#c5/Aring 
16#c6/AE 
16#c7/Ccedilla 
16#c8/Egrave 
16#c9/Eacute 
16#ca/Ecircumflex 
16#cb/Edieresis 
16#cc/Igrave 
16#cd/Iacute 
16#ce/Icircumflex 
16#cf/Idieresis 
16#d0/spac 
16#d1/Ntilde 
16#d2/Ograve 
16#d3/Oacute 
16#d4/Ocircumflex 
16#d5/Otilde 
16#d6/Odieresis 
16#d7/OE 
16#d8/Oslash 
16#d9/Ugrave 
16#da/Uacute 
16#db/Ucircumflex 
16#dc/Udieresis 
16#dd/space 
16#de/spac 
16#df/germandbls 
16#e0/agrave 
16#e1/aacute 
16#e2/acircumflex 
16#e3/atilde 
16#e4/adieresis 
16#e5/aring 
16#e6/ae 
16#e7/ccedilla 
16#e8/egrave 
16#e9/eacute 
16#ea/ecircumflex 
16#eb/edieresis 
16#ec/igrave 
16#ed/iacute 
16#ee/icircumflex 
16#ef/idieresis 
16#f0/space 
16#f1/ntilde 
16#f2/ograve 
16#f3/oacute 
16#f4/ocircumflex 
16#f5/otilde 
16#f6/odieresis 
16#f7/oe 
16#f8/oslash 
16#f9/ugrave 
16#fa/uacute 
16#fb/ucircumflex 
16#fc/udieresis 
16#fd/spac 
16#fe/spac 
16#ff/ydieresis 
] def
%%EndProlog
%%BeginSetup
%%BeginEncoding:_Times-Bold Times-Bold
[
]/_Times-Bold/Times-Bold Z
%%EndEncoding
%%EndSetup
0.000 0.000 0.000 1.000 K
0 j
0 J
0.863 w
[]0 d
138.024 362.519 m
166.679 347.399 L
175.319 345.527 179.783 347.039 181.512 350.927 C
185.399 366.047 190.943 380.663 198.431 394.775 C
201.167 398.807 204.983 402.047 211.391 403.487 C
229.031 404.567 245.591 404.495 261.431 403.631 C
268.271 402.911 272.375 399.743 275.255 395.495 C
281.087 384.767 286.199 372.383 290.591 358.127 C
291.887 354.959 294.191 352.583 297.647 351.000 C
310.175 345.311 L
310.031 344.015 312.695 344.591 318.239 344.879 C
508.751 344.591 L
517.103 349.415 L
521.783 366.119 528.479 382.103 537.623 397.439 C
539.423 399.671 542.159 401.399 545.975 402.623 C
562.535 403.343 579.815 403.343 597.887 402.623 C
602.279 402.191 605.303 400.391 607.751 398.015 C
612.000 391.175 615.887 383.327 619.199 374.039 C
619.775 371.447 622.511 369.575 628.559 368.855 C
632.519 368.351 631.871 364.463 639.359 366.839 C
643.247 367.703 642.599 372.383 643.247 378.215 C
648.575 386.279 647.855 401.255 646.271 417.239 C
645.839 420.047 641.879 420.407 642.168 425.663 C
639.072 432.071 L
639.503 436.463 637.343 439.775 633.959 442.727 C
631.655 445.823 628.271 448.055 622.583 448.199 C
577.367 452.159 528.048 455.183 480.455 457.631 C
449.495 524.447 L
449.351 527.687 449.351 531.791 447.119 533.303 C
444.671 534.599 443.087 536.975 443.087 538.415 C
438.191 540.863 436.823 542.015 434.375 540.647 C
413.927 544.967 382.031 548.855 353.735 551.519 C
350.351 552.815 346.247 553.823 340.487 553.967 C
146.591 554.975 L
132.407 555.120 131.975 553.031 131.687 543.024 C
131.687 484.991 131.687 426.815 131.687 368.783 C
131.759 365.471 132.983 363.959 138.024 362.519 C
s
0.000 0.000 0.000 1.000 K
0 j
0 J
0.863 w
[]0 d
607.823 652.967 m
579.168 637.847 L
570.527 635.975 566.063 637.487 564.336 641.375 C
560.447 656.495 554.903 671.111 547.415 685.223 C
544.679 689.255 540.863 692.495 534.455 693.935 C
516.815 695.015 500.255 694.943 484.415 694.079 C
477.575 693.359 473.471 690.191 470.591 685.943 C
464.759 675.215 459.647 662.831 455.255 648.575 C
453.959 645.407 451.655 643.031 448.199 641.447 C
435.671 635.759 L
435.815 634.463 433.151 635.039 427.535 635.327 C
237.095 635.039 L
228.743 639.863 L
224.063 656.567 217.367 672.551 208.223 687.887 C
206.423 690.120 203.687 691.847 199.871 693.072 C
183.311 693.791 166.031 693.791 147.959 693.072 C
143.567 692.639 140.543 690.839 138.096 688.463 C
133.847 681.623 129.959 673.775 126.647 664.487 C
126.071 661.895 123.335 660.024 117.287 659.303 C
113.327 658.799 113.975 654.911 106.487 657.287 C
102.599 658.151 103.247 662.831 102.599 668.663 C
97.271 676.727 97.991 691.703 99.575 707.687 C
100.007 710.495 103.967 710.855 103.679 716.111 C
106.775 722.519 L
106.343 726.911 108.503 730.223 111.887 733.175 C
114.191 736.271 117.575 738.503 123.263 738.647 C
168.479 742.607 217.799 745.631 265.391 748.079 C
296.351 814.895 L
296.495 818.135 296.495 822.239 298.727 823.751 C
301.175 825.047 302.759 827.423 302.759 828.863 C
307.655 831.311 309.024 832.463 311.471 831.095 C
331.919 835.415 363.815 839.303 392.111 841.967 C
395.423 843.263 399.527 844.271 405.287 844.415 C
599.255 845.423 L
613.439 845.567 613.871 843.479 614.159 833.471 C
614.159 775.439 614.159 717.263 614.159 659.231 C
614.087 655.919 612.863 654.407 607.823 652.967 C
s
0.000 0.000 0.000 1.000 K
0 j
0 J
0.863 w
[]0 d
0.000 0.000 0.000 0.498 k
525.599 356.183 m
517.103 349.415 L
521.783 366.119 528.479 382.103 537.623 397.439 C
539.423 399.671 542.159 401.399 545.975 402.623 C
562.535 403.343 579.815 403.343 597.887 402.623 C
602.279 402.191 605.303 400.391 607.751 398.015 C
612.000 391.175 615.887 383.327 619.199 374.039 C
620.207 371.015 623.231 369.575 627.767 369.000 C
630.935 369.071 631.943 366.119 635.327 365.975 C
617.903 363.671 L
609.264 380.303 589.895 389.447 571.607 389.447 C
547.847 387.071 532.943 375.263 525.599 356.183 C
b
0.000 0.000 0.000 1.000 K
0 j
0 J
0.863 w
[]0 d
0.000 0.000 0.000 0.498 k
220.247 646.631 m
228.743 639.863 L
224.063 656.567 217.367 672.551 208.223 687.887 C
206.423 690.120 203.687 691.847 199.871 693.072 C
183.311 693.791 166.031 693.791 147.959 693.072 C
143.567 692.639 140.543 690.839 138.096 688.463 C
133.847 681.623 129.959 673.775 126.647 664.487 C
125.639 661.463 122.615 660.024 118.079 659.447 C
114.911 659.519 113.903 656.567 110.519 656.423 C
127.943 654.120 L
136.584 670.751 155.951 679.895 174.239 679.895 C
197.999 677.519 212.903 665.711 220.247 646.631 C
b
0.000 0.000 0.000 1.000 K
0 j
0 J
0.863 w
[]0 d
0.000 0.000 0.000 0.498 k
191.519 356.687 m
181.512 350.927 L
185.399 366.047 190.871 380.663 198.359 394.775 C
201.167 398.807 204.983 402.047 211.319 403.487 C
229.031 404.567 245.591 404.495 261.359 403.631 C
268.199 402.911 272.303 399.743 275.255 395.495 C
281.015 384.767 286.199 372.383 290.591 358.127 C
285.767 360.575 L
275.831 378.215 261.000 388.871 239.039 389.447 C
216.071 388.079 200.231 377.135 191.519 356.687 C
b
0.000 0.000 0.000 1.000 K
0 j
0 J
0.863 w
[]0 d
0.000 0.000 0.000 0.498 k
554.327 647.135 m
564.336 641.375 L
560.447 656.495 554.975 671.111 547.487 685.223 C
544.679 689.255 540.863 692.495 534.527 693.935 C
516.815 695.015 500.255 694.943 484.487 694.079 C
477.647 693.359 473.543 690.191 470.591 685.943 C
464.831 675.215 459.647 662.831 455.255 648.575 C
460.079 651.024 L
470.015 668.663 484.847 679.319 506.807 679.895 C
529.775 678.527 545.615 667.583 554.327 647.135 C
b
0.000 0.000 0.000 1.000 K
0 j
0 J
0.287 w
[]0 d
0.000 0.000 0.000 0.298 k
639.359 366.839 m
643.247 367.703 642.599 372.383 643.247 378.215 C
648.575 386.279 647.855 401.255 646.271 417.239 C
645.839 420.047 641.879 420.407 642.168 425.663 C
639.072 432.071 L
639.072 366.695 L
639.359 366.839 L
b
0.000 0.000 0.000 1.000 K
0 j
0 J
0.287 w
[]0 d
0.000 0.000 0.000 0.298 k
106.487 657.287 m
102.599 658.151 103.247 662.831 102.599 668.663 C
97.271 676.727 97.991 691.703 99.575 707.687 C
100.007 710.495 103.967 710.855 103.679 716.111 C
106.775 722.519 L
106.775 657.144 L
106.487 657.287 L
b
0.000 0.000 0.000 1.000 K
0 j
0 J
0.287 w
[]0 d
0.000 0.000 0.000 0.498 k
718.487 531.216 m
918.863 531.216 L
921.959 531.216 924.407 528.767 924.407 525.743 C
926.855 479.231 L
926.855 476.207 924.407 473.759 921.383 473.759 C
853.847 471.887 783.503 471.887 716.039 473.759 C
713.015 473.759 710.567 476.207 710.567 479.231 C
713.015 525.743 L
713.015 528.767 715.463 531.216 718.487 531.216 C
b
0.000 0.000 0.000 1.000 K
0 j
0 J
0.287 w
[]0 d
0.000 0.000 0.000 0.498 k
362.879 523.871 m
430.487 522.863 L
433.943 522.863 437.111 522.360 439.415 517.679 C
460.151 472.031 L
464.399 462.311 459.719 456.767 450.791 456.767 C
362.879 457.847 L
359.423 457.847 356.615 460.583 356.615 464.039 C
356.615 517.679 L
356.615 521.063 359.423 523.871 362.879 523.871 C
b
0.000 0.000 0.000 1.000 K
0 j
0 J
0.287 w
[]0 d
0.000 0.000 0.000 0.498 k
382.967 814.319 m
315.359 813.311 L
311.903 813.311 308.735 812.807 306.431 808.127 C
285.695 762.479 L
281.447 752.759 286.127 747.215 295.055 747.215 C
382.967 748.295 L
386.351 748.295 389.159 751.031 389.159 754.487 C
389.159 808.127 L
389.159 811.511 386.351 814.319 382.967 814.319 C
b
0.000 0.000 0.000 1.000 K
0 j
0 J
0.287 w
[]0 d
0.000 0.000 0.000 0.200 k
430.415 520.559 m
433.511 520.559 435.383 520.055 437.039 517.391 C
437.399 516.671 L
458.063 471.167 L
459.071 468.575 459.791 466.271 459.215 463.535 C
457.919 459.791 454.319 459.215 450.791 459.071 C
362.879 460.151 L
360.575 460.223 358.991 461.807 358.919 464.111 C
358.919 517.607 L
358.991 519.983 360.575 521.495 362.879 521.639 C
430.415 520.559 L
b
0.000 0.000 0.000 1.000 K
0 j
0 J
0.287 w
[]0 d
0.000 0.000 0.000 0.200 k
315.359 811.007 m
312.335 811.007 310.463 810.503 308.807 807.839 C
308.447 807.119 L
287.783 761.615 L
286.775 759.023 286.055 756.719 286.632 753.983 C
287.927 750.239 291.527 749.663 295.055 749.519 C
382.895 750.599 L
385.271 750.671 386.783 752.255 386.927 754.559 C
386.927 808.055 L
386.783 810.431 385.199 811.943 382.967 812.087 C
315.359 811.007 L
b
u
u
0.000 0.000 0.000 1.000 K
0 j
0 J
0.287 w
[]0 d
131.687 529.775 m
448.055 529.775 L
S
U
U
u
u
0.000 0.000 0.000 1.000 K
0 j
0 J
0.287 w
[]0 d
614.159 820.223 m
297.791 820.223 L
S
U
U
u
u
0.000 0.000 0.000 1.000 K
0 j
0 J
0.287 w
[]0 d
132.623 533.375 m
445.895 533.375 L
S
U
U
u
u
0.000 0.000 0.000 1.000 K
0 j
0 J
0.287 w
[]0 d
613.223 823.823 m
299.951 823.823 L
S
U
U
u
u
0.000 0.000 0.000 1.000 K
0 j
0 J
0.287 w
[]0 d
131.759 453.383 m
342.000 453.383 L
S
U
U
u
u
0.000 0.000 0.000 1.000 K
0 j
0 J
0.287 w
[]0 d
131.759 455.471 m
342.000 455.471 L
S
U
U
u
u
0.000 0.000 0.000 1.000 K
0 j
0 J
0.287 w
[]0 d
614.087 743.831 m
403.775 743.831 L
S
U
U
u
u
0.000 0.000 0.000 1.000 K
0 j
0 J
0.287 w
[]0 d
614.087 746.351 m
403.775 746.351 L
S
U
U
u
u
0.000 0.000 0.000 1.000 K
0 j
0 J
0.287 w
[]0 d
132.623 448.343 m
467.567 448.343 L
S
U
U
u
u
0.000 0.000 0.000 1.000 K
0 j
0 J
0.287 w
[]0 d
613.223 738.791 m
278.279 738.791 L
S
U
U
u
u
0.000 0.000 0.000 1.000 K
0 j
0 J
0.287 w
[]0 d
131.759 442.871 m
479.231 442.871 L
622.943 439.559 L
628.991 438.983 638.351 434.735 639.719 430.055 C
S
U
U
u
u
0.000 0.000 0.000 1.000 K
0 j
0 J
0.287 w
[]0 d
614.087 733.319 m
266.615 733.319 L
122.903 730.007 L
116.855 729.431 107.495 725.183 106.127 720.503 C
S
U
U
u
u
0.000 0.000 0.000 1.000 K
0 j
0 J
0.287 w
[]0 d
341.711 529.775 m
341.711 356.687 L
S
U
U
u
u
0.000 0.000 0.000 1.000 K
0 j
0 J
0.287 w
[]0 d
404.135 820.223 m
404.135 647.135 L
S
U
U
u
u
0.000 0.000 0.000 1.000 K
0 j
0 J
0.287 w
[]0 d
348.623 529.775 m
348.623 356.687 L
S
U
U
u
u
0.000 0.000 0.000 1.000 K
0 j
0 J
0.287 w
[]0 d
397.223 820.223 m
397.223 647.135 L
S
U
U
u
u
0.000 0.000 0.000 1.000 K
0 j
0 J
0.287 w
[]0 d
131.615 528.767 m
430.631 528.767 L
435.887 528.911 439.415 527.975 441.143 526.031 C
473.471 459.287 L
473.471 357.479 L
S
U
U
u
u
0.000 0.000 0.000 1.000 K
0 j
0 J
0.287 w
[]0 d
614.231 819.215 m
315.215 819.215 L
309.959 819.359 306.431 818.423 304.703 816.479 C
272.375 749.735 L
272.375 647.927 L
S
U
U
u
u
0.000 0.000 0.000 1.000 K
0 j
0 J
0.287 w
[]0 d
306.791 357.407 m
507.527 357.407 L
S
U
U
u
u
0.000 0.000 0.000 1.000 K
0 j
0 J
0.287 w
[]0 d
439.055 647.855 m
238.319 647.855 L
S
U
U
u
u
0.000 0.000 0.000 1.000 K
0 j
0 J
0.287 w
[]0 d
167.111 347.399 m
172.727 369.647 181.295 390.167 192.887 409.031 C
198.647 414.791 205.919 417.959 214.703 418.607 C
231.623 419.471 247.895 419.399 263.735 418.607 C
270.503 417.527 276.479 414.287 282.096 409.823 C
297.072 389.447 304.919 367.991 308.807 346.031 C
S
U
U
u
u
0.000 0.000 0.000 1.000 K
0 j
0 J
0.287 w
[]0 d
578.735 637.847 m
573.120 660.096 564.551 680.615 552.959 699.479 C
547.199 705.239 539.927 708.407 531.144 709.055 C
514.223 709.919 497.951 709.847 482.111 709.055 C
475.343 707.975 469.367 704.735 463.751 700.271 C
448.775 679.895 440.927 658.439 437.039 636.479 C
S
U
U
u
u
0.000 0.000 0.000 1.000 K
0 j
0 J
0.287 w
[]0 d
504.719 344.375 m
509.399 367.559 517.679 389.015 530.135 408.383 C
535.031 413.999 541.295 417.887 550.655 417.815 C
565.631 417.815 580.679 417.815 595.655 417.815 C
607.823 415.079 614.663 410.759 617.903 405.431 C
627.911 392.687 633.599 379.583 635.327 366.191 C
S
U
U
u
u
0.000 0.000 0.000 1.000 K
0 j
0 J
0.287 w
[]0 d
241.127 634.823 m
236.447 658.007 228.167 679.463 215.711 698.831 C
210.815 704.447 204.551 708.335 195.191 708.263 C
180.215 708.263 165.167 708.263 150.191 708.263 C
138.024 705.527 131.183 701.207 127.943 695.879 C
117.935 683.135 112.247 670.031 110.519 656.639 C
S
U
U
0.000 0.000 0.000 1.000 K
0 j
0 J
0.287 w
[]0 d
175.535 411.047 m
175.535 427.823 L
175.535 432.575 171.647 436.463 166.895 436.463 C
166.391 436.463 L
161.567 436.463 157.679 432.575 157.679 427.823 C
157.679 411.047 L
175.535 411.047 L
s
0.000 0.000 0.000 1.000 K
0 j
0 J
0.287 w
[]0 d
0.000 0.000 0.000 0.498 k
166.607 418.391 m
170.855 418.391 174.311 421.847 174.311 426.023 c
174.311 430.271 170.855 433.727 166.607 433.727 c
162.359 433.727 158.903 430.271 158.903 426.023 c
158.903 421.847 162.359 418.391 166.607 418.391 c
b
0.000 0.000 0.000 1.000 K
0 j
0 J
0.287 w
[]0 d
157.751 411.047 m
175.535 411.047 L
175.535 406.439 L
157.751 406.439 L
157.751 411.047 L
s
u
u
0.000 0.000 0.000 1.000 K
0 j
0 J
0.287 w
[]0 d
480.527 457.559 m
480.527 357.479 L
S
U
U
u
u
0.000 0.000 0.000 1.000 K
0 j
0 J
0.287 w
[]0 d
265.319 748.007 m
265.319 647.927 L
S
U
U
u
u
0.000 0.000 0.000 1.000 K
0 j
0 J
0.287 w
[]0 d
642.815 377.351 m
642.815 420.551 L
S
U
U
u
u
0.000 0.000 0.000 1.000 K
0 j
0 J
0.287 w
[]0 d
103.031 667.799 m
103.031 711.000 L
S
U
U
0.000 0.000 0.000 1.000 K
0 j
0 J
0.287 w
[]0 d
0.000 0.000 0.000 0.298 k
608.471 430.703 m
614.663 430.703 l
615.383 430.703 616.031 430.127 616.031 429.407 c
616.031 426.671 l
616.031 425.951 615.383 425.375 614.663 425.375 c
608.471 425.375 l
607.751 425.375 607.175 425.951 607.175 426.671 c
607.175 429.407 l
607.175 430.127 607.751 430.703 608.471 430.703 c
b
0.000 0.000 0.000 1.000 K
0 j
0 J
0.287 w
[]0 d
0.000 0.000 0.000 0.298 k
137.375 721.151 m
131.183 721.151 l
130.463 721.151 129.816 720.575 129.816 719.855 c
129.816 717.119 l
129.816 716.399 130.463 715.823 131.183 715.823 c
137.375 715.823 l
138.096 715.823 138.671 716.399 138.671 717.119 c
138.671 719.855 l
138.671 720.575 138.096 721.151 137.375 721.151 c
b
0.000 0.000 0.000 1.000 K
0 j
0 J
0.287 w
[]0 d
0.000 0.000 0.000 0.498 k
368.639 425.879 m
389.951 425.879 L
390.455 425.879 390.887 425.447 390.887 424.943 C
390.887 421.127 L
390.887 420.623 390.455 420.191 389.951 420.191 C
368.639 420.191 L
368.639 425.879 L
b
0.000 0.000 0.000 1.000 K
0 j
0 J
0.287 w
[]0 d
0.000 0.000 0.000 0.498 k
377.135 716.327 m
355.823 716.327 L
355.319 716.327 354.887 715.895 354.887 715.391 C
354.887 711.575 L
354.887 711.072 355.319 710.639 355.823 710.639 C
377.135 710.639 L
377.135 716.327 L
b
0.000 0.000 0.000 1.000 K
0 j
0 J
0.287 w
[]0 d
0.000 0.000 0.000 0.498 k
367.487 426.959 m
361.871 426.959 l
361.295 426.959 360.791 426.455 360.791 425.879 c
360.791 420.263 l
360.791 419.615 361.295 419.111 361.871 419.111 c
367.487 419.111 l
368.135 419.111 368.639 419.615 368.639 420.263 c
368.639 425.879 l
368.639 426.455 368.135 426.959 367.487 426.959 c
b
0.000 0.000 0.000 1.000 K
0 j
0 J
0.287 w
[]0 d
0.000 0.000 0.000 0.498 k
378.287 717.407 m
383.903 717.407 l
384.551 717.407 385.055 716.903 385.055 716.327 c
385.055 710.711 l
385.055 710.063 384.551 709.559 383.903 709.559 c
378.287 709.559 l
377.711 709.559 377.207 710.063 377.207 710.711 c
377.207 716.327 l
377.207 716.903 377.711 717.407 378.287 717.407 c
b
0.000 0.000 0.000 1.000 k
364.679 424.871 m
365.615 424.871 366.407 424.079 366.407 423.071 c
366.407 422.135 365.615 421.415 364.679 421.415 c
363.671 421.415 362.951 422.135 362.951 423.071 c
362.951 424.079 363.671 424.871 364.679 424.871 c
f
0.000 0.000 0.000 1.000 k
381.095 715.319 m
380.159 715.319 379.439 714.527 379.439 713.519 c
379.439 712.583 380.159 711.863 381.095 711.863 c
382.103 711.863 382.895 712.583 382.895 713.519 c
382.895 714.527 382.103 715.319 381.095 715.319 c
f
0.000 0.000 0.000 1.000 K
0 j
0 J
0.287 w
[]0 d
379.799 429.191 m
385.559 429.191 390.239 426.383 390.239 422.999 c
390.239 419.615 385.559 416.879 379.799 416.879 c
374.111 416.879 369.431 419.615 369.431 422.999 c
369.431 426.383 374.111 429.191 379.799 429.191 c
s
0.000 0.000 0.000 1.000 K
0 j
0 J
0.287 w
[]0 d
365.975 719.639 m
360.215 719.639 355.607 716.831 355.607 713.447 c
355.607 710.063 360.215 707.327 365.975 707.327 c
371.735 707.327 376.415 710.063 376.415 713.447 c
376.415 716.831 371.735 719.639 365.975 719.639 c
s
0.000 0.000 0.000 1.000 K
0 j
0 J
0.287 w
[]0 d
0.000 0.000 0.000 1.000 k
239.255 389.159 m
267.623 389.159 290.807 366.047 290.807 337.607 c
290.807 309.167 267.623 285.983 239.255 285.983 c
210.815 285.983 187.631 309.167 187.631 337.607 c
187.631 366.047 210.815 389.159 239.255 389.159 c
b
0.000 0.000 0.000 1.000 K
0 j
0 J
0.287 w
[]0 d
0.000 0.000 0.000 1.000 k
506.591 679.607 m
478.223 679.607 455.039 656.495 455.039 628.055 c
455.039 599.615 478.223 576.503 506.591 576.503 c
535.031 576.503 558.216 599.615 558.216 628.055 c
558.216 656.495 535.031 679.607 506.591 679.607 c
b
0.000 0.000 0.000 1.000 K
0 j
0 J
0.287 w
[]0 d
0.000 0.000 0.000 1.000 k
543.168 379.367 m
566.135 396.071 598.463 390.887 615.168 367.919 c
631.871 344.951 626.759 312.623 603.791 295.919 c
580.751 279.215 548.423 284.327 531.719 307.295 c
515.015 330.335 520.127 362.663 543.168 379.367 c
b
0.000 0.000 0.000 1.000 K
0 j
0 J
0.287 w
[]0 d
0.000 0.000 0.000 1.000 k
202.679 669.815 m
179.711 686.519 147.383 681.335 130.679 658.367 c
113.975 635.399 119.087 603.072 142.055 586.367 c
165.095 569.663 197.423 574.775 214.127 597.743 c
230.831 620.783 225.719 653.111 202.679 669.815 c
b
0.000 0.000 0.000 1.000 K
0 j
0 J
0.287 w
[]0 d
0.000 0.000 0.000 0.098 k
239.255 371.519 m
257.903 371.519 273.168 356.327 273.168 337.607 c
273.168 318.887 257.903 303.695 239.255 303.695 c
220.535 303.695 205.271 318.887 205.271 337.607 c
205.271 356.327 220.535 371.519 239.255 371.519 c
b
0.000 0.000 0.000 1.000 K
0 j
0 J
0.287 w
[]0 d
0.000 0.000 0.000 0.098 k
506.591 661.967 m
487.943 661.967 472.679 646.775 472.679 628.055 c
472.679 609.335 487.943 594.144 506.591 594.144 c
525.312 594.144 540.575 609.335 540.575 628.055 c
540.575 646.775 525.312 661.967 506.591 661.967 c
b
0.000 0.000 0.000 1.000 K
0 j
0 J
0.287 w
[]0 d
0.000 0.000 0.000 0.098 k
553.535 365.039 m
568.583 376.055 589.895 372.671 600.911 357.551 c
611.855 342.431 608.471 321.119 593.351 310.175 c
578.231 299.159 556.991 302.543 545.975 317.663 c
535.031 332.783 538.343 354.095 553.535 365.039 c
b
0.000 0.000 0.000 1.000 K
0 j
0 J
0.287 w
[]0 d
0.000 0.000 0.000 0.098 k
192.311 655.487 m
177.263 666.503 155.951 663.120 144.935 648.000 c
133.991 632.879 137.375 611.567 152.495 600.623 c
167.615 589.607 188.855 592.991 199.871 608.111 c
210.815 623.231 207.503 644.543 192.311 655.487 c
b
0.000 0.000 0.000 1.000 K
0 j
0 J
0.287 w
[]0 d
0.000 0.000 0.000 0.000 k
239.183 365.039 m
254.303 365.039 266.615 352.727 266.615 337.607 c
266.615 322.560 254.303 310.247 239.183 310.247 c
224.063 310.247 211.751 322.560 211.751 337.607 c
211.751 352.727 224.063 365.039 239.183 365.039 c
b
0.000 0.000 0.000 1.000 K
0 j
0 J
0.287 w
[]0 d
0.000 0.000 0.000 0.000 k
506.663 655.487 m
491.543 655.487 479.231 643.175 479.231 628.055 c
479.231 613.007 491.543 600.695 506.663 600.695 c
521.783 600.695 534.096 613.007 534.096 628.055 c
534.096 643.175 521.783 655.487 506.663 655.487 c
b
0.000 0.000 0.000 1.000 K
0 j
0 J
0.287 w
[]0 d
0.000 0.000 0.000 0.000 k
557.351 359.855 m
569.591 368.711 586.727 365.975 595.655 353.735 c
604.511 341.567 601.775 324.359 589.535 315.431 c
577.367 306.575 560.159 309.311 551.303 321.551 c
542.375 333.719 545.111 350.927 557.351 359.855 c
b
0.000 0.000 0.000 1.000 K
0 j
0 J
0.287 w
[]0 d
0.000 0.000 0.000 0.000 k
188.495 650.303 m
176.256 659.159 159.119 656.423 150.191 644.183 c
141.335 632.015 144.072 614.807 156.311 605.879 c
168.479 597.024 185.687 599.759 194.543 612.000 c
203.471 624.168 200.735 641.375 188.495 650.303 c
b
0.000 0.000 0.000 1.000 k
239.183 342.791 m
241.991 342.791 244.295 340.487 244.295 337.607 c
244.295 334.799 241.991 332.495 239.183 332.495 c
236.303 332.495 233.999 334.799 233.999 337.607 c
233.999 340.487 236.303 342.791 239.183 342.791 c
f
0.000 0.000 0.000 1.000 k
506.663 633.239 m
503.855 633.239 501.551 630.935 501.551 628.055 c
501.551 625.247 503.855 622.943 506.663 622.943 c
509.543 622.943 511.847 625.247 511.847 628.055 c
511.847 630.935 509.543 633.239 506.663 633.239 c
f
0.000 0.000 0.000 1.000 k
570.455 341.783 m
572.687 343.439 575.927 342.935 577.583 340.631 c
579.240 338.327 578.735 335.087 576.503 333.431 c
574.199 331.775 570.959 332.279 569.303 334.583 c
567.647 336.887 568.151 340.127 570.455 341.783 c
f
0.000 0.000 0.000 1.000 k
175.391 632.231 m
173.159 633.887 169.919 633.383 168.263 631.079 c
166.607 628.775 167.111 625.535 169.343 623.879 c
171.647 622.223 174.887 622.727 176.543 625.031 c
178.199 627.335 177.695 630.575 175.391 632.231 c
f
0.000 0.000 0.000 1.000 k
251.207 340.199 m
252.575 340.199 253.727 339.048 253.727 337.679 c
253.727 336.239 252.575 335.087 251.207 335.087 c
249.839 335.087 248.687 336.239 248.687 337.679 c
248.687 339.048 249.839 340.199 251.207 340.199 c
f
0.000 0.000 0.000 1.000 k
494.639 630.647 m
493.271 630.647 492.119 629.495 492.119 628.127 c
492.119 626.687 493.271 625.535 494.639 625.535 c
496.007 625.535 497.159 626.687 497.159 628.127 c
497.159 629.495 496.007 630.647 494.639 630.647 c
f
0.000 0.000 0.000 1.000 k
581.687 346.679 m
582.767 347.543 584.351 347.255 585.216 346.175 c
586.007 345.024 585.791 343.439 584.639 342.575 c
583.487 341.783 581.903 342.071 581.111 343.151 c
580.319 344.303 580.535 345.887 581.687 346.679 c
f
0.000 0.000 0.000 1.000 k
164.159 637.127 m
163.079 637.991 161.495 637.703 160.631 636.623 c
159.839 635.471 160.055 633.887 161.207 633.024 c
162.359 632.231 163.943 632.519 164.735 633.599 c
165.527 634.751 165.311 636.335 164.159 637.127 c
f
0.000 0.000 0.000 1.000 k
240.479 349.703 m
240.911 351.071 242.279 351.791 243.647 351.359 c
244.943 350.927 245.663 349.487 245.231 348.191 c
244.871 346.823 243.431 346.103 242.063 346.536 c
240.767 346.967 240.047 348.407 240.479 349.703 c
f
0.000 0.000 0.000 1.000 k
505.367 640.151 m
504.935 641.519 503.567 642.239 502.199 641.807 c
500.903 641.375 500.183 639.935 500.615 638.639 c
500.975 637.271 502.415 636.551 503.783 636.983 c
505.079 637.415 505.799 638.855 505.367 640.151 c
f
0.000 0.000 0.000 1.000 k
567.360 348.119 m
566.927 349.487 567.719 350.855 569.015 351.287 c
570.312 351.719 571.751 351.000 572.183 349.703 c
572.615 348.407 571.895 346.967 570.599 346.536 c
569.231 346.103 567.791 346.823 567.360 348.119 c
f
0.000 0.000 0.000 1.000 k
178.487 638.567 m
178.919 639.935 178.127 641.303 176.831 641.735 c
175.535 642.168 174.095 641.447 173.663 640.151 c
173.231 638.855 173.951 637.415 175.247 636.983 c
176.615 636.551 178.055 637.271 178.487 638.567 c
f
0.000 0.000 0.000 1.000 k
228.167 342.359 m
227.015 343.223 226.799 344.807 227.591 345.959 c
228.383 347.039 229.967 347.327 231.119 346.463 c
232.271 345.671 232.487 344.087 231.695 342.935 c
230.903 341.855 229.247 341.567 228.167 342.359 c
f
0.000 0.000 0.000 1.000 k
517.679 632.807 m
518.831 633.671 519.048 635.255 518.255 636.407 c
517.463 637.487 515.879 637.775 514.727 636.911 c
513.575 636.120 513.360 634.535 514.151 633.383 c
514.943 632.303 516.599 632.015 517.679 632.807 c
f
0.000 0.000 0.000 1.000 k
561.671 334.943 m
560.303 334.943 559.151 336.095 559.151 337.463 c
559.151 338.903 560.303 340.055 561.671 340.055 c
563.039 340.055 564.192 338.903 564.192 337.463 c
564.192 336.095 563.039 334.943 561.671 334.943 c
f
0.000 0.000 0.000 1.000 k
184.175 625.391 m
185.543 625.391 186.695 626.543 186.695 627.911 c
186.695 629.351 185.543 630.503 184.175 630.503 c
182.807 630.503 181.655 629.351 181.655 627.911 c
181.655 626.543 182.807 625.391 184.175 625.391 c
f
0.000 0.000 0.000 1.000 k
231.191 328.463 m
230.111 327.671 228.527 327.887 227.663 329.039 c
226.871 330.119 227.087 331.703 228.239 332.567 c
229.391 333.359 230.975 333.143 231.767 331.991 c
232.559 330.911 232.343 329.255 231.191 328.463 c
f
0.000 0.000 0.000 1.000 k
514.655 618.911 m
515.735 618.120 517.319 618.335 518.183 619.487 c
518.975 620.567 518.759 622.151 517.607 623.015 c
516.456 623.807 514.871 623.591 514.079 622.439 c
513.288 621.359 513.503 619.703 514.655 618.911 c
f
0.000 0.000 0.000 1.000 k
572.399 325.439 m
571.967 324.143 570.599 323.423 569.231 323.855 c
567.935 324.287 567.216 325.655 567.647 327.024 c
568.079 328.319 569.447 329.111 570.815 328.679 c
572.111 328.247 572.831 326.807 572.399 325.439 c
f
0.000 0.000 0.000 1.000 k
173.447 615.887 m
173.879 614.591 175.247 613.871 176.615 614.303 c
177.911 614.735 178.631 616.103 178.199 617.471 c
177.768 618.767 176.399 619.559 175.031 619.127 c
173.735 618.695 173.015 617.255 173.447 615.887 c
f
0.000 0.000 0.000 1.000 k
245.447 327.024 m
245.879 325.727 245.159 324.287 243.863 323.855 c
242.495 323.423 241.055 324.143 240.623 325.512 c
240.191 326.807 240.911 328.247 242.279 328.679 c
243.575 329.111 245.015 328.391 245.447 327.024 c
f
0.000 0.000 0.000 1.000 k
500.399 617.471 m
499.967 616.175 500.687 614.735 501.983 614.303 c
503.351 613.871 504.791 614.591 505.223 615.959 c
505.655 617.255 504.935 618.695 503.567 619.127 c
502.271 619.559 500.831 618.839 500.399 617.471 c
f
0.000 0.000 0.000 1.000 k
584.711 332.711 m
585.863 331.919 586.079 330.335 585.288 329.183 c
584.495 328.031 582.911 327.815 581.759 328.607 c
580.607 329.471 580.391 331.055 581.183 332.135 c
581.975 333.287 583.631 333.503 584.711 332.711 c
f
0.000 0.000 0.000 1.000 k
161.135 623.159 m
159.983 622.367 159.768 620.783 160.559 619.631 c
161.351 618.479 162.935 618.264 164.087 619.055 c
165.239 619.919 165.455 621.503 164.663 622.583 c
163.871 623.735 162.215 623.951 161.135 623.159 c
f
u
u
0.000 0.000 0.000 1.000 K
0 j
0 J
0.287 w
[]0 d
480.671 454.319 m
631.151 446.327 L
S
U
U
u
u
0.000 0.000 0.000 1.000 K
0 j
0 J
0.287 w
[]0 d
265.175 744.767 m
114.695 736.775 L
S
U
U
0.000 0.000 0.000 1.000 K
0 j
0 J
0.863 w
[]0 d
931.391 350.783 m
937.295 350.783 L
938.159 350.783 938.591 351.575 938.591 352.367 C
938.591 421.055 L
938.447 431.279 939.671 434.231 931.391 438.551 C
934.343 465.623 932.903 494.711 928.439 521.711 C
930.455 525.815 930.743 528.551 928.583 531.288 C
925.847 545.975 916.991 553.823 900.719 553.607 C
845.927 554.327 791.135 554.255 736.271 553.607 C
720.000 553.823 711.143 545.975 708.407 531.288 C
706.247 528.551 706.535 525.815 708.551 521.711 C
704.159 494.711 702.647 465.623 705.671 438.551 C
697.319 434.231 698.543 431.279 698.399 421.055 C
698.399 352.367 L
698.399 351.575 698.831 350.783 699.695 350.783 C
705.671 350.783 L
931.391 350.783 L
s
0.000 0.000 0.000 1.000 K
0 j
0 J
0.287 w
[]0 d
0.000 0.000 0.000 0.200 k
919.871 527.903 m
921.383 527.327 922.103 526.391 922.175 524.735 C
924.623 479.231 L
924.479 477.287 923.255 476.135 921.311 476.063 C
912.887 475.847 904.391 475.559 895.895 475.415 C
842.399 474.263 788.687 474.407 735.191 475.559 C
728.783 475.703 722.159 475.703 715.751 476.063 C
714.095 476.351 713.015 477.503 712.871 479.231 C
715.319 524.735 L
715.391 526.679 716.615 527.975 718.559 528.048 C
918.863 528.048 L
919.223 528.048 919.583 527.975 919.871 527.903 C
b
u
u
0.000 0.000 0.000 1.000 K
0 j
0 J
0.287 w
[]0 d
708.407 520.919 m
710.711 528.767 714.599 533.807 721.439 533.879 C
818.567 533.879 L
S
U
U
u
u
0.000 0.000 0.000 1.000 K
0 j
0 J
0.287 w
[]0 d
928.439 520.919 m
926.135 528.767 922.247 533.807 915.479 533.879 C
818.423 533.879 L
721.439 533.879 L
714.599 533.807 710.711 528.767 708.407 520.919 C
S
U
U
0.000 0.000 0.000 1.000 K
0 j
0 J
0.287 w
[]0 d
0.000 0.000 0.000 0.498 k
747.431 425.951 m
711.719 425.951 l
707.615 425.951 704.303 422.639 704.303 418.535 c
704.303 382.823 l
704.303 378.719 707.615 375.407 711.719 375.407 c
747.431 375.407 l
751.535 375.407 754.847 378.719 754.847 382.823 c
754.847 418.535 l
754.847 422.639 751.535 425.951 747.431 425.951 c
b
0.000 0.000 0.000 1.000 K
0 j
0 J
0.287 w
[]0 d
0.000 0.000 0.000 0.498 k
924.407 425.951 m
888.695 425.951 l
884.591 425.951 881.279 422.639 881.279 418.535 c
881.279 382.823 l
881.279 378.719 884.591 375.407 888.695 375.407 c
924.407 375.407 l
928.439 375.407 931.823 378.719 931.823 382.823 c
931.823 418.535 l
931.823 422.639 928.439 425.951 924.407 425.951 c
b
0.000 0.000 0.000 1.000 K
0 j
0 J
0.287 w
[]0 d
0.000 0.000 0.000 0.098 k
737.783 418.895 m
746.063 418.895 752.759 412.127 752.759 403.847 c
752.759 395.639 746.063 388.871 737.783 388.871 c
729.503 388.871 722.807 395.639 722.807 403.847 c
722.807 412.127 729.503 418.895 737.783 418.895 c
b
0.000 0.000 0.000 1.000 K
0 j
0 J
0.287 w
[]0 d
0.000 0.000 0.000 0.098 k
899.423 418.895 m
907.631 418.895 914.399 412.127 914.399 403.847 c
914.399 395.639 907.631 388.871 899.423 388.871 c
891.143 388.871 884.375 395.639 884.375 403.847 c
884.375 412.127 891.143 418.895 899.423 418.895 c
b
0.000 0.000 0.000 1.000 K
0 j
0 J
0.287 w
[]0 d
0.000 0.000 0.000 0.000 k
899.423 417.023 m
892.151 417.023 886.247 411.119 886.247 403.847 c
886.247 396.647 892.151 390.743 899.423 390.743 c
906.623 390.743 912.527 396.647 912.527 403.847 c
912.527 411.119 906.623 417.023 899.423 417.023 c
b
0.000 0.000 0.000 1.000 K
0 j
0 J
0.287 w
[]0 d
0.000 0.000 0.000 0.298 k
714.024 399.167 m
710.855 399.167 708.335 396.647 708.335 393.479 c
708.335 390.311 710.855 387.791 714.024 387.791 c
717.191 387.791 719.711 390.311 719.711 393.479 c
719.711 396.647 717.191 399.167 714.024 399.167 c
b
0.000 0.000 0.000 1.000 K
0 j
0 J
0.287 w
[]0 d
0.000 0.000 0.000 0.298 k
923.183 399.167 m
926.351 399.167 928.943 396.647 928.943 393.479 c
928.943 390.311 926.351 387.791 923.183 387.791 c
920.087 387.791 917.495 390.311 917.495 393.479 c
917.495 396.647 920.087 399.167 923.183 399.167 c
b
0.000 0.000 0.000 1.000 K
0 j
0 J
0.287 w
[]0 d
0.000 0.000 0.000 0.000 k
714.024 421.991 m
710.855 421.991 708.335 419.471 708.335 416.303 c
708.335 413.135 710.855 410.615 714.024 410.615 c
717.191 410.615 719.711 413.135 719.711 416.303 c
719.711 419.471 717.191 421.991 714.024 421.991 c
b
0.000 0.000 0.000 1.000 K
0 j
0 J
0.287 w
[]0 d
0.000 0.000 0.000 0.000 k
923.183 421.991 m
926.351 421.991 928.943 419.471 928.943 416.303 c
928.943 413.135 926.351 410.615 923.183 410.615 c
920.087 410.615 917.495 413.135 917.495 416.303 c
917.495 419.471 920.087 421.991 923.183 421.991 c
b
0.000 0.000 0.000 1.000 K
0 j
0 J
0.287 w
[]0 d
0.000 0.000 0.000 0.498 k
758.663 425.951 m
876.959 425.951 l
877.391 425.951 877.751 425.591 877.751 425.159 c
877.751 376.127 l
877.751 375.695 877.391 375.335 876.959 375.335 c
758.663 375.335 l
758.231 375.335 757.871 375.695 757.871 376.127 c
757.871 425.159 l
757.871 425.591 758.231 425.951 758.663 425.951 c
b
u
u
0.000 0.000 0.000 1.000 K
0 j
0 J
0.287 w
[]0 d
705.815 437.975 m
757.799 437.975 L
757.871 432.935 L
877.751 432.935 L
877.751 437.975 L
932.255 437.975 L
S
U
U
0.000 0.000 0.000 1.000 K
0 j
0 J
0.287 w
[]0 d
0.000 0.000 0.000 0.498 k
723.599 454.823 m
810.215 454.823 l
812.447 454.823 814.175 456.623 814.175 458.855 c
814.175 464.399 l
814.175 466.559 812.447 468.359 810.215 468.359 c
723.599 468.359 l
721.439 468.359 719.639 466.559 719.639 464.399 c
719.639 458.855 l
719.639 456.623 721.439 454.823 723.599 454.823 c
b
0.000 0.000 0.000 1.000 K
0 j
0 J
0.287 w
[]0 d
0.000 0.000 0.000 0.498 k
826.631 454.823 m
913.247 454.823 l
915.407 454.823 917.207 456.623 917.207 458.855 c
917.207 464.399 l
917.207 466.559 915.407 468.359 913.247 468.359 c
826.631 468.359 l
824.399 468.359 822.599 466.559 822.599 464.399 c
822.599 458.855 l
822.599 456.623 824.399 454.823 826.631 454.823 c
b
0.000 0.000 0.000 1.000 K
0 j
0 J
0.287 w
[]0 d
0.000 0.000 0.000 0.200 k
810.215 456.695 m
811.511 456.839 812.303 457.559 812.375 458.927 C
812.375 460.727 812.591 463.031 812.375 464.831 C
812.087 465.911 811.367 466.487 810.215 466.559 C
723.671 466.559 L
722.375 466.415 721.583 465.695 721.511 464.327 C
721.511 462.527 721.295 460.223 721.511 458.423 C
721.871 457.343 722.519 456.767 723.671 456.695 C
810.215 456.695 L
b
0.000 0.000 0.000 1.000 K
0 j
0 J
0.287 w
[]0 d
0.000 0.000 0.000 0.200 k
913.175 456.695 m
914.543 456.839 915.263 457.559 915.407 458.927 C
915.407 460.727 915.623 463.031 915.335 464.831 C
915.047 465.911 914.327 466.487 913.175 466.559 C
826.703 466.559 L
825.407 466.415 824.615 465.695 824.471 464.327 C
824.471 462.527 824.255 460.223 824.543 458.423 C
824.831 457.343 825.551 456.767 826.703 456.695 C
913.175 456.695 L
b
u
u
0.000 0.000 0.000 1.000 K
0 j
0 J
0.287 w
[]0 d
880.271 437.975 m
921.887 446.399 L
919.439 448.271 915.695 449.639 909.935 450.287 C
885.455 451.943 848.159 452.303 818.351 451.943 C
788.471 452.303 752.687 451.943 728.135 450.287 C
722.447 449.639 718.631 448.271 716.255 446.399 C
757.871 437.975 L
S
U
U
0.000 0.000 0.000 1.000 k
760.823 422.567 m
764.423 422.567 L
764.423 419.831 L
760.823 419.831 L
760.823 422.567 L
f
0.000 0.000 0.000 1.000 k
768.167 422.567 m
868.031 422.567 L
868.031 419.831 L
768.167 419.831 L
768.167 422.567 L
f
0.000 0.000 0.000 1.000 k
871.055 422.567 m
874.655 422.567 L
874.655 419.831 L
871.055 419.831 L
871.055 422.567 L
f
0.000 0.000 0.000 1.000 k
760.823 415.583 m
764.423 415.583 L
764.423 412.775 L
760.823 412.775 L
760.823 415.583 L
f
0.000 0.000 0.000 1.000 k
768.167 415.583 m
868.031 415.583 L
868.031 412.775 L
768.167 412.775 L
768.167 415.583 L
f
0.000 0.000 0.000 1.000 k
871.055 415.583 m
874.655 415.583 L
874.655 412.775 L
871.055 412.775 L
871.055 415.583 L
f
0.000 0.000 0.000 1.000 k
760.823 408.599 m
764.423 408.599 L
764.423 405.791 L
760.823 405.791 L
760.823 408.599 L
f
0.000 0.000 0.000 1.000 k
768.167 408.599 m
868.031 408.599 L
868.031 405.791 L
768.167 405.791 L
768.167 408.599 L
f
0.000 0.000 0.000 1.000 k
871.055 408.599 m
874.655 408.599 L
874.655 405.791 L
871.055 405.791 L
871.055 408.599 L
f
0.000 0.000 0.000 1.000 k
760.823 401.543 m
764.423 401.543 L
764.423 398.807 L
760.823 398.807 L
760.823 401.543 L
f
0.000 0.000 0.000 1.000 k
768.167 401.543 m
868.031 401.543 L
868.031 398.807 L
768.167 398.807 L
768.167 401.543 L
f
0.000 0.000 0.000 1.000 k
871.055 401.543 m
874.655 401.543 L
874.655 398.807 L
871.055 398.807 L
871.055 401.543 L
f
0.000 0.000 0.000 1.000 k
760.823 394.559 m
764.423 394.559 L
764.423 391.751 L
760.823 391.751 L
760.823 394.559 L
f
0.000 0.000 0.000 1.000 k
768.167 394.559 m
868.031 394.559 L
868.031 391.751 L
768.167 391.751 L
768.167 394.559 L
f
0.000 0.000 0.000 1.000 k
871.055 394.559 m
874.655 394.559 L
874.655 391.751 L
871.055 391.751 L
871.055 394.559 L
f
0.000 0.000 0.000 1.000 k
760.823 387.503 m
764.423 387.503 L
764.423 384.767 L
760.823 384.767 L
760.823 387.503 L
f
0.000 0.000 0.000 1.000 k
768.167 387.503 m
868.031 387.503 L
868.031 384.767 L
768.167 384.767 L
768.167 387.503 L
f
0.000 0.000 0.000 1.000 k
871.055 387.503 m
874.655 387.503 L
874.655 384.767 L
871.055 384.767 L
871.055 387.503 L
f
0.000 0.000 0.000 1.000 k
760.823 380.519 m
764.423 380.519 L
764.423 377.711 L
760.823 377.711 L
760.823 380.519 L
f
0.000 0.000 0.000 1.000 k
768.167 380.519 m
868.031 380.519 L
868.031 377.711 L
768.167 377.711 L
768.167 380.519 L
f
0.000 0.000 0.000 1.000 k
871.055 380.519 m
874.655 380.519 L
874.655 377.711 L
871.055 377.711 L
871.055 380.519 L
f
0.000 0.000 0.000 1.000 K
0 j
0 J
0.287 w
[]0 d
0.000 0.000 0.000 0.000 k
737.783 417.023 m
745.055 417.023 750.959 411.119 750.959 403.847 c
750.959 396.647 745.055 390.743 737.783 390.743 c
730.583 390.743 724.679 396.647 724.679 403.847 c
724.679 411.119 730.583 417.023 737.783 417.023 c
b
u
u
0.000 0.000 0.000 1.000 K
0 j
0 J
0.287 w
[]0 d
757.943 375.551 m
757.943 369.071 L
S
U
U
u
u
0.000 0.000 0.000 1.000 K
0 j
0 J
0.287 w
[]0 d
877.679 375.551 m
877.679 370.583 L
S
U
U
0.000 0.000 0.000 1.000 K
0 j
0 J
0.215 w
[]0 d
0.000 0.000 0.000 0.498 k
702.575 368.351 m
933.623 368.351 l
935.135 368.351 936.287 367.127 936.287 365.687 c
936.287 353.375 l
936.287 351.935 935.135 350.783 933.623 350.783 c
702.575 350.783 l
701.135 350.783 699.911 351.935 699.911 353.375 c
699.911 365.687 l
699.911 367.127 701.135 368.351 702.575 368.351 c
b
0.000 0.000 0.000 1.000 k
747.359 350.855 m
747.359 293.399 L
747.359 289.223 743.903 285.767 739.727 285.767 C
717.551 285.767 L
713.375 285.767 709.919 289.223 709.919 293.399 C
709.919 350.855 L
747.359 350.855 L
f
0.000 0.000 0.000 1.000 k
927.359 350.855 m
927.359 293.399 L
927.359 289.223 923.975 285.767 919.799 285.767 C
897.623 285.767 L
893.447 285.767 889.991 289.223 889.991 293.399 C
889.991 350.855 L
927.359 350.855 L
f
u
u
0.000 0.000 0.000 1.000 K
0 j
0 J
0.287 w
[]0 d
713.735 530.639 m
717.695 538.991 723.671 546.767 733.247 553.535 C
S
U
U
u
u
0.000 0.000 0.000 1.000 K
0 j
0 J
0.287 w
[]0 d
923.543 530.639 m
919.511 538.991 913.535 546.767 904.031 553.535 C
S
U
U
u
u
0.000 0.000 0.000 1.000 K
0 j
0 J
0.287 w
[]0 d
705.095 453.167 m
931.967 453.167 L
S
U
U
u
u
0.000 0.000 0.000 1.000 K
0 j
0 J
0.287 w
[]0 d
716.543 535.751 m
921.167 535.751 L
S
U
U
u
u
0.000 0.000 0.000 1.000 K
0 j
0 J
0.287 w
[]0 d
757.871 432.863 m
757.871 423.359 L
S
U
U
u
u
0.000 0.000 0.000 1.000 K
0 j
0 J
0.287 w
[]0 d
877.823 433.007 m
877.823 424.943 L
S
U
U
u
u
0.000 0.000 0.000 1.000 K
0 j
0 J
0.287 w
[]0 d
877.751 437.975 m
877.895 439.919 877.319 440.999 875.951 441.071 C
865.943 441.071 L
865.007 440.783 864.359 440.567 864.215 439.631 C
771.407 439.631 L
771.263 440.567 770.687 440.783 769.679 441.071 C
759.671 441.071 L
758.375 440.999 757.727 439.919 757.871 437.975 C
S
U
U
u
u
0.000 0.000 0.000 1.000 K
0 j
0 J
0.287 w
[]0 d
771.047 442.439 m
768.311 451.871 L
S
U
U
u
u
0.000 0.000 0.000 1.000 K
0 j
0 J
0.287 w
[]0 d
865.871 442.439 m
868.679 451.871 L
S
U
U
u
u
0.000 0.000 0.000 1.000 K
0 j
0 J
0.287 w
[]0 d
716.183 446.327 m
705.743 437.975 L
S
U
U
u
u
0.000 0.000 0.000 1.000 K
0 j
0 J
0.287 w
[]0 d
921.887 446.327 m
932.327 437.975 L
S
U
U
0.000 0.000 0.000 1.000 K
0 j
0 J
0.287 w
[]0 d
0.000 0.000 0.000 0.498 k
747.575 351.000 m
889.991 351.000 L
889.991 338.831 L
843.191 343.079 L
818.495 341.279 L
786.383 344.303 L
763.991 344.303 L
747.575 338.831 L
747.575 351.000 L
b
0.000 0.000 0.000 1.000 K
0 j
0 J
0.287 w
[]0 d
134.855 363.455 m
137.015 362.807 139.536 362.375 143.280 361.367 C
143.280 348.263 L
143.280 346.536 141.840 345.095 140.111 345.095 C
134.855 345.095 L
133.127 345.095 131.687 346.536 131.687 348.263 C
131.687 360.287 L
131.687 362.015 133.127 363.455 134.855 363.455 C
s
0.000 0.000 0.000 1.000 K
0 j
0 J
0.287 w
[]0 d
610.991 653.903 m
608.831 653.255 606.311 652.823 602.567 651.815 C
602.567 638.711 L
602.567 636.983 604.007 635.543 605.735 635.543 C
610.991 635.543 L
612.719 635.543 614.159 636.983 614.159 638.711 C
614.159 650.735 L
614.159 652.463 612.719 653.903 610.991 653.903 C
s
0.000 0.000 0.000 1.000 K
0 j
0 J
0.287 w
[]0 d
642.168 369.143 m
641.663 367.559 639.791 366.335 633.671 365.831 C
633.671 353.951 L
633.671 352.223 635.111 350.855 636.839 350.855 C
642.168 350.855 L
643.895 350.855 645.263 352.223 645.263 353.951 C
645.263 366.047 L
645.263 367.775 643.895 369.143 642.168 369.143 C
s
0.000 0.000 0.000 1.000 K
0 j
0 J
0.287 w
[]0 d
103.679 659.591 m
104.183 658.007 106.055 656.783 112.175 656.279 C
112.175 644.399 L
112.175 642.671 110.735 641.303 109.007 641.303 C
103.679 641.303 L
101.951 641.303 100.583 642.671 100.583 644.399 C
100.583 656.495 L
100.583 658.223 101.951 659.591 103.679 659.591 C
s
0.000 0.000 0.000 1.000 K
0 j
0 J
0.287 w
[]0 d
0.000 0.000 0.000 1.000 k
103.319 475.127 m
125.639 475.127 l
128.951 475.127 131.615 472.463 131.615 469.079 c
131.615 377.927 l
131.615 374.615 128.951 371.879 125.639 371.879 c
103.319 371.879 l
100.007 371.879 97.271 374.615 97.271 377.927 c
97.271 469.079 l
97.271 472.463 100.007 475.127 103.319 475.127 c
b
0.000 0.000 0.000 1.000 K
0 j
0 J
0.287 w
[]0 d
0.000 0.000 0.000 1.000 k
642.527 765.575 m
620.207 765.575 l
616.895 765.575 614.231 762.911 614.231 759.527 c
614.231 668.375 l
614.231 665.063 616.895 662.327 620.207 662.327 c
642.527 662.327 l
645.839 662.327 648.575 665.063 648.575 668.375 c
648.575 759.527 l
648.575 762.911 645.839 765.575 642.527 765.575 c
b
0.000 0.000 0.000 1.000 K
0 j
0 J
0.287 w
[]0 d
0.000 0.000 0.000 0.000 k
478.511 372.311 m
467.135 372.311 L
467.135 363.383 L
478.511 363.383 L
478.511 372.311 L
b
0.000 0.000 0.000 1.000 K
0 j
0 J
0.287 w
[]0 d
0.000 0.000 0.000 0.000 k
267.335 662.759 m
278.711 662.759 L
278.711 653.831 L
267.335 653.831 L
267.335 662.759 L
b
0.000 0.000 0.000 1.000 K
0 j
0 J
0.287 w
[]0 d
0.000 0.000 0.000 0.000 k
478.511 452.807 m
467.135 452.807 L
467.135 443.807 L
478.511 443.807 L
478.511 452.807 L
b
0.000 0.000 0.000 1.000 K
0 j
0 J
0.287 w
[]0 d
0.000 0.000 0.000 0.000 k
267.335 743.255 m
278.711 743.255 L
278.711 734.255 L
267.335 734.255 L
267.335 743.255 L
b
0.000 0.000 0.000 1.000 K
0 j
0 J
0.287 w
[]0 d
468.575 371.735 m
469.079 371.735 469.367 371.447 469.367 371.015 c
469.367 370.511 469.079 370.223 468.575 370.223 c
468.143 370.223 467.855 370.511 467.855 371.015 c
467.855 371.447 468.143 371.735 468.575 371.735 c
s
0.000 0.000 0.000 1.000 K
0 j
0 J
0.287 w
[]0 d
277.271 662.183 m
276.767 662.183 276.479 661.895 276.479 661.463 c
276.479 660.959 276.767 660.671 277.271 660.671 c
277.703 660.671 277.991 660.959 277.991 661.463 c
277.991 661.895 277.703 662.183 277.271 662.183 c
s
0.000 0.000 0.000 1.000 K
0 j
0 J
0.287 w
[]0 d
468.575 452.231 m
469.079 452.231 469.367 451.871 469.367 451.439 c
469.367 451.007 469.079 450.647 468.575 450.647 c
468.143 450.647 467.855 451.007 467.855 451.439 c
467.855 451.871 468.143 452.231 468.575 452.231 c
s
0.000 0.000 0.000 1.000 K
0 j
0 J
0.287 w
[]0 d
277.271 742.679 m
276.767 742.679 276.479 742.319 276.479 741.887 c
276.479 741.455 276.767 741.095 277.271 741.095 c
277.703 741.095 277.991 741.455 277.991 741.887 c
277.991 742.319 277.703 742.679 277.271 742.679 c
s
0.000 0.000 0.000 1.000 K
0 j
0 J
0.287 w
[]0 d
468.575 365.543 m
469.079 365.543 469.367 365.183 469.367 364.751 c
469.367 364.319 469.079 363.959 468.575 363.959 c
468.143 363.959 467.855 364.319 467.855 364.751 c
467.855 365.183 468.143 365.543 468.575 365.543 c
s
0.000 0.000 0.000 1.000 K
0 j
0 J
0.287 w
[]0 d
277.271 655.991 m
276.767 655.991 276.479 655.631 276.479 655.199 c
276.479 654.767 276.767 654.407 277.271 654.407 c
277.703 654.407 277.991 654.767 277.991 655.199 c
277.991 655.631 277.703 655.991 277.271 655.991 c
s
0.000 0.000 0.000 1.000 K
0 j
0 J
0.287 w
[]0 d
468.575 445.967 m
469.079 445.967 469.367 445.607 469.367 445.175 c
469.367 444.743 469.079 444.383 468.575 444.383 c
468.143 444.383 467.855 444.743 467.855 445.175 c
467.855 445.607 468.143 445.967 468.575 445.967 c
s
0.000 0.000 0.000 1.000 K
0 j
0 J
0.287 w
[]0 d
277.271 736.415 m
276.767 736.415 276.479 736.055 276.479 735.623 c
276.479 735.191 276.767 734.831 277.271 734.831 c
277.703 734.831 277.991 735.191 277.991 735.623 c
277.991 736.055 277.703 736.415 277.271 736.415 c
s
0.000 0.000 0.000 1.000 K
0 j
0 J
0.287 w
[]0 d
476.783 371.735 m
477.287 371.735 477.575 371.447 477.575 371.015 c
477.575 370.511 477.287 370.223 476.783 370.223 c
476.351 370.223 476.063 370.511 476.063 371.015 c
476.063 371.447 476.351 371.735 476.783 371.735 c
s
0.000 0.000 0.000 1.000 K
0 j
0 J
0.287 w
[]0 d
269.063 662.183 m
268.560 662.183 268.271 661.895 268.271 661.463 c
268.271 660.959 268.560 660.671 269.063 660.671 c
269.495 660.671 269.783 660.959 269.783 661.463 c
269.783 661.895 269.495 662.183 269.063 662.183 c
s
0.000 0.000 0.000 1.000 K
0 j
0 J
0.287 w
[]0 d
476.783 452.231 m
477.287 452.231 477.575 451.871 477.575 451.439 c
477.575 451.007 477.287 450.647 476.783 450.647 c
476.351 450.647 476.063 451.007 476.063 451.439 c
476.063 451.871 476.351 452.231 476.783 452.231 c
s
0.000 0.000 0.000 1.000 K
0 j
0 J
0.287 w
[]0 d
269.063 742.679 m
268.560 742.679 268.271 742.319 268.271 741.887 c
268.271 741.455 268.560 741.095 269.063 741.095 c
269.495 741.095 269.783 741.455 269.783 741.887 c
269.783 742.319 269.495 742.679 269.063 742.679 c
s
0.000 0.000 0.000 1.000 K
0 j
0 J
0.287 w
[]0 d
476.783 365.543 m
477.287 365.543 477.575 365.183 477.575 364.751 c
477.575 364.319 477.287 363.959 476.783 363.959 c
476.351 363.959 476.063 364.319 476.063 364.751 c
476.063 365.183 476.351 365.543 476.783 365.543 c
s
0.000 0.000 0.000 1.000 K
0 j
0 J
0.287 w
[]0 d
269.063 655.991 m
268.560 655.991 268.271 655.631 268.271 655.199 c
268.271 654.767 268.560 654.407 269.063 654.407 c
269.495 654.407 269.783 654.767 269.783 655.199 c
269.783 655.631 269.495 655.991 269.063 655.991 c
s
0.000 0.000 0.000 1.000 K
0 j
0 J
0.287 w
[]0 d
476.783 445.967 m
477.287 445.967 477.575 445.607 477.575 445.175 c
477.575 444.743 477.287 444.383 476.783 444.383 c
476.351 444.383 476.063 444.743 476.063 445.175 c
476.063 445.607 476.351 445.967 476.783 445.967 c
s
0.000 0.000 0.000 1.000 K
0 j
0 J
0.287 w
[]0 d
269.063 736.415 m
268.560 736.415 268.271 736.055 268.271 735.623 c
268.271 735.191 268.560 734.831 269.063 734.831 c
269.495 734.831 269.783 735.191 269.783 735.623 c
269.783 736.055 269.495 736.415 269.063 736.415 c
s
0.000 0.000 0.000 1.000 K
0 j
0 J
0.287 w
[]0 d
0.000 0.000 0.000 0.498 k
470.735 459.431 m
468.647 459.431 l
467.495 459.431 466.631 460.367 466.631 461.447 c
466.631 489.743 l
466.631 490.895 467.495 491.759 468.647 491.759 c
470.735 491.759 l
471.815 491.759 472.751 490.895 472.751 489.743 c
472.751 461.447 l
472.751 460.367 471.815 459.431 470.735 459.431 c
b
0.000 0.000 0.000 1.000 K
0 j
0 J
0.287 w
[]0 d
0.000 0.000 0.000 0.498 k
275.111 749.879 m
277.199 749.879 l
278.351 749.879 279.215 750.815 279.215 751.895 c
279.215 780.191 l
279.215 781.343 278.351 782.207 277.199 782.207 c
275.111 782.207 l
274.031 782.207 273.096 781.343 273.096 780.191 c
273.096 751.895 l
273.096 750.815 274.031 749.879 275.111 749.879 c
b
0.000 0.000 0.000 1.000 K
0 j
0 J
0.287 w
[]0 d
0.000 0.000 0.000 0.498 k
468.215 459.431 m
469.871 459.431 L
469.871 452.879 L
468.215 452.879 L
468.215 459.431 L
b
0.000 0.000 0.000 1.000 K
0 j
0 J
0.287 w
[]0 d
0.000 0.000 0.000 0.498 k
277.632 749.879 m
275.975 749.879 L
275.975 743.327 L
277.632 743.327 L
277.632 749.879 L
b
0.000 0.000 0.000 1.000 K
0 j
0 J
0.287 w
[]0 d
0.000 0.000 0.000 0.498 k
685.583 492.047 m
693.359 492.047 l
695.303 492.047 696.959 490.463 696.959 488.447 c
696.959 463.535 l
696.959 461.519 695.303 459.935 693.359 459.935 c
685.583 459.935 l
683.567 459.935 681.983 461.519 681.983 463.535 c
681.983 488.447 l
681.983 490.463 683.567 492.047 685.583 492.047 c
b
0.000 0.000 0.000 1.000 K
0 j
0 J
0.287 w
[]0 d
0.000 0.000 0.000 0.498 k
951.119 492.047 m
943.343 492.047 l
941.327 492.047 939.743 490.463 939.743 488.447 c
939.743 463.535 l
939.743 461.519 941.327 459.935 943.343 459.935 c
951.119 459.935 l
953.135 459.935 954.719 461.519 954.719 463.535 c
954.719 488.447 l
954.719 490.463 953.135 492.047 951.119 492.047 c
b
0.000 0.000 0.000 1.000 K
0 j
0 J
0.287 w
[]0 d
0.000 0.000 0.000 0.498 k
704.519 453.095 m
690.911 453.095 L
689.759 453.239 689.111 453.743 688.967 454.535 C
688.967 459.935 L
690.695 459.935 L
690.695 455.399 L
690.767 454.679 691.199 454.391 691.991 454.463 C
704.519 454.463 L
704.519 453.095 L
b
0.000 0.000 0.000 1.000 K
0 j
0 J
0.287 w
[]0 d
0.000 0.000 0.000 0.498 k
932.111 453.095 m
945.719 453.095 L
946.871 453.239 947.519 453.743 947.663 454.535 C
947.663 459.935 L
945.935 459.935 L
945.935 455.399 L
945.863 454.679 945.431 454.391 944.639 454.463 C
932.111 454.463 L
932.111 453.095 L
b
u
u
U
u
0.000 0.000 0.000 1.000 K
0 j
0 J
0.215 w
[]0 d
243.863 263.807 m
341.711 263.807 L
S
U
U
u
u
U
u
0.000 0.000 0.000 1.000 K
0 j
0 J
0.215 w
[]0 d
463.175 263.807 m
574.487 263.807 L
S
U
U
u
u
U
u
0.000 0.000 0.000 1.000 K
0 j
0 J
0.215 w
[]0 d
239.615 277.343 m
239.615 247.319 L
S
U
U
0.000 0.000 0.000 1.000 k
239.399 263.951 m
249.335 261.000 L
249.335 266.831 L
239.399 263.951 L
f
u
u
U
u
0.000 0.000 0.000 1.000 K
0 j
0 J
0.215 w
[]0 d
573.264 275.327 m
573.264 245.663 L
S
U
U
0.000 0.000 0.000 1.000 k
573.336 263.951 m
563.399 261.000 L
563.399 266.831 L
573.336 263.951 L
f
0.000 0.000 0.000 1.000 k
425.591 259.487 m
425.591 259.632 L
425.591 267.767 L
426.527 267.767 L
426.527 266.327 L
426.599 266.327 L
427.103 267.335 427.967 267.983 429.263 267.983 c
430.343 267.983 431.423 267.479 431.711 266.327 C
432.143 267.479 433.223 267.983 434.303 267.983 c
436.103 267.983 437.039 267.048 437.039 265.103 c
437.039 259.487 L
436.031 259.487 L
436.031 265.031 l
436.031 266.399 435.527 267.120 434.087 267.120 c
432.359 267.120 431.783 265.680 431.783 264.168 c
431.783 259.487 L
430.847 259.487 L
430.847 265.103 l
430.847 266.183 430.343 267.120 429.047 267.120 c
427.319 267.120 426.599 265.823 426.599 264.096 c
426.599 259.487 L
425.591 259.487 L
f
0.000 0.000 0.000 1.000 k
412.343 259.487 m
412.343 259.632 L
412.343 267.767 L
413.279 267.767 L
413.279 266.327 L
413.279 266.327 L
413.855 267.335 414.647 267.983 416.015 267.983 c
417.095 267.983 418.103 267.479 418.391 266.327 C
418.823 267.479 419.903 267.983 420.983 267.983 c
422.783 267.983 423.719 267.048 423.719 265.103 c
423.719 259.487 L
422.711 259.487 L
422.711 265.031 l
422.711 266.399 422.207 267.120 420.767 267.120 c
419.039 267.120 418.535 265.680 418.535 264.168 c
418.535 259.487 L
417.527 259.487 L
417.527 265.103 l
417.527 266.183 417.095 267.120 415.799 267.120 c
414.071 267.120 413.351 265.823 413.351 264.096 c
413.351 259.487 L
412.343 259.487 L
f
0.000 0.000 0.000 1.000 k
402.551 270.719 m
405.791 270.719 406.439 267.623 406.439 265.031 c
406.439 262.439 405.791 259.199 402.551 259.199 c
399.311 259.199 398.663 262.439 398.663 265.031 c
398.663 267.623 399.311 270.719 402.551 270.719 c
f
0.000 0.000 0.000 1.000 k
397.295 267.839 m
396.287 267.839 L
396.143 269.063 395.279 269.927 393.983 269.927 c
391.391 269.927 390.887 266.975 390.887 264.887 C
390.959 264.887 L
391.463 266.039 392.687 266.759 393.911 266.759 c
396.143 266.759 397.583 265.247 397.583 263.087 c
397.583 260.927 395.999 259.199 393.839 259.199 c
391.103 259.199 389.879 260.855 389.879 265.175 c
389.879 266.543 390.239 270.719 393.911 270.719 c
395.855 270.719 397.079 269.783 397.295 267.839 C
f
0.000 0.000 0.000 1.000 k
380.951 263.087 m
381.959 263.087 L
381.887 261.287 382.967 260.135 384.695 260.135 c
386.207 260.135 387.575 261.000 387.575 262.584 c
387.575 264.168 386.423 264.959 384.911 264.959 c
384.047 264.959 L
384.047 265.751 L
384.911 265.751 l
385.991 265.751 387.143 266.399 387.143 267.839 c
387.143 269.279 386.063 269.927 384.695 269.927 c
383.039 269.927 382.175 268.704 382.175 267.120 C
381.167 267.120 L
381.239 269.207 382.607 270.719 384.695 270.719 c
386.495 270.719 388.151 269.855 388.151 267.911 c
388.151 266.759 387.503 265.751 386.279 265.463 C
386.279 265.463 l
387.719 265.175 388.583 264.168 388.583 262.656 c
388.583 260.495 386.855 259.199 384.767 259.199 c
382.463 259.199 380.807 260.639 380.951 263.087 C
f
0.000 0.000 0.000 1.000 k
379.439 260.423 m
379.439 259.487 L
372.167 259.487 L
372.239 262.799 375.623 263.591 377.495 265.536 c
378.143 266.183 378.503 266.759 378.503 267.623 c
378.503 269.063 377.351 269.927 375.911 269.927 c
374.111 269.927 373.391 268.487 373.463 266.831 C
372.455 266.831 L
372.383 269.135 373.607 270.719 375.983 270.719 c
377.927 270.719 379.439 269.711 379.439 267.623 c
379.439 265.751 378.071 264.599 376.631 263.663 c
375.551 262.943 373.607 261.935 373.319 260.423 C
379.439 260.423 L
f
0.000 0.000 0.000 0.000 k
402.551 269.927 m
399.959 269.927 399.599 266.975 399.599 265.031 c
399.599 263.087 399.959 260.135 402.551 260.135 c
405.071 260.135 405.431 263.087 405.431 265.031 c
405.431 266.975 405.071 269.927 402.551 269.927 c
f
0.000 0.000 0.000 0.000 k
393.911 265.895 m
392.111 265.895 391.103 264.599 391.103 263.015 c
391.103 261.431 391.967 260.135 393.911 260.135 c
395.495 260.135 396.575 261.431 396.575 263.015 c
396.575 264.599 395.567 265.895 393.911 265.895 c
f
0.000 0.000 0.000 1.000 K
0 j
0 J
0.287 w
[]0 d
0.000 0.000 0.000 0.498 k
759.311 721.871 m
780.623 721.871 L
781.127 721.871 781.559 721.439 781.559 720.935 C
781.559 717.119 L
781.559 716.615 781.127 716.183 780.623 716.183 C
759.311 716.183 L
759.311 721.871 L
b
0.000 0.000 0.000 1.000 K
0 j
0 J
0.287 w
[]0 d
0.000 0.000 0.000 0.498 k
758.159 723.024 m
752.543 723.024 l
751.967 723.024 751.463 722.519 751.463 721.871 c
751.463 716.255 l
751.463 715.679 751.967 715.175 752.543 715.175 c
758.159 715.175 l
758.807 715.175 759.311 715.679 759.311 716.255 c
759.311 721.871 l
759.311 722.519 758.807 723.024 758.159 723.024 c
b
0.000 0.000 0.000 1.000 K
0 j
0 J
0.287 w
[]0 d
770.471 725.183 m
776.231 725.183 780.839 722.447 780.839 719.063 c
780.839 715.679 776.231 712.871 770.471 712.871 c
764.711 712.871 760.031 715.679 760.031 719.063 c
760.031 722.447 764.711 725.183 770.471 725.183 c
s
0.000 0.000 0.000 1.000 K
0 j
0 J
0.287 w
[]0 d
0.000 0.000 0.000 1.000 k
833.183 764.927 m
804.743 764.927 781.631 741.743 781.631 713.303 c
781.631 684.935 804.743 661.751 833.183 661.751 c
861.551 661.751 884.735 684.935 884.735 713.303 c
884.735 741.743 861.551 764.927 833.183 764.927 c
b
0.000 0.000 0.000 1.000 K
0 j
0 J
0.287 w
[]0 d
0.000 0.000 0.000 0.098 k
833.183 747.215 m
814.463 747.215 799.271 731.951 799.271 713.303 c
799.271 694.583 814.463 679.391 833.183 679.391 c
851.831 679.391 867.095 694.583 867.095 713.303 c
867.095 731.951 851.831 747.215 833.183 747.215 c
b
0.000 0.000 0.000 1.000 K
0 j
0 J
0.287 w
[]0 d
0.000 0.000 0.000 0.000 k
833.255 740.735 m
818.135 740.735 805.823 728.423 805.823 713.303 c
805.823 698.255 818.135 685.943 833.255 685.943 c
848.303 685.943 860.615 698.255 860.615 713.303 c
860.615 728.423 848.303 740.735 833.255 740.735 c
b
0.000 0.000 0.000 1.000 k
833.255 718.415 m
830.375 718.415 828.071 716.111 828.071 713.303 c
828.071 710.495 830.375 708.119 833.255 708.119 c
836.063 708.119 838.367 710.495 838.367 713.303 c
838.367 716.111 836.063 718.415 833.255 718.415 c
f
0.000 0.000 0.000 1.000 k
821.231 715.823 m
819.791 715.823 818.711 714.671 818.711 713.303 c
818.711 711.935 819.791 710.783 821.231 710.783 c
822.599 710.783 823.751 711.935 823.751 713.303 c
823.751 714.671 822.599 715.823 821.231 715.823 c
f
0.000 0.000 0.000 1.000 k
831.887 725.399 m
831.527 726.767 830.087 727.487 828.719 727.055 c
827.423 726.623 826.703 725.183 827.135 723.815 c
827.495 722.519 828.935 721.799 830.303 722.231 c
831.599 722.663 832.319 724.103 831.887 725.399 c
f
0.000 0.000 0.000 1.000 k
844.271 718.055 m
845.423 718.919 845.639 720.503 844.847 721.583 c
844.055 722.735 842.399 723.024 841.319 722.159 c
840.167 721.367 839.951 719.783 840.743 718.631 c
841.535 717.479 843.119 717.263 844.271 718.055 c
f
0.000 0.000 0.000 1.000 k
841.175 704.087 m
842.327 703.295 843.911 703.583 844.703 704.663 c
845.495 705.815 845.279 707.399 844.127 708.191 c
843.047 709.055 841.463 708.767 840.599 707.687 c
839.807 706.535 840.023 704.951 841.175 704.087 c
f
0.000 0.000 0.000 1.000 k
826.919 702.719 m
826.487 701.351 827.279 699.983 828.575 699.551 c
829.871 699.119 831.311 699.839 831.743 701.135 c
832.175 702.431 831.455 703.871 830.159 704.303 c
828.791 704.735 827.351 704.015 826.919 702.719 c
f
0.000 0.000 0.000 1.000 K
0 j
0 J
0.863 w
[]0 d
931.391 652.967 m
937.295 652.967 L
938.159 652.967 938.591 653.687 938.591 654.479 C
938.591 707.255 L
938.447 717.407 942.911 720.431 934.559 724.751 C
937.511 751.751 936.071 784.367 931.679 811.367 C
933.623 815.471 933.911 818.207 931.823 820.943 C
929.087 835.631 916.991 843.479 900.719 843.263 C
845.927 843.983 791.135 843.911 736.271 843.263 C
720.000 843.479 707.903 835.631 705.167 820.943 C
703.079 818.207 703.367 815.471 705.311 811.367 C
700.919 784.367 699.479 751.751 702.431 724.751 C
694.079 720.431 698.543 717.407 698.399 707.255 C
698.399 654.479 L
698.399 653.687 698.831 652.967 699.695 652.967 C
705.671 652.967 L
931.391 652.967 L
s
0.000 0.000 0.000 1.000 k
747.359 634.823 m
747.359 583.127 L
747.359 578.879 743.903 575.495 739.727 575.495 C
717.551 575.495 L
713.375 575.495 709.919 578.879 709.919 583.127 C
709.919 634.823 L
747.359 634.823 L
f
0.000 0.000 0.000 1.000 k
927.359 634.823 m
927.359 583.127 L
927.359 578.879 923.975 575.495 919.799 575.495 C
897.623 575.495 L
893.447 575.495 889.991 578.879 889.991 583.127 C
889.991 634.823 L
927.359 634.823 L
f
u
u
0.000 0.000 0.000 1.000 K
0 j
0 J
0.287 w
[]0 d
747.359 819.503 m
748.583 823.967 751.823 827.351 756.647 829.079 C
757.943 829.367 L
759.383 829.583 L
760.751 829.655 L
876.095 829.655 L
882.575 829.367 887.399 825.911 889.559 819.719 C
889.631 819.431 L
S
U
U
0.000 0.000 0.000 1.000 K
0 j
0 J
0.287 w
[]0 d
760.823 827.855 m
876.095 827.855 L
882.863 827.855 888.335 822.383 888.335 815.615 C
888.335 661.175 L
748.583 661.175 L
748.583 815.615 L
748.583 822.383 754.055 827.855 760.823 827.855 C
s
u
u
0.000 0.000 0.000 1.000 K
0 j
0 J
0.287 w
[]0 d
748.943 661.751 m
698.255 661.751 L
S
U
U
u
u
0.000 0.000 0.000 1.000 K
0 j
0 J
0.287 w
[]0 d
886.391 661.751 m
938.879 661.751 L
S
U
U
0.000 0.000 0.000 1.000 K
0 j
0 J
0.287 w
[]0 d
0.000 0.000 0.000 0.498 k
715.535 747.287 m
735.335 747.287 L
738.575 747.287 741.239 749.951 741.239 753.191 C
741.239 796.751 L
741.239 800.063 738.575 802.655 735.335 802.655 C
717.119 802.655 L
713.879 802.655 711.215 800.063 711.215 796.751 C
709.631 753.191 L
709.631 749.951 712.295 747.287 715.535 747.287 C
b
0.000 0.000 0.000 1.000 K
0 j
0 J
0.287 w
[]0 d
0.000 0.000 0.000 0.498 k
921.527 747.287 m
901.727 747.287 L
898.487 747.287 895.823 749.951 895.823 753.191 C
895.823 796.751 L
895.823 800.063 898.487 802.655 901.727 802.655 C
920.015 802.655 L
923.255 802.655 925.919 800.063 925.919 796.751 C
927.431 753.191 L
927.431 749.951 924.839 747.287 921.527 747.287 C
b
0.000 0.000 0.000 1.000 K
0 j
0 J
0.287 w
[]0 d
0.000 0.000 0.000 0.200 k
735.263 749.159 m
737.711 749.303 739.295 750.887 739.367 753.263 C
739.367 796.751 L
739.295 799.127 737.639 800.783 735.263 800.855 C
717.119 800.855 L
714.743 800.783 713.087 799.127 713.015 796.751 C
711.431 753.263 L
711.575 750.887 713.231 749.303 715.607 749.159 C
735.263 749.159 L
b
0.000 0.000 0.000 1.000 K
0 j
0 J
0.287 w
[]0 d
0.000 0.000 0.000 0.200 k
901.799 749.159 m
899.351 749.303 897.767 750.887 897.695 753.263 C
897.695 796.751 L
897.767 799.127 899.423 800.783 901.799 800.855 C
919.943 800.855 L
922.319 800.783 923.975 799.127 924.047 796.751 C
925.631 753.263 L
925.487 750.887 923.831 749.303 921.455 749.159 C
901.799 749.159 L
b
u
u
0.000 0.000 0.000 1.000 K
0 j
0 J
0.287 w
[]0 d
703.871 818.495 m
748.943 818.495 L
S
U
U
u
u
0.000 0.000 0.000 1.000 K
0 j
0 J
0.287 w
[]0 d
933.119 818.495 m
887.975 818.495 L
S
U
U
u
u
0.000 0.000 0.000 1.000 K
0 j
0 J
0.287 w
[]0 d
704.303 819.431 m
749.375 819.431 L
S
U
U
u
u
0.000 0.000 0.000 1.000 K
0 j
0 J
0.287 w
[]0 d
932.687 819.431 m
887.615 819.431 L
S
U
U
0.000 0.000 0.000 1.000 K
0 j
0 J
0.287 w
[]0 d
0.000 0.000 0.000 0.498 k
763.775 818.495 m
873.143 818.495 L
878.111 818.495 882.215 814.463 882.215 809.423 C
882.215 745.487 L
873.359 745.487 L
854.063 771.263 812.447 771.263 792.935 745.487 C
754.703 745.487 L
754.703 809.423 L
754.703 814.463 758.735 818.495 763.775 818.495 C
b
u
u
0.000 0.000 0.000 1.000 K
0 j
0 J
0.287 w
[]0 d
701.783 743.183 m
791.423 743.183 L
S
U
U
u
u
0.000 0.000 0.000 1.000 K
0 j
0 J
0.287 w
[]0 d
936.143 743.183 m
874.943 743.183 L
S
U
U
u
u
0.000 0.000 0.000 1.000 K
0 j
0 J
0.287 w
[]0 d
701.783 738.000 m
787.967 738.000 L
S
U
U
u
u
0.000 0.000 0.000 1.000 K
0 j
0 J
0.287 w
[]0 d
935.783 738.000 m
878.471 738.000 L
S
U
U
u
u
0.000 0.000 0.000 1.000 K
0 j
0 J
0.287 w
[]0 d
702.359 732.671 m
785.015 732.671 L
S
U
U
u
u
0.000 0.000 0.000 1.000 K
0 j
0 J
0.287 w
[]0 d
935.279 732.671 m
881.135 732.671 L
S
U
U
0.000 0.000 0.000 1.000 K
0 j
0 J
0.287 w
[]0 d
0.000 0.000 0.000 0.200 k
873.143 816.695 m
877.391 816.479 880.199 813.671 880.415 809.423 C
880.415 747.359 L
871.847 747.359 L
853.487 770.327 813.815 770.903 794.591 747.359 C
756.575 747.359 L
756.575 809.423 L
756.791 813.671 759.527 816.479 763.847 816.695 C
873.143 816.695 L
b
0.000 0.000 0.000 1.000 K
0 j
0 J
0.287 w
[]0 d
0.000 0.000 0.000 0.498 k
745.127 838.511 m
776.015 838.511 l
777.095 838.511 778.031 837.647 778.031 836.495 c
778.031 832.823 l
778.031 831.743 777.095 830.807 776.015 830.807 c
745.127 830.807 l
744.047 830.807 743.111 831.743 743.111 832.823 c
743.111 836.495 l
743.111 837.647 744.047 838.511 745.127 838.511 c
b
0.000 0.000 0.000 1.000 K
0 j
0 J
0.287 w
[]0 d
0.000 0.000 0.000 0.498 k
849.239 838.511 m
880.127 838.511 l
881.207 838.511 882.143 837.647 882.143 836.495 c
882.143 832.823 l
882.143 831.743 881.207 830.807 880.127 830.807 c
849.239 830.807 l
848.159 830.807 847.223 831.743 847.223 832.823 c
847.223 836.495 l
847.223 837.647 848.159 838.511 849.239 838.511 c
b
0.000 0.000 0.000 1.000 K
0 j
0 J
0.287 w
[]0 d
0.000 0.000 0.000 0.200 k
775.943 837.647 m
776.663 837.575 777.023 837.215 777.095 836.495 C
777.095 835.343 777.311 833.471 777.023 832.391 C
776.735 831.959 776.447 831.743 775.943 831.743 C
745.199 831.743 L
744.479 831.815 744.047 832.247 744.047 832.895 C
744.047 834.047 743.759 835.919 744.119 836.927 C
744.335 837.431 744.695 837.575 745.199 837.647 C
775.943 837.647 L
b
0.000 0.000 0.000 1.000 K
0 j
0 J
0.287 w
[]0 d
0.000 0.000 0.000 0.200 k
880.055 837.647 m
880.775 837.575 881.207 837.215 881.207 836.495 C
881.207 835.343 881.495 833.471 881.135 832.391 C
880.919 831.959 880.559 831.743 880.055 831.743 C
849.311 831.743 L
848.663 831.815 848.231 832.247 848.159 832.895 C
848.159 834.047 847.943 835.919 848.231 836.927 C
848.447 837.431 848.879 837.575 849.311 837.647 C
880.055 837.647 L
b
0.000 0.000 0.000 1.000 K
0 j
0 J
0.287 w
[]0 d
0.000 0.000 0.000 0.298 k
704.807 721.439 m
707.471 721.439 709.559 719.279 709.559 716.687 c
709.559 714.024 707.471 711.935 704.807 711.935 c
702.215 711.935 700.055 714.024 700.055 716.687 c
700.055 719.279 702.215 721.439 704.807 721.439 c
b
0.000 0.000 0.000 1.000 K
0 j
0 J
0.287 w
[]0 d
0.000 0.000 0.000 0.098 k
704.807 673.847 m
707.471 673.847 709.559 671.687 709.559 669.096 c
709.559 666.431 707.471 664.343 704.807 664.343 c
702.215 664.343 700.055 666.431 700.055 669.096 c
700.055 671.687 702.215 673.847 704.807 673.847 c
b
0.000 0.000 0.000 1.000 K
0 j
0 J
0.287 w
[]0 d
0.000 0.000 0.000 0.098 k
703.007 660.599 m
704.591 660.599 705.815 659.375 705.815 657.719 c
705.815 656.135 704.591 654.911 703.007 654.911 c
701.351 654.911 700.127 656.135 700.127 657.719 c
700.127 659.375 701.351 660.599 703.007 660.599 c
b
0.000 0.000 0.000 1.000 K
0 j
0 J
0.287 w
[]0 d
0.000 0.000 0.000 0.098 k
932.183 673.775 m
929.591 673.775 927.503 671.687 927.503 669.024 c
927.503 666.431 929.591 664.343 932.183 664.343 c
934.847 664.343 937.007 666.431 937.007 669.024 c
937.007 671.687 934.847 673.775 932.183 673.775 c
b
0.000 0.000 0.000 1.000 K
0 j
0 J
0.287 w
[]0 d
0.000 0.000 0.000 0.098 k
934.055 660.599 m
932.471 660.599 931.175 659.303 931.175 657.719 c
931.175 656.135 932.471 654.839 934.055 654.839 c
935.639 654.839 936.935 656.135 936.935 657.719 c
936.935 659.303 935.639 660.599 934.055 660.599 c
b
0.000 0.000 0.000 1.000 K
0 j
0 J
0.287 w
[]0 d
0.000 0.000 0.000 0.298 k
932.183 721.439 m
934.775 721.439 936.863 719.279 936.863 716.687 c
936.863 714.024 934.775 711.935 932.183 711.935 c
929.519 711.935 927.431 714.024 927.431 716.687 c
927.431 719.279 929.519 721.439 932.183 721.439 c
b
0.000 0.000 0.000 1.000 K
0 j
0 J
0.287 w
[]0 d
0.000 0.000 0.000 0.000 k
717.479 675.144 m
732.311 675.144 l
733.319 675.144 734.111 674.351 734.111 673.343 c
734.111 664.991 l
734.111 664.055 733.319 663.263 732.311 663.263 c
717.479 663.263 l
716.543 663.263 715.751 664.055 715.751 664.991 c
715.751 673.343 l
715.751 674.351 716.543 675.144 717.479 675.144 c
b
0.000 0.000 0.000 1.000 K
0 j
0 J
0.287 w
[]0 d
0.000 0.000 0.000 0.298 k
903.815 675.144 m
918.647 675.144 l
919.583 675.144 920.375 674.351 920.375 673.343 c
920.375 664.991 l
920.375 664.055 919.583 663.263 918.647 663.263 c
903.815 663.263 l
902.807 663.263 902.015 664.055 902.015 664.991 c
902.015 673.343 l
902.015 674.351 902.807 675.144 903.815 675.144 c
b
0.000 0.000 0.000 1.000 K
0 j
0 J
0.287 w
[]0 d
0.000 0.000 0.000 0.498 k
698.183 653.183 m
938.807 653.183 L
938.807 634.751 L
698.183 634.751 L
698.183 653.183 L
b
u
u
0.000 0.000 0.000 1.000 K
0 j
0 J
0.287 w
[]0 d
748.799 662.687 m
748.799 634.751 L
S
U
U
u
u
0.000 0.000 0.000 1.000 K
0 j
0 J
0.287 w
[]0 d
888.119 662.687 m
888.119 634.751 L
S
U
U
u
u
0.000 0.000 0.000 1.000 K
0 j
0 J
0.287 w
[]0 d
748.799 634.751 m
705.095 648.719 L
698.183 648.719 L
S
U
U
u
u
0.000 0.000 0.000 1.000 K
0 j
0 J
0.287 w
[]0 d
888.119 634.751 m
931.823 648.719 L
938.735 648.719 L
S
U
U
u
u
0.000 0.000 0.000 1.000 K
0 j
0 J
0.287 w
[]0 d
705.743 648.719 m
705.743 634.679 L
S
U
U
u
u
0.000 0.000 0.000 1.000 K
0 j
0 J
0.287 w
[]0 d
932.471 648.719 m
932.471 634.679 L
S
U
U
0.000 0.000 0.000 1.000 K
0 j
0 J
0.287 w
[]0 d
0.000 0.000 0.000 0.498 k
747.287 634.679 m
890.207 634.679 L
890.207 626.111 L
842.903 630.359 L
818.207 628.559 L
786.095 631.583 L
763.703 631.583 L
747.287 626.111 L
747.287 634.679 L
b
0.000 0.000 0.000 1.000 K
0 j
0 J
0.287 w
[]0 d
0.000 0.000 0.000 0.000 k
880.487 677.231 m
891.863 677.231 L
891.863 668.303 L
880.487 668.303 L
880.487 677.231 L
b
0.000 0.000 0.000 1.000 K
0 j
0 J
0.287 w
[]0 d
890.423 676.655 m
889.919 676.655 889.631 676.367 889.631 675.935 c
889.631 675.431 889.919 675.144 890.423 675.144 c
890.855 675.144 891.143 675.431 891.143 675.935 c
891.143 676.367 890.855 676.655 890.423 676.655 c
s
0.000 0.000 0.000 1.000 K
0 j
0 J
0.287 w
[]0 d
890.423 670.391 m
889.919 670.391 889.631 670.103 889.631 669.671 c
889.631 669.167 889.919 668.879 890.423 668.879 c
890.855 668.879 891.143 669.167 891.143 669.671 c
891.143 670.103 890.855 670.391 890.423 670.391 c
s
0.000 0.000 0.000 1.000 K
0 j
0 J
0.287 w
[]0 d
882.215 676.655 m
881.711 676.655 881.423 676.367 881.423 675.935 c
881.423 675.431 881.711 675.144 882.215 675.144 c
882.647 675.144 882.935 675.431 882.935 675.935 c
882.935 676.367 882.647 676.655 882.215 676.655 c
s
0.000 0.000 0.000 1.000 K
0 j
0 J
0.287 w
[]0 d
882.215 670.391 m
881.711 670.391 881.423 670.103 881.423 669.671 c
881.423 669.167 881.711 668.879 882.215 668.879 c
882.647 668.879 882.935 669.167 882.935 669.671 c
882.935 670.103 882.647 670.391 882.215 670.391 c
s
0.000 0.000 0.000 1.000 K
0 j
0 J
0.287 w
[]0 d
0.000 0.000 0.000 0.498 k
682.199 780.767 m
689.975 780.767 l
691.919 780.767 693.575 779.183 693.575 777.167 c
693.575 752.255 l
693.575 750.239 691.919 748.655 689.975 748.655 c
682.199 748.655 l
680.183 748.655 678.599 750.239 678.599 752.255 c
678.599 777.167 l
678.599 779.183 680.183 780.767 682.199 780.767 c
b
0.000 0.000 0.000 1.000 K
0 j
0 J
0.287 w
[]0 d
0.000 0.000 0.000 0.498 k
954.791 780.767 m
947.015 780.767 l
944.999 780.767 943.415 779.183 943.415 777.167 c
943.415 752.255 l
943.415 750.239 944.999 748.655 947.015 748.655 c
954.791 748.655 l
956.807 748.655 958.391 750.239 958.391 752.255 c
958.391 777.167 l
958.391 779.183 956.807 780.767 954.791 780.767 c
b
0.000 0.000 0.000 1.000 K
0 j
0 J
0.287 w
[]0 d
0.000 0.000 0.000 0.498 k
701.063 741.815 m
687.527 741.815 L
686.375 741.959 685.655 742.463 685.583 743.255 C
685.583 748.655 L
687.311 748.655 L
687.311 744.119 L
687.311 743.399 687.743 743.111 688.535 743.183 C
701.063 743.183 L
701.063 741.815 L
b
0.000 0.000 0.000 1.000 K
0 j
0 J
0.287 w
[]0 d
0.000 0.000 0.000 0.498 k
935.855 741.815 m
949.391 741.815 L
950.543 741.959 951.263 742.463 951.335 743.255 C
951.335 748.655 L
949.607 748.655 L
949.607 744.119 L
949.607 743.399 949.175 743.111 948.383 743.183 C
935.855 743.183 L
935.855 741.815 L
b
0.000 0.000 0.000 1.000 K
0 j
0 J
0.287 w
[]0 d
0.000 0.000 0.000 0.000 k
754.991 730.367 m
756.575 730.367 757.799 729.143 757.799 727.559 c
757.799 726.048 756.575 724.823 754.991 724.823 c
753.479 724.823 752.255 726.048 752.255 727.559 c
752.255 729.143 753.479 730.367 754.991 730.367 c
b
%%Trailer
_E end