%!PS-Adobe-2.0 EPSF-1.2
%%Creator: Adobe Illustrator exported from Corel Draw 3.0
%%Title:6
%%BoundingBox:31 511 1006 1098
%%CreationDate:(Unknown)
%%ColorUsage:
%%TemplateBox:31 511 1006 1098
%%EndComments
%%BeginProcSet:Adobe_Illustrator_1.1 0 0
% Version 1.0 3/27/1990 $nokeywords$
% Copyright (C) 1990,1991,1992
% Corel Corporation
% All Rights Reserved

/wPmsDict 150 dict def 
wPmsDict begin 

/$debug 25 string def 

/bd {bind def} bind def 
/ld {load def} bd 
/xd {exch def} bd 
/_ null def 

/$c 0 def 
/$m 0 def 
/$y 0 def 
/$k 0 def 
/$t 1 def 
/$n _ def 
/$o 0 def 
/$pf false def 

/$C 0 def 
/$M 0 def 
/$Y 0 def 
/$K 0 def 
/$T 1 def 
/$N _ def 
/$O 0 def 
/$PF false def 

/$h false def 

/$al 0 def 
/$tr 0 def 
/$le 0 def 
/$lx 0 def 
/$ly 0 def 

/$ctm matrix currentmatrix def 
/$ptm matrix def 

/$pn () def 
/$pm matrix def 
/$px 0 def 
/$py 0 def 
/$pxf 0 def 
/$pyf 0 def 
/$psx 10 def 
/$psy 0 def 

/$llx 0 def 
/$lly 0 def 
/$urx 0 def 
/$ury 0 def 


/$Bbllx 0 def 
/$Bblly 0 def 
/$Bburx 0 def 
/$Bbury 0 def 

/$tllx 0 def 
/$tlly 0 def 
/$turx 0 def 
/$tury 0 def 

/$pd [] def 
/$tx 0 def 
/$ty 0 def 

/$sv 0 def 
/@cp /closepath ld 
/@gs /gsave ld 
/@gr /grestore ld 
/@np /newpath ld 
/@sv {/$sv save def}bd 
/@rs {$sv restore}bd 

/@MN { 
2 copy le{pop}{exch pop}ifelse 
}bd 

/setcmykcolor where {pop} 
{ 
/setcmykcolor 
{ 
4 1 roll 
3 {3 index add 1 @MN 1 exch sub 3 1 roll} repeat 
setrgbcolor 
pop 
}bd 
}ifelse 

/@tc 
{ 
dup 1 ge 
{pop} 
{ 
4 { 
dup 
6 -1 roll 
mul 
exch 
}repeat 
pop 
}ifelse 
}bd 

/@scc 
{ 
$c $m $y $k $t @tc 
setcmykcolor 
true 
}bd 
/@SCC 
{ 
$C $M $Y $K $T @tc 
setcmykcolor 
true 
}bd 

/@sft 
{ 
(setfirsttile sft )print 
/$tx $tllx $pxf add dup $tllx gt {$pwid $psx add sub}if def 
/$ty $tury $pyf sub dup $tury lt {$phei $psy add add}if def 
(setfirsttile exit )print 
}bd 

/@stb 
{ 
pathbbox /$ury xd /$urx xd /$lly xd /$llx xd 
}bd 

/@ep 
{ 
{ 
cvx exec 
}forall 
}bd 

/@tp 
{ 

(tile pattern tp )print 
@sv 
/$in true def 
2 copy 
dup $lly le {/$in false def}if 
$phei sub $ury ge {/$in false def}if 
dup $urx ge {/$in false def}if 
$pwid add $llx le {/$in false def}if 
$in 
{ 
@np 
2 copy moveto 
$pwid 0 rlineto 
0 $phei neg rlineto 
$pwid neg 0 rlineto 
0 $phei rlineto 
clip @np 

$pn cvlit load aload pop 
7 -1 roll 
5 index sub 
7 -1 roll 
3 index sub 
translate 
@ep 
pop pop pop pop 
} 
{pop pop}ifelse 
@rs 
(tile pattern exit )print 
}bd 

/@th 
{ 
(tile horizontal th)print 
@sft 
0 1 $tly 1 sub 
{ 
dup $psx mul $tx add 
{ 
dup $llx gt {$pwid sub}{exit}ifelse 
}loop 
exch $phei mul $ty exch sub 

0 1 $tlx 1 sub 
{ 
$pwid mul 
3 copy 
3 -1 roll add exch 
@tp 
pop 
}for 
pop pop 
} for 
(tile horizontal exiting )print 
}bd 

/@tv 
{ 
(tile vertical tv)print 
@sft 
0 1 $tlx 1 sub 
{ 
dup $pwid mul $tx add 
exch $psy mul $ty exch sub 
{ 
dup $ury lt {$phei add}{exit}ifelse 
}loop 

0 1 $tly 1 sub 
{ 
$phei mul 
3 copy sub 
@tp 
pop 
}for 
pop pop 
} for 
(tile vertical exit )print 
}bd 

/@pf 
{ 
(pattern fill pf)print 
@gs 
$pm concat 
@stb 
@gs 1 setgray eofill @gr 
eoclip 
$Bburx $Bbury $pm itransform /$tury xd /$turx xd 
$Bbllx $Bblly $pm itransform /$tlly xd /$tllx xd 
/$wid $turx $tllx sub def 
/$hei $tury $tlly sub def 
$wid 0 gt $hei 0 gt and 
{ 
$pn cvlit load aload pop 
$pd xd 
3 -1 roll sub /$phei xd 
exch sub /$pwid xd 
/$tlx $wid $pwid div ceiling 1 add def 
/$tly $hei $phei div ceiling 1 add def 
$psx 0 eq 
{ 
@tv 
} 
{ 
@th 
}ifelse 
}if 

@gr 
@np 
(pattern fill exit)print 
}bd 

/@xp 
{ 
{ 
dup (text Character is:) print == 
usertime (time before is:)print == 
(0) dup 3 -1 roll 0 exch put 
@gs 
true charpath currentpoint 
$ctm setmatrix 
@pf 
@gr 
@np 
moveto $tr 0 rmoveto 
usertime (time after is:)print == 
}forall 
pop 
}bd 

/@sm 
{ 
/$ctm $ctm currentmatrix def 
}bd 

%--@lorg  move to line origin   length string @torg length string
/@lorg    % moves currentpoint to line origin according to current alignment
  {      
  $lx $ly moveto    
  /$ly $ly $le sub def      % - prepare for next line(tracking)
  $al 0 ne
    {dup      % ->len str len str
    stringwidth   % ->len str len dx dy
    exch 3 index  % ->len str dy len dx
    1 sub         % ->len str dy len dx (len-1)
    $tr mul add   % ->len str dy len dx+(len-1)*$tr
    neg
    exch neg      % ->len str -dx_total dy len
    $al 1 eq      % check for centered alignment
    {2 div exch 2 div exch} if  
    rmoveto} if
  }bd

/@ft 
{ 
$pf 
{@xp} 
{ 
@scc 
{$tr exch 0 exch ashow pop} 
{pop pop}ifelse 
}ifelse 
}bd 

/@st 
{ 
$PF 
{} 
{ 
@SCC 
{ 
{ 
(0) dup 3 -1 roll 0 exch put 
@gs 
true charpath currentpoint 
$ctm setmatrix $ptm concat 
stroke 
@gr 
moveto $tr 0 rmoveto 
}forall 
pop 
} 
{pop pop}ifelse 
}ifelse 
}bd 
/@pt 
{ 
dup length exch 
}bd 
/@te 
{ 
@pt 
@lorg 
@ft 
}bd 

/@tr 
{ 
@pt 
@lorg 
@st 
}bd 
/@ta 
{ 
@pt 
@lorg 
2 copy 
@gs @ft @gr 
/$lx 0 def 
/$ly 0 def 
@st 
}bd 















/g { 
1 exch sub /$k xd 
/$c 0 def /$m 0 def /$y 0 def /$t 1 def /$n _ def /$pf false def 
}bd 

/G { 
1 exch sub /$K xd 
/$C 0 def /$M 0 def /$Y 0 def /$T 1 def /$N _ def /$PF false def 
}bd 

/k { 
/$k xd /$y xd /$m xd /$c xd 
/$t 1 def /$n _ def /$pf false def 
}bd 

/K { 
/$K xd /$Y xd /$M xd /$C xd 
/$T 1 def /$N _ def /$PF false def 
}bd 

/x { 
/$t xd /$n xd 
/$k xd /$y xd /$m xd /$c xd /$pf false def 
}bd 

/X { 
/$T xd /$N xd 
/$K xd /$Y xd /$M xd /$C xd /$PF false def 
}bd 

/d /setdash ld 

/i { 
dup 0 ne {setflat} {pop} ifelse 
}bd 

/j /setlinejoin ld 

/J /setlinecap ld 

/M /setmiterlimit ld 

/w /setlinewidth ld 

/O { 
/$o xd 
}bd 

/R { 
/$O xd 
}bd 


/c /curveto ld 

/C /c ld 

/v { 
currentpoint
6 2 roll 
curveto 
}bd

/V /v ld 

/y { 
2 copy curveto 
}bd 

/Y /y ld 

/l /lineto ld 

/L /l ld 

/m /moveto ld 



/n /newpath ld 

/N /newpath ld 

/F { 
$pf 
{@pf} 
{ 
@scc 
{eofill}if 
}ifelse 
}bd 

/f { 
@cp F 
}bd 
/S { 
$PF 
{} 
{ 
@SCC 
{ 
@sm 
$ptm concat 
stroke 
$ctm setmatrix 
}if 
}ifelse 
}bd 
/s { 
@cp 
S 
}bd 

/B { 
@gs F @gr 
S 
}bd 
/b { 
@cp 
B 
}bd 

/W { 
oeclip 
@np 
}bd 

/p { 
/$pm xd 
7 {pop} repeat 
/$pyf xd /$pxf xd 
/$pn xd 
/$pf true def 
}bd 

/P { 
11 {pop} repeat 
}bd 

/@p { 
/$pm xd 
/$psy xd 
/$psx xd 
/$pyf xd /$pxf xd 
/$pn xd 
/$pf true def 
}bd 

/@b { 
/$Bbury xd /$Bburx xd 
/$Bblly xd /$Bbllx xd 
}bd 


/z { 
/$al xd 
/$tr xd 
/$le xd 
exch findfont exch scalefont setfont 
}bd 

/Z { 
dup type 0 type eq { /$bDir xd } if
findfont 
dup maxlength 1 add dict exch 



dup 
{1 index /FID ne 
{ 
3 index 
3 1 roll put 
} 
{pop pop}ifelse 
} forall 



pop 
dup dup /Encoding get 
256 array copy 
dup /$fe xd
/Encoding exch put 

dup /Fontname 3 index put 

}bd 

/e { 
@sm 
concat 
[ 
/t {@te}def 
}bd 

/r { 
@sm 
concat 
[ 
/t {@tr}def 
}bd 

/o { 
@sm 
concat 
[ 
/t {pop}def 
}bd 

/a { 
@sm 
concat 
[ 
/t {@ta}def 
}bd 

/@o{
@sm 
concat 
[ 
/t {@t@a}def 
}bd 

/I { 
@sm 
concat 
[ 
/t {pop}def 
}bd 

/t {@te}def 

/T { 
cleartomark 
/$lx 0 def 
/$ly 0 def 
$ctm setmatrix 
}bd 


/u {}bd 

/U {}bd 

/A {pop}bd 

/h { 
$h true def 
}bd 

/h { 
$h true def 
}bd 

/q /@gs ld 

/Q /@gr ld 



/E { 
5 array astore 
exch cvlit exch def 
}bd 

/` {}bd 

/~ {}bd 

/@ {}bd 

/& {}bd 

/CorelDrawRencodeVect [ 
16#80/grave 
16#81/circumflex 
16#82/tilde 
16#83/dotlessi 
16#84/florin 
16#85/quotedblleft 
16#86/quotedblright 
16#87/guilsinglleft 
16#88/guilsinglright 
16#89/fi 
16#8a/fl 
16#8b/dagger 
16#8c/daggerdbl 
16#8d/endash 
16#8e/periodcentered 
16#8f/breve 
16#90/quotedblbase 
16#91/ellipsis 
16#92/perthousand 
16#a1/exclamdown 
16#a2/cent 
16#a3/sterling 
16#a4/currency 
16#a5/yen 
16#a6/bar 
16#a7/section 
16#a8/dieresis 
16#a9/copyright 
16#aa/ordfeminine 
16#ab/guillemotleft 
16#ac/logicalnot 
16#ad/emdash 
16#ae/registered 
16#af/spac 
16#b0/ring 
16#b1/spac 
16#b2/spac 
16#b3/spac 
16#b4/acute 
16#b5/spac 
16#b6/paragraph 
16#b7/bullet 
16#b8/cedilla 
16#b9/spac 
16#ba/ordmasculine 
16#bb/guillemotright 
16#bc/spac 
16#bd/spac 
16#be/spac 
16#bf/questiondown 
16#c0/Agrave 
16#c1/Aacute 
16#c2/Acircumflex 
16#c3/Atilde 
16#c4/Adieresis 
16#c5/Aring 
16#c6/AE 
16#c7/Ccedilla 
16#c8/Egrave 
16#c9/Eacute 
16#ca/Ecircumflex 
16#cb/Edieresis 
16#cc/Igrave 
16#cd/Iacute 
16#ce/Icircumflex 
16#cf/Idieresis 
16#d0/spac 
16#d1/Ntilde 
16#d2/Ograve 
16#d3/Oacute 
16#d4/Ocircumflex 
16#d5/Otilde 
16#d6/Odieresis 
16#d7/OE 
16#d8/Oslash 
16#d9/Ugrave 
16#da/Uacute 
16#db/Ucircumflex 
16#dc/Udieresis 
16#dd/space 
16#de/spac 
16#df/germandbls 
16#e0/agrave 
16#e1/aacute 
16#e2/acircumflex 
16#e3/atilde 
16#e4/adieresis 
16#e5/aring 
16#e6/ae 
16#e7/ccedilla 
16#e8/egrave 
16#e9/eacute 
16#ea/ecircumflex 
16#eb/edieresis 
16#ec/igrave 
16#ed/iacute 
16#ee/icircumflex 
16#ef/idieresis 
16#f0/space 
16#f1/ntilde 
16#f2/ograve 
16#f3/oacute 
16#f4/ocircumflex 
16#f5/otilde 
16#f6/odieresis 
16#f7/oe 
16#f8/oslash 
16#f9/ugrave 
16#fa/uacute 
16#fb/ucircumflex 
16#fc/udieresis 
16#fd/spac 
16#fe/spac 
16#ff/ydieresis 
] def
%%EndProlog
%%BeginSetup
%%BeginEncoding:_Times-Bold Times-Bold
[
]/_Times-Bold/Times-Bold Z
%%EndEncoding
%%EndSetup
0.000 0.000 0.000 1.000 K
0 j
0 J
0.863 w
[]0 d
0.000 0.000 0.000 0.000 k
790.991 1069.487 m
793.007 1076.327 804.455 1082.015 815.615 1082.519 C
853.775 1086.048 892.007 1086.048 930.167 1082.519 C
940.895 1080.863 949.463 1076.831 953.063 1069.631 C
974.015 1014.767 L
976.175 1005.911 L
980.351 1001.231 983.519 993.383 986.039 985.679 C
985.895 953.927 L
762.551 954.071 L
762.407 984.815 L
763.415 993.167 766.151 1000.511 770.111 1006.055 C
772.127 1014.983 L
790.991 1069.487 L
b
0.000 0.000 0.000 1.000 K
0 j
0 J
0.863 w
[]0 d
0.000 0.000 0.000 0.000 k
952.055 749.015 m
950.039 755.855 939.743 761.759 927.359 762.047 C
889.199 765.575 851.039 765.575 812.807 762.047 C
800.855 761.399 793.511 756.359 789.983 749.159 C
768.959 694.295 L
766.799 685.439 L
762.623 680.759 759.455 672.911 756.935 665.207 C
757.223 654.335 L
756.071 648.287 756.071 642.455 757.223 636.983 C
764.423 599.975 L
791.063 599.975 L
791.063 607.391 L
946.367 607.391 L
946.367 600.120 L
973.655 600.120 L
979.847 637.487 L
981.863 642.815 981.863 649.295 979.847 654.335 C
980.567 664.343 L
979.559 672.623 976.823 679.967 972.863 685.583 C
970.847 694.511 L
952.055 749.015 L
b
0.000 0.000 0.000 1.000 K
0 j
0 J
0.863 w
[]0 d
0.000 0.000 0.000 0.000 k
545.399 700.847 m
523.151 722.303 497.951 739.871 473.039 756.071 C
467.207 761.471 459.215 763.919 450.647 765.143 C
427.391 766.943 399.599 766.943 372.671 766.943 C
366.983 766.943 361.295 765.647 360.359 761.255 C
354.167 699.551 L
354.167 767.807 L
350.639 767.807 L
350.639 777.527 L
347.615 777.527 L
347.615 699.695 L
43.343 699.551 L
42.335 699.407 41.543 699.191 40.895 698.399 C
37.871 692.495 L
39.384 693.359 41.399 693.503 42.335 693.000 C
41.183 689.543 38.735 686.303 33.983 686.519 C
31.967 669.311 30.815 651.383 32.687 633.311 C
33.983 624.096 37.512 613.727 48.743 612.431 C
141.551 610.055 L
144.863 625.751 148.391 641.807 160.775 650.879 C
170.783 656.927 203.111 659.591 222.479 656.207 C
245.591 648.072 250.055 621.287 253.151 599.687 C
350.279 599.687 L
353.447 600.551 354.311 603.000 354.671 605.375 C
355.823 600.551 359.855 597.671 364.319 597.527 C
541.439 597.527 L
542.375 613.583 546.048 633.168 557.639 644.975 C
573.551 659.231 612.863 657.935 633.743 649.079 C
637.775 648.000 642.096 643.175 643.463 640.367 C
699.263 640.367 L
693.935 644.183 L
692.639 645.551 691.631 648.575 694.079 649.007 C
695.951 652.751 695.447 657.575 692.135 659.231 C
692.135 666.791 L
688.463 682.343 671.183 688.319 641.951 691.487 C
610.631 695.663 577.583 698.327 545.399 700.847 C
b
0.000 0.000 0.000 1.000 K
0 j
0 J
0.863 w
[]0 d
0.000 0.000 0.000 0.000 k
187.487 1021.535 m
209.735 1042.991 234.935 1060.559 259.775 1076.759 C
265.608 1082.159 273.599 1084.607 282.168 1085.831 C
305.423 1087.631 333.287 1087.631 360.215 1087.631 C
365.903 1087.631 371.591 1086.336 372.455 1081.943 C
378.647 1020.239 L
378.647 1088.495 L
382.175 1088.495 L
382.175 1098.215 L
385.199 1098.215 L
385.199 1020.383 L
689.543 1020.239 L
690.551 1020.095 691.343 1019.879 691.991 1019.087 C
695.015 1013.183 L
693.503 1014.047 691.487 1014.191 690.551 1013.687 C
691.703 1010.231 694.079 1006.991 698.903 1007.207 C
700.919 989.999 702.072 972.071 700.199 953.999 C
698.903 944.783 695.375 934.415 684.143 933.119 C
591.335 930.743 L
588.024 946.439 584.495 962.495 572.111 971.567 C
562.103 977.615 529.775 980.279 510.407 976.895 C
487.223 968.759 482.831 941.975 479.663 920.375 C
382.535 920.375 L
379.367 921.239 378.503 923.687 378.143 926.063 C
376.991 921.239 372.959 918.359 368.495 918.215 C
191.375 918.215 L
190.511 934.271 186.839 953.855 175.247 965.663 C
159.263 979.919 119.951 978.623 99.143 969.839 C
95.111 968.687 90.791 963.863 89.351 961.055 C
33.623 961.055 L
38.951 964.871 L
40.175 966.239 41.256 969.263 38.807 969.695 C
36.935 973.439 37.439 978.263 40.679 979.919 C
40.679 987.479 L
44.351 1003.031 61.703 1009.007 90.935 1012.175 C
122.255 1016.351 155.231 1019.015 187.487 1021.535 C
b
0.000 0.000 0.000 1.000 K
0 j
0 J
0.215 w
[]0 d
0.000 0.000 0.000 0.498 k
699.119 640.367 m
643.247 640.367 L
643.751 639.144 643.751 637.703 643.247 636.120 C
646.919 625.823 652.175 613.079 653.111 602.207 C
653.327 599.903 656.351 597.887 658.295 598.535 C
691.271 599.543 L
694.655 606.743 696.311 614.231 696.455 622.079 C
702.143 622.439 701.855 629.423 700.343 635.687 C
700.631 637.631 700.271 639.359 699.119 640.367 C
b
0.000 0.000 0.000 1.000 K
0 j
0 J
0.215 w
[]0 d
0.000 0.000 0.000 0.498 k
33.839 961.055 m
89.711 961.055 L
89.207 959.831 89.207 958.391 89.711 956.807 C
86.111 946.511 80.783 933.767 79.847 922.895 C
79.631 920.591 76.607 918.575 74.663 919.223 C
41.687 920.231 L
38.303 927.431 36.647 934.919 36.503 942.767 C
30.815 943.127 31.103 950.111 32.615 956.375 C
32.327 958.319 32.759 960.047 33.839 961.055 C
b
0.000 0.000 0.000 1.000 K
0 j
0 J
0.215 w
[]0 d
0.000 0.000 0.000 0.098 k
675.215 667.007 m
673.487 666.935 670.823 666.935 669.527 665.135 C
665.495 661.319 662.183 656.423 661.463 650.879 C
661.319 647.063 663.335 644.255 667.511 644.255 C
693.791 644.255 L
692.423 645.767 691.919 648.359 694.295 649.871 C
695.735 653.759 695.447 657.431 692.207 659.231 C
692.207 667.007 L
675.215 667.007 L
b
0.000 0.000 0.000 1.000 K
0 j
0 J
0.215 w
[]0 d
0.000 0.000 0.000 0.098 k
57.743 987.695 m
59.543 987.623 62.135 987.623 63.431 985.823 C
67.463 982.007 70.775 977.111 71.495 971.567 C
71.640 967.751 69.623 964.943 65.447 964.943 C
39.167 964.943 L
40.535 966.455 41.039 969.047 38.663 970.559 C
37.223 974.447 37.512 978.119 40.823 979.919 C
40.823 987.695 L
57.743 987.695 L
b
0.000 0.000 0.000 1.000 K
0 j
0 J
0.215 w
[]0 d
458.927 754.199 m
453.311 758.879 442.583 762.119 430.991 762.911 C
379.871 762.911 L
375.047 762.911 368.279 760.895 368.279 755.711 C
368.279 736.631 368.279 698.687 362.663 696.671 C
362.663 616.463 L
363.095 608.543 364.319 603.359 373.463 603.359 C
514.943 603.359 L
528.839 634.103 531.647 670.319 519.767 699.839 C
501.263 719.783 480.887 737.711 458.927 754.199 C
s
0.000 0.000 0.000 1.000 K
0 j
0 J
0.215 w
[]0 d
273.959 1074.887 m
279.503 1079.567 290.231 1082.807 301.895 1083.599 C
352.943 1083.599 L
357.767 1083.599 364.607 1081.583 364.607 1076.399 C
364.607 1057.319 364.607 1019.375 370.151 1017.359 C
370.151 937.151 L
369.791 929.231 368.495 924.047 359.423 924.047 C
217.943 924.047 L
204.047 954.791 201.239 991.007 213.119 1020.527 C
231.551 1040.471 251.927 1058.399 273.959 1074.887 C
s
0.000 0.000 0.000 1.000 K
0 j
0 J
0.215 w
[]0 d
0.000 0.000 0.000 0.498 k
473.039 755.999 m
463.823 752.831 L
482.039 736.775 502.271 720.215 519.767 703.151 C
525.312 701.711 538.559 702.863 540.360 705.167 C
520.631 723.743 495.503 742.103 473.039 755.999 C
b
0.000 0.000 0.000 1.000 K
0 j
0 J
0.215 w
[]0 d
0.000 0.000 0.000 0.498 k
259.775 1076.687 m
268.991 1073.519 L
250.775 1057.463 230.543 1040.903 213.119 1023.839 C
207.575 1022.399 194.255 1023.551 192.527 1025.855 C
212.255 1044.432 237.383 1062.791 259.775 1076.687 C
b
0.000 0.000 0.000 1.000 K
0 j
0 J
0.215 w
[]0 d
0.000 0.000 0.000 0.498 k
426.743 754.415 m
383.831 753.623 L
380.519 753.623 379.871 751.247 379.871 748.295 C
379.871 704.807 L
379.871 701.351 381.599 699.479 384.263 699.623 C
495.143 697.319 L
495.143 708.623 L
452.591 746.063 L
447.191 750.455 441.863 754.415 426.743 754.415 C
b
0.000 0.000 0.000 1.000 K
0 j
0 J
0.215 w
[]0 d
0.000 0.000 0.000 0.498 k
306.072 1075.103 m
348.983 1074.311 L
352.295 1074.311 352.943 1071.935 352.943 1068.983 C
352.943 1025.495 L
352.943 1022.039 351.215 1020.167 348.551 1020.311 C
237.743 1018.007 L
237.743 1029.311 L
280.223 1066.751 L
285.623 1071.144 290.951 1075.103 306.072 1075.103 C
b
0.000 0.000 0.000 1.000 K
0 j
0 J
0.215 w
[]0 d
0.000 0.000 0.000 0.498 k
511.487 706.751 m
504.935 713.231 L
501.911 713.375 L
497.735 711.719 L
495.143 708.911 L
495.143 696.383 L
495.143 694.655 496.079 693.719 497.951 693.719 C
506.663 693.719 L
509.111 693.863 510.695 695.375 511.487 697.319 C
511.487 706.751 L
b
0.000 0.000 0.000 1.000 K
0 j
0 J
0.215 w
[]0 d
0.000 0.000 0.000 0.498 k
221.399 1027.439 m
227.951 1033.919 L
230.975 1034.063 L
235.151 1032.407 L
237.671 1029.599 L
237.671 1017.071 L
237.671 1015.343 236.807 1014.479 234.935 1014.479 C
226.223 1014.479 L
223.775 1014.551 222.119 1016.063 221.399 1018.007 C
221.399 1027.439 L
b
0.000 0.000 0.000 1.000 K
0 j
0 J
0.215 w
[]0 d
0.000 0.000 0.000 0.498 k
398.375 688.535 m
378.719 688.535 l
377.135 688.535 375.983 687.383 375.983 685.799 c
375.983 678.096 l
375.983 676.439 377.135 675.287 378.719 675.287 c
398.375 675.287 l
399.959 675.287 401.111 676.439 401.111 678.096 c
401.111 685.799 l
401.111 687.383 399.959 688.535 398.375 688.535 c
b
0.000 0.000 0.000 1.000 K
0 j
0 J
0.215 w
[]0 d
0.000 0.000 0.000 0.498 k
334.512 1009.223 m
354.095 1009.223 l
355.751 1009.223 356.903 1008.071 356.903 1006.487 c
356.903 998.783 l
356.903 997.127 355.751 995.975 354.095 995.975 c
334.512 995.975 l
332.855 995.975 331.703 997.127 331.703 998.783 c
331.703 1006.487 l
331.703 1008.071 332.855 1009.223 334.512 1009.223 c
b
0.000 0.000 0.000 1.000 K
0 j
0 J
0.215 w
[]0 d
0.000 0.000 0.000 0.498 k
398.375 688.535 m
378.719 688.535 l
377.135 688.535 375.983 687.383 375.983 685.799 c
375.983 682.127 L
401.111 682.127 L
401.111 685.799 l
401.111 687.383 399.959 688.535 398.375 688.535 c
b
0.000 0.000 0.000 1.000 K
0 j
0 J
0.215 w
[]0 d
0.000 0.000 0.000 0.498 k
334.512 1009.223 m
354.095 1009.223 l
355.751 1009.223 356.903 1008.071 356.903 1006.487 c
356.903 1002.815 L
331.703 1002.815 L
331.703 1006.487 l
331.703 1008.071 332.855 1009.223 334.512 1009.223 c
b
0.000 0.000 0.000 0.498 k
378.719 675.287 m
377.711 675.287 375.983 676.007 375.983 678.096 c
375.983 682.127 L
384.047 682.127 L
384.047 675.287 L
378.719 675.287 l
f
0.000 0.000 0.000 0.498 k
354.095 995.975 m
355.103 995.975 356.903 996.695 356.903 998.783 c
356.903 1002.815 L
348.767 1002.815 L
348.767 995.975 L
354.095 995.975 l
f
0.000 0.000 0.000 1.000 K
0 j
0 J
0.215 w
[]0 d
0.000 0.000 0.000 0.298 k
43.847 681.335 m
33.839 681.335 L
31.535 667.439 31.463 651.168 32.471 636.983 C
47.231 636.983 L
47.231 677.807 L
47.231 680.111 46.007 681.335 43.847 681.335 C
b
0.000 0.000 0.000 1.000 K
0 j
0 J
0.215 w
[]0 d
0.000 0.000 0.000 0.298 k
689.183 1002.023 m
699.119 1002.023 L
701.423 988.127 701.567 971.855 700.559 957.671 C
685.727 957.671 L
685.727 998.495 L
685.727 1000.799 687.024 1002.023 689.183 1002.023 C
b
0.000 0.000 0.000 1.000 K
0 j
0 J
0.215 w
[]0 d
0.000 0.000 0.000 0.498 k
651.743 611.639 m
644.615 611.639 L
633.096 660.455 566.279 660.743 554.255 612.791 C
543.096 613.439 L
545.903 625.175 548.279 634.895 557.495 644.759 C
572.975 658.295 611.351 659.087 634.895 648.791 C
639.287 646.199 644.975 641.591 643.247 636.839 C
651.743 611.639 L
b
0.000 0.000 0.000 1.000 K
0 j
0 J
0.215 w
[]0 d
0.000 0.000 0.000 0.498 k
81.143 932.327 m
88.271 932.327 L
99.719 981.143 166.607 981.431 178.631 933.479 C
189.791 934.127 L
186.983 945.863 184.607 955.583 175.319 965.447 C
159.911 978.983 121.463 979.775 97.991 969.551 C
93.527 966.887 87.839 962.279 89.639 957.527 C
81.143 932.327 L
b
0.000 0.000 0.000 1.000 K
0 j
0 J
0.215 w
[]0 d
0.000 0.000 0.000 0.200 k
427.319 753.119 m
385.055 752.399 L
381.887 752.399 381.311 750.095 381.311 747.287 C
381.311 705.815 L
381.311 702.575 382.895 700.775 385.487 700.919 C
495.215 698.615 L
495.215 706.823 L
451.943 745.199 L
446.759 749.303 441.719 753.119 427.319 753.119 C
b
0.000 0.000 0.000 1.000 K
0 j
0 J
0.215 w
[]0 d
0.000 0.000 0.000 0.200 k
305.567 1073.807 m
347.759 1073.087 L
350.927 1073.087 351.575 1070.783 351.575 1067.975 C
351.575 1026.503 L
351.575 1023.263 349.919 1021.463 347.399 1021.607 C
237.671 1019.303 L
237.671 1027.583 L
280.871 1065.887 L
286.055 1069.991 291.096 1073.807 305.567 1073.807 C
b
0.000 0.000 0.000 1.000 K
0 j
0 J
0.215 w
[]0 d
0.000 0.000 0.000 0.200 k
474.479 755.063 m
466.343 752.471 L
484.559 736.415 503.423 721.079 520.919 704.015 C
526.463 702.647 537.479 703.871 539.207 706.175 C
519.479 724.751 496.871 741.167 474.479 755.063 C
b
0.000 0.000 0.000 1.000 K
0 j
0 J
0.215 w
[]0 d
0.000 0.000 0.000 0.200 k
258.407 1075.751 m
266.471 1073.159 L
248.255 1057.103 229.463 1041.768 211.967 1024.703 C
206.423 1023.335 195.407 1024.559 193.679 1026.864 C
213.407 1045.439 236.015 1061.855 258.407 1075.751 C
b
u
u
0.000 0.000 0.000 1.000 K
0 j
0 J
0.215 w
[]0 d
696.455 618.551 m
649.439 618.551 L
S
U
U
u
u
0.000 0.000 0.000 1.000 K
0 j
0 J
0.215 w
[]0 d
36.431 939.239 m
83.447 939.239 L
S
U
U
u
u
0.000 0.000 0.000 1.000 K
0 j
0 J
0.215 w
[]0 d
700.487 636.551 m
643.103 636.551 L
S
U
U
u
u
0.000 0.000 0.000 1.000 K
0 j
0 J
0.215 w
[]0 d
32.399 957.239 m
89.783 957.239 L
S
U
U
0.000 0.000 0.000 1.000 K
0 j
0 J
0.215 w
[]0 d
693.431 636.551 m
696.455 622.151 L
692.783 619.991 689.759 621.144 689.399 624.240 C
687.743 627.192 690.911 633.024 693.431 636.551 C
s
0.000 0.000 0.000 1.000 K
0 j
0 J
0.215 w
[]0 d
39.455 957.239 m
36.431 942.839 L
40.103 940.679 43.128 941.831 43.487 944.999 C
45.143 947.879 41.975 953.711 39.455 957.239 C
s
u
u
0.000 0.000 0.000 1.000 K
0 j
0 J
0.215 w
[]0 d
682.775 662.831 m
685.511 657.215 685.655 650.015 683.279 644.255 C
S
U
U
u
u
0.000 0.000 0.000 1.000 K
0 j
0 J
0.215 w
[]0 d
50.111 983.519 m
47.303 977.903 47.231 970.703 49.607 964.943 C
S
U
U
u
u
0.000 0.000 0.000 1.000 K
0 j
0 J
0.215 w
[]0 d
692.135 662.831 m
667.439 662.831 L
S
U
U
u
u
0.000 0.000 0.000 1.000 K
0 j
0 J
0.215 w
[]0 d
40.751 983.519 m
65.375 983.519 L
S
U
U
u
u
0.000 0.000 0.000 1.000 K
0 j
0 J
0.215 w
[]0 d
693.863 657.863 m
684.503 657.863 L
S
U
U
u
u
0.000 0.000 0.000 1.000 K
0 j
0 J
0.215 w
[]0 d
39.023 978.551 m
48.383 978.551 L
S
U
U
u
u
0.000 0.000 0.000 1.000 K
0 j
0 J
0.215 w
[]0 d
693.431 649.007 m
684.863 649.007 L
S
U
U
u
u
0.000 0.000 0.000 1.000 K
0 j
0 J
0.215 w
[]0 d
39.455 969.695 m
48.023 969.695 L
S
U
U
0.000 0.000 0.000 1.000 K
0 j
0 J
0.215 w
[]0 d
675.431 660.311 m
673.703 660.815 671.039 660.527 669.024 659.447 C
666.863 655.919 662.831 648.791 667.367 648.575 C
673.199 648.575 L
675.431 660.311 L
s
0.000 0.000 0.000 1.000 K
0 j
0 J
0.215 w
[]0 d
57.383 980.999 m
59.183 981.503 61.847 981.287 63.863 980.135 C
66.024 976.607 70.055 969.479 65.519 969.263 C
59.687 969.263 L
57.383 980.999 L
s
u
u
0.000 0.000 0.000 1.000 K
0 j
0 J
0.215 w
[]0 d
47.159 667.367 m
32.399 667.367 L
S
U
U
u
u
0.000 0.000 0.000 1.000 K
0 j
0 J
0.215 w
[]0 d
685.799 988.055 m
700.559 988.055 L
S
U
U
u
u
0.000 0.000 0.000 1.000 K
0 j
0 J
0.215 w
[]0 d
47.159 660.383 m
31.895 660.383 L
S
U
U
u
u
0.000 0.000 0.000 1.000 K
0 j
0 J
0.215 w
[]0 d
685.799 981.071 m
701.063 981.071 L
S
U
U
u
u
0.000 0.000 0.000 1.000 K
0 j
0 J
0.215 w
[]0 d
31.895 651.815 m
36.935 651.815 L
36.935 638.279 L
S
U
U
u
u
0.000 0.000 0.000 1.000 K
0 j
0 J
0.215 w
[]0 d
701.063 972.503 m
696.024 972.503 L
696.024 958.967 L
S
U
U
u
u
0.000 0.000 0.000 1.000 K
0 j
0 J
0.215 w
[]0 d
662.039 653.327 m
657.719 640.583 L
S
U
U
u
u
0.000 0.000 0.000 1.000 K
0 j
0 J
0.215 w
[]0 d
70.847 974.015 m
75.167 961.271 L
S
U
U
u
u
0.000 0.000 0.000 1.000 K
0 j
0 J
0.215 w
[]0 d
555.551 700.343 m
549.503 693.503 L
590.687 692.927 631.871 689.975 668.159 679.607 C
675.647 677.087 681.048 673.199 683.207 667.367 C
678.167 677.447 683.351 674.927 644.399 678.887 c
607.895 682.415 563.255 684.072 524.663 684.791 c
522.000 684.791 446.399 688.967 437.543 681.120 C
S
U
U
u
u
0.000 0.000 0.000 1.000 K
0 j
0 J
0.215 w
[]0 d
177.335 1021.031 m
183.383 1014.191 L
142.199 1013.615 100.943 1010.663 64.727 1000.295 C
57.239 997.775 51.767 993.887 49.679 988.055 C
54.719 998.135 49.535 995.615 88.487 999.575 c
124.991 1003.103 169.631 1004.759 208.151 1005.479 c
210.815 1005.479 286.415 1009.655 295.271 1001.807 C
S
U
U
u
u
0.000 0.000 0.000 1.000 K
0 j
0 J
0.215 w
[]0 d
357.623 601.415 m
357.623 699.767 L
S
U
U
u
u
0.000 0.000 0.000 1.000 K
0 j
0 J
0.215 w
[]0 d
375.263 922.103 m
375.263 1020.455 L
S
U
U
u
u
0.000 0.000 0.000 1.000 K
0 j
0 J
0.215 w
[]0 d
352.367 601.055 m
352.367 699.767 L
S
U
U
u
u
0.000 0.000 0.000 1.000 K
0 j
0 J
0.215 w
[]0 d
380.519 921.743 m
380.519 1020.455 L
S
U
U
u
u
0.000 0.000 0.000 1.000 K
0 j
0 J
0.215 w
[]0 d
653.615 640.295 m
651.455 648.647 643.895 655.487 635.183 657.863 C
615.599 663.048 585.719 663.551 569.807 660.671 C
559.439 658.367 549.863 653.975 546.911 645.983 C
537.695 632.447 533.663 615.168 532.511 597.671 C
S
U
U
u
u
0.000 0.000 0.000 1.000 K
0 j
0 J
0.215 w
[]0 d
79.271 960.983 m
81.359 969.335 88.991 976.175 97.703 978.551 C
117.287 983.735 147.095 984.239 163.079 981.359 C
173.447 979.055 183.023 974.663 185.975 966.671 C
195.191 953.135 199.223 935.855 200.375 918.359 C
S
U
U
0.000 0.000 0.000 1.000 K
0 j
0 J
0.215 w
[]0 d
0.000 0.000 0.000 0.298 k
542.519 675.575 m
534.959 675.575 L
534.959 669.167 L
542.519 669.167 L
542.519 675.575 L
b
0.000 0.000 0.000 1.000 K
0 j
0 J
0.215 w
[]0 d
0.000 0.000 0.000 0.298 k
190.295 996.263 m
197.927 996.263 L
197.927 989.855 L
190.295 989.855 L
190.295 996.263 L
b
u
u
0.000 0.000 0.000 1.000 K
0 j
0 J
0.215 w
[]0 d
546.695 645.192 m
249.551 645.192 L
S
U
U
u
u
0.000 0.000 0.000 1.000 K
0 j
0 J
0.215 w
[]0 d
186.191 965.879 m
483.263 965.879 L
S
U
U
u
u
0.000 0.000 0.000 1.000 K
0 j
0 J
0.215 w
[]0 d
541.439 637.055 m
253.655 637.055 L
S
U
U
u
u
0.000 0.000 0.000 1.000 K
0 j
0 J
0.215 w
[]0 d
191.447 957.743 m
479.159 957.743 L
S
U
U
u
u
0.000 0.000 0.000 1.000 K
0 j
0 J
0.215 w
[]0 d
144.792 645.192 m
47.375 645.192 L
S
U
U
u
u
0.000 0.000 0.000 1.000 K
0 j
0 J
0.215 w
[]0 d
588.168 965.879 m
685.655 965.879 L
S
U
U
u
u
0.000 0.000 0.000 1.000 K
0 j
0 J
0.215 w
[]0 d
140.615 637.055 m
47.303 637.055 L
S
U
U
u
u
0.000 0.000 0.000 1.000 K
0 j
0 J
0.215 w
[]0 d
592.343 957.743 m
685.655 957.743 L
S
U
U
u
u
0.000 0.000 0.000 1.000 K
0 j
0 J
0.215 w
[]0 d
261.503 599.471 m
258.695 620.711 253.655 647.135 237.455 658.007 C
215.999 667.367 175.895 665.639 158.039 657.503 C
140.903 649.151 136.727 628.415 133.199 610.343 C
S
U
U
u
u
0.000 0.000 0.000 1.000 K
0 j
0 J
0.215 w
[]0 d
471.455 920.159 m
474.263 941.399 479.303 967.823 495.503 978.695 C
517.031 988.055 557.063 986.327 574.919 978.191 C
592.127 969.839 596.303 949.103 599.831 931.031 C
S
U
U
0.000 0.000 0.000 1.000 K
0 j
0 J
0.215 w
[]0 d
0.000 0.000 0.000 0.498 k
250.415 615.024 m
239.183 614.519 L
226.367 659.591 163.439 659.879 150.191 614.519 C
142.919 615.599 L
145.584 628.415 149.759 642.671 160.775 651.024 C
175.031 657.863 208.799 659.231 223.487 655.703 C
239.399 650.375 247.751 632.807 250.415 615.024 C
b
0.000 0.000 0.000 1.000 K
0 j
0 J
0.215 w
[]0 d
0.000 0.000 0.000 0.498 k
482.543 935.711 m
493.847 935.207 L
506.591 980.279 569.519 980.567 582.839 935.207 C
590.039 936.287 L
587.375 949.103 583.199 963.359 572.183 971.711 C
557.927 978.551 524.159 979.919 509.471 976.391 C
493.559 971.063 485.207 953.495 482.543 935.711 C
b
0.000 0.000 0.000 1.000 K
0 j
0 J
0.215 w
[]0 d
516.384 615.168 m
279.287 615.168 L
265.391 604.799 L
530.279 604.799 L
516.384 615.168 L
s
0.000 0.000 0.000 1.000 K
0 j
0 J
0.215 w
[]0 d
216.503 935.855 m
453.527 935.855 L
467.423 925.487 L
202.607 925.487 L
216.503 935.855 L
s
u
u
0.000 0.000 0.000 1.000 K
0 j
0 J
0.215 w
[]0 d
347.831 699.623 m
383.903 699.623 L
S
U
U
u
u
0.000 0.000 0.000 1.000 K
0 j
0 J
0.215 w
[]0 d
384.983 1020.311 m
348.983 1020.311 L
S
U
U
u
u
0.000 0.000 0.000 1.000 K
0 j
0 J
0.215 w
[]0 d
41.256 693.431 m
352.512 693.431 L
S
U
U
u
u
0.000 0.000 0.000 1.000 K
0 j
0 J
0.215 w
[]0 d
691.703 1014.119 m
380.447 1014.119 L
S
U
U
u
u
0.000 0.000 0.000 1.000 K
0 j
0 J
0.215 w
[]0 d
38.807 687.599 m
352.512 687.599 L
S
U
U
u
u
0.000 0.000 0.000 1.000 K
0 j
0 J
0.215 w
[]0 d
694.151 1008.287 m
380.447 1008.287 L
S
U
U
u
u
0.000 0.000 0.000 1.000 K
0 j
0 J
0.215 w
[]0 d
43.991 681.407 m
352.583 681.407 L
S
U
U
u
u
0.000 0.000 0.000 1.000 K
0 j
0 J
0.215 w
[]0 d
689.039 1002.095 m
380.375 1002.095 L
S
U
U
0.000 0.000 0.000 1.000 K
0 j
0 J
0.215 w
[]0 d
0.000 0.000 0.000 0.498 k
796.679 1064.231 m
848.951 1068.911 896.471 1068.911 948.815 1064.231 C
957.167 1048.175 962.351 1032.119 966.023 1016.063 C
902.951 1018.295 844.703 1018.295 781.631 1016.063 C
784.295 1032.119 789.335 1048.175 796.679 1064.231 C
b
0.000 0.000 0.000 1.000 K
0 j
0 J
0.215 w
[]0 d
781.775 1008.143 m
843.047 1013.615 904.391 1013.831 965.735 1008.143 C
961.775 984.311 L
784.655 984.311 L
781.775 1008.143 L
s
0.000 0.000 0.000 1.000 K
0 j
0 J
0.215 w
[]0 d
0.000 0.000 0.000 0.498 k
754.055 1024.487 m
761.471 1023.983 766.511 1022.471 772.127 1014.911 C
770.111 1005.911 L
764.783 1007.207 L
746.423 1007.207 L
741.671 1008.215 740.087 1011.527 739.871 1015.127 C
739.583 1022.255 745.703 1024.991 754.055 1024.487 C
b
0.000 0.000 0.000 1.000 K
0 j
0 J
0.215 w
[]0 d
0.000 0.000 0.000 0.498 k
988.991 704.015 m
981.503 703.511 976.463 702.000 970.919 694.439 C
972.935 685.439 L
978.191 686.735 L
996.551 686.735 L
1001.375 687.743 1002.887 690.983 1003.103 694.655 C
1003.391 701.783 997.343 704.519 988.991 704.015 C
b
0.000 0.000 0.000 1.000 K
0 j
0 J
0.215 w
[]0 d
0.000 0.000 0.000 0.498 k
992.159 1024.487 m
984.743 1023.983 979.631 1022.471 974.087 1014.911 C
976.103 1005.911 L
981.431 1007.207 L
999.791 1007.207 L
1004.543 1008.215 1006.055 1011.527 1006.343 1015.127 C
1006.559 1022.255 1000.511 1024.991 992.159 1024.487 C
b
0.000 0.000 0.000 1.000 K
0 j
0 J
0.215 w
[]0 d
0.000 0.000 0.000 0.498 k
750.815 704.015 m
758.303 703.511 763.343 702.000 768.887 694.439 C
766.871 685.439 L
761.543 686.735 L
743.255 686.735 L
738.431 687.743 736.919 690.983 736.631 694.655 C
736.415 701.783 742.463 704.519 750.815 704.015 C
b
0.000 0.000 0.000 1.000 K
0 j
0 J
0.215 w
[]0 d
770.903 984.383 m
976.967 984.455 L
982.367 978.191 983.159 965.519 981.215 958.031 C
766.799 958.031 L
765.575 966.527 766.295 977.255 770.903 984.383 C
s
0.000 0.000 0.000 1.000 K
0 j
0 J
0.215 w
[]0 d
770.039 979.271 m
772.415 977.111 771.695 971.279 770.903 967.031 C
767.735 964.367 L
767.519 969.767 768.239 974.951 770.039 979.271 C
s
0.000 0.000 0.000 1.000 K
0 j
0 J
0.215 w
[]0 d
978.191 979.199 m
975.815 977.039 976.535 971.207 977.327 966.887 C
980.495 964.223 L
980.711 969.695 979.991 974.879 978.191 979.199 C
s
0.000 0.000 0.000 1.000 K
0 j
0 J
0.215 w
[]0 d
770.255 981.719 m
779.831 981.719 L
779.831 958.679 L
767.735 958.679 L
766.439 966.383 766.943 975.599 770.255 981.719 C
s
0.000 0.000 0.000 1.000 K
0 j
0 J
0.215 w
[]0 d
978.047 981.503 m
968.471 981.503 L
968.471 958.463 L
980.639 958.463 L
981.863 966.167 981.359 975.383 978.047 981.503 C
s
0.000 0.000 0.000 1.000 K
0 j
0 J
0.215 w
[]0 d
0.000 0.000 0.000 0.498 k
796.607 920.519 m
951.839 920.519 L
951.839 908.351 L
947.519 915.983 936.575 915.047 930.383 909.215 C
914.039 910.367 L
907.199 912.815 897.767 912.167 891.071 911.519 C
880.919 911.519 871.199 911.519 864.359 907.703 C
849.599 895.823 835.559 914.183 822.023 906.623 C
821.375 914.543 L
808.127 916.991 799.919 915.191 796.607 904.463 C
796.607 920.519 L
b
0.000 0.000 0.000 1.000 K
0 j
0 J
0.215 w
[]0 d
0.000 0.000 0.000 0.498 k
946.295 607.463 m
873.359 607.319 L
791.063 607.463 L
791.063 599.975 L
791.063 587.879 L
795.311 595.439 806.327 594.575 812.519 588.743 C
828.863 589.895 L
835.703 592.271 845.135 591.695 851.831 591.048 C
861.983 591.048 871.703 591.048 878.543 587.231 C
893.303 575.351 907.343 593.711 920.879 586.079 C
921.527 594.072 L
934.775 596.447 942.983 594.719 946.295 583.919 C
946.295 607.463 L
b
0.000 0.000 0.000 1.000 K
0 j
0 J
0.215 w
[]0 d
0.000 0.000 0.000 0.200 k
797.975 1063.151 m
847.727 1067.615 897.551 1067.615 947.375 1063.151 C
955.223 1047.887 960.623 1032.551 963.791 1017.287 C
903.743 1019.447 843.695 1019.447 783.647 1017.287 C
785.663 1032.551 790.703 1047.887 797.975 1063.151 C
b
0.000 0.000 0.000 1.000 K
0 j
0 J
0.215 w
[]0 d
787.391 981.719 m
804.599 981.719 L
806.111 981.719 807.191 980.567 807.191 979.055 C
808.847 973.223 808.775 967.247 807.191 961.343 C
807.191 959.831 806.111 958.679 804.599 958.679 C
787.391 958.679 L
785.879 958.679 784.727 959.831 784.727 961.343 C
782.711 967.247 782.855 973.223 784.727 979.055 C
784.727 980.567 785.879 981.719 787.391 981.719 C
s
0.000 0.000 0.000 1.000 K
0 j
0 J
0.215 w
[]0 d
960.839 981.503 m
943.631 981.503 L
942.119 981.503 940.967 980.351 940.967 978.839 C
939.383 973.007 939.455 967.103 940.967 961.127 C
940.967 959.615 942.119 958.463 943.631 958.463 C
960.839 958.463 L
962.351 958.463 963.503 959.615 963.503 961.127 C
965.519 967.103 965.375 973.007 963.503 978.839 C
963.503 980.351 962.351 981.503 960.839 981.503 C
s
u
u
0.000 0.000 0.000 1.000 K
0 j
0 J
0.215 w
[]0 d
769.319 981.791 m
819.791 981.791 L
821.159 980.423 L
929.015 980.423 L
930.383 981.791 L
978.695 981.791 L
S
U
U
u
u
0.000 0.000 0.000 0.498 k
815.255 981.791 m
810.575 974.231 810.215 966.455 815.255 958.751 C
S
U
u
0.000 0.000 0.000 1.000 K
0 j
0 J
0.215 w
[]0 d
815.255 981.791 m
810.575 974.231 810.215 966.455 815.255 958.751 C
S
U
U
u
u
0.000 0.000 0.000 0.498 k
933.047 981.791 m
937.727 974.231 938.087 966.455 933.047 958.751 C
S
U
u
0.000 0.000 0.000 1.000 K
0 j
0 J
0.215 w
[]0 d
933.047 981.791 m
937.727 974.231 938.087 966.455 933.047 958.751 C
S
U
U
u
u
0.000 0.000 0.000 1.000 K
0 j
0 J
0.215 w
[]0 d
803.447 958.751 m
943.559 958.751 L
S
U
U
u
u
0.000 0.000 0.000 0.498 k
890.207 969.695 m
890.207 968.543 L
891.071 968.543 L
891.359 967.823 L
893.375 967.823 L
891.863 971.999 L
891.215 973.583 L
890.207 973.583 L
890.207 971.783 L
890.855 969.695 L
890.207 969.695 L
f
0.000 0.000 0.000 0.498 k
890.207 971.783 m
890.207 973.583 L
889.199 973.583 L
887.687 969.407 L
887.183 968.183 L
887.183 967.823 L
888.911 967.823 L
889.199 968.543 L
890.207 968.543 L
890.207 969.695 L
889.559 969.695 L
890.207 971.855 L
890.207 971.783 L
f
0.000 0.000 0.000 0.498 k
887.183 973.583 m
887.183 972.071 L
887.399 972.071 L
887.399 973.583 L
887.183 973.583 L
f
0.000 0.000 0.000 0.498 k
887.183 972.071 m
887.183 973.583 L
883.151 973.583 L
881.855 973.583 L
881.855 972.071 L
883.655 972.071 L
883.655 967.895 L
883.655 967.823 L
885.671 967.823 L
885.671 971.999 L
885.671 972.071 L
887.183 972.071 L
f
0.000 0.000 0.000 0.498 k
887.183 967.823 m
887.183 968.183 L
887.039 967.823 L
887.183 967.823 L
f
0.000 0.000 0.000 0.498 k
878.255 969.047 m
878.255 967.679 L
879.983 967.679 881.351 968.687 881.351 970.703 C
881.351 972.287 880.343 973.799 878.255 973.799 C
878.255 972.287 L
879.047 972.287 879.479 971.423 879.479 970.703 C
879.479 969.695 879.047 969.047 878.255 969.047 C
f
0.000 0.000 0.000 0.498 k
878.255 972.287 m
878.255 973.799 L
878.183 973.799 878.183 973.871 878.183 973.871 C
876.455 973.871 875.159 972.575 875.159 970.703 C
875.159 968.687 876.455 967.679 878.183 967.679 C
878.183 967.679 878.183 967.679 878.255 967.679 C
878.255 969.047 L
878.183 969.047 878.183 969.047 878.183 969.047 C
877.319 969.047 877.031 969.911 877.031 970.703 C
877.031 971.495 877.319 972.359 878.183 972.359 C
878.183 972.359 878.183 972.287 878.255 972.287 C
f
0.000 0.000 0.000 0.498 k
864.935 969.047 m
864.935 967.679 L
866.663 967.679 868.103 968.687 868.103 970.703 C
868.103 972.287 867.095 973.799 864.935 973.799 C
864.935 972.287 L
865.799 972.287 866.159 971.423 866.159 970.703 C
866.159 969.695 865.799 969.047 864.935 969.047 C
f
0.000 0.000 0.000 0.498 k
872.639 969.911 m
874.799 973.583 L
872.639 973.583 L
871.631 971.567 L
870.623 973.583 L
868.463 973.583 L
870.623 969.911 L
870.623 967.823 L
872.639 967.823 L
872.639 969.911 L
f
0.000 0.000 0.000 0.498 k
855.791 972.071 m
857.591 972.071 L
857.591 967.895 L
857.591 967.823 L
859.607 967.823 L
859.607 971.999 L
859.607 972.071 L
861.407 972.071 L
861.407 973.583 L
857.087 973.583 L
855.791 973.583 L
855.791 972.071 L
f
0.000 0.000 0.000 0.498 k
864.935 972.287 m
864.935 973.799 L
864.935 973.799 864.935 973.871 864.935 973.871 C
863.135 973.871 861.911 972.575 861.911 970.703 C
861.911 968.687 863.135 967.679 864.935 967.679 C
864.935 967.679 864.935 967.607 864.935 967.679 C
864.935 969.047 L
864.935 969.047 864.935 969.047 864.935 969.047 C
864.071 969.047 863.783 969.911 863.783 970.703 C
863.783 971.495 864.071 972.359 864.935 972.359 C
864.935 972.359 864.935 972.287 864.935 972.287 C
f
U
u
0.000 0.000 0.000 1.000 K
0 j
0 J
0.215 w
[]0 d
855.791 972.071 m
857.591 972.071 L
857.591 967.895 L
857.591 967.823 L
859.607 967.823 L
859.607 971.999 L
859.607 972.071 L
861.407 972.071 L
861.407 973.583 L
857.087 973.583 L
855.791 973.583 L
855.791 972.071 L
s
0.000 0.000 0.000 1.000 K
0 j
0 J
0.215 w
[]0 d
864.935 972.359 m
865.799 972.359 866.159 971.495 866.159 970.703 C
866.159 969.695 865.799 969.047 864.935 969.047 C
864.071 969.047 863.783 969.911 863.783 970.703 C
863.783 971.495 864.071 972.359 864.935 972.359 C
s
0.000 0.000 0.000 1.000 K
0 j
0 J
0.215 w
[]0 d
864.935 973.871 m
863.135 973.871 861.911 972.575 861.911 970.703 C
861.911 968.687 863.135 967.679 864.935 967.679 C
866.663 967.679 868.103 968.687 868.103 970.703 C
868.103 972.359 867.095 973.871 864.935 973.871 C
s
0.000 0.000 0.000 1.000 K
0 j
0 J
0.215 w
[]0 d
872.639 969.911 m
874.799 973.583 L
872.639 973.583 L
871.631 971.567 L
870.623 973.583 L
868.463 973.583 L
870.623 969.911 L
870.623 967.823 L
872.639 967.823 L
872.639 969.911 L
s
0.000 0.000 0.000 1.000 K
0 j
0 J
0.215 w
[]0 d
878.183 972.359 m
879.047 972.359 879.479 971.495 879.479 970.703 C
879.479 969.695 879.047 969.047 878.183 969.047 C
877.319 969.047 877.031 969.911 877.031 970.703 C
877.031 971.495 877.319 972.359 878.183 972.359 C
s
0.000 0.000 0.000 1.000 K
0 j
0 J
0.215 w
[]0 d
878.183 973.871 m
876.455 973.871 875.159 972.575 875.159 970.703 C
875.159 968.687 876.455 967.679 878.183 967.679 C
879.983 967.679 881.351 968.687 881.351 970.703 C
881.351 972.359 880.343 973.871 878.183 973.871 C
s
0.000 0.000 0.000 1.000 K
0 j
0 J
0.215 w
[]0 d
881.855 972.071 m
883.655 972.071 L
883.655 967.895 L
883.655 967.823 L
885.671 967.823 L
885.671 971.999 L
885.671 972.071 L
887.399 972.071 L
887.399 973.583 L
883.151 973.583 L
881.855 973.583 L
881.855 972.071 L
s
0.000 0.000 0.000 1.000 K
0 j
0 J
0.215 w
[]0 d
890.855 969.695 m
889.559 969.695 L
890.207 971.855 L
890.855 969.695 L
s
0.000 0.000 0.000 1.000 K
0 j
0 J
0.215 w
[]0 d
888.911 967.823 m
889.199 968.543 L
891.071 968.543 L
891.359 967.823 L
893.375 967.823 L
891.863 971.999 L
891.215 973.583 L
889.199 973.583 L
887.687 969.407 L
887.039 967.823 L
888.911 967.823 L
s
U
U
0.000 0.000 0.000 1.000 K
0 j
0 J
0.215 w
[]0 d
0.000 0.000 0.000 0.498 k
814.895 978.335 m
934.127 978.335 L
934.127 975.815 L
814.895 975.815 L
814.895 978.335 L
b
0.000 0.000 0.000 1.000 K
0 j
0 J
0.215 w
[]0 d
0.000 0.000 0.000 0.498 k
814.895 964.583 m
933.911 964.583 L
933.911 962.063 L
814.895 962.063 L
814.895 964.583 L
b
0.000 0.000 0.000 1.000 K
0 j
0 J
0.215 w
[]0 d
0.000 0.000 0.000 0.498 k
814.895 968.975 m
854.207 968.975 L
854.207 966.455 L
814.895 966.455 L
814.895 968.975 L
b
0.000 0.000 0.000 1.000 K
0 j
0 J
0.215 w
[]0 d
0.000 0.000 0.000 0.498 k
894.671 968.975 m
933.983 968.975 L
933.983 966.455 L
894.671 966.455 L
894.671 968.975 L
b
0.000 0.000 0.000 1.000 K
0 j
0 J
0.215 w
[]0 d
0.000 0.000 0.000 0.498 k
814.895 974.015 m
854.207 974.015 L
854.207 971.495 L
814.895 971.495 L
814.895 974.015 L
b
0.000 0.000 0.000 1.000 K
0 j
0 J
0.215 w
[]0 d
0.000 0.000 0.000 0.498 k
894.671 974.015 m
933.983 974.015 L
933.983 971.495 L
894.671 971.495 L
894.671 974.015 L
b
u
u
0.000 0.000 0.000 1.000 K
0 j
0 J
0.215 w
[]0 d
820.367 1010.879 m
828.863 1006.847 831.959 1000.367 834.911 991.511 C
S
U
U
u
u
0.000 0.000 0.000 1.000 K
0 j
0 J
0.215 w
[]0 d
926.351 1010.879 m
917.855 1006.847 914.687 1000.367 911.807 991.511 C
S
U
U
0.000 0.000 0.000 1.000 K
0 j
0 J
0.215 w
[]0 d
0.000 0.000 0.000 0.498 k
762.479 954.071 m
986.399 953.927 L
984.527 942.695 982.007 929.807 977.687 920.447 C
770.615 920.591 L
766.583 931.103 763.487 942.479 762.479 954.071 C
b
0.000 0.000 0.000 1.000 K
0 j
0 J
0.215 w
[]0 d
0.000 0.000 0.000 0.000 k
967.679 951.263 m
944.135 951.263 L
942.767 949.247 942.479 944.999 944.135 943.415 C
967.679 943.415 L
969.191 945.863 969.191 949.103 967.679 951.263 C
b
0.000 0.000 0.000 1.000 K
0 j
0 J
0.215 w
[]0 d
0.000 0.000 0.000 0.000 k
781.631 951.263 m
805.175 951.263 L
806.543 949.247 806.831 944.999 805.175 943.415 C
781.631 943.415 L
780.119 945.863 780.119 949.103 781.631 951.263 C
b
u
u
0.000 0.000 0.000 1.000 K
0 j
0 J
0.215 w
[]0 d
784.799 951.263 m
784.799 957.959 L
S
U
U
u
u
0.000 0.000 0.000 1.000 K
0 j
0 J
0.215 w
[]0 d
794.519 951.263 m
794.519 957.959 L
S
U
U
u
u
0.000 0.000 0.000 1.000 K
0 j
0 J
0.215 w
[]0 d
964.511 951.263 m
964.511 957.959 L
S
U
U
u
u
0.000 0.000 0.000 1.000 K
0 j
0 J
0.215 w
[]0 d
954.935 951.263 m
954.935 957.959 L
S
U
U
0.000 0.000 0.000 1.000 k
818.855 949.247 m
929.231 949.247 L
943.271 946.007 933.623 931.103 925.703 926.783 C
822.167 926.783 L
813.959 931.823 807.119 945.215 818.855 949.247 C
f
u
u
0.000 0.000 0.000 1.000 K
0 j
0 J
0.215 w
[]0 d
765.071 940.031 m
812.735 940.031 L
936.215 940.031 L
983.879 940.031 L
S
U
U
u
u
0.000 0.000 0.000 0.498 K
0 j
0 J
0.215 w
[]0 d
813.095 943.703 m
935.855 943.703 L
S
U
U
u
u
0.000 0.000 0.000 0.498 K
0 j
0 J
0.215 w
[]0 d
815.111 947.159 m
934.199 947.159 L
S
U
U
u
u
0.000 0.000 0.000 0.498 K
0 j
0 J
0.215 w
[]0 d
813.311 936.647 m
935.279 936.647 L
S
U
U
u
u
0.000 0.000 0.000 0.498 K
0 j
0 J
0.215 w
[]0 d
815.471 933.047 m
932.399 933.047 L
S
U
U
u
u
0.000 0.000 0.000 0.498 K
0 j
0 J
0.215 w
[]0 d
818.927 929.735 m
929.231 929.735 L
S
U
U
u
u
0.000 0.000 0.000 0.498 K
0 j
0 J
0.215 w
[]0 d
858.599 947.159 m
858.599 943.775 L
S
U
U
u
u
0.000 0.000 0.000 0.498 K
0 j
0 J
0.215 w
[]0 d
887.471 947.159 m
887.471 943.775 L
S
U
U
u
u
0.000 0.000 0.000 0.498 K
0 j
0 J
0.215 w
[]0 d
862.271 947.159 m
862.271 943.775 L
S
U
U
u
u
0.000 0.000 0.000 0.498 K
0 j
0 J
0.215 w
[]0 d
891.215 947.159 m
891.215 943.775 L
S
U
U
u
u
0.000 0.000 0.000 0.498 K
0 j
0 J
0.215 w
[]0 d
858.599 940.031 m
858.599 936.575 L
S
U
U
u
u
0.000 0.000 0.000 0.498 K
0 j
0 J
0.215 w
[]0 d
887.471 940.031 m
887.471 936.575 L
S
U
U
u
u
0.000 0.000 0.000 0.498 K
0 j
0 J
0.215 w
[]0 d
862.271 940.031 m
862.271 936.575 L
S
U
U
u
u
0.000 0.000 0.000 0.498 K
0 j
0 J
0.215 w
[]0 d
891.215 940.031 m
891.215 936.575 L
S
U
U
u
u
0.000 0.000 0.000 0.498 K
0 j
0 J
0.215 w
[]0 d
858.599 933.047 m
858.599 929.663 L
S
U
U
u
u
0.000 0.000 0.000 0.498 K
0 j
0 J
0.215 w
[]0 d
887.471 933.047 m
887.471 929.663 L
S
U
U
u
u
0.000 0.000 0.000 0.498 K
0 j
0 J
0.215 w
[]0 d
862.271 933.047 m
862.271 929.663 L
S
U
U
u
u
0.000 0.000 0.000 0.498 K
0 j
0 J
0.215 w
[]0 d
891.215 933.047 m
891.215 929.663 L
S
U
U
u
u
0.000 0.000 0.000 1.000 K
0 j
0 J
0.215 w
[]0 d
785.231 984.311 m
782.351 994.391 777.023 1002.239 770.687 1008.575 C
S
U
U
u
u
0.000 0.000 0.000 1.000 K
0 j
0 J
0.215 w
[]0 d
961.415 984.311 m
964.295 994.391 969.623 1002.239 975.887 1008.575 C
S
U
U
u
u
0.000 0.000 0.000 1.000 K
0 j
0 J
0.215 w
[]0 d
770.687 1008.863 m
772.631 1008.503 776.519 1010.015 778.031 1012.391 C
781.487 1030.103 786.887 1045.655 792.935 1061.927 C
793.943 1064.735 796.103 1066.103 801.719 1066.103 C
848.735 1070.207 895.895 1069.919 943.055 1066.103 C
948.095 1066.247 950.327 1064.879 951.911 1062.215 C
959.831 1046.303 964.655 1029.311 968.831 1012.175 C
969.695 1009.871 972.359 1008.215 975.527 1008.359 C
S
U
U
0.000 0.000 0.000 1.000 K
0 j
0 J
0.215 w
[]0 d
0.000 0.000 0.000 0.298 k
760.751 985.751 m
762.263 985.751 L
762.263 982.079 L
760.751 982.079 L
760.751 985.751 L
b
0.000 0.000 0.000 1.000 K
0 j
0 J
0.215 w
[]0 d
0.000 0.000 0.000 0.298 k
986.039 985.751 m
987.551 985.751 L
987.551 982.079 L
986.039 982.079 L
986.039 985.751 L
b
0.000 0.000 0.000 1.000 K
0 j
0 J
0.215 w
[]0 d
0.000 0.000 0.000 0.498 k
946.151 600.335 m
975.671 600.335 L
975.671 572.759 L
975.671 570.815 975.383 569.231 973.007 569.231 C
946.151 569.231 L
946.151 600.335 L
b
0.000 0.000 0.000 1.000 K
0 j
0 J
0.215 w
[]0 d
0.000 0.000 0.000 0.498 k
791.063 600.048 m
761.615 600.048 L
761.615 572.759 L
761.615 570.815 761.903 569.231 764.279 569.231 C
791.063 569.231 L
791.063 600.048 L
b
0.000 0.000 0.000 1.000 K
0 j
0 J
0.215 w
[]0 d
791.063 668.231 m
859.463 668.231 L
859.463 664.703 L
864.647 661.607 872.927 661.535 878.327 664.703 C
878.327 668.231 L
946.583 668.231 L
951.047 668.231 954.575 664.703 954.575 660.311 C
954.575 637.991 L
783.143 637.991 L
783.143 660.311 L
783.143 664.703 786.671 668.231 791.063 668.231 C
s
0.000 0.000 0.000 1.000 K
0 j
0 J
0.215 w
[]0 d
796.607 663.623 m
858.527 663.623 L
863.135 660.024 875.159 660.024 879.407 663.623 C
941.471 663.623 L
945.863 663.623 949.391 660.024 949.391 655.631 C
954.575 637.991 L
783.143 637.991 L
788.615 655.631 L
788.615 660.024 792.143 663.623 796.607 663.623 C
s
u
u
0.000 0.000 0.000 1.000 K
0 j
0 J
0.215 w
[]0 d
791.063 607.463 m
762.911 607.463 L
S
U
U
u
u
0.000 0.000 0.000 1.000 K
0 j
0 J
0.215 w
[]0 d
946.295 607.463 m
974.879 607.463 L
S
U
U
0.000 0.000 0.000 1.000 K
0 j
0 J
0.215 w
[]0 d
775.871 690.479 m
962.063 690.479 L
962.063 629.855 L
775.871 629.855 L
775.871 690.479 L
s
u
u
0.000 0.000 0.000 1.000 K
0 j
0 J
0.215 w
[]0 d
775.295 629.927 m
775.295 607.535 L
S
U
U
u
u
0.000 0.000 0.000 1.000 K
0 j
0 J
0.215 w
[]0 d
962.279 629.927 m
962.279 607.535 L
S
U
U
0.000 0.000 0.000 1.000 K
0 j
0 J
0.215 w
[]0 d
775.295 626.039 m
785.375 626.039 L
785.375 616.319 L
775.295 616.319 L
775.295 626.039 L
s
0.000 0.000 0.000 1.000 K
0 j
0 J
0.215 w
[]0 d
962.279 626.039 m
952.199 626.039 L
952.199 616.319 L
962.279 616.319 L
962.279 626.039 L
s
u
u
0.000 0.000 0.000 1.000 K
0 j
0 J
0.215 w
[]0 d
785.303 616.607 m
822.599 616.607 L
S
U
U
u
u
0.000 0.000 0.000 1.000 K
0 j
0 J
0.215 w
[]0 d
952.055 616.607 m
914.759 616.607 L
S
U
U
0.000 0.000 0.000 1.000 K
0 j
0 J
0.215 w
[]0 d
914.543 625.607 m
914.543 627.192 911.807 628.127 908.639 628.127 C
829.079 628.127 L
826.199 628.127 822.023 627.623 822.023 625.607 C
822.023 616.607 L
827.567 610.631 L
908.279 610.631 L
914.543 616.607 L
914.543 625.607 L
s
u
u
0.000 0.000 0.000 1.000 K
0 j
0 J
0.215 w
[]0 d
775.871 690.479 m
767.879 690.479 L
S
U
U
u
u
0.000 0.000 0.000 1.000 K
0 j
0 J
0.215 w
[]0 d
962.279 690.479 m
972.143 690.479 L
S
U
U
u
u
0.000 0.000 0.000 1.000 K
0 j
0 J
0.215 w
[]0 d
972.431 686.375 m
766.727 686.375 L
S
U
U
u
u
0.000 0.000 0.000 1.000 K
0 j
0 J
0.215 w
[]0 d
976.247 679.535 m
762.623 679.535 L
S
U
U
u
u
0.000 0.000 0.000 1.000 K
0 j
0 J
0.215 w
[]0 d
977.399 676.079 m
761.039 676.079 L
S
U
U
0.000 0.000 0.000 1.000 K
0 j
0 J
0.215 w
[]0 d
0.000 0.000 0.000 0.298 k
775.871 676.151 m
760.823 676.151 L
757.439 667.799 L
757.007 663.263 L
757.007 653.903 L
756.287 648.072 756.143 641.519 757.439 636.048 C
775.871 636.048 L
775.871 676.151 L
b
0.000 0.000 0.000 1.000 K
0 j
0 J
0.215 w
[]0 d
0.000 0.000 0.000 0.298 k
962.063 676.151 m
977.543 676.151 L
980.063 667.799 L
980.423 663.479 L
980.063 654.048 L
982.079 648.359 981.431 641.519 979.631 636.048 C
962.063 636.048 L
962.063 676.151 L
b
u
u
0.000 0.000 0.000 1.000 K
0 j
0 J
0.215 w
[]0 d
775.871 662.471 m
756.935 662.471 L
S
U
U
u
u
0.000 0.000 0.000 1.000 K
0 j
0 J
0.215 w
[]0 d
962.063 662.471 m
981.071 662.471 L
S
U
U
u
u
0.000 0.000 0.000 1.000 K
0 j
0 J
0.215 w
[]0 d
775.871 655.847 m
757.295 655.847 L
S
U
U
u
u
0.000 0.000 0.000 1.000 K
0 j
0 J
0.215 w
[]0 d
962.063 655.847 m
980.639 655.847 L
S
U
U
u
u
0.000 0.000 0.000 1.000 K
0 j
0 J
0.215 w
[]0 d
762.767 636.048 m
762.767 647.783 L
773.063 647.783 L
773.063 636.192 L
S
U
U
u
u
0.000 0.000 0.000 1.000 K
0 j
0 J
0.215 w
[]0 d
975.239 636.048 m
975.239 647.783 L
965.015 647.783 L
965.015 636.192 L
S
U
U
0.000 0.000 0.000 1.000 k
911.591 643.967 m
912.239 645.911 L
917.279 645.911 L
917.927 643.967 L
922.895 643.967 L
918.935 654.983 L
917.423 659.375 L
912.239 659.375 L
908.135 648.431 L
906.551 643.967 L
911.591 643.967 L
f
0.000 0.000 0.000 1.000 k
893.015 655.343 m
897.551 655.343 L
897.551 644.399 L
897.551 643.967 L
902.591 643.967 L
902.591 654.983 L
902.591 655.343 L
907.343 655.343 L
907.343 659.375 L
896.183 659.375 L
893.015 659.375 L
893.015 655.343 L
f
0.000 0.000 0.000 1.000 k
883.295 659.879 m
878.471 659.879 875.231 656.783 875.231 651.815 C
875.231 646.487 878.471 643.607 883.295 643.607 C
887.975 643.607 891.503 646.487 891.503 651.815 C
891.503 655.847 888.839 659.879 883.295 659.879 C
f
0.000 0.000 0.000 1.000 k
868.463 649.727 m
874.295 659.375 L
868.607 659.375 L
865.943 654.263 L
863.135 659.375 L
857.519 659.375 L
863.351 649.511 L
863.351 643.967 L
868.463 643.967 L
868.463 649.727 L
f
0.000 0.000 0.000 1.000 k
848.519 659.879 m
843.623 659.879 840.311 656.783 840.311 651.815 C
840.311 646.487 843.623 643.607 848.519 643.607 C
853.055 643.607 856.727 646.487 856.727 651.815 C
856.727 655.847 854.063 659.879 848.519 659.879 C
f
0.000 0.000 0.000 1.000 k
824.615 655.343 m
829.151 655.343 L
829.151 644.399 L
829.151 643.967 L
834.263 643.967 L
834.263 654.983 L
834.263 655.343 L
838.871 655.343 L
838.871 659.375 L
827.783 659.375 L
824.615 659.375 L
824.615 655.343 L
f
u
u
0.000 0.000 0.000 1.000 K
0 j
0 J
0.215 w
[]0 d
863.207 676.007 m
860.615 674.063 860.471 671.327 860.471 668.159 C
860.975 664.631 L
866.015 662.687 871.199 662.687 876.383 664.631 C
877.391 668.159 L
877.391 671.039 876.743 674.567 875.015 676.007 C
S
U
U
0.000 0.000 0.000 1.000 K
0 j
0 J
0.215 w
[]0 d
0.000 0.000 0.000 0.498 k
865.151 674.207 m
872.783 674.207 l
873.359 674.207 873.791 673.703 873.791 673.199 c
875.015 666.144 l
875.015 665.639 874.655 665.135 874.007 665.135 c
863.495 665.135 l
862.919 665.135 862.415 665.639 862.487 666.144 c
864.143 673.199 l
864.143 673.703 864.503 674.207 865.151 674.207 c
b
u
u
0.000 0.000 0.000 1.000 K
0 j
0 J
0.215 w
[]0 d
862.703 667.511 m
874.727 667.511 L
S
U
U
u
u
0.000 0.000 0.000 1.000 K
0 j
0 J
0.215 w
[]0 d
776.159 690.911 m
776.159 698.759 L
796.247 751.103 L
798.407 755.207 800.855 756.359 805.391 757.295 C
934.487 757.295 L
939.383 756.359 943.055 754.703 945.215 750.671 C
961.991 700.775 L
961.991 690.407 L
S
U
U
0.000 0.000 0.000 1.000 K
0 j
0 J
0.215 w
[]0 d
0.000 0.000 0.000 0.498 k
786.383 693.287 m
952.487 693.287 L
956.663 693.287 959.903 696.599 959.903 700.775 C
944.639 746.135 L
944.639 750.311 941.327 753.623 937.151 753.623 C
804.023 753.623 L
799.847 753.623 796.607 750.311 796.607 746.135 C
778.895 700.775 L
778.895 696.599 782.207 693.287 786.383 693.287 C
b
0.000 0.000 0.000 1.000 K
0 j
0 J
0.215 w
[]0 d
0.000 0.000 0.000 0.200 k
788.975 695.447 m
950.255 695.447 L
954.215 695.447 957.311 698.543 957.311 702.503 C
942.839 744.263 L
942.839 748.295 939.671 751.391 935.711 751.391 C
805.751 751.391 L
801.791 751.391 798.695 748.295 798.695 744.263 C
781.847 702.503 L
781.847 698.543 785.015 695.447 788.975 695.447 C
b
0.000 0.000 0.000 1.000 K
0 j
0 J
0.215 w
[]0 d
0.000 0.000 0.000 0.498 k
822.239 757.295 m
830.087 757.295 L
830.087 690.479 L
822.239 690.479 L
822.239 757.295 L
b
0.000 0.000 0.000 1.000 K
0 j
0 J
0.215 w
[]0 d
0.000 0.000 0.000 0.498 k
865.943 757.295 m
873.791 757.295 L
873.791 690.479 L
865.943 690.479 L
865.943 757.295 L
b
0.000 0.000 0.000 1.000 K
0 j
0 J
0.215 w
[]0 d
0.000 0.000 0.000 0.498 k
910.079 757.295 m
917.855 757.295 L
917.855 690.479 L
910.079 690.479 L
910.079 757.295 L
b
u
u
0.000 0.000 0.000 1.000 K
0 j
0 J
0.504 w
[]0 d
70.559 744.047 m
70.559 744.047 70.559 744.047 70.559 744.047 C
S
U
U
u
u
0.000 0.000 0.000 1.000 K
0 j
0 J
0.504 w
[]0 d
70.559 744.047 m
70.559 744.047 70.559 744.047 70.559 744.047 C
S
U
U
u
u
0.000 0.000 0.000 1.000 K
0 j
0 J
0.504 w
[]0 d
70.559 744.047 m
70.559 744.047 70.559 744.047 70.559 744.047 C
S
U
U
u
u
0.000 0.000 0.000 1.000 K
0 j
0 J
0.504 w
[]0 d
70.559 744.047 m
70.559 744.047 70.559 744.047 70.559 744.047 C
S
U
U
u
u
U
u
0.000 0.000 0.000 1.000 K
0 j
0 J
0.215 w
[]0 d
40.031 531.360 m
317.951 531.360 L
S
U
U
u
u
U
u
0.000 0.000 0.000 1.000 K
0 j
0 J
0.215 w
[]0 d
404.999 531.360 m
693.359 531.360 L
S
U
U
u
u
U
u
0.000 0.000 0.000 1.000 K
0 j
0 J
0.215 w
[]0 d
31.679 546.120 m
31.679 513.216 L
S
U
U
0.000 0.000 0.000 1.000 k
31.463 531.432 m
42.335 528.264 L
42.335 534.671 L
31.463 531.432 L
f
u
u
U
u
0.000 0.000 0.000 1.000 K
0 j
0 J
0.215 w
[]0 d
701.279 543.959 m
701.279 511.415 L
S
U
U
0.000 0.000 0.000 1.000 k
701.351 531.432 m
690.551 528.264 L
690.551 534.671 L
701.351 531.432 L
f
0.000 0.000 0.000 1.000 k
384.695 527.543 m
385.559 527.543 L
385.559 531.575 L
385.559 533.087 386.207 534.168 387.719 534.168 C
388.799 534.168 389.231 533.375 389.231 532.367 C
389.231 527.543 L
390.095 527.543 L
390.095 531.575 L
390.095 532.871 390.527 534.168 392.039 534.168 C
393.335 534.168 393.767 533.591 393.767 532.367 C
393.767 527.543 L
394.631 527.543 L
394.631 532.367 L
394.631 534.096 393.839 534.887 392.255 534.887 C
391.319 534.887 390.455 534.455 389.951 533.447 C
389.735 534.455 388.799 534.887 387.935 534.887 C
386.711 534.887 385.991 534.384 385.487 533.447 C
385.487 533.447 L
385.487 534.671 L
384.695 534.671 L
384.695 527.543 L
384.695 527.543 L
f
0.000 0.000 0.000 1.000 k
373.031 527.543 m
373.895 527.543 L
373.895 531.575 L
373.895 533.087 374.543 534.168 376.055 534.168 C
377.135 534.168 377.567 533.375 377.567 532.367 C
377.567 527.543 L
378.431 527.543 L
378.431 531.575 L
378.431 532.871 378.863 534.168 380.375 534.168 C
381.671 534.168 382.103 533.591 382.103 532.367 C
382.103 527.543 L
382.967 527.543 L
382.967 532.367 L
382.967 534.096 382.175 534.887 380.591 534.887 C
379.655 534.887 378.719 534.455 378.215 533.447 C
378.071 534.455 377.135 534.887 376.199 534.887 C
375.047 534.887 374.327 534.384 373.823 533.447 C
373.823 533.447 L
373.823 534.671 L
373.031 534.671 L
373.031 527.543 L
373.031 527.543 L
f
0.000 0.000 0.000 1.000 k
357.623 530.279 m
357.623 528.408 358.919 527.327 360.863 527.327 C
362.663 527.327 364.175 528.623 364.175 530.567 C
364.175 532.583 362.951 533.951 360.935 533.951 C
360.143 533.951 359.351 533.663 358.847 533.087 C
358.847 533.087 L
359.423 536.399 L
363.743 536.399 L
363.743 537.192 L
358.847 537.192 L
357.839 532.079 L
358.631 532.079 L
359.135 532.871 359.927 533.231 360.863 533.231 C
362.231 533.231 363.383 532.151 363.383 530.639 C
363.383 529.271 362.375 528.048 360.863 528.048 C
359.495 528.048 358.487 528.911 358.415 530.279 C
357.623 530.279 L
f
0.000 0.000 0.000 1.000 k
356.327 528.336 m
350.855 528.336 L
351.071 529.631 352.799 530.423 353.807 531.144 C
354.959 531.935 356.183 532.943 356.183 534.599 C
356.183 536.399 354.887 537.408 353.159 537.408 C
351.071 537.408 349.991 535.895 350.063 533.879 C
351.000 533.879 L
350.855 535.391 351.575 536.615 353.159 536.615 C
354.311 536.615 355.319 535.895 355.319 534.599 C
355.319 533.879 355.103 533.375 354.455 532.727 C
352.871 531.144 349.847 530.351 349.847 527.543 C
356.327 527.543 L
356.327 528.336 L
f
0.000 0.000 0.000 1.000 k
342.287 536.399 m
347.615 536.399 L
344.951 533.231 343.943 530.711 343.655 527.543 C
344.591 527.543 L
344.807 532.079 347.327 535.103 348.551 536.399 C
348.551 537.192 L
342.287 537.192 L
342.287 536.399 L
f
0.000 0.000 0.000 1.000 k
334.223 529.919 m
338.759 529.919 L
338.759 527.543 L
339.623 527.543 L
339.623 529.919 L
340.991 529.919 L
340.991 530.639 L
339.623 530.639 L
339.623 537.264 L
338.759 537.264 L
334.223 530.711 L
334.223 529.919 L
f
u
u
0.000 0.000 0.000 1.000 K
0 j
0 J
0.504 w
[]0 d
605.879 604.439 m
605.879 604.439 605.879 604.439 605.879 604.439 C
S
U
U
u
u
0.000 0.000 0.000 1.000 K
0 j
0 J
0.504 w
[]0 d
127.079 925.127 m
127.079 925.127 127.079 925.127 127.079 925.127 C
S
U
U
0.000 0.000 0.000 1.000 K
0 j
0 J
0.215 w
[]0 d
0.000 0.000 0.000 0.098 k
809.495 686.159 m
814.751 686.159 L
814.751 679.319 L
809.495 679.319 L
809.495 686.159 L
b
0.000 0.000 0.000 1.000 K
0 j
0 J
0.215 w
[]0 d
0.000 0.000 0.000 0.098 k
927.143 686.159 m
932.687 686.159 L
932.687 679.319 L
927.143 679.319 L
927.143 686.159 L
b
0.000 0.000 0.000 1.000 k
380.015 676.079 m
378.647 676.079 377.495 677.231 377.495 678.743 c
377.495 680.111 378.647 681.263 380.015 681.263 c
381.527 681.263 382.679 680.111 382.679 678.743 c
382.679 677.231 381.527 676.079 380.015 676.079 c
f
0.000 0.000 0.000 1.000 k
352.799 996.767 m
354.239 996.767 355.319 997.919 355.319 999.431 c
355.319 1000.799 354.239 1001.951 352.799 1001.951 c
351.287 1001.951 350.135 1000.799 350.135 999.431 c
350.135 997.919 351.287 996.767 352.799 996.767 c
f
u
u
0.000 0.000 0.000 1.000 K
0 j
0 J
0.215 w
[]0 d
331.775 1002.815 m
356.903 1002.815 L
S
U
U
0.000 0.000 0.000 1.000 K
0 j
0 J
0.215 w
[]0 d
0.000 0.000 0.000 0.098 k
83.447 693.287 m
90.575 693.287 L
88.559 687.455 L
85.247 687.455 L
83.447 693.287 L
b
0.000 0.000 0.000 1.000 K
0 j
0 J
0.215 w
[]0 d
0.000 0.000 0.000 0.098 k
649.583 1013.975 m
642.383 1013.975 L
644.399 1008.143 L
647.711 1008.143 L
649.583 1013.975 L
b
0.000 0.000 0.000 1.000 K
0 j
0 J
0.215 w
[]0 d
0.000 0.000 0.000 0.098 k
145.007 693.287 m
152.207 693.287 L
150.191 687.455 L
146.807 687.455 L
145.007 693.287 L
b
0.000 0.000 0.000 1.000 K
0 j
0 J
0.215 w
[]0 d
0.000 0.000 0.000 0.098 k
587.951 1013.975 m
580.823 1013.975 L
582.839 1008.143 L
586.151 1008.143 L
587.951 1013.975 L
b
0.000 0.000 0.000 1.000 K
0 j
0 J
0.215 w
[]0 d
0.000 0.000 0.000 0.098 k
205.631 693.287 m
212.759 693.287 L
210.743 687.455 L
207.431 687.455 L
205.631 693.287 L
b
0.000 0.000 0.000 1.000 K
0 j
0 J
0.215 w
[]0 d
0.000 0.000 0.000 0.098 k
527.327 1013.975 m
520.199 1013.975 L
522.216 1008.143 L
525.527 1008.143 L
527.327 1013.975 L
b
0.000 0.000 0.000 1.000 K
0 j
0 J
0.215 w
[]0 d
0.000 0.000 0.000 0.098 k
266.183 693.287 m
273.383 693.287 L
271.367 687.455 L
268.055 687.455 L
266.183 693.287 L
b
0.000 0.000 0.000 1.000 K
0 j
0 J
0.215 w
[]0 d
0.000 0.000 0.000 0.098 k
466.703 1013.975 m
459.575 1013.975 L
461.591 1008.143 L
464.903 1008.143 L
466.703 1013.975 L
b
0.000 0.000 0.000 1.000 K
0 j
0 J
0.215 w
[]0 d
0.000 0.000 0.000 0.098 k
325.799 693.287 m
332.927 693.287 L
330.911 687.455 L
327.599 687.455 L
325.799 693.287 L
b
0.000 0.000 0.000 1.000 K
0 j
0 J
0.215 w
[]0 d
0.000 0.000 0.000 0.098 k
407.159 1013.975 m
399.959 1013.975 L
401.975 1008.143 L
405.287 1008.143 L
407.159 1013.975 L
b
0.000 0.000 0.000 1.000 K
0 j
0 J
0.215 w
[]0 d
250.991 674.351 m
264.815 674.351 L
267.048 674.351 268.847 672.551 268.847 670.391 C
268.847 656.567 L
268.847 654.335 267.048 652.535 264.815 652.535 C
255.959 652.535 L
246.959 659.879 L
246.959 670.391 L
246.959 672.551 248.831 674.351 250.991 674.351 C
s
0.000 0.000 0.000 1.000 K
0 j
0 J
0.215 w
[]0 d
0.000 0.000 0.000 1.000 k
973.007 569.159 m
946.295 569.159 L
946.295 558.575 L
946.295 554.615 972.359 554.399 973.007 558.575 C
973.007 569.159 L
b
0.000 0.000 0.000 1.000 K
0 j
0 J
0.215 w
[]0 d
0.000 0.000 0.000 1.000 k
978.479 922.823 m
977.543 920.447 L
951.767 920.447 L
951.767 878.975 L
951.767 875.015 977.831 874.799 978.479 878.975 C
978.479 922.823 L
b
0.000 0.000 0.000 1.000 K
0 j
0 J
0.215 w
[]0 d
0.000 0.000 0.000 1.000 k
764.567 569.303 m
791.207 569.303 L
791.207 558.575 L
791.207 554.615 765.143 554.399 764.567 558.575 C
764.567 569.303 L
b
0.000 0.000 0.000 1.000 K
0 j
0 J
0.215 w
[]0 d
0.000 0.000 0.000 1.000 k
769.967 922.823 m
770.903 920.447 L
796.679 920.447 L
796.679 878.975 L
796.679 875.015 770.615 874.799 769.967 878.975 C
769.967 922.823 L
b
0.000 0.000 0.000 1.000 K
0 j
0 J
0.215 w
[]0 d
0.000 0.000 0.000 1.000 k
599.039 555.839 m
573.479 555.839 552.671 576.647 552.671 602.279 c
552.671 627.839 573.479 648.647 599.039 648.647 c
624.743 648.647 645.551 627.839 645.551 602.279 c
645.551 576.647 624.743 555.839 599.039 555.839 c
b
0.000 0.000 0.000 1.000 K
0 j
0 J
0.215 w
[]0 d
0.000 0.000 0.000 1.000 k
133.847 876.527 m
159.335 876.527 180.143 897.335 180.143 922.967 c
180.143 948.527 159.335 969.335 133.847 969.335 c
108.143 969.335 87.335 948.527 87.335 922.967 c
87.335 897.335 108.143 876.527 133.847 876.527 c
b
0.000 0.000 0.000 1.000 K
0 j
0 J
0.215 w
[]0 d
0.000 0.000 0.000 1.000 k
194.255 555.839 m
168.768 555.839 147.887 576.647 147.887 602.279 c
147.887 627.839 168.768 648.647 194.255 648.647 c
219.959 648.647 240.767 627.839 240.767 602.279 c
240.767 576.647 219.959 555.839 194.255 555.839 c
b
0.000 0.000 0.000 1.000 K
0 j
0 J
0.215 w
[]0 d
0.000 0.000 0.000 1.000 k
538.703 876.527 m
564.264 876.527 585.072 897.335 585.072 922.967 c
585.072 948.527 564.264 969.335 538.703 969.335 c
513.072 969.335 492.191 948.527 492.191 922.967 c
492.191 897.335 513.072 876.527 538.703 876.527 c
b
0.000 0.000 0.000 0.000 k
599.183 624.311 m
587.015 624.311 577.007 614.375 577.007 602.207 C
577.007 590.039 587.015 580.103 599.183 580.103 C
611.351 580.103 621.287 590.039 621.287 602.207 C
621.287 614.375 611.351 624.311 599.183 624.311 C
f
0.000 0.000 0.000 0.000 k
133.919 944.927 m
146.015 944.927 156.024 934.919 156.024 922.823 C
156.024 910.583 146.015 900.719 133.919 900.719 C
121.679 900.719 111.815 910.583 111.815 922.823 C
111.815 934.919 121.679 944.927 133.919 944.927 C
f
0.000 0.000 0.000 1.000 K
0 j
0 J
0.215 w
[]0 d
599.183 582.479 m
610.127 582.479 618.911 591.264 618.911 602.207 C
618.911 613.079 610.127 621.863 599.183 621.863 C
588.240 621.863 579.527 613.079 579.527 602.207 C
579.527 591.264 588.240 582.479 599.183 582.479 C
s
0.000 0.000 0.000 1.000 K
0 j
0 J
0.215 w
[]0 d
133.919 903.095 m
122.975 903.095 114.191 911.807 114.191 922.823 C
114.191 933.695 122.975 942.479 133.919 942.479 C
144.792 942.479 153.575 933.695 153.575 922.823 C
153.575 911.807 144.792 903.095 133.919 903.095 C
s
0.000 0.000 0.000 1.000 K
0 j
0 J
0.215 w
[]0 d
599.183 597.815 m
601.631 597.815 603.575 599.759 603.575 602.207 C
603.575 604.583 601.631 606.527 599.183 606.527 C
596.735 606.527 594.791 604.583 594.791 602.207 C
594.791 599.759 596.735 597.815 599.183 597.815 C
s
0.000 0.000 0.000 1.000 K
0 j
0 J
0.215 w
[]0 d
133.919 918.359 m
131.471 918.359 129.527 920.303 129.527 922.823 C
129.527 925.199 131.471 927.143 133.919 927.143 C
136.295 927.143 138.239 925.199 138.239 922.823 C
138.239 920.303 136.295 918.359 133.919 918.359 C
s
0.000 0.000 0.000 1.000 K
0 j
0 J
0.215 w
[]0 d
599.039 592.415 m
593.639 592.415 589.247 596.807 589.247 602.207 C
589.247 607.535 593.639 611.927 599.039 611.927 C
604.367 611.927 608.831 607.535 608.831 602.207 C
608.831 596.807 604.367 592.415 599.039 592.415 C
s
0.000 0.000 0.000 1.000 K
0 j
0 J
0.215 w
[]0 d
133.991 912.959 m
139.391 912.959 143.855 917.423 143.855 922.823 C
143.855 928.151 139.391 932.543 133.991 932.543 C
128.663 932.543 124.271 928.151 124.271 922.823 C
124.271 917.423 128.663 912.959 133.991 912.959 C
s
0.000 0.000 0.000 1.000 k
591.839 619.271 m
595.367 616.679 L
591.983 616.103 588.527 613.079 588.024 612.072 C
584.135 613.295 L
586.079 616.319 589.247 618.623 591.839 619.271 C
f
0.000 0.000 0.000 1.000 k
141.263 939.887 m
137.735 937.223 L
141.119 936.719 144.503 933.695 145.079 932.615 C
148.967 933.839 L
147.024 936.863 143.855 939.167 141.263 939.887 C
f
0.000 0.000 0.000 1.000 k
583.127 611.711 m
587.591 611.567 L
585.144 609.335 584.207 604.799 584.351 603.575 C
580.463 602.207 L
580.319 605.879 581.471 609.623 583.127 611.711 C
f
0.000 0.000 0.000 1.000 k
149.903 932.255 m
145.512 932.183 L
147.887 929.879 148.895 925.343 148.679 924.119 C
152.567 922.823 L
152.783 926.423 151.631 930.239 149.903 932.255 C
f
0.000 0.000 0.000 1.000 k
580.679 600.335 m
584.279 602.927 L
583.775 599.687 585.503 595.439 586.439 594.575 C
583.991 591.264 L
581.687 594.000 580.463 597.887 580.679 600.335 C
f
0.000 0.000 0.000 1.000 k
152.423 920.951 m
148.751 923.543 L
149.327 920.231 147.527 915.983 146.663 915.191 C
149.039 911.807 L
151.343 914.615 152.567 918.503 152.423 920.951 C
f
0.000 0.000 0.000 1.000 k
585.144 589.823 m
586.655 594.072 L
588.096 591.048 592.055 588.671 593.279 588.383 C
593.279 584.351 L
589.895 585.216 586.583 587.591 585.144 589.823 C
f
0.000 0.000 0.000 1.000 k
147.887 910.439 m
146.375 914.687 L
145.007 911.663 140.975 909.287 139.751 908.999 C
139.751 904.967 L
143.207 905.831 146.519 908.207 147.887 910.439 C
f
0.000 0.000 0.000 1.000 k
595.151 583.919 m
593.855 588.168 L
596.735 586.727 601.343 587.087 602.495 587.591 C
604.871 584.279 L
601.631 582.983 597.527 582.983 595.151 583.919 C
f
0.000 0.000 0.000 1.000 k
137.879 904.463 m
139.247 908.711 L
136.295 907.343 131.687 907.703 130.536 908.207 C
128.159 904.823 L
131.471 903.599 135.503 903.599 137.879 904.463 C
f
0.000 0.000 0.000 1.000 k
606.599 585.072 m
603.072 587.735 L
606.383 588.240 609.839 591.192 610.415 592.343 C
614.303 591.048 L
612.431 588.096 609.120 585.647 606.599 585.072 C
f
0.000 0.000 0.000 1.000 k
126.503 905.615 m
130.031 908.279 L
126.647 908.855 123.191 911.735 122.687 912.887 C
118.799 911.663 L
120.671 908.639 123.911 906.263 126.503 905.615 C
f
0.000 0.000 0.000 1.000 k
615.240 592.631 m
610.847 592.775 L
613.223 595.079 614.231 599.543 614.015 600.839 C
617.903 602.135 L
618.192 598.535 616.967 594.719 615.240 592.631 C
f
0.000 0.000 0.000 1.000 k
117.791 913.247 m
122.255 913.319 L
119.879 915.623 118.871 920.159 119.087 921.383 C
115.127 922.751 L
114.911 919.079 116.135 915.263 117.791 913.247 C
f
0.000 0.000 0.000 1.000 k
617.759 604.007 m
614.087 601.415 L
614.663 604.727 612.935 608.975 612.000 609.767 C
614.375 613.223 L
616.751 610.343 617.903 606.455 617.759 604.007 C
f
0.000 0.000 0.000 1.000 k
115.343 924.551 m
118.943 922.031 L
118.439 925.271 120.095 929.519 121.103 930.311 C
118.727 933.767 L
116.279 930.959 115.127 927.071 115.343 924.551 C
f
0.000 0.000 0.000 1.000 k
613.223 614.519 m
611.711 610.343 L
610.199 613.295 606.311 615.743 605.087 615.959 C
605.087 619.991 L
608.543 619.127 611.783 616.751 613.223 614.519 C
f
0.000 0.000 0.000 1.000 k
119.879 935.135 m
121.319 930.959 L
122.831 933.839 126.719 936.359 128.015 936.503 C
128.015 940.607 L
124.559 939.743 121.247 937.295 119.879 935.135 C
f
0.000 0.000 0.000 1.000 k
603.216 620.423 m
600.839 621.359 596.735 621.359 593.495 620.063 C
595.871 616.823 L
596.951 617.255 601.631 617.615 604.583 616.175 C
603.216 620.423 L
f
0.000 0.000 0.000 1.000 k
129.816 941.039 m
132.263 941.903 136.295 941.903 139.607 940.679 C
137.159 937.439 L
136.151 937.871 131.471 938.231 128.519 936.791 C
129.816 941.039 L
f
0.000 0.000 0.000 0.000 k
194.255 624.311 m
182.159 624.311 172.151 614.375 172.151 602.207 C
172.151 590.039 182.159 580.103 194.255 580.103 C
206.495 580.103 216.431 590.039 216.431 602.207 C
216.431 614.375 206.495 624.311 194.255 624.311 C
f
0.000 0.000 0.000 0.000 k
538.703 944.927 m
550.799 944.927 560.807 934.919 560.807 922.823 C
560.807 910.583 550.799 900.719 538.703 900.719 C
526.463 900.719 516.599 910.583 516.599 922.823 C
516.599 934.919 526.463 944.927 538.703 944.927 C
f
0.000 0.000 0.000 1.000 K
0 j
0 J
0.215 w
[]0 d
194.255 582.479 m
205.271 582.479 213.983 591.264 213.983 602.207 C
213.983 613.079 205.271 621.863 194.255 621.863 C
183.383 621.863 174.599 613.079 174.599 602.207 C
174.599 591.264 183.383 582.479 194.255 582.479 C
s
0.000 0.000 0.000 1.000 K
0 j
0 J
0.215 w
[]0 d
538.703 903.095 m
527.687 903.095 518.975 911.807 518.975 922.823 C
518.975 933.695 527.687 942.479 538.703 942.479 C
549.575 942.479 558.360 933.695 558.360 922.823 C
558.360 911.807 549.575 903.095 538.703 903.095 C
s
0.000 0.000 0.000 1.000 K
0 j
0 J
0.215 w
[]0 d
194.255 597.815 m
196.775 597.815 198.719 599.759 198.719 602.207 C
198.719 604.583 196.775 606.527 194.255 606.527 C
191.879 606.527 189.935 604.583 189.935 602.207 C
189.935 599.759 191.879 597.815 194.255 597.815 C
s
0.000 0.000 0.000 1.000 K
0 j
0 J
0.215 w
[]0 d
538.703 918.359 m
536.183 918.359 534.240 920.303 534.240 922.823 C
534.240 925.199 536.183 927.143 538.703 927.143 C
541.079 927.143 543.024 925.199 543.024 922.823 C
543.024 920.303 541.079 918.359 538.703 918.359 C
s
0.000 0.000 0.000 1.000 K
0 j
0 J
0.215 w
[]0 d
194.183 592.415 m
188.783 592.415 184.391 596.807 184.391 602.207 C
184.391 607.535 188.783 611.927 194.183 611.927 C
199.511 611.927 203.903 607.535 203.903 602.207 C
203.903 596.807 199.511 592.415 194.183 592.415 C
s
0.000 0.000 0.000 1.000 K
0 j
0 J
0.215 w
[]0 d
538.775 912.959 m
544.175 912.959 548.639 917.423 548.639 922.823 C
548.639 928.151 544.175 932.543 538.775 932.543 C
533.447 932.543 529.055 928.151 529.055 922.823 C
529.055 917.423 533.447 912.959 538.775 912.959 C
s
0.000 0.000 0.000 1.000 k
186.911 619.271 m
190.439 616.679 L
187.127 616.103 183.671 613.079 183.095 612.072 C
179.207 613.295 L
181.151 616.319 184.391 618.623 186.911 619.271 C
f
0.000 0.000 0.000 1.000 k
546.048 939.887 m
542.519 937.223 L
545.831 936.719 549.288 933.695 549.863 932.615 C
553.751 933.839 L
551.807 936.863 548.639 939.167 546.048 939.887 C
f
0.000 0.000 0.000 1.000 k
178.271 611.711 m
182.663 611.567 L
180.287 609.335 179.351 604.799 179.495 603.575 C
175.607 602.207 L
175.463 605.879 176.615 609.623 178.271 611.711 C
f
0.000 0.000 0.000 1.000 k
554.687 932.255 m
550.295 932.183 L
552.671 929.879 553.679 925.343 553.463 924.119 C
557.351 922.823 L
557.567 926.423 556.415 930.239 554.687 932.255 C
f
0.000 0.000 0.000 1.000 k
175.751 600.335 m
179.423 602.927 L
178.847 599.687 180.647 595.439 181.512 594.575 C
179.135 591.264 L
176.831 594.000 175.607 597.887 175.751 600.335 C
f
0.000 0.000 0.000 1.000 k
557.207 920.951 m
553.535 923.543 L
554.111 920.231 552.312 915.983 551.447 915.191 C
553.823 911.807 L
556.127 914.615 557.351 918.503 557.207 920.951 C
f
0.000 0.000 0.000 1.000 k
180.287 589.823 m
181.799 594.072 L
183.239 591.048 187.199 588.671 188.423 588.383 C
188.423 584.351 L
184.967 585.216 181.727 587.591 180.287 589.823 C
f
0.000 0.000 0.000 1.000 k
552.671 910.439 m
551.159 914.687 L
549.719 911.663 545.759 909.287 544.535 908.999 C
544.535 904.967 L
547.991 905.831 551.231 908.207 552.671 910.439 C
f
0.000 0.000 0.000 1.000 k
190.295 583.919 m
188.999 588.168 L
191.879 586.727 196.487 587.087 197.639 587.591 C
200.015 584.279 L
196.775 582.983 192.671 582.983 190.295 583.919 C
f
0.000 0.000 0.000 1.000 k
542.663 904.463 m
544.031 908.711 L
541.079 907.343 536.471 907.703 535.319 908.207 C
532.943 904.823 L
536.183 903.599 540.288 903.599 542.663 904.463 C
f
0.000 0.000 0.000 1.000 k
201.743 585.072 m
198.143 587.735 L
201.527 588.240 204.983 591.192 205.487 592.343 C
209.447 591.048 L
207.575 588.096 204.263 585.647 201.743 585.072 C
f
0.000 0.000 0.000 1.000 k
531.288 905.615 m
534.815 908.279 L
531.432 908.855 527.975 911.735 527.471 912.887 C
523.583 911.663 L
525.384 908.639 528.695 906.263 531.288 905.615 C
f
0.000 0.000 0.000 1.000 k
210.383 592.631 m
205.991 592.775 L
208.367 595.079 209.303 599.543 209.159 600.839 C
213.047 602.135 L
213.335 598.535 212.039 594.719 210.383 592.631 C
f
0.000 0.000 0.000 1.000 k
522.575 913.247 m
527.039 913.319 L
524.591 915.623 523.655 920.159 523.799 921.383 C
519.911 922.751 L
519.695 919.079 520.919 915.263 522.575 913.247 C
f
0.000 0.000 0.000 1.000 k
212.831 604.007 m
209.231 601.415 L
209.735 604.727 208.079 608.975 207.143 609.767 C
209.519 613.223 L
211.895 610.343 213.047 606.455 212.831 604.007 C
f
0.000 0.000 0.000 1.000 k
520.127 924.551 m
523.727 922.031 L
523.223 925.271 524.879 929.519 525.887 930.311 C
523.439 933.767 L
521.063 930.959 519.911 927.071 520.127 924.551 C
f
0.000 0.000 0.000 1.000 k
208.367 614.519 m
206.855 610.343 L
205.343 613.295 201.455 615.743 200.231 615.959 C
200.231 619.991 L
203.687 619.127 206.927 616.751 208.367 614.519 C
f
0.000 0.000 0.000 1.000 k
524.591 935.135 m
526.103 930.959 L
527.615 933.839 531.503 936.359 532.799 936.503 C
532.799 940.607 L
529.343 939.743 526.031 937.295 524.591 935.135 C
f
0.000 0.000 0.000 1.000 k
198.359 620.423 m
195.983 621.359 191.879 621.359 188.639 620.063 C
191.015 616.823 L
192.095 617.255 196.775 617.615 199.655 616.175 C
198.359 620.423 L
f
0.000 0.000 0.000 1.000 k
534.599 941.039 m
537.048 941.903 541.079 941.903 544.391 940.679 C
541.943 937.439 L
540.935 937.871 536.183 938.231 533.303 936.791 C
534.599 941.039 L
f
0.000 0.000 0.000 0.000 k
335.087 530.639 m
338.687 535.967 L
338.759 535.967 L
338.759 530.639 L
335.087 530.639 L
f
0.000 0.000 0.000 0.000 k
916.415 649.151 m
913.031 649.151 L
914.759 654.767 L
916.415 649.151 L
f
0.000 0.000 0.000 0.000 k
883.295 656.135 m
885.599 656.135 886.319 653.831 886.319 651.815 C
886.319 649.151 885.599 647.279 883.295 647.279 C
880.847 647.279 880.271 649.799 880.271 651.815 C
880.271 653.759 880.991 656.135 883.295 656.135 C
f
0.000 0.000 0.000 0.000 k
848.375 656.135 m
850.679 656.135 851.543 653.831 851.543 651.815 C
851.543 649.151 850.679 647.279 848.519 647.279 C
845.999 647.279 845.495 649.799 845.495 651.815 C
845.495 653.759 846.143 656.135 848.375 656.135 C
f
u
u
0.000 0.000 0.000 0.498 K
0 j
0 J
0.215 w
[]0 d
401.111 682.127 m
375.911 682.127 L
S
U
U
%%Trailer
_E end