%!PS-Adobe-2.0 EPSF-1.2
%%Creator: Adobe Illustrator exported from Corel Draw 3.0
%%Title:6
%%BoundingBox:-38 158 941 730
%%CreationDate:(Unknown)
%%ColorUsage:
%%TemplateBox:-38 158 941 730
%%EndComments
%%BeginProcSet:Adobe_Illustrator_1.1 0 0
% Version 1.0 3/27/1990 $nokeywords$
% Copyright (C) 1990,1991,1992
% Corel Corporation
% All Rights Reserved

/wPmsDict 150 dict def 
wPmsDict begin 

/$debug 25 string def 

/bd {bind def} bind def 
/ld {load def} bd 
/xd {exch def} bd 
/_ null def 

/$c 0 def 
/$m 0 def 
/$y 0 def 
/$k 0 def 
/$t 1 def 
/$n _ def 
/$o 0 def 
/$pf false def 

/$C 0 def 
/$M 0 def 
/$Y 0 def 
/$K 0 def 
/$T 1 def 
/$N _ def 
/$O 0 def 
/$PF false def 

/$h false def 

/$al 0 def 
/$tr 0 def 
/$le 0 def 
/$lx 0 def 
/$ly 0 def 

/$ctm matrix currentmatrix def 
/$ptm matrix def 

/$pn () def 
/$pm matrix def 
/$px 0 def 
/$py 0 def 
/$pxf 0 def 
/$pyf 0 def 
/$psx 10 def 
/$psy 0 def 

/$llx 0 def 
/$lly 0 def 
/$urx 0 def 
/$ury 0 def 


/$Bbllx 0 def 
/$Bblly 0 def 
/$Bburx 0 def 
/$Bbury 0 def 

/$tllx 0 def 
/$tlly 0 def 
/$turx 0 def 
/$tury 0 def 

/$pd [] def 
/$tx 0 def 
/$ty 0 def 

/$sv 0 def 
/@cp /closepath ld 
/@gs /gsave ld 
/@gr /grestore ld 
/@np /newpath ld 
/@sv {/$sv save def}bd 
/@rs {$sv restore}bd 

/@MN { 
2 copy le{pop}{exch pop}ifelse 
}bd 

/setcmykcolor where {pop} 
{ 
/setcmykcolor 
{ 
4 1 roll 
3 {3 index add 1 @MN 1 exch sub 3 1 roll} repeat 
setrgbcolor 
pop 
}bd 
}ifelse 

/@tc 
{ 
dup 1 ge 
{pop} 
{ 
4 { 
dup 
6 -1 roll 
mul 
exch 
}repeat 
pop 
}ifelse 
}bd 

/@scc 
{ 
$c $m $y $k $t @tc 
setcmykcolor 
true 
}bd 
/@SCC 
{ 
$C $M $Y $K $T @tc 
setcmykcolor 
true 
}bd 

/@sft 
{ 
(setfirsttile sft )print 
/$tx $tllx $pxf add dup $tllx gt {$pwid $psx add sub}if def 
/$ty $tury $pyf sub dup $tury lt {$phei $psy add add}if def 
(setfirsttile exit )print 
}bd 

/@stb 
{ 
pathbbox /$ury xd /$urx xd /$lly xd /$llx xd 
}bd 

/@ep 
{ 
{ 
cvx exec 
}forall 
}bd 

/@tp 
{ 

(tile pattern tp )print 
@sv 
/$in true def 
2 copy 
dup $lly le {/$in false def}if 
$phei sub $ury ge {/$in false def}if 
dup $urx ge {/$in false def}if 
$pwid add $llx le {/$in false def}if 
$in 
{ 
@np 
2 copy moveto 
$pwid 0 rlineto 
0 $phei neg rlineto 
$pwid neg 0 rlineto 
0 $phei rlineto 
clip @np 

$pn cvlit load aload pop 
7 -1 roll 
5 index sub 
7 -1 roll 
3 index sub 
translate 
@ep 
pop pop pop pop 
} 
{pop pop}ifelse 
@rs 
(tile pattern exit )print 
}bd 

/@th 
{ 
(tile horizontal th)print 
@sft 
0 1 $tly 1 sub 
{ 
dup $psx mul $tx add 
{ 
dup $llx gt {$pwid sub}{exit}ifelse 
}loop 
exch $phei mul $ty exch sub 

0 1 $tlx 1 sub 
{ 
$pwid mul 
3 copy 
3 -1 roll add exch 
@tp 
pop 
}for 
pop pop 
} for 
(tile horizontal exiting )print 
}bd 

/@tv 
{ 
(tile vertical tv)print 
@sft 
0 1 $tlx 1 sub 
{ 
dup $pwid mul $tx add 
exch $psy mul $ty exch sub 
{ 
dup $ury lt {$phei add}{exit}ifelse 
}loop 

0 1 $tly 1 sub 
{ 
$phei mul 
3 copy sub 
@tp 
pop 
}for 
pop pop 
} for 
(tile vertical exit )print 
}bd 

/@pf 
{ 
(pattern fill pf)print 
@gs 
$pm concat 
@stb 
@gs 1 setgray eofill @gr 
eoclip 
$Bburx $Bbury $pm itransform /$tury xd /$turx xd 
$Bbllx $Bblly $pm itransform /$tlly xd /$tllx xd 
/$wid $turx $tllx sub def 
/$hei $tury $tlly sub def 
$wid 0 gt $hei 0 gt and 
{ 
$pn cvlit load aload pop 
$pd xd 
3 -1 roll sub /$phei xd 
exch sub /$pwid xd 
/$tlx $wid $pwid div ceiling 1 add def 
/$tly $hei $phei div ceiling 1 add def 
$psx 0 eq 
{ 
@tv 
} 
{ 
@th 
}ifelse 
}if 

@gr 
@np 
(pattern fill exit)print 
}bd 

/@xp 
{ 
{ 
dup (text Character is:) print == 
usertime (time before is:)print == 
(0) dup 3 -1 roll 0 exch put 
@gs 
true charpath currentpoint 
$ctm setmatrix 
@pf 
@gr 
@np 
moveto $tr 0 rmoveto 
usertime (time after is:)print == 
}forall 
pop 
}bd 

/@sm 
{ 
/$ctm $ctm currentmatrix def 
}bd 

%--@lorg  move to line origin   length string @torg length string
/@lorg    % moves currentpoint to line origin according to current alignment
  {      
  $lx $ly moveto    
  /$ly $ly $le sub def      % - prepare for next line(tracking)
  $al 0 ne
    {dup      % ->len str len str
    stringwidth   % ->len str len dx dy
    exch 3 index  % ->len str dy len dx
    1 sub         % ->len str dy len dx (len-1)
    $tr mul add   % ->len str dy len dx+(len-1)*$tr
    neg
    exch neg      % ->len str -dx_total dy len
    $al 1 eq      % check for centered alignment
    {2 div exch 2 div exch} if  
    rmoveto} if
  }bd

/@ft 
{ 
$pf 
{@xp} 
{ 
@scc 
{$tr exch 0 exch ashow pop} 
{pop pop}ifelse 
}ifelse 
}bd 

/@st 
{ 
$PF 
{} 
{ 
@SCC 
{ 
{ 
(0) dup 3 -1 roll 0 exch put 
@gs 
true charpath currentpoint 
$ctm setmatrix $ptm concat 
stroke 
@gr 
moveto $tr 0 rmoveto 
}forall 
pop 
} 
{pop pop}ifelse 
}ifelse 
}bd 
/@pt 
{ 
dup length exch 
}bd 
/@te 
{ 
@pt 
@lorg 
@ft 
}bd 

/@tr 
{ 
@pt 
@lorg 
@st 
}bd 
/@ta 
{ 
@pt 
@lorg 
2 copy 
@gs @ft @gr 
/$lx 0 def 
/$ly 0 def 
@st 
}bd 















/g { 
1 exch sub /$k xd 
/$c 0 def /$m 0 def /$y 0 def /$t 1 def /$n _ def /$pf false def 
}bd 

/G { 
1 exch sub /$K xd 
/$C 0 def /$M 0 def /$Y 0 def /$T 1 def /$N _ def /$PF false def 
}bd 

/k { 
/$k xd /$y xd /$m xd /$c xd 
/$t 1 def /$n _ def /$pf false def 
}bd 

/K { 
/$K xd /$Y xd /$M xd /$C xd 
/$T 1 def /$N _ def /$PF false def 
}bd 

/x { 
/$t xd /$n xd 
/$k xd /$y xd /$m xd /$c xd /$pf false def 
}bd 

/X { 
/$T xd /$N xd 
/$K xd /$Y xd /$M xd /$C xd /$PF false def 
}bd 

/d /setdash ld 

/i { 
dup 0 ne {setflat} {pop} ifelse 
}bd 

/j /setlinejoin ld 

/J /setlinecap ld 

/M /setmiterlimit ld 

/w /setlinewidth ld 

/O { 
/$o xd 
}bd 

/R { 
/$O xd 
}bd 


/c /curveto ld 

/C /c ld 

/v { 
currentpoint
6 2 roll 
curveto 
}bd

/V /v ld 

/y { 
2 copy curveto 
}bd 

/Y /y ld 

/l /lineto ld 

/L /l ld 

/m /moveto ld 



/n /newpath ld 

/N /newpath ld 

/F { 
$pf 
{@pf} 
{ 
@scc 
{eofill}if 
}ifelse 
}bd 

/f { 
@cp F 
}bd 
/S { 
$PF 
{} 
{ 
@SCC 
{ 
@sm 
$ptm concat 
stroke 
$ctm setmatrix 
}if 
}ifelse 
}bd 
/s { 
@cp 
S 
}bd 

/B { 
@gs F @gr 
S 
}bd 
/b { 
@cp 
B 
}bd 

/W { 
oeclip 
@np 
}bd 

/p { 
/$pm xd 
7 {pop} repeat 
/$pyf xd /$pxf xd 
/$pn xd 
/$pf true def 
}bd 

/P { 
11 {pop} repeat 
}bd 

/@p { 
/$pm xd 
/$psy xd 
/$psx xd 
/$pyf xd /$pxf xd 
/$pn xd 
/$pf true def 
}bd 

/@b { 
/$Bbury xd /$Bburx xd 
/$Bblly xd /$Bbllx xd 
}bd 


/z { 
/$al xd 
/$tr xd 
/$le xd 
exch findfont exch scalefont setfont 
}bd 

/Z { 
dup type 0 type eq { /$bDir xd } if
findfont 
dup maxlength 1 add dict exch 



dup 
{1 index /FID ne 
{ 
3 index 
3 1 roll put 
} 
{pop pop}ifelse 
} forall 



pop 
dup dup /Encoding get 
256 array copy 
dup /$fe xd
/Encoding exch put 

dup /Fontname 3 index put 

}bd 

/e { 
@sm 
concat 
[ 
/t {@te}def 
}bd 

/r { 
@sm 
concat 
[ 
/t {@tr}def 
}bd 

/o { 
@sm 
concat 
[ 
/t {pop}def 
}bd 

/a { 
@sm 
concat 
[ 
/t {@ta}def 
}bd 

/@o{
@sm 
concat 
[ 
/t {@t@a}def 
}bd 

/I { 
@sm 
concat 
[ 
/t {pop}def 
}bd 

/t {@te}def 

/T { 
cleartomark 
/$lx 0 def 
/$ly 0 def 
$ctm setmatrix 
}bd 


/u {}bd 

/U {}bd 

/A {pop}bd 

/h { 
$h true def 
}bd 

/h { 
$h true def 
}bd 

/q /@gs ld 

/Q /@gr ld 



/E { 
5 array astore 
exch cvlit exch def 
}bd 

/` {}bd 

/~ {}bd 

/@ {}bd 

/& {}bd 

/CorelDrawRencodeVect [ 
16#80/grave 
16#81/circumflex 
16#82/tilde 
16#83/dotlessi 
16#84/florin 
16#85/quotedblleft 
16#86/quotedblright 
16#87/guilsinglleft 
16#88/guilsinglright 
16#89/fi 
16#8a/fl 
16#8b/dagger 
16#8c/daggerdbl 
16#8d/endash 
16#8e/periodcentered 
16#8f/breve 
16#90/quotedblbase 
16#91/ellipsis 
16#92/perthousand 
16#a1/exclamdown 
16#a2/cent 
16#a3/sterling 
16#a4/currency 
16#a5/yen 
16#a6/bar 
16#a7/section 
16#a8/dieresis 
16#a9/copyright 
16#aa/ordfeminine 
16#ab/guillemotleft 
16#ac/logicalnot 
16#ad/emdash 
16#ae/registered 
16#af/spac 
16#b0/ring 
16#b1/spac 
16#b2/spac 
16#b3/spac 
16#b4/acute 
16#b5/spac 
16#b6/paragraph 
16#b7/bullet 
16#b8/cedilla 
16#b9/spac 
16#ba/ordmasculine 
16#bb/guillemotright 
16#bc/spac 
16#bd/spac 
16#be/spac 
16#bf/questiondown 
16#c0/Agrave 
16#c1/Aacute 
16#c2/Acircumflex 
16#c3/Atilde 
16#c4/Adieresis 
16#c5/Aring 
16#c6/AE 
16#c7/Ccedilla 
16#c8/Egrave 
16#c9/Eacute 
16#ca/Ecircumflex 
16#cb/Edieresis 
16#cc/Igrave 
16#cd/Iacute 
16#ce/Icircumflex 
16#cf/Idieresis 
16#d0/spac 
16#d1/Ntilde 
16#d2/Ograve 
16#d3/Oacute 
16#d4/Ocircumflex 
16#d5/Otilde 
16#d6/Odieresis 
16#d7/OE 
16#d8/Oslash 
16#d9/Ugrave 
16#da/Uacute 
16#db/Ucircumflex 
16#dc/Udieresis 
16#dd/space 
16#de/spac 
16#df/germandbls 
16#e0/agrave 
16#e1/aacute 
16#e2/acircumflex 
16#e3/atilde 
16#e4/adieresis 
16#e5/aring 
16#e6/ae 
16#e7/ccedilla 
16#e8/egrave 
16#e9/eacute 
16#ea/ecircumflex 
16#eb/edieresis 
16#ec/igrave 
16#ed/iacute 
16#ee/icircumflex 
16#ef/idieresis 
16#f0/space 
16#f1/ntilde 
16#f2/ograve 
16#f3/oacute 
16#f4/ocircumflex 
16#f5/otilde 
16#f6/odieresis 
16#f7/oe 
16#f8/oslash 
16#f9/ugrave 
16#fa/uacute 
16#fb/ucircumflex 
16#fc/udieresis 
16#fd/spac 
16#fe/spac 
16#ff/ydieresis 
] def
%%EndProlog
%%BeginSetup
%%BeginEncoding:_Times-Bold Times-Bold
[
]/_Times-Bold/Times-Bold Z
%%EndEncoding
%%EndSetup
0.000 0.000 0.000 1.000 K
0 j
0 J
0.863 w
[]0 d
0.000 0.000 0.000 0.498 k
921.167 334.943 m
914.471 361.223 904.103 395.423 890.207 415.727 C
886.679 419.255 881.999 420.839 876.455 420.839 C
854.567 421.559 832.679 421.991 812.159 421.991 C
791.639 421.991 769.751 421.559 747.791 420.839 C
742.319 420.839 737.567 419.255 734.039 415.727 C
720.215 395.423 709.847 361.223 703.079 334.943 C
921.167 334.943 L
b
0.000 0.000 0.000 1.000 K
0 j
0 J
0.863 w
[]0 d
0.000 0.000 0.000 0.000 k
931.895 285.407 m
933.767 295.919 932.687 310.536 930.167 321.263 C
926.999 325.439 922.319 329.687 921.167 334.943 C
703.079 334.943 L
702.000 329.687 697.247 325.439 694.151 321.263 C
691.559 310.536 690.335 295.847 692.351 285.407 c
694.511 274.391 693.072 253.799 704.303 253.799 c
921.095 253.799 l
932.255 253.799 929.951 274.536 931.895 285.407 c
b
0.000 0.000 0.000 1.000 K
0 j
0 J
0.287 w
[]0 d
0.000 0.000 0.000 0.498 k
692.927 282.096 m
694.367 270.719 694.151 253.799 704.303 253.799 c
921.095 253.799 l
931.175 253.799 930.239 270.863 931.463 282.096 C
692.927 282.096 L
b
0.000 0.000 0.000 1.000 K
0 j
0 J
0.863 w
[]0 d
0.000 0.000 0.000 0.000 k
-20.951 546.695 m
-4.391 547.559 L
-3.527 565.919 2.520 584.639 12.815 598.247 C
29.807 617.903 61.127 620.639 84.167 608.111 C
103.535 597.455 113.183 580.607 117.287 557.279 C
397.943 557.351 L
399.887 574.055 407.807 588.527 421.199 600.264 C
442.439 614.591 467.207 614.159 488.879 605.015 C
506.879 595.871 512.567 587.663 515.663 571.031 C
538.703 569.807 551.303 570.815 571.247 574.055 C
571.391 601.847 L
587.807 601.919 L
587.951 635.615 L
587.951 636.551 589.967 642.311 586.583 647.567 c
574.775 665.423 534.887 707.327 509.759 724.679 c
502.343 729.719 492.551 729.503 491.183 729.503 C
308.951 730.367 L
229.391 730.367 L
221.183 730.511 216.935 729.359 211.607 725.255 C
186.623 703.367 164.015 684.575 139.463 662.111 C
131.183 663.191 L
87.839 659.303 10.367 646.487 -18.791 640.439 C
-24.911 638.927 -32.687 625.463 -30.959 613.223 C
-29.159 601.919 -27.071 591.120 -37.439 590.183 C
-38.303 576.791 -39.239 561.455 -33.119 550.583 C
-30.959 547.127 -27.071 546.264 -20.951 546.695 C
b
0.000 0.000 0.000 1.000 K
0 j
0 J
0.863 w
[]0 d
0.000 0.000 0.000 0.000 k
604.151 239.039 m
587.591 239.903 L
586.727 258.263 580.679 276.983 570.383 290.663 C
553.391 310.319 522.072 313.055 499.031 300.455 C
479.591 289.871 470.015 272.951 465.911 249.623 C
185.183 249.695 L
183.311 266.399 175.391 280.871 162.000 292.608 C
140.687 307.007 115.991 306.575 94.247 297.431 C
76.319 288.215 70.631 280.007 67.536 263.375 C
44.495 262.151 31.895 263.159 11.951 266.399 C
11.807 294.263 L
-4.607 294.335 L
-4.751 327.959 L
-4.751 328.967 -6.767 334.655 -3.383 339.911 c
8.423 357.839 48.311 399.743 73.439 417.095 c
80.855 422.063 90.647 421.847 92.015 421.847 C
274.247 422.711 L
353.735 422.711 L
361.943 422.855 366.191 421.703 371.591 417.599 C
396.503 395.783 419.183 376.991 443.735 354.455 C
451.943 355.536 L
495.359 351.647 572.831 338.831 601.991 332.855 C
608.111 331.271 615.887 317.879 614.159 305.639 C
612.359 294.335 610.271 283.463 620.639 282.527 C
621.503 269.135 622.439 253.799 616.319 242.927 C
614.159 239.471 610.271 238.607 604.151 239.039 C
b
u
u
0.000 0.000 0.000 1.000 K
0 j
0 J
0.287 w
[]0 d
302.543 724.895 m
221.687 723.239 L
196.199 702.215 164.735 676.799 139.895 655.127 C
138.167 625.535 136.871 593.423 141.768 563.255 C
305.351 563.255 L
307.223 617.039 306.791 674.639 302.543 724.895 C
S
U
U
u
u
0.000 0.000 0.000 1.000 K
0 j
0 J
0.287 w
[]0 d
280.656 417.239 m
361.439 415.583 L
386.999 394.631 418.463 369.143 443.231 347.543 C
445.031 317.879 446.327 285.767 441.431 255.599 C
277.775 255.599 L
275.975 309.383 276.407 367.055 280.656 417.239 C
S
U
U
0.000 0.000 0.000 1.000 K
0 j
0 J
0.287 w
[]0 d
0.000 0.000 0.000 0.498 k
164.303 647.783 m
292.463 647.783 L
295.199 647.783 297.287 649.871 297.287 652.535 C
294.335 711.215 L
294.335 713.879 292.175 715.967 289.512 715.967 C
235.079 715.967 L
232.415 715.967 225.359 714.239 221.759 711.215 C
202.391 694.799 177.623 674.135 159.479 652.535 C
159.479 649.871 161.639 647.783 164.303 647.783 C
b
0.000 0.000 0.000 1.000 K
0 j
0 J
0.287 w
[]0 d
0.000 0.000 0.000 0.498 k
418.895 340.127 m
290.663 340.127 L
288.000 340.127 285.839 342.287 285.839 344.951 C
288.863 403.559 L
288.863 406.223 290.951 408.383 293.615 408.383 C
348.119 408.383 L
350.783 408.383 357.767 406.583 361.367 403.559 C
380.735 387.143 405.575 366.479 423.647 344.951 C
423.647 342.287 421.559 340.127 418.895 340.127 C
b
0.000 0.000 0.000 1.000 K
0 j
0 J
0.287 w
[]0 d
0.000 0.000 0.000 0.498 k
381.887 715.967 m
317.951 715.967 L
315.287 715.967 313.127 713.807 313.127 711.143 C
316.151 652.535 L
316.151 649.871 318.239 647.711 320.903 647.711 C
426.671 647.711 L
429.335 647.711 433.079 648.719 430.847 652.535 C
417.383 675.215 406.079 688.751 388.367 711.143 C
387.071 713.807 384.551 715.967 381.887 715.967 C
b
0.000 0.000 0.000 1.000 K
0 j
0 J
0.287 w
[]0 d
0.000 0.000 0.000 0.498 k
201.311 408.311 m
265.175 408.311 L
267.911 408.311 270.000 406.223 270.000 403.559 C
267.048 344.879 L
267.048 342.215 264.887 340.127 262.223 340.127 C
156.527 340.127 L
153.863 340.127 150.119 341.063 152.280 344.879 C
165.815 367.631 177.119 381.095 194.759 403.559 C
196.127 406.223 198.575 408.311 201.311 408.311 C
b
0.000 0.000 0.000 1.000 K
0 j
0 J
0.287 w
[]0 d
0.000 0.000 0.000 0.200 k
389.951 649.151 m
427.031 649.151 L
427.967 649.223 430.343 649.439 429.983 650.879 C
429.047 653.759 426.167 657.431 424.583 659.879 C
413.783 676.799 401.327 692.567 388.727 708.191 C
386.855 710.711 385.271 714.239 381.743 714.527 C
363.167 714.527 L
389.951 649.151 L
b
0.000 0.000 0.000 1.000 K
0 j
0 J
0.287 w
[]0 d
0.000 0.000 0.000 0.200 k
193.247 341.495 m
156.095 341.495 L
155.159 341.567 152.855 341.855 153.143 343.223 C
154.079 346.103 156.959 349.775 158.543 352.295 C
169.415 369.143 181.871 384.983 194.399 400.607 C
196.343 403.055 197.927 406.655 201.383 406.943 C
220.031 406.943 L
193.247 341.495 L
b
0.000 0.000 0.000 1.000 K
0 j
0 J
0.287 w
[]0 d
0.000 0.000 0.000 0.200 k
315.143 713.087 m
314.783 712.439 314.567 711.791 314.567 711.143 C
317.519 652.607 L
317.735 650.447 318.815 649.295 320.975 649.151 C
388.007 649.151 L
361.223 714.527 L
318.024 714.527 L
316.727 714.455 315.935 714.095 315.143 713.087 C
b
0.000 0.000 0.000 1.000 K
0 j
0 J
0.287 w
[]0 d
0.000 0.000 0.000 0.200 k
268.055 405.431 m
268.415 404.855 268.560 404.207 268.632 403.487 C
265.608 345.024 L
265.463 342.863 264.311 341.711 262.151 341.495 C
195.191 341.495 L
221.903 406.943 L
265.103 406.943 L
266.471 406.799 267.192 406.439 268.055 405.431 C
b
0.000 0.000 0.000 1.000 K
0 j
0 J
0.287 w
[]0 d
0.000 0.000 0.000 0.200 k
294.407 649.727 m
295.415 650.591 295.775 651.239 295.919 652.607 C
292.895 711.072 L
292.751 713.231 291.599 714.383 289.439 714.599 C
235.079 714.599 L
230.759 714.311 226.079 712.655 222.623 710.063 C
211.535 700.703 200.303 691.127 189.503 681.263 C
189.647 649.151 L
292.391 649.151 L
293.183 649.223 293.687 649.367 294.407 649.727 C
b
0.000 0.000 0.000 1.000 K
0 j
0 J
0.287 w
[]0 d
0.000 0.000 0.000 0.200 k
288.791 342.143 m
287.711 342.935 287.351 343.655 287.279 344.951 C
290.231 403.487 L
290.447 405.647 291.527 406.799 293.687 406.943 C
348.048 406.943 L
352.367 406.655 357.047 404.999 360.503 402.479 C
371.663 393.119 382.823 383.543 393.623 373.607 C
393.551 341.567 L
290.735 341.567 L
289.943 341.639 289.439 341.711 288.791 342.143 C
b
0.000 0.000 0.000 1.000 K
0 j
0 J
0.287 w
[]0 d
0.000 0.000 0.000 0.200 k
188.135 679.967 m
184.391 676.511 180.647 672.983 177.047 669.455 C
171.503 663.911 166.031 658.079 160.991 652.103 C
160.991 650.303 162.863 649.295 164.375 649.151 C
188.135 649.151 L
188.135 679.967 L
b
0.000 0.000 0.000 1.000 K
0 j
0 J
0.287 w
[]0 d
0.000 0.000 0.000 0.200 k
395.063 372.311 m
398.807 368.855 402.479 365.327 406.079 361.799 C
411.623 356.255 417.095 350.423 422.207 344.447 C
422.207 342.719 420.263 341.639 418.823 341.567 C
394.991 341.567 L
395.063 372.311 L
b
0.000 0.000 0.000 1.000 K
0 j
0 J
0.287 w
[]0 d
0.000 0.000 0.000 0.498 k
10.007 544.031 m
3.527 577.151 28.079 602.639 55.151 603.359 c
86.975 604.223 110.591 574.127 103.751 544.391 C
108.575 552.743 L
355.319 552.384 L
362.447 540.719 369.575 550.007 377.927 550.151 C
380.951 549.288 382.751 547.559 384.119 544.175 C
388.943 545.255 393.839 543.384 398.159 541.439 C
396.935 546.551 397.079 552.096 397.871 557.423 C
117.071 557.423 L
115.271 569.519 112.175 578.231 107.423 585.863 c
102.239 594.216 94.607 601.055 84.384 607.679 c
64.295 620.567 31.103 617.471 15.767 601.199 c
3.671 588.312 -2.951 568.511 -4.679 547.487 C
10.007 544.031 L
b
0.000 0.000 0.000 1.000 K
0 j
0 J
0.287 w
[]0 d
0.000 0.000 0.000 0.498 k
573.192 236.375 m
579.671 269.495 555.120 294.983 528.048 295.775 c
496.223 296.639 472.535 266.471 479.447 236.735 C
474.623 245.087 L
227.879 244.727 L
220.679 233.063 213.551 242.351 205.199 242.495 C
202.175 241.631 200.375 239.903 199.079 236.519 C
194.183 237.599 189.287 235.727 184.967 233.783 C
186.191 238.895 186.047 244.439 185.255 249.767 C
466.055 249.767 L
467.927 261.863 471.023 270.575 475.775 278.207 c
480.887 286.560 488.519 293.471 498.815 300.096 c
518.903 312.983 552.096 309.815 567.431 293.615 c
579.527 280.656 586.151 260.855 587.879 239.831 C
573.192 236.375 L
b
0.000 0.000 0.000 1.000 K
0 j
0 J
0.287 w
[]0 d
0.000 0.000 0.000 0.498 k
411.263 544.031 m
404.855 577.151 429.407 602.711 456.479 603.359 c
488.231 604.223 511.919 574.127 505.079 544.391 C
506.447 551.375 L
525.815 556.919 543.455 562.895 570.815 570.312 C
571.031 573.767 L
552.096 570.455 518.255 569.879 515.663 571.175 C
512.207 587.447 508.391 594.935 489.815 604.151 c
467.639 615.240 431.855 612.503 416.735 596.015 c
402.047 580.103 395.567 565.775 398.015 541.223 C
411.263 544.031 L
b
0.000 0.000 0.000 1.000 K
0 j
0 J
0.287 w
[]0 d
0.000 0.000 0.000 0.498 k
171.863 236.375 m
178.343 269.495 153.792 295.055 126.719 295.775 c
94.967 296.639 71.280 266.471 78.119 236.735 C
76.751 243.719 L
57.383 249.263 39.743 255.239 12.383 262.656 C
12.167 266.111 L
31.103 262.799 64.943 262.223 67.536 263.519 C
70.991 279.791 74.807 287.279 93.311 296.567 c
115.559 307.655 151.343 304.919 166.463 288.431 c
181.079 272.447 187.559 258.120 185.111 233.567 C
171.863 236.375 L
b
0.000 0.000 0.000 1.000 K
0 j
0 J
0.287 w
[]0 d
-16.416 605.807 m
-16.631 601.631 -26.135 601.631 -29.591 601.487 C
-29.303 609.192 -33.695 616.031 -29.087 627.335 C
-24.767 627.263 -15.263 627.767 -15.047 623.231 C
-16.416 605.807 L
s
0.000 0.000 0.000 1.000 K
0 j
0 J
0.287 w
[]0 d
599.615 298.151 m
599.831 293.975 609.335 293.975 612.791 293.903 C
612.503 301.608 616.895 308.447 612.287 319.751 C
607.967 319.679 598.463 320.183 598.247 315.575 C
599.615 298.151 L
s
0.000 0.000 0.000 1.000 K
0 j
0 J
0.287 w
[]0 d
0.000 0.000 0.000 0.298 k
-18.719 603.431 m
-21.671 602.351 -25.127 602.927 -28.223 602.927 C
-28.295 606.527 -29.015 610.343 -29.447 613.943 C
-29.735 618.839 -29.519 622.583 -28.007 627.335 C
-25.919 627.335 -18.863 627.623 -17.927 625.031 C
-17.855 624.455 L
-17.855 604.511 L
-17.927 603.863 -18.143 603.791 -18.719 603.431 C
b
0.000 0.000 0.000 1.000 K
0 j
0 J
0.287 w
[]0 d
0.000 0.000 0.000 0.298 k
601.919 295.847 m
604.871 294.695 608.327 295.271 611.423 295.271 C
611.495 298.871 612.216 302.687 612.647 306.287 C
612.935 311.255 612.719 315.000 611.207 319.751 C
609.120 319.751 602.063 319.967 601.127 317.375 C
601.055 316.871 L
601.055 296.927 L
601.127 296.207 601.343 296.135 601.919 295.847 C
b
0.000 0.000 0.000 1.000 K
0 j
0 J
0.287 w
[]0 d
0.000 0.000 0.000 1.000 k
56.951 507.023 m
83.447 507.023 105.047 528.623 105.047 555.192 c
105.047 581.687 83.447 603.288 56.951 603.288 c
30.383 603.288 8.783 581.687 8.783 555.192 c
8.783 528.623 30.383 507.023 56.951 507.023 c
b
0.000 0.000 0.000 1.000 K
0 j
0 J
0.287 w
[]0 d
0.000 0.000 0.000 1.000 k
526.247 199.367 m
499.751 199.367 478.079 220.967 478.079 247.535 c
478.079 274.031 499.751 295.703 526.247 295.703 c
552.815 295.703 574.415 274.031 574.415 247.535 c
574.415 220.967 552.815 199.367 526.247 199.367 c
b
0.000 0.000 0.000 1.000 K
0 j
0 J
0.287 w
[]0 d
0.000 0.000 0.000 1.000 k
458.207 507.023 m
484.703 507.023 506.375 528.623 506.375 555.192 c
506.375 581.687 484.703 603.288 458.207 603.288 c
431.711 603.288 410.039 581.687 410.039 555.192 c
410.039 528.623 431.711 507.023 458.207 507.023 c
b
0.000 0.000 0.000 1.000 K
0 j
0 J
0.287 w
[]0 d
0.000 0.000 0.000 1.000 k
124.919 199.367 m
98.423 199.367 76.823 220.967 76.823 247.535 c
76.823 274.031 98.423 295.703 124.919 295.703 c
151.487 295.703 173.087 274.031 173.087 247.535 c
173.087 220.967 151.487 199.367 124.919 199.367 c
b
u
u
0.000 0.000 0.000 1.000 K
0 j
0 J
0.287 w
[]0 d
-29.591 597.311 m
6.047 597.311 L
S
U
U
u
u
0.000 0.000 0.000 1.000 K
0 j
0 J
0.287 w
[]0 d
612.791 289.727 m
577.151 289.727 L
S
U
U
0.000 0.000 0.000 1.000 K
0 j
0 J
0.287 w
[]0 d
0.000 0.000 0.000 0.000 k
56.519 586.295 m
73.655 586.295 87.767 572.111 87.767 555.048 C
87.767 537.767 73.655 523.871 56.519 523.871 C
39.239 523.871 25.343 537.767 25.343 555.048 C
25.343 572.111 39.239 586.295 56.519 586.295 C
b
0.000 0.000 0.000 1.000 K
0 j
0 J
0.287 w
[]0 d
0.000 0.000 0.000 0.000 k
526.679 278.639 m
509.543 278.639 495.431 264.455 495.431 247.391 C
495.431 230.111 509.543 216.215 526.679 216.215 C
543.959 216.215 557.855 230.111 557.855 247.391 C
557.855 264.455 543.959 278.639 526.679 278.639 C
b
0.000 0.000 0.000 1.000 K
0 j
0 J
0.287 w
[]0 d
56.519 526.535 m
72.143 526.535 84.887 539.423 84.887 555.048 C
84.887 570.671 72.143 583.343 56.519 583.343 C
40.895 583.343 28.007 570.671 28.007 555.048 C
28.007 539.423 40.895 526.535 56.519 526.535 C
s
0.000 0.000 0.000 1.000 K
0 j
0 J
0.287 w
[]0 d
526.679 218.879 m
511.055 218.879 498.311 231.767 498.311 247.391 C
498.311 263.015 511.055 275.687 526.679 275.687 C
542.303 275.687 555.192 263.015 555.192 247.391 C
555.192 231.767 542.303 218.879 526.679 218.879 C
s
0.000 0.000 0.000 1.000 K
0 j
0 J
0.287 w
[]0 d
0.000 0.000 0.000 0.498 k
66.887 579.168 m
61.919 575.423 L
66.671 574.631 71.495 570.383 72.287 568.871 C
77.759 570.671 L
74.951 574.919 70.559 578.159 66.887 579.168 C
b
0.000 0.000 0.000 1.000 K
0 j
0 J
0.287 w
[]0 d
0.000 0.000 0.000 0.498 k
516.312 271.512 m
521.279 267.767 L
516.527 266.975 511.703 262.727 510.911 261.216 C
505.439 263.015 L
508.247 267.263 512.639 270.503 516.312 271.512 C
b
0.000 0.000 0.000 1.000 K
0 j
0 J
0.287 w
[]0 d
0.000 0.000 0.000 0.498 k
79.128 568.367 m
72.863 568.223 L
76.247 564.983 77.687 558.647 77.399 556.919 C
82.871 555.048 L
83.087 560.087 81.503 565.487 79.128 568.367 C
b
0.000 0.000 0.000 1.000 K
0 j
0 J
0.287 w
[]0 d
0.000 0.000 0.000 0.498 k
504.071 260.711 m
510.335 260.567 L
506.951 257.327 505.511 250.991 505.799 249.263 C
500.327 247.391 L
500.111 252.431 501.695 257.831 504.071 260.711 C
b
0.000 0.000 0.000 1.000 K
0 j
0 J
0.287 w
[]0 d
0.000 0.000 0.000 0.498 k
82.583 552.384 m
77.543 555.983 L
78.263 551.447 75.743 545.399 74.519 544.247 C
77.903 539.567 L
81.143 543.455 82.871 548.855 82.583 552.384 C
b
0.000 0.000 0.000 1.000 K
0 j
0 J
0.287 w
[]0 d
0.000 0.000 0.000 0.498 k
500.615 244.727 m
505.655 248.327 L
504.935 243.791 507.455 237.743 508.679 236.591 C
505.295 231.911 L
502.055 235.799 500.327 241.199 500.615 244.727 C
b
0.000 0.000 0.000 1.000 K
0 j
0 J
0.287 w
[]0 d
0.000 0.000 0.000 0.498 k
76.247 537.551 m
74.159 543.599 L
72.143 539.351 66.527 535.967 64.799 535.607 C
64.799 529.775 L
69.623 531.072 74.303 534.455 76.247 537.551 C
b
0.000 0.000 0.000 1.000 K
0 j
0 J
0.287 w
[]0 d
0.000 0.000 0.000 0.498 k
506.951 229.895 m
509.039 235.943 L
511.055 231.695 516.671 228.311 518.399 227.951 C
518.399 222.119 L
513.575 223.415 508.895 226.799 506.951 229.895 C
b
0.000 0.000 0.000 1.000 K
0 j
0 J
0.287 w
[]0 d
0.000 0.000 0.000 0.498 k
62.207 529.127 m
64.007 535.175 L
59.903 533.159 53.423 533.663 51.767 534.455 C
48.383 529.703 L
53.063 527.975 58.823 527.975 62.207 529.127 C
b
0.000 0.000 0.000 1.000 K
0 j
0 J
0.287 w
[]0 d
0.000 0.000 0.000 0.498 k
520.991 221.471 m
519.192 227.519 L
523.295 225.503 529.775 226.007 531.432 226.799 C
534.815 222.047 L
530.135 220.319 524.375 220.319 520.991 221.471 C
b
0.000 0.000 0.000 1.000 K
0 j
0 J
0.287 w
[]0 d
0.000 0.000 0.000 0.498 k
46.079 530.783 m
51.047 534.527 L
46.295 535.319 41.399 539.423 40.679 541.007 C
35.207 539.351 L
37.799 535.031 42.407 531.719 46.079 530.783 C
b
0.000 0.000 0.000 1.000 K
0 j
0 J
0.287 w
[]0 d
0.000 0.000 0.000 0.498 k
537.120 223.127 m
532.151 226.871 L
536.903 227.663 541.799 231.767 542.519 233.351 C
547.991 231.695 L
545.399 227.375 540.791 224.063 537.120 223.127 C
b
0.000 0.000 0.000 1.000 K
0 j
0 J
0.287 w
[]0 d
0.000 0.000 0.000 0.498 k
33.839 541.511 m
40.031 541.655 L
36.647 544.895 35.351 551.303 35.495 553.031 C
30.095 554.903 L
29.663 549.791 31.391 544.391 33.839 541.511 C
b
0.000 0.000 0.000 1.000 K
0 j
0 J
0.287 w
[]0 d
0.000 0.000 0.000 0.498 k
549.360 233.855 m
543.168 233.999 L
546.551 237.239 547.847 243.647 547.703 245.375 C
553.103 247.247 L
553.535 242.135 551.807 236.735 549.360 233.855 C
b
0.000 0.000 0.000 1.000 K
0 j
0 J
0.287 w
[]0 d
0.000 0.000 0.000 0.498 k
30.311 557.495 m
35.423 553.895 L
34.704 558.503 37.079 564.479 38.448 565.631 C
35.064 570.527 L
31.679 566.567 30.095 561.024 30.311 557.495 C
b
0.000 0.000 0.000 1.000 K
0 j
0 J
0.287 w
[]0 d
0.000 0.000 0.000 0.498 k
552.887 249.839 m
547.775 246.239 L
548.495 250.847 546.120 256.823 544.751 257.975 C
548.135 262.871 L
551.519 258.911 553.103 253.367 552.887 249.839 C
b
0.000 0.000 0.000 1.000 K
0 j
0 J
0.287 w
[]0 d
0.000 0.000 0.000 0.498 k
36.647 572.399 m
38.807 566.567 L
40.895 570.671 46.439 574.127 48.167 574.415 C
48.167 580.103 L
43.271 578.879 38.663 575.495 36.647 572.399 C
b
0.000 0.000 0.000 1.000 K
0 j
0 J
0.287 w
[]0 d
0.000 0.000 0.000 0.498 k
546.551 264.743 m
544.391 258.911 L
542.303 263.015 536.759 266.471 535.031 266.759 C
535.031 272.447 L
539.927 271.223 544.535 267.839 546.551 264.743 C
b
0.000 0.000 0.000 1.000 K
0 j
0 J
0.287 w
[]0 d
0.000 0.000 0.000 0.498 k
50.831 580.751 m
54.143 582.048 59.903 582.048 64.512 580.247 C
61.127 575.567 L
59.615 576.216 53.063 576.719 48.887 574.775 C
50.831 580.751 L
b
0.000 0.000 0.000 1.000 K
0 j
0 J
0.287 w
[]0 d
0.000 0.000 0.000 0.498 k
532.367 273.096 m
529.055 274.391 523.295 274.391 518.687 272.591 C
522.072 267.911 L
523.583 268.560 530.135 269.063 534.312 267.120 C
532.367 273.096 L
b
0.000 0.000 0.000 1.000 K
0 j
0 J
0.287 w
[]0 d
0.000 0.000 0.000 0.498 k
56.663 541.151 m
64.295 541.151 70.559 547.415 70.559 555.048 C
70.559 562.535 64.295 568.727 56.663 568.727 C
49.175 568.727 42.983 562.535 42.983 555.048 C
42.983 547.415 49.175 541.151 56.663 541.151 C
b
0.000 0.000 0.000 1.000 K
0 j
0 J
0.287 w
[]0 d
0.000 0.000 0.000 0.498 k
526.535 233.495 m
518.903 233.495 512.639 239.759 512.639 247.391 C
512.639 254.879 518.903 261.072 526.535 261.072 C
534.024 261.072 540.216 254.879 540.216 247.391 C
540.216 239.759 534.024 233.495 526.535 233.495 C
b
0.000 0.000 0.000 1.000 K
0 j
0 J
0.287 w
[]0 d
0.000 0.000 0.000 0.000 k
432.719 537.120 m
422.927 551.159 426.383 570.815 440.423 580.607 C
454.535 590.543 474.047 586.943 483.911 572.903 C
493.847 558.791 490.391 539.423 476.207 529.487 C
462.239 519.695 442.655 523.007 432.719 537.120 C
b
0.000 0.000 0.000 1.000 K
0 j
0 J
0.287 w
[]0 d
0.000 0.000 0.000 0.000 k
150.407 229.463 m
160.199 243.503 156.743 263.159 142.703 272.951 C
128.591 282.887 109.079 279.287 99.287 265.247 C
89.351 251.135 92.807 231.767 106.919 221.831 C
120.959 212.039 140.543 215.351 150.407 229.463 C
b
0.000 0.000 0.000 1.000 K
0 j
0 J
0.287 w
[]0 d
481.679 571.391 m
472.751 584.207 454.895 587.231 442.079 578.231 C
429.263 569.303 426.167 551.591 435.095 538.775 C
444.095 525.959 461.879 522.719 474.695 531.719 C
487.511 540.647 490.679 558.575 481.679 571.391 C
s
0.000 0.000 0.000 1.000 K
0 j
0 J
0.287 w
[]0 d
101.447 263.735 m
110.447 276.551 128.304 279.575 141.048 270.575 C
153.863 261.647 157.031 243.935 148.031 231.119 C
139.103 218.303 121.247 215.063 108.503 224.063 C
95.687 232.991 92.519 250.919 101.447 263.735 C
s
0.000 0.000 0.000 1.000 K
0 j
0 J
0.287 w
[]0 d
0.000 0.000 0.000 0.498 k
432.647 549.719 m
438.623 547.775 L
436.535 552.096 437.183 558.503 437.975 560.015 C
433.367 563.471 L
431.495 558.791 431.351 553.247 432.647 549.719 C
b
0.000 0.000 0.000 1.000 K
0 j
0 J
0.287 w
[]0 d
0.000 0.000 0.000 0.498 k
150.551 242.063 m
144.575 240.119 L
146.663 244.439 145.943 250.847 145.223 252.359 C
149.759 255.815 L
151.703 251.135 151.775 245.591 150.551 242.063 C
b
0.000 0.000 0.000 1.000 K
0 j
0 J
0.287 w
[]0 d
0.000 0.000 0.000 0.498 k
434.447 565.919 m
438.119 560.807 L
438.839 565.487 443.303 570.312 444.815 571.031 C
443.231 576.647 L
438.911 573.911 435.455 569.447 434.447 565.919 C
b
0.000 0.000 0.000 1.000 K
0 j
0 J
0.287 w
[]0 d
0.000 0.000 0.000 0.498 k
148.751 258.263 m
145.007 253.151 L
144.287 257.831 139.895 262.656 138.311 263.375 C
139.967 268.991 L
144.215 266.255 147.671 261.791 148.751 258.263 C
b
0.000 0.000 0.000 1.000 K
0 j
0 J
0.287 w
[]0 d
0.000 0.000 0.000 0.498 k
445.535 577.871 m
445.463 571.679 L
448.847 574.919 455.183 576.288 456.839 575.927 C
458.783 581.399 L
453.743 581.831 448.271 580.175 445.535 577.871 C
b
0.000 0.000 0.000 1.000 K
0 j
0 J
0.287 w
[]0 d
0.000 0.000 0.000 0.498 k
137.663 270.215 m
137.663 264.024 L
134.280 267.263 127.943 268.632 126.287 268.271 C
124.343 273.743 L
129.455 274.175 134.927 272.519 137.663 270.215 C
b
0.000 0.000 0.000 1.000 K
0 j
0 J
0.287 w
[]0 d
0.000 0.000 0.000 0.498 k
461.375 581.183 m
457.631 576.000 L
462.239 576.863 468.287 574.127 469.511 572.975 C
474.263 576.288 L
470.447 579.527 465.047 581.399 461.375 581.183 C
b
0.000 0.000 0.000 1.000 K
0 j
0 J
0.287 w
[]0 d
0.000 0.000 0.000 0.498 k
121.823 273.527 m
125.495 268.343 L
120.887 269.207 114.911 266.471 113.615 265.319 C
108.863 268.632 L
112.679 271.871 118.151 273.743 121.823 273.527 C
b
0.000 0.000 0.000 1.000 K
0 j
0 J
0.287 w
[]0 d
0.000 0.000 0.000 0.498 k
476.279 574.487 m
470.303 572.543 L
474.335 570.312 477.647 564.767 477.935 562.967 C
483.767 562.895 L
482.543 567.719 479.231 572.399 476.279 574.487 C
b
0.000 0.000 0.000 1.000 K
0 j
0 J
0.287 w
[]0 d
0.000 0.000 0.000 0.498 k
106.847 266.831 m
112.823 264.887 L
108.863 262.656 105.551 257.111 105.263 255.311 C
99.431 255.239 L
100.655 260.063 103.895 264.743 106.847 266.831 C
b
0.000 0.000 0.000 1.000 K
0 j
0 J
0.287 w
[]0 d
0.000 0.000 0.000 0.498 k
484.199 560.375 m
478.295 562.247 L
480.383 557.927 479.807 551.591 478.871 550.079 C
483.479 546.551 L
485.495 551.159 485.567 556.847 484.199 560.375 C
b
0.000 0.000 0.000 1.000 K
0 j
0 J
0.287 w
[]0 d
0.000 0.000 0.000 0.498 k
98.927 252.719 m
104.831 254.591 L
102.743 250.271 103.319 243.935 104.255 242.423 C
99.719 238.895 L
97.703 243.503 97.559 249.191 98.927 252.719 C
b
0.000 0.000 0.000 1.000 K
0 j
0 J
0.287 w
[]0 d
0.000 0.000 0.000 0.498 k
482.399 544.175 m
478.727 549.216 L
478.007 544.535 473.615 539.783 472.031 538.991 C
473.615 533.447 L
478.079 536.039 481.463 540.575 482.399 544.175 C
b
0.000 0.000 0.000 1.000 K
0 j
0 J
0.287 w
[]0 d
0.000 0.000 0.000 0.498 k
100.727 236.519 m
104.399 241.559 L
105.119 236.879 109.583 232.127 111.167 231.335 C
109.511 225.791 L
105.119 228.383 101.735 232.919 100.727 236.519 C
b
0.000 0.000 0.000 1.000 K
0 j
0 J
0.287 w
[]0 d
0.000 0.000 0.000 0.498 k
471.383 532.151 m
471.383 538.415 L
468.071 535.175 461.735 533.663 460.007 534.096 C
457.991 528.551 L
463.175 528.120 468.575 529.919 471.383 532.151 C
b
0.000 0.000 0.000 1.000 K
0 j
0 J
0.287 w
[]0 d
0.000 0.000 0.000 0.498 k
111.815 224.495 m
111.815 230.759 L
115.127 227.519 121.391 226.007 123.119 226.439 C
125.135 220.895 L
120.023 220.463 114.551 222.263 111.815 224.495 C
b
0.000 0.000 0.000 1.000 K
0 j
0 J
0.287 w
[]0 d
0.000 0.000 0.000 0.498 k
455.471 528.767 m
459.071 533.879 L
454.535 533.303 448.487 535.823 447.263 537.120 C
442.583 533.807 L
446.399 530.567 451.799 528.623 455.471 528.767 C
b
0.000 0.000 0.000 1.000 K
0 j
0 J
0.287 w
[]0 d
0.000 0.000 0.000 0.498 k
127.655 221.111 m
124.055 226.223 L
128.663 225.647 134.639 228.167 135.863 229.463 C
140.615 226.151 L
136.727 222.911 131.328 220.967 127.655 221.111 C
b
0.000 0.000 0.000 1.000 K
0 j
0 J
0.287 w
[]0 d
0.000 0.000 0.000 0.498 k
440.567 535.607 m
437.615 537.551 434.303 542.303 433.079 547.127 C
438.839 546.983 L
439.199 545.399 442.583 539.783 446.543 537.479 C
440.567 535.607 L
b
0.000 0.000 0.000 1.000 K
0 j
0 J
0.287 w
[]0 d
0.000 0.000 0.000 0.498 k
142.631 227.951 m
145.584 229.895 148.895 234.647 150.048 239.471 C
144.287 239.327 L
144.000 237.743 140.615 232.127 136.584 229.823 C
142.631 227.951 L
b
0.000 0.000 0.000 1.000 K
0 j
0 J
0.287 w
[]0 d
0.000 0.000 0.000 0.498 k
469.655 563.111 m
465.263 569.375 456.551 570.887 450.287 566.495 C
444.167 562.175 442.655 553.535 447.047 547.271 C
451.367 541.151 460.007 539.639 466.127 543.887 C
472.391 548.279 473.903 556.991 469.655 563.111 C
b
0.000 0.000 0.000 1.000 K
0 j
0 J
0.287 w
[]0 d
0.000 0.000 0.000 0.498 k
113.543 255.455 m
117.935 261.719 126.575 263.231 132.840 258.839 C
138.959 254.519 140.543 245.879 136.151 239.615 C
131.831 233.495 123.191 231.983 116.999 236.231 C
110.807 240.623 109.223 249.335 113.543 255.455 C
b
0.000 0.000 0.000 1.000 K
0 j
0 J
0.287 w
[]0 d
0.000 0.000 0.000 0.298 k
571.391 637.847 m
587.807 637.847 L
587.519 601.703 L
571.175 601.703 L
571.391 637.847 L
b
0.000 0.000 0.000 1.000 K
0 j
0 J
0.287 w
[]0 d
0.000 0.000 0.000 0.298 k
11.807 330.191 m
-4.607 330.191 L
-4.319 294.048 L
12.023 294.048 L
11.807 330.191 L
b
u
u
0.000 0.000 0.000 1.000 K
0 j
0 J
0.287 w
[]0 d
513.719 579.312 m
541.727 579.312 L
S
U
U
u
u
0.000 0.000 0.000 1.000 K
0 j
0 J
0.287 w
[]0 d
69.479 271.656 m
41.471 271.656 L
S
U
U
u
u
0.000 0.000 0.000 1.000 K
0 j
0 J
0.287 w
[]0 d
572.183 629.279 m
587.519 629.279 L
S
U
U
u
u
0.000 0.000 0.000 1.000 K
0 j
0 J
0.287 w
[]0 d
11.016 321.623 m
-4.319 321.623 L
S
U
U
u
u
0.000 0.000 0.000 1.000 K
0 j
0 J
0.287 w
[]0 d
571.175 610.271 m
586.439 610.271 L
S
U
U
u
u
0.000 0.000 0.000 1.000 K
0 j
0 J
0.287 w
[]0 d
12.023 302.687 m
-3.239 302.687 L
S
U
U
0.000 0.000 0.000 1.000 K
0 j
0 J
0.287 w
[]0 d
504.215 601.631 m
587.807 601.631 L
587.879 597.743 588.599 593.711 586.943 590.471 C
519.767 590.471 L
511.919 590.255 507.671 597.168 504.215 601.631 C
s
0.000 0.000 0.000 1.000 K
0 j
0 J
0.287 w
[]0 d
78.983 294.048 m
-4.607 294.048 L
-4.679 290.159 -5.399 286.127 -3.743 282.815 C
63.431 282.815 L
71.280 282.599 75.527 289.512 78.983 294.048 C
s
u
u
0.000 0.000 0.000 1.000 K
0 j
0 J
0.287 w
[]0 d
430.991 612.719 m
458.999 620.927 485.279 618.192 504.287 601.775 C
S
U
U
u
u
0.000 0.000 0.000 1.000 K
0 j
0 J
0.287 w
[]0 d
152.135 305.063 m
124.127 313.271 97.847 310.608 78.911 294.120 C
S
U
U
0.000 0.000 0.000 1.000 K
0 j
0 J
0.287 w
[]0 d
523.871 628.127 m
383.759 628.127 L
396.143 631.007 441.647 631.943 461.303 631.655 c
486.503 631.295 502.703 630.719 523.871 628.127 C
s
0.000 0.000 0.000 1.000 K
0 j
0 J
0.287 w
[]0 d
59.327 320.471 m
199.439 320.471 L
187.055 323.423 141.479 324.287 121.895 324.000 c
96.623 323.639 80.495 323.063 59.327 320.471 C
s
0.000 0.000 0.000 1.000 K
0 j
0 J
0.287 w
[]0 d
277.127 640.223 m
294.911 640.223 L
296.855 640.223 298.295 638.783 298.295 636.839 C
298.295 630.791 L
298.295 628.847 296.855 627.335 294.911 627.335 C
277.127 627.335 L
275.183 627.335 273.743 628.847 273.743 630.791 C
273.743 636.839 L
273.743 638.783 275.183 640.223 277.127 640.223 C
s
0.000 0.000 0.000 1.000 K
0 j
0 J
0.287 w
[]0 d
306.072 332.639 m
288.215 332.639 L
286.343 332.639 284.831 331.127 284.831 329.255 C
284.831 323.135 L
284.831 321.263 286.343 319.751 288.215 319.751 C
306.072 319.751 L
307.943 319.751 309.455 321.263 309.455 323.135 C
309.455 329.255 L
309.455 331.127 307.943 332.639 306.072 332.639 C
s
0.000 0.000 0.000 1.000 K
0 j
0 J
0.287 w
[]0 d
410.759 640.223 m
428.615 640.223 L
430.487 640.223 431.999 638.783 431.999 636.839 C
431.999 630.791 L
431.999 628.847 430.487 627.335 428.615 627.335 C
410.759 627.335 L
408.887 627.335 407.375 628.847 407.375 630.791 C
407.375 636.839 L
407.375 638.783 408.887 640.223 410.759 640.223 C
s
0.000 0.000 0.000 1.000 K
0 j
0 J
0.287 w
[]0 d
172.367 332.639 m
154.583 332.639 L
152.639 332.639 151.199 331.127 151.199 329.255 C
151.199 323.135 L
151.199 321.263 152.639 319.751 154.583 319.751 C
172.367 319.751 L
174.311 319.751 175.751 321.263 175.751 323.135 C
175.751 329.255 L
175.751 331.127 174.311 332.639 172.367 332.639 C
s
0.000 0.000 0.000 1.000 K
0 j
0 J
0.287 w
[]0 d
277.127 640.223 m
294.911 640.223 L
296.855 640.223 298.295 638.783 298.295 636.839 C
298.295 634.607 L
273.743 634.607 L
273.743 636.839 L
273.743 638.783 275.183 640.223 277.127 640.223 C
s
0.000 0.000 0.000 1.000 K
0 j
0 J
0.287 w
[]0 d
306.072 332.639 m
288.215 332.639 L
286.343 332.639 284.831 331.127 284.831 329.255 C
284.831 326.951 L
309.455 326.951 L
309.455 329.255 L
309.455 331.127 307.943 332.639 306.072 332.639 C
s
0.000 0.000 0.000 1.000 K
0 j
0 J
0.287 w
[]0 d
410.759 640.223 m
428.615 640.223 L
430.487 640.223 431.999 638.783 431.999 636.839 C
431.999 634.607 L
407.375 634.607 L
407.375 636.839 L
407.375 638.783 408.887 640.223 410.759 640.223 C
s
0.000 0.000 0.000 1.000 K
0 j
0 J
0.287 w
[]0 d
172.367 332.639 m
154.583 332.639 L
152.639 332.639 151.199 331.127 151.199 329.255 C
151.199 326.951 L
175.751 326.951 L
175.751 329.255 L
175.751 331.127 174.311 332.639 172.367 332.639 C
s
u
u
0.000 0.000 0.000 1.000 K
0 j
0 J
0.287 w
[]0 d
423.503 601.631 m
101.159 601.631 L
73.512 628.703 23.183 626.687 5.759 597.311 C
S
U
U
u
u
0.000 0.000 0.000 1.000 K
0 j
0 J
0.287 w
[]0 d
162.359 293.975 m
482.039 293.975 L
509.687 321.048 560.015 319.103 577.439 289.656 C
S
U
U
u
u
0.000 0.000 0.000 1.000 K
0 j
0 J
0.287 w
[]0 d
410.615 590.975 m
104.111 590.975 L
S
U
U
u
u
0.000 0.000 0.000 1.000 K
0 j
0 J
0.287 w
[]0 d
173.879 283.319 m
479.087 283.319 L
S
U
U
u
u
0.000 0.000 0.000 1.000 K
0 j
0 J
0.287 w
[]0 d
0.215 570.527 m
-37.512 570.527 L
S
U
U
u
u
0.000 0.000 0.000 1.000 K
0 j
0 J
0.287 w
[]0 d
582.983 262.871 m
620.711 262.871 L
S
U
U
0.000 0.000 0.000 1.000 K
0 j
0 J
0.287 w
[]0 d
-1.151 623.879 m
121.175 629.135 L
101.879 631.511 81.791 632.807 58.535 631.871 c
37.512 630.935 18.143 628.199 -1.151 623.879 C
s
0.000 0.000 0.000 1.000 K
0 j
0 J
0.287 w
[]0 d
584.351 316.223 m
461.951 321.551 L
481.247 323.855 501.407 325.223 524.663 324.215 c
545.687 323.279 565.055 320.543 584.351 316.223 C
s
u
u
0.000 0.000 0.000 1.000 K
0 j
0 J
0.287 w
[]0 d
133.415 563.255 m
116.063 563.255 L
S
U
U
u
u
0.000 0.000 0.000 1.000 K
0 j
0 J
0.287 w
[]0 d
449.711 255.599 m
467.135 255.599 L
S
U
U
u
u
0.000 0.000 0.000 1.000 K
0 j
0 J
0.287 w
[]0 d
131.328 663.048 m
129.959 659.447 121.391 659.807 109.943 658.367 C
78.263 655.343 21.887 645.048 -9.791 639.575 C
-20.447 637.559 -24.767 634.679 -26.855 628.703 C
S
U
U
u
u
0.000 0.000 0.000 1.000 K
0 j
0 J
0.287 w
[]0 d
451.871 355.463 m
453.167 351.863 461.735 352.223 473.183 350.783 C
504.935 347.759 561.312 337.391 592.991 331.991 C
603.647 329.903 607.967 327.096 610.055 321.048 C
S
U
U
0.000 0.000 0.000 1.000 K
0 j
0 J
0.287 w
[]0 d
0.000 0.000 0.000 1.000 k
56.519 548.783 m
53.063 548.783 50.327 551.591 50.327 555.048 C
50.327 558.431 53.063 561.168 56.519 561.168 C
59.903 561.168 62.711 558.431 62.711 555.048 C
62.711 551.591 59.903 548.783 56.519 548.783 C
b
0.000 0.000 0.000 1.000 K
0 j
0 J
0.287 w
[]0 d
0.000 0.000 0.000 1.000 k
526.679 241.127 m
530.135 241.127 532.871 243.935 532.871 247.391 C
532.871 250.775 530.135 253.511 526.679 253.511 C
523.295 253.511 520.487 250.775 520.487 247.391 C
520.487 243.935 523.295 241.127 526.679 241.127 C
b
0.000 0.000 0.000 1.000 K
0 j
0 J
0.287 w
[]0 d
0.000 0.000 0.000 1.000 k
463.463 558.575 m
465.407 555.767 464.759 551.951 461.951 549.935 C
459.143 547.991 455.327 548.639 453.311 551.519 C
451.367 554.255 452.015 558.144 454.823 560.087 C
457.631 562.031 461.519 561.383 463.463 558.575 C
b
0.000 0.000 0.000 1.000 K
0 j
0 J
0.287 w
[]0 d
0.000 0.000 0.000 1.000 k
119.735 250.919 m
117.719 248.111 118.439 244.295 121.247 242.279 C
124.055 240.335 127.871 240.983 129.816 243.863 C
131.831 246.599 131.111 250.487 128.375 252.431 C
125.495 254.375 121.679 253.727 119.735 250.919 C
b
u
u
0.000 0.000 0.000 1.000 K
0 j
0 J
0.287 w
[]0 d
394.775 562.823 m
398.303 589.751 413.495 605.447 432.575 612.863 C
S
U
U
u
u
0.000 0.000 0.000 1.000 K
0 j
0 J
0.287 w
[]0 d
188.423 255.167 m
184.823 282.096 169.703 297.863 150.551 305.279 C
S
U
U
0.000 0.000 0.000 1.000 K
0 j
0 J
0.863 w
[]0 d
0.000 0.000 0.000 0.000 k
931.895 593.927 m
932.111 604.583 932.687 618.983 930.167 629.711 C
926.999 633.887 922.319 638.135 921.167 643.463 C
914.471 669.671 904.103 703.871 890.207 724.175 C
886.679 727.703 881.999 729.287 876.455 729.287 C
854.567 730.079 832.679 730.439 812.159 730.439 C
791.639 730.439 769.751 730.079 747.791 729.287 C
742.319 729.287 737.567 727.703 734.039 724.175 C
720.215 703.871 709.847 669.671 703.079 643.463 C
702.000 638.135 697.247 633.887 694.151 629.711 C
691.559 618.983 692.207 604.583 692.351 593.927 C
931.895 593.927 L
b
0.000 0.000 0.000 1.000 K
0 j
0 J
0.287 w
[]0 d
0.000 0.000 0.000 0.498 k
812.159 545.543 m
926.855 545.543 L
930.311 545.903 932.327 562.319 932.615 570.240 c
933.047 582.983 933.263 593.783 928.439 593.927 C
812.159 593.063 L
695.807 593.927 L
691.055 593.783 691.271 582.983 691.703 570.240 c
691.991 562.319 693.935 545.903 697.391 545.543 C
812.159 545.543 L
b
0.000 0.000 0.000 1.000 K
0 j
0 J
0.287 w
[]0 d
0.000 0.000 0.000 0.200 k
763.343 564.623 m
852.479 564.623 L
857.087 549.360 L
759.023 549.360 L
763.343 564.623 L
b
0.000 0.000 0.000 1.000 K
0 j
0 J
0.287 w
[]0 d
0.000 0.000 0.000 0.498 k
724.463 545.759 m
898.127 545.759 L
898.127 540.791 L
880.199 538.559 850.247 530.063 842.615 540.791 C
769.607 539.495 L
763.775 534.527 742.319 534.527 732.024 539.495 C
724.463 539.495 L
724.463 545.759 L
b
u
u
0.000 0.000 0.000 0.200 k
758.879 549.360 m
770.543 556.055 L
844.415 556.055 L
856.943 549.360 L
S
U
u
0.000 0.000 0.000 1.000 K
0 j
0 J
0.287 w
[]0 d
758.879 549.360 m
770.543 556.055 L
844.415 556.055 L
856.943 549.360 L
S
U
U
u
u
U
u
0.000 0.000 0.000 1.000 K
0 j
0 J
0.287 w
[]0 d
773.279 556.055 m
773.279 564.623 L
S
U
U
u
u
U
u
0.000 0.000 0.000 1.000 K
0 j
0 J
0.287 w
[]0 d
841.535 556.055 m
841.535 564.623 L
S
U
U
0.000 0.000 0.000 1.000 K
0 j
0 J
0.287 w
[]0 d
692.567 602.639 m
930.887 602.639 L
930.815 600.407 L
930.887 596.591 L
692.135 596.807 L
692.135 599.471 L
692.567 602.639 L
s
u
u
0.000 0.000 0.000 1.000 K
0 j
0 J
0.287 w
[]0 d
691.991 570.455 m
930.887 570.455 L
S
U
U
0.000 0.000 0.000 1.000 K
0 j
0 J
0.287 w
[]0 d
712.943 657.503 m
779.327 659.231 845.783 659.591 912.239 657.503 C
912.239 649.583 912.239 640.655 910.151 631.871 C
844.847 629.783 779.471 629.783 714.167 631.871 C
712.079 638.927 712.079 650.015 712.943 657.503 C
s
u
u
0.000 0.000 0.000 1.000 K
0 j
0 J
0.287 w
[]0 d
713.735 631.799 m
706.607 637.631 706.463 642.239 706.031 651.455 C
S
U
U
u
u
0.000 0.000 0.000 1.000 K
0 j
0 J
0.287 w
[]0 d
910.007 631.799 m
914.471 636.983 916.271 640.799 916.703 650.015 C
S
U
U
u
u
0.000 0.000 0.000 1.000 K
0 j
0 J
0.287 w
[]0 d
708.839 570.527 m
708.839 588.455 L
S
U
U
u
u
0.000 0.000 0.000 1.000 K
0 j
0 J
0.287 w
[]0 d
914.759 570.527 m
914.759 588.455 L
S
U
U
0.000 0.000 0.000 1.000 K
0 j
0 J
0.287 w
[]0 d
0.000 0.000 0.000 0.298 k
920.159 671.399 m
936.863 670.535 l
938.375 670.535 939.887 669.383 939.887 667.727 c
939.887 657.359 l
939.887 655.847 938.519 654.551 936.863 654.551 c
920.159 654.551 l
918.503 654.551 917.135 655.847 917.135 657.359 c
917.135 668.663 l
917.135 670.247 918.647 671.399 920.159 671.399 c
b
0.000 0.000 0.000 1.000 K
0 j
0 J
0.287 w
[]0 d
0.000 0.000 0.000 0.298 k
704.087 671.615 m
687.167 670.751 l
685.655 670.751 684.072 669.599 684.072 667.943 c
684.072 657.431 l
684.072 655.847 685.511 654.623 687.167 654.623 c
704.087 654.623 l
705.743 654.623 707.111 655.847 707.111 657.431 c
707.111 668.807 l
707.111 670.463 705.599 671.615 704.087 671.615 c
b
0.000 0.000 0.000 1.000 K
0 j
0 J
0.287 w
[]0 d
0.000 0.000 0.000 0.498 k
899.351 253.223 m
724.895 253.223 L
724.895 250.199 L
743.111 249.767 773.495 247.967 781.199 250.199 C
855.215 249.911 L
861.119 248.903 879.839 248.903 890.279 249.911 C
899.351 249.911 L
899.351 253.223 L
b
0.000 0.000 0.000 1.000 K
0 j
0 J
0.287 w
[]0 d
0.000 0.000 0.000 0.298 k
712.367 329.399 m
699.767 329.399 L
696.887 313.991 697.823 291.959 697.751 285.839 C
712.367 285.911 L
712.367 329.399 L
b
0.000 0.000 0.000 1.000 K
0 j
0 J
0.287 w
[]0 d
0.000 0.000 0.000 0.298 k
911.807 329.399 m
924.407 329.399 L
926.207 314.855 926.999 295.199 925.487 285.839 C
911.807 285.911 L
911.807 329.399 L
b
u
u
0.000 0.000 0.000 1.000 K
0 j
0 J
0.287 w
[]0 d
712.439 320.327 m
697.535 320.327 L
S
U
U
u
u
0.000 0.000 0.000 1.000 K
0 j
0 J
0.287 w
[]0 d
911.735 320.327 m
926.639 320.327 L
S
U
U
u
u
0.000 0.000 0.000 1.000 K
0 j
0 J
0.287 w
[]0 d
712.439 302.471 m
697.607 302.471 L
S
U
U
u
u
0.000 0.000 0.000 1.000 K
0 j
0 J
0.287 w
[]0 d
911.735 302.471 m
925.055 302.471 L
S
U
U
0.000 0.000 0.000 1.000 K
0 j
0 J
0.287 w
[]0 d
0.000 0.000 0.000 0.498 k
921.599 359.207 m
938.375 358.343 l
939.887 358.343 941.399 357.191 941.399 355.536 c
941.399 345.167 l
941.399 343.655 939.959 342.359 938.375 342.359 c
921.599 342.359 l
919.943 342.359 918.575 343.655 918.575 345.167 c
918.575 356.471 l
918.575 358.055 920.087 359.207 921.599 359.207 c
b
0.000 0.000 0.000 1.000 K
0 j
0 J
0.287 w
[]0 d
0.000 0.000 0.000 0.498 k
702.935 359.423 m
686.015 358.487 l
684.503 358.487 682.991 357.335 682.991 355.679 c
682.991 345.167 l
682.991 343.655 684.359 342.359 686.015 342.359 c
702.935 342.359 l
704.591 342.359 706.031 343.655 706.031 345.167 c
706.031 356.615 l
706.031 358.271 704.519 359.423 702.935 359.423 c
b
u
u
0.000 0.000 0.000 1.000 K
0 j
0 J
0.287 w
[]0 d
712.727 286.271 m
912.023 286.271 L
S
U
U
u
u
0.000 0.000 0.000 1.000 K
0 j
0 J
0.287 w
[]0 d
694.583 276.120 m
931.391 276.120 L
S
U
U
0.000 0.000 0.000 1.000 K
0 j
0 J
0.287 w
[]0 d
0.000 0.000 0.000 0.498 k
209.231 723.024 m
218.303 722.231 L
145.799 659.519 L
139.536 662.255 L
209.231 723.024 L
b
0.000 0.000 0.000 1.000 K
0 j
0 J
0.287 w
[]0 d
0.000 0.000 0.000 0.498 k
373.895 415.439 m
364.895 414.647 L
437.327 351.863 L
443.591 354.599 L
373.895 415.439 L
b
0.000 0.000 0.000 1.000 K
0 j
0 J
0.287 w
[]0 d
0.000 0.000 0.000 0.200 k
214.847 721.151 m
145.584 661.175 L
142.127 662.615 L
209.735 721.583 L
214.847 721.151 L
b
0.000 0.000 0.000 1.000 K
0 j
0 J
0.287 w
[]0 d
0.000 0.000 0.000 0.200 k
368.279 413.495 m
437.615 353.519 L
440.999 355.031 L
373.463 413.999 L
368.279 413.495 L
b
0.000 0.000 0.000 1.000 K
0 j
0 J
0.287 w
[]0 d
0.000 0.000 0.000 0.498 k
718.343 661.319 m
904.247 661.319 l
907.055 661.319 909.863 663.767 909.287 666.359 c
904.967 685.439 898.343 703.655 887.543 720.143 c
886.103 722.375 885.311 725.183 882.503 725.183 c
740.087 725.183 l
737.279 725.183 736.271 722.447 735.047 720.143 c
725.111 701.927 718.343 683.927 713.303 666.359 c
712.583 663.839 715.535 661.319 718.343 661.319 c
b
0.000 0.000 0.000 1.000 K
0 j
0 J
0.287 w
[]0 d
0.000 0.000 0.000 0.200 k
905.759 663.048 m
907.055 663.767 908.063 664.559 907.919 666.144 C
905.471 676.727 902.303 687.024 898.199 697.031 C
894.815 704.807 890.927 712.295 886.391 719.423 C
885.599 720.719 884.591 723.167 883.079 723.671 C
882.431 723.815 L
740.159 723.815 L
738.287 723.599 737.423 721.871 736.775 720.359 C
732.383 712.511 728.495 704.159 724.967 695.807 C
721.007 686.087 717.479 675.863 714.599 665.783 C
714.599 663.839 716.759 662.903 718.343 662.759 C
904.175 662.759 L
905.039 662.831 L
905.759 663.048 L
b
0.000 0.000 0.000 1.000 K
0 j
0 J
0.287 w
[]0 d
926.423 602.423 m
928.223 602.423 929.951 603.935 929.663 605.591 c
925.991 625.031 l
925.703 626.687 924.551 628.199 922.751 628.199 c
701.495 628.199 l
699.767 628.199 698.615 626.687 698.327 625.031 c
694.655 605.591 l
694.367 603.935 696.096 602.423 697.823 602.423 c
926.423 602.423 l
s
0.000 0.000 0.000 1.000 K
0 j
0 J
0.287 w
[]0 d
0.000 0.000 0.000 0.498 k
811.223 606.599 m
770.111 606.599 l
760.895 606.599 759.095 616.823 759.095 624.024 C
811.223 624.024 L
863.351 624.024 L
863.279 616.823 861.551 606.599 852.335 606.599 c
811.223 606.599 L
b
u
u
0.000 0.000 0.000 0.298 k
712.655 606.887 m
713.015 628.343 L
744.479 628.343 l
746.567 628.343 748.295 626.615 748.295 624.455 c
748.295 610.703 l
748.295 608.615 746.567 606.815 744.479 606.815 c
695.663 606.815 L
S
U
u
0.000 0.000 0.000 1.000 K
0 j
0 J
0.287 w
[]0 d
712.655 606.887 m
713.015 628.343 L
744.479 628.343 l
746.567 628.343 748.295 626.615 748.295 624.455 c
748.295 610.703 l
748.295 608.615 746.567 606.815 744.479 606.815 c
695.663 606.815 L
S
U
U
u
u
0.000 0.000 0.000 0.298 k
909.719 606.887 m
909.431 628.343 L
877.967 628.343 l
875.807 628.343 874.079 626.615 874.079 624.455 c
874.079 610.703 l
874.079 608.615 875.807 606.815 877.967 606.815 c
929.015 606.815 L
S
U
u
0.000 0.000 0.000 1.000 K
0 j
0 J
0.287 w
[]0 d
909.719 606.887 m
909.431 628.343 L
877.967 628.343 l
875.807 628.343 874.079 626.615 874.079 624.455 c
874.079 610.703 l
874.079 608.615 875.807 606.815 877.967 606.815 c
929.015 606.815 L
S
U
U
0.000 0.000 0.000 1.000 K
0 j
0 J
0.287 w
[]0 d
0.000 0.000 0.000 0.000 k
741.239 609.479 m
717.623 609.479 l
715.895 609.479 714.527 610.919 714.527 612.647 c
714.527 622.871 l
714.527 624.599 715.895 625.967 717.623 625.967 c
741.239 625.967 l
742.967 625.967 744.335 624.599 744.335 622.871 c
744.335 612.647 l
744.335 610.919 742.967 609.479 741.239 609.479 c
b
0.000 0.000 0.000 1.000 K
0 j
0 J
0.287 w
[]0 d
0.000 0.000 0.000 0.000 k
881.207 609.479 m
904.751 609.479 l
906.479 609.479 907.919 610.919 907.919 612.647 c
907.919 622.871 l
907.919 624.599 906.479 625.967 904.751 625.967 c
881.207 625.967 l
879.479 625.967 878.039 624.599 878.039 622.871 c
878.039 612.647 l
878.039 610.919 879.479 609.479 881.207 609.479 c
b
0.000 0.000 0.000 1.000 K
0 j
0 J
0.287 w
[]0 d
0.000 0.000 0.000 0.298 k
710.927 609.407 m
696.959 609.407 L
700.343 625.967 L
710.927 625.967 L
710.927 609.407 L
b
0.000 0.000 0.000 1.000 K
0 j
0 J
0.287 w
[]0 d
0.000 0.000 0.000 0.298 k
911.519 609.407 m
925.487 609.407 L
922.031 625.967 L
911.519 625.967 L
911.519 609.407 L
b
0.000 0.000 0.000 0.000 k
800.783 616.535 m
795.167 616.535 L
794.879 616.247 794.879 616.247 795.095 616.103 C
798.695 614.735 l
799.919 614.303 800.783 614.087 800.855 612.791 C
800.927 612.144 800.711 611.351 799.919 611.279 C
792.575 611.279 L
792.575 612.791 L
797.903 612.791 L
798.119 612.791 798.119 613.007 797.687 613.151 C
794.447 614.375 L
793.799 614.663 792.791 614.735 792.503 615.527 c
792.143 616.463 792.791 618.120 794.015 618.120 C
800.783 618.120 L
800.783 616.535 L
f
0.000 0.000 0.000 0.000 k
812.663 616.535 m
818.279 616.535 L
818.567 616.247 818.567 616.247 818.351 616.103 C
814.751 614.735 l
813.527 614.303 812.663 614.087 812.591 612.791 C
812.519 612.144 812.735 611.351 813.527 611.279 C
820.871 611.279 L
820.871 612.791 L
815.543 612.791 L
815.327 612.791 815.327 613.007 815.759 613.151 C
818.999 614.375 L
819.647 614.663 820.655 614.735 820.943 615.527 c
821.303 616.463 820.655 618.120 819.431 618.120 C
812.663 618.120 L
812.663 616.535 L
f
0.000 0.000 0.000 0.000 k
805.031 618.120 m
805.031 613.439 L
805.031 613.079 805.103 612.791 805.535 612.791 C
807.911 612.791 L
808.343 612.791 808.559 613.079 808.559 613.439 C
808.559 618.120 L
810.935 618.120 L
810.935 612.503 L
810.647 611.567 809.351 611.279 808.559 611.279 C
805.247 611.279 L
804.095 611.279 802.871 611.711 802.799 612.575 C
802.799 618.120 L
805.031 618.120 L
f
0.000 0.000 0.000 0.000 k
825.407 618.120 m
825.407 613.439 L
825.407 613.079 825.479 612.791 825.911 612.791 C
828.287 612.791 L
828.647 612.791 828.863 613.079 828.863 613.439 C
828.863 618.120 L
831.311 618.120 L
831.311 612.503 L
831.023 611.567 829.655 611.279 828.863 611.279 C
825.623 611.279 L
824.399 611.279 823.247 611.711 823.103 612.575 C
823.103 618.120 L
825.407 618.120 L
f
0.000 0.000 0.000 0.000 k
790.487 611.279 m
788.111 611.279 L
788.111 618.120 L
790.487 618.120 L
790.487 611.279 L
f
0.000 0.000 0.000 1.000 K
0 j
0 J
0.287 w
[]0 d
0.000 0.000 0.000 0.000 k
711.791 567.863 m
735.911 567.863 l
737.495 567.863 738.791 566.567 738.791 564.983 c
738.791 562.031 l
738.791 560.447 737.495 559.223 735.911 559.223 c
711.791 559.223 l
710.207 559.223 708.911 560.447 708.911 562.031 c
708.911 564.983 l
708.911 566.567 710.207 567.863 711.791 567.863 c
b
0.000 0.000 0.000 1.000 K
0 j
0 J
0.287 w
[]0 d
0.000 0.000 0.000 0.498 k
-32.471 591.983 m
-33.911 590.759 -35.855 590.255 -37.512 590.039 C
-38.231 578.447 -39.095 568.079 -35.495 555.839 C
-33.407 548.927 -29.807 545.759 -23.039 546.839 C
-4.823 547.487 L
-3.455 566.063 1.799 580.103 8.495 591.983 C
-32.471 591.983 L
b
0.000 0.000 0.000 1.000 K
0 j
0 J
0.287 w
[]0 d
0.000 0.000 0.000 0.498 k
615.671 284.327 m
617.111 283.103 619.055 282.599 620.711 282.383 C
621.431 270.791 622.295 260.423 618.695 248.183 C
616.607 241.271 613.007 238.103 606.240 239.183 C
588.024 239.831 L
586.655 258.407 581.399 272.447 574.703 284.327 C
615.671 284.327 L
b
u
u
0.000 0.000 0.000 1.000 K
0 j
0 J
0.287 w
[]0 d
712.655 337.967 m
712.655 253.943 L
S
U
U
u
u
0.000 0.000 0.000 1.000 K
0 j
0 J
0.287 w
[]0 d
911.447 337.967 m
911.447 253.943 L
S
U
U
0.000 0.000 0.000 1.000 K
0 j
0 J
0.287 w
[]0 d
0.000 0.000 0.000 1.000 k
697.247 258.479 m
697.247 203.471 l
697.247 201.167 699.119 199.295 701.423 199.295 c
720.935 199.295 l
723.239 199.295 725.111 201.167 725.111 203.471 c
725.111 253.799 L
704.303 253.799 l
700.919 253.799 698.759 255.599 697.247 258.479 C
b
0.000 0.000 0.000 1.000 K
0 j
0 J
0.287 w
[]0 d
0.000 0.000 0.000 1.000 k
899.279 253.799 m
899.279 203.471 l
899.279 201.167 901.151 199.295 903.455 199.295 c
922.967 199.295 l
925.271 199.295 927.143 201.167 927.143 203.471 c
927.143 257.111 L
925.775 255.095 923.831 253.799 921.095 253.799 c
899.279 253.799 L
b
0.000 0.000 0.000 1.000 K
0 j
0 J
0.287 w
[]0 d
0.000 0.000 0.000 1.000 k
899.279 545.543 m
899.279 512.495 l
899.279 510.191 901.151 508.319 903.455 508.319 c
922.967 508.319 l
925.271 508.319 927.143 510.191 927.143 512.495 c
927.143 545.687 L
927.071 545.543 926.999 545.543 926.855 545.543 C
899.279 545.543 L
b
0.000 0.000 0.000 1.000 K
0 j
0 J
0.287 w
[]0 d
0.000 0.000 0.000 1.000 k
697.247 545.543 m
697.247 512.495 l
697.247 510.191 699.119 508.319 701.423 508.319 c
720.935 508.319 l
723.239 508.319 725.111 510.191 725.111 512.495 c
725.111 545.543 L
697.391 545.543 L
697.319 545.543 697.247 545.543 697.247 545.543 C
b
0.000 0.000 0.000 1.000 K
0 j
0 J
0.287 w
[]0 d
0.000 0.000 0.000 0.200 k
720.503 340.919 m
903.383 340.919 l
905.903 340.919 908.783 343.223 907.991 345.527 c
889.055 398.951 l
888.263 401.255 887.039 403.559 884.447 403.559 c
739.943 403.559 l
737.423 403.559 736.199 401.255 735.335 398.951 c
715.895 345.527 l
715.103 343.223 717.983 340.919 720.503 340.919 c
b
u
u
0.000 0.000 0.000 1.000 K
0 j
0 J
0.215 w
[]0 d
302.759 724.823 m
389.303 724.535 L
410.255 703.079 427.247 680.111 443.447 652.823 c
450.503 640.943 446.687 620.279 435.959 615.383 c
418.895 607.535 405.575 599.255 398.375 581.183 C
395.279 574.199 394.127 564.479 388.439 564.623 C
305.567 564.623 L
S
U
U
u
u
0.000 0.000 0.000 1.000 K
0 j
0 J
0.215 w
[]0 d
280.367 417.239 m
193.895 416.951 L
172.943 395.423 155.951 372.527 139.751 345.239 c
132.695 333.287 136.439 312.623 147.167 307.727 c
164.231 299.879 177.551 291.671 184.751 273.527 C
187.847 266.543 189.071 256.823 194.687 256.967 C
277.560 256.967 L
S
U
U
0.000 0.000 0.000 1.000 K
0 j
0 J
1.008 w
[]0 d
0.000 0.000 0.000 0.498 k
400.319 726.263 m
401.183 727.775 403.199 728.711 405.143 729.071 C
434.087 729.287 463.535 728.927 493.127 728.351 C
502.199 728.351 514.223 722.807 519.623 716.903 C
539.855 700.487 557.063 683.279 577.439 660.527 C
580.607 656.711 583.487 653.543 585.647 647.207 C
486.431 647.207 L
470.015 647.207 466.271 649.727 462.455 654.767 C
400.319 726.263 L
b
0.000 0.000 0.000 1.000 K
0 j
0 J
1.008 w
[]0 d
0.000 0.000 0.000 0.498 k
182.879 418.679 m
181.943 420.191 179.927 421.127 178.055 421.415 C
149.039 421.631 119.663 421.343 90.071 420.767 C
81.000 420.767 68.975 415.223 63.575 409.247 C
43.343 392.903 26.135 375.623 5.759 352.871 C
2.591 349.127 -0.287 345.959 -2.447 339.551 C
96.767 339.551 L
113.111 339.551 116.927 342.071 120.671 347.111 C
182.879 418.679 L
b
u
u
0.000 0.000 0.000 1.000 K
0 j
0 J
0.215 w
[]0 d
484.847 726.911 m
512.135 702.143 538.199 676.151 560.087 647.135 C
S
U
U
u
u
0.000 0.000 0.000 1.000 K
0 j
0 J
0.215 w
[]0 d
98.351 419.255 m
71.063 394.487 45.000 368.495 23.111 339.551 C
S
U
U
0.000 0.000 0.000 1.000 K
0 j
0 J
0.215 w
[]0 d
0.000 0.000 0.000 1.000 k
533.231 681.839 m
537.839 681.839 L
557.423 659.375 L
552.815 659.375 L
533.231 681.839 L
b
0.000 0.000 0.000 1.000 K
0 j
0 J
0.215 w
[]0 d
0.000 0.000 0.000 1.000 k
49.967 374.183 m
45.359 374.183 L
25.775 351.719 L
30.383 351.719 L
49.967 374.183 L
b
0.000 0.000 0.000 1.000 K
0 j
0 J
0.215 w
[]0 d
0.000 0.000 0.000 1.000 k
508.823 706.535 m
513.503 706.535 L
534.887 684.863 L
530.279 684.863 L
508.823 706.535 L
b
0.000 0.000 0.000 1.000 K
0 j
0 J
0.215 w
[]0 d
0.000 0.000 0.000 1.000 k
74.375 398.951 m
69.695 398.951 L
48.311 377.207 L
52.919 377.207 L
74.375 398.951 L
b
0.000 0.000 0.000 1.000 K
0 j
0 J
0.215 w
[]0 d
0.000 0.000 0.000 0.200 k
478.007 652.103 m
537.192 652.103 L
540.575 652.103 543.240 654.839 543.240 658.151 C
531.144 677.375 515.375 692.135 497.447 706.607 C
493.127 712.079 488.663 712.727 485.351 712.727 C
436.103 712.727 L
432.719 712.727 429.983 709.991 429.983 706.607 C
469.871 658.151 L
471.527 653.543 475.703 652.247 478.007 652.103 C
b
0.000 0.000 0.000 1.000 K
0 j
0 J
0.215 w
[]0 d
0.000 0.000 0.000 0.200 k
105.119 344.447 m
46.007 344.447 L
42.623 344.447 39.959 347.183 39.959 350.567 C
52.055 369.719 67.823 384.551 85.751 399.023 C
90.071 404.495 94.463 405.143 97.847 405.143 C
147.095 405.143 L
150.407 405.143 153.143 402.407 153.143 399.023 C
113.327 350.567 L
111.671 345.959 107.423 344.591 105.119 344.447 C
b
0.000 0.000 0.000 1.000 k
773.279 267.335 m
742.751 267.335 717.839 292.319 717.839 322.847 c
717.839 353.447 742.751 378.359 773.279 378.359 c
803.879 378.359 828.791 353.447 828.791 322.847 c
828.791 292.319 803.879 267.335 773.279 267.335 c
f
0.000 0.000 0.000 1.000 K
0 j
0 J
0.215 w
[]0 d
0.000 0.000 0.000 0.098 k
838.295 316.007 m
840.671 316.007 842.543 317.951 842.543 320.327 c
842.543 322.703 840.671 324.575 838.295 324.575 c
835.919 324.575 833.975 322.703 833.975 320.327 c
833.975 317.951 835.919 316.007 838.295 316.007 c
b
0.000 0.000 0.000 1.000 K
0 j
0 J
0.287 w
[]0 d
0.000 0.000 0.000 0.498 k
595.511 590.471 m
598.319 590.471 600.695 588.312 600.695 585.647 c
600.695 572.903 l
600.695 570.240 598.391 568.295 595.511 568.007 c
576.144 566.207 l
573.336 565.991 570.959 568.439 570.959 571.103 c
570.959 590.183 L
595.511 590.471 l
b
0.000 0.000 0.000 1.000 K
0 j
0 J
0.287 w
[]0 d
0.000 0.000 0.000 0.498 k
-12.311 282.815 m
-15.119 282.815 -17.495 280.656 -17.495 277.991 c
-17.495 265.247 l
-17.495 262.584 -15.191 260.639 -12.311 260.351 c
7.055 258.551 l
9.863 258.335 12.239 260.783 12.239 263.447 c
12.239 282.527 L
-12.311 282.815 l
b
0.000 0.000 0.000 1.000 k
587.591 590.399 m
595.511 590.471 l
598.319 590.471 600.695 588.312 600.695 585.647 c
600.695 579.096 L
616.535 579.096 l
619.703 579.096 622.367 581.687 622.367 584.855 c
622.367 680.471 l
622.367 683.711 619.703 686.303 616.535 686.303 c
593.351 686.303 l
590.255 686.303 587.591 683.711 587.591 680.471 c
587.591 590.399 L
f
0.000 0.000 0.000 1.000 k
-4.391 282.743 m
-12.311 282.815 l
-15.119 282.815 -17.495 280.656 -17.495 277.991 c
-17.495 271.439 L
-33.335 271.439 l
-36.503 271.439 -39.167 274.031 -39.167 277.199 c
-39.167 372.887 l
-39.167 376.055 -36.503 378.647 -33.335 378.647 c
-10.151 378.647 l
-7.055 378.647 -4.391 376.055 -4.391 372.887 c
-4.391 282.743 L
f
0.000 0.000 0.000 1.000 K
0 j
0 J
0.215 w
[]0 d
511.055 619.127 m
524.231 619.127 l
526.031 619.127 527.471 617.687 527.471 615.959 c
527.471 607.607 l
527.471 605.807 526.031 604.367 524.231 604.367 c
511.055 604.367 l
509.327 604.367 507.887 605.807 507.887 607.607 c
507.887 615.959 l
507.887 617.687 509.327 619.127 511.055 619.127 c
s
0.000 0.000 0.000 1.000 K
0 j
0 J
0.575 w
[]0 d
0.000 0.000 0.000 0.298 k
795.167 413.495 m
828.719 413.495 L
828.719 404.855 L
795.167 404.855 L
795.167 413.495 L
b
0.000 0.000 0.000 1.000 K
0 j
0 J
0.575 w
[]0 d
795.167 413.495 m
828.719 413.495 L
823.463 421.127 L
800.711 421.127 L
795.167 413.495 L
s
0.000 0.000 0.000 1.000 K
0 j
0 J
0.215 w
[]0 d
0.000 0.000 0.000 0.098 k
797.615 413.135 m
826.271 413.135 l
827.063 413.135 827.639 412.343 827.639 411.407 c
827.639 408.599 l
827.639 407.591 827.063 406.871 826.271 406.871 c
797.615 406.871 l
796.823 406.871 796.247 407.591 796.247 408.599 c
796.247 411.407 l
796.247 412.343 796.823 413.135 797.615 413.135 c
b
0.000 0.000 0.000 1.000 K
0 j
0 J
0.287 w
[]0 d
775.799 253.727 m
846.503 253.727 L
841.823 269.279 L
780.479 269.279 L
775.799 253.727 L
s
0.000 0.000 0.000 1.000 K
0 j
0 J
2.016 w
[]0 d
0.000 0.000 0.000 0.000 k
793.727 265.463 m
829.511 265.463 l
831.023 265.463 832.175 264.239 832.175 262.727 c
832.175 246.815 l
832.175 245.303 831.023 244.079 829.511 244.079 c
793.727 244.079 l
792.215 244.079 790.991 245.303 790.991 246.815 c
790.991 262.727 l
790.991 264.239 792.215 265.463 793.727 265.463 c
b
u
u
U
u
0.000 0.000 0.000 1.000 K
0 j
0 J
0.215 w
[]0 d
-15.119 177.407 m
226.943 177.407 L
S
U
U
u
u
U
u
0.000 0.000 0.000 1.000 K
0 j
0 J
0.215 w
[]0 d
361.367 177.407 m
623.231 177.407 L
S
U
U
u
u
U
u
0.000 0.000 0.000 1.000 K
0 j
0 J
0.215 w
[]0 d
-18.143 191.519 m
-18.143 159.983 L
S
U
U
0.000 0.000 0.000 1.000 k
-18.288 177.479 m
-7.919 174.383 L
-7.919 180.575 L
-18.288 177.479 L
f
u
u
U
u
0.000 0.000 0.000 1.000 K
0 j
0 J
0.215 w
[]0 d
622.295 189.431 m
622.295 158.327 L
S
U
U
0.000 0.000 0.000 1.000 k
622.367 177.479 m
612.000 174.383 L
612.000 180.575 L
622.367 177.479 L
f
0.000 0.000 0.000 1.000 k
348.407 184.895 m
349.415 183.239 350.063 181.007 350.063 179.063 C
350.063 176.687 349.559 174.527 348.407 172.655 C
348.983 172.655 L
350.135 174.455 350.927 176.471 350.927 178.703 C
350.927 181.151 350.279 182.879 348.983 184.895 C
348.407 184.895 L
f
0.000 0.000 0.000 1.000 k
338.111 175.103 m
338.975 175.103 L
338.975 178.991 L
338.975 180.431 339.551 181.512 340.991 181.512 C
342.071 181.512 342.431 180.719 342.431 179.783 C
342.431 175.103 L
343.295 175.103 L
343.295 178.991 L
343.295 180.215 343.727 181.512 345.167 181.512 C
346.391 181.512 346.823 180.935 346.823 179.783 C
346.823 175.103 L
347.687 175.103 L
347.687 179.783 L
347.687 181.439 346.895 182.159 345.383 182.159 C
344.447 182.159 343.583 181.799 343.151 180.863 C
342.935 181.799 342.071 182.159 341.207 182.159 C
340.055 182.159 339.335 181.727 338.903 180.863 C
338.903 180.863 L
338.903 182.015 L
338.111 182.015 L
338.111 175.103 L
338.111 175.103 L
f
0.000 0.000 0.000 1.000 k
327.024 175.103 m
327.887 175.103 L
327.887 178.991 L
327.887 180.431 328.463 181.512 329.903 181.512 C
330.983 181.512 331.343 180.719 331.343 179.783 C
331.343 175.103 L
332.207 175.103 L
332.207 178.991 L
332.207 180.215 332.639 181.512 334.079 181.512 C
335.303 181.512 335.735 180.935 335.735 179.783 C
335.735 175.103 L
336.599 175.103 L
336.599 179.783 L
336.599 181.439 335.807 182.159 334.223 182.159 C
333.359 182.159 332.495 181.799 332.063 180.863 C
331.847 181.799 330.983 182.159 330.119 182.159 C
328.967 182.159 328.247 181.727 327.815 180.863 C
327.815 180.863 L
327.815 182.015 L
327.024 182.015 L
327.024 175.103 L
327.024 175.103 L
f
0.000 0.000 0.000 1.000 k
316.151 184.607 m
313.415 184.607 312.839 181.871 312.839 179.639 C
312.839 177.551 313.415 174.959 316.151 174.959 C
318.887 174.959 319.391 177.551 319.391 179.783 C
319.391 181.871 318.887 184.607 316.151 184.607 C
f
0.000 0.000 0.000 1.000 k
311.615 182.159 m
311.615 183.815 310.175 184.607 308.735 184.607 C
307.367 184.607 305.927 183.815 305.927 182.159 C
305.927 181.223 306.359 180.431 307.367 180.143 C
307.367 180.143 L
306.215 179.855 305.495 178.919 305.495 177.768 C
305.495 175.823 306.935 174.959 308.735 174.959 C
310.463 174.959 311.975 175.823 311.975 177.768 C
311.975 178.991 311.183 179.855 310.031 180.143 C
310.031 180.143 L
310.031 180.143 L
311.039 180.431 311.615 181.223 311.615 182.159 C
f
0.000 0.000 0.000 1.000 k
298.007 177.479 m
302.327 177.479 L
302.327 175.103 L
303.120 175.103 L
303.120 177.479 L
304.487 177.479 L
304.487 178.127 L
303.120 178.127 L
303.120 184.463 L
302.327 184.463 L
298.007 178.199 L
298.007 177.479 L
f
0.000 0.000 0.000 1.000 k
290.591 177.479 m
294.911 177.479 L
294.911 175.103 L
295.703 175.103 L
295.703 177.479 L
297.000 177.479 L
297.000 178.127 L
295.703 178.127 L
295.703 184.463 L
294.911 184.463 L
290.591 178.199 L
290.591 177.479 L
f
0.000 0.000 0.000 1.000 k
290.159 172.655 m
289.223 174.239 288.431 176.399 288.431 178.343 C
288.431 180.719 289.007 182.951 290.159 184.895 C
289.512 184.895 L
288.359 183.023 287.711 180.935 287.711 178.703 C
287.711 176.327 288.359 174.527 289.512 172.655 C
290.159 172.655 L
f
0.000 0.000 0.000 1.000 k
278.639 181.439 m
279.503 181.439 L
279.503 184.679 L
278.639 184.679 L
278.639 181.439 L
f
0.000 0.000 0.000 1.000 k
276.839 181.439 m
277.632 181.439 L
277.632 184.679 L
276.839 184.679 L
276.839 181.439 L
f
0.000 0.000 0.000 1.000 k
268.704 177.479 m
273.024 177.479 L
273.024 175.103 L
273.815 175.103 L
273.815 177.479 L
275.111 177.479 L
275.111 178.127 L
273.815 178.127 L
273.815 184.463 L
273.024 184.463 L
268.704 178.199 L
268.704 177.479 L
f
0.000 0.000 0.000 1.000 k
267.048 175.103 m
267.048 176.471 L
265.895 176.471 L
265.895 175.103 L
267.048 175.103 L
f
0.000 0.000 0.000 1.000 k
263.951 182.087 m
263.735 183.743 262.727 184.607 261.072 184.607 C
257.975 184.607 257.687 181.007 257.687 179.855 C
257.687 176.183 258.623 174.959 260.927 174.959 C
262.799 174.959 264.168 176.183 264.168 178.055 C
264.168 179.855 262.871 181.223 261.072 181.223 C
259.991 181.223 259.055 180.575 258.551 179.639 C
258.551 179.639 L
258.551 181.295 258.911 183.815 261.144 183.815 C
262.223 183.815 262.871 183.167 263.087 182.087 C
263.951 182.087 L
f
0.000 0.000 0.000 1.000 k
250.415 183.599 m
255.527 183.599 L
252.935 180.647 251.999 178.199 251.711 175.103 C
252.647 175.103 L
252.863 179.495 255.239 182.375 256.463 183.599 C
256.463 184.391 L
250.415 184.391 L
250.415 183.599 L
f
0.000 0.000 0.000 1.000 k
243.575 182.087 m
246.095 182.087 L
246.095 175.247 L
246.095 175.103 L
246.887 175.103 L
246.887 182.015 L
246.887 184.463 L
246.239 184.463 L
246.023 182.735 245.015 182.735 243.575 182.663 C
243.575 182.087 L
f
0.000 0.000 0.000 0.000 k
316.151 183.815 m
318.239 183.815 318.527 181.295 318.527 179.783 C
318.527 178.127 318.239 175.607 316.151 175.607 C
313.991 175.607 313.703 178.127 313.703 179.783 C
313.703 181.295 313.991 183.815 316.151 183.815 C
f
0.000 0.000 0.000 0.000 k
308.735 180.431 m
307.727 180.431 306.647 180.935 306.647 182.159 C
306.647 183.311 307.655 183.815 308.735 183.815 C
309.887 183.815 310.751 183.311 310.751 182.159 C
310.751 181.007 309.743 180.431 308.735 180.431 C
f
0.000 0.000 0.000 0.000 k
308.735 175.607 m
307.439 175.607 306.287 176.327 306.287 177.768 C
306.287 179.063 307.439 179.783 308.735 179.783 C
309.959 179.783 311.111 179.063 311.111 177.768 C
311.111 176.327 310.031 175.607 308.735 175.607 C
f
0.000 0.000 0.000 0.000 k
298.799 178.127 m
302.255 183.239 L
302.327 183.239 L
302.327 178.127 L
298.799 178.127 L
f
0.000 0.000 0.000 0.000 k
291.311 178.127 m
294.839 183.239 L
294.911 183.239 L
294.911 178.127 L
291.311 178.127 L
f
0.000 0.000 0.000 0.000 k
269.423 178.127 m
272.951 183.239 L
273.024 183.239 L
273.024 178.127 L
269.423 178.127 L
f
0.000 0.000 0.000 0.000 k
261.072 180.575 m
262.512 180.575 263.303 179.351 263.303 178.055 C
263.303 176.687 262.439 175.607 261.072 175.607 C
259.415 175.607 258.767 176.687 258.767 178.055 C
258.767 179.351 259.632 180.575 261.072 180.575 C
f
%%Trailer
_E end