%!PS-Adobe-2.0 EPSF-1.2
%%Creator: Adobe Illustrator exported from Corel Draw 3.0
%%Title:6
%%BoundingBox:-3 245 958 845
%%CreationDate:(Unknown)
%%ColorUsage:
%%TemplateBox:-3 245 958 845
%%EndComments
%%BeginProcSet:Adobe_Illustrator_1.1 0 0
% Version 1.0 3/27/1990 $nokeywords$
% Copyright (C) 1990,1991,1992
% Corel Corporation
% All Rights Reserved

/wPmsDict 150 dict def 
wPmsDict begin 

/$debug 25 string def 

/bd {bind def} bind def 
/ld {load def} bd 
/xd {exch def} bd 
/_ null def 

/$c 0 def 
/$m 0 def 
/$y 0 def 
/$k 0 def 
/$t 1 def 
/$n _ def 
/$o 0 def 
/$pf false def 

/$C 0 def 
/$M 0 def 
/$Y 0 def 
/$K 0 def 
/$T 1 def 
/$N _ def 
/$O 0 def 
/$PF false def 

/$h false def 

/$al 0 def 
/$tr 0 def 
/$le 0 def 
/$lx 0 def 
/$ly 0 def 

/$ctm matrix currentmatrix def 
/$ptm matrix def 

/$pn () def 
/$pm matrix def 
/$px 0 def 
/$py 0 def 
/$pxf 0 def 
/$pyf 0 def 
/$psx 10 def 
/$psy 0 def 

/$llx 0 def 
/$lly 0 def 
/$urx 0 def 
/$ury 0 def 


/$Bbllx 0 def 
/$Bblly 0 def 
/$Bburx 0 def 
/$Bbury 0 def 

/$tllx 0 def 
/$tlly 0 def 
/$turx 0 def 
/$tury 0 def 

/$pd [] def 
/$tx 0 def 
/$ty 0 def 

/$sv 0 def 
/@cp /closepath ld 
/@gs /gsave ld 
/@gr /grestore ld 
/@np /newpath ld 
/@sv {/$sv save def}bd 
/@rs {$sv restore}bd 

/@MN { 
2 copy le{pop}{exch pop}ifelse 
}bd 

/setcmykcolor where {pop} 
{ 
/setcmykcolor 
{ 
4 1 roll 
3 {3 index add 1 @MN 1 exch sub 3 1 roll} repeat 
setrgbcolor 
pop 
}bd 
}ifelse 

/@tc 
{ 
dup 1 ge 
{pop} 
{ 
4 { 
dup 
6 -1 roll 
mul 
exch 
}repeat 
pop 
}ifelse 
}bd 

/@scc 
{ 
$c $m $y $k $t @tc 
setcmykcolor 
true 
}bd 
/@SCC 
{ 
$C $M $Y $K $T @tc 
setcmykcolor 
true 
}bd 

/@sft 
{ 
(setfirsttile sft )print 
/$tx $tllx $pxf add dup $tllx gt {$pwid $psx add sub}if def 
/$ty $tury $pyf sub dup $tury lt {$phei $psy add add}if def 
(setfirsttile exit )print 
}bd 

/@stb 
{ 
pathbbox /$ury xd /$urx xd /$lly xd /$llx xd 
}bd 

/@ep 
{ 
{ 
cvx exec 
}forall 
}bd 

/@tp 
{ 

(tile pattern tp )print 
@sv 
/$in true def 
2 copy 
dup $lly le {/$in false def}if 
$phei sub $ury ge {/$in false def}if 
dup $urx ge {/$in false def}if 
$pwid add $llx le {/$in false def}if 
$in 
{ 
@np 
2 copy moveto 
$pwid 0 rlineto 
0 $phei neg rlineto 
$pwid neg 0 rlineto 
0 $phei rlineto 
clip @np 

$pn cvlit load aload pop 
7 -1 roll 
5 index sub 
7 -1 roll 
3 index sub 
translate 
@ep 
pop pop pop pop 
} 
{pop pop}ifelse 
@rs 
(tile pattern exit )print 
}bd 

/@th 
{ 
(tile horizontal th)print 
@sft 
0 1 $tly 1 sub 
{ 
dup $psx mul $tx add 
{ 
dup $llx gt {$pwid sub}{exit}ifelse 
}loop 
exch $phei mul $ty exch sub 

0 1 $tlx 1 sub 
{ 
$pwid mul 
3 copy 
3 -1 roll add exch 
@tp 
pop 
}for 
pop pop 
} for 
(tile horizontal exiting )print 
}bd 

/@tv 
{ 
(tile vertical tv)print 
@sft 
0 1 $tlx 1 sub 
{ 
dup $pwid mul $tx add 
exch $psy mul $ty exch sub 
{ 
dup $ury lt {$phei add}{exit}ifelse 
}loop 

0 1 $tly 1 sub 
{ 
$phei mul 
3 copy sub 
@tp 
pop 
}for 
pop pop 
} for 
(tile vertical exit )print 
}bd 

/@pf 
{ 
(pattern fill pf)print 
@gs 
$pm concat 
@stb 
@gs 1 setgray eofill @gr 
eoclip 
$Bburx $Bbury $pm itransform /$tury xd /$turx xd 
$Bbllx $Bblly $pm itransform /$tlly xd /$tllx xd 
/$wid $turx $tllx sub def 
/$hei $tury $tlly sub def 
$wid 0 gt $hei 0 gt and 
{ 
$pn cvlit load aload pop 
$pd xd 
3 -1 roll sub /$phei xd 
exch sub /$pwid xd 
/$tlx $wid $pwid div ceiling 1 add def 
/$tly $hei $phei div ceiling 1 add def 
$psx 0 eq 
{ 
@tv 
} 
{ 
@th 
}ifelse 
}if 

@gr 
@np 
(pattern fill exit)print 
}bd 

/@xp 
{ 
{ 
dup (text Character is:) print == 
usertime (time before is:)print == 
(0) dup 3 -1 roll 0 exch put 
@gs 
true charpath currentpoint 
$ctm setmatrix 
@pf 
@gr 
@np 
moveto $tr 0 rmoveto 
usertime (time after is:)print == 
}forall 
pop 
}bd 

/@sm 
{ 
/$ctm $ctm currentmatrix def 
}bd 

%--@lorg  move to line origin   length string @torg length string
/@lorg    % moves currentpoint to line origin according to current alignment
  {      
  $lx $ly moveto    
  /$ly $ly $le sub def      % - prepare for next line(tracking)
  $al 0 ne
    {dup      % ->len str len str
    stringwidth   % ->len str len dx dy
    exch 3 index  % ->len str dy len dx
    1 sub         % ->len str dy len dx (len-1)
    $tr mul add   % ->len str dy len dx+(len-1)*$tr
    neg
    exch neg      % ->len str -dx_total dy len
    $al 1 eq      % check for centered alignment
    {2 div exch 2 div exch} if  
    rmoveto} if
  }bd

/@ft 
{ 
$pf 
{@xp} 
{ 
@scc 
{$tr exch 0 exch ashow pop} 
{pop pop}ifelse 
}ifelse 
}bd 

/@st 
{ 
$PF 
{} 
{ 
@SCC 
{ 
{ 
(0) dup 3 -1 roll 0 exch put 
@gs 
true charpath currentpoint 
$ctm setmatrix $ptm concat 
stroke 
@gr 
moveto $tr 0 rmoveto 
}forall 
pop 
} 
{pop pop}ifelse 
}ifelse 
}bd 
/@pt 
{ 
dup length exch 
}bd 
/@te 
{ 
@pt 
@lorg 
@ft 
}bd 

/@tr 
{ 
@pt 
@lorg 
@st 
}bd 
/@ta 
{ 
@pt 
@lorg 
2 copy 
@gs @ft @gr 
/$lx 0 def 
/$ly 0 def 
@st 
}bd 















/g { 
1 exch sub /$k xd 
/$c 0 def /$m 0 def /$y 0 def /$t 1 def /$n _ def /$pf false def 
}bd 

/G { 
1 exch sub /$K xd 
/$C 0 def /$M 0 def /$Y 0 def /$T 1 def /$N _ def /$PF false def 
}bd 

/k { 
/$k xd /$y xd /$m xd /$c xd 
/$t 1 def /$n _ def /$pf false def 
}bd 

/K { 
/$K xd /$Y xd /$M xd /$C xd 
/$T 1 def /$N _ def /$PF false def 
}bd 

/x { 
/$t xd /$n xd 
/$k xd /$y xd /$m xd /$c xd /$pf false def 
}bd 

/X { 
/$T xd /$N xd 
/$K xd /$Y xd /$M xd /$C xd /$PF false def 
}bd 

/d /setdash ld 

/i { 
dup 0 ne {setflat} {pop} ifelse 
}bd 

/j /setlinejoin ld 

/J /setlinecap ld 

/M /setmiterlimit ld 

/w /setlinewidth ld 

/O { 
/$o xd 
}bd 

/R { 
/$O xd 
}bd 


/c /curveto ld 

/C /c ld 

/v { 
currentpoint
6 2 roll 
curveto 
}bd

/V /v ld 

/y { 
2 copy curveto 
}bd 

/Y /y ld 

/l /lineto ld 

/L /l ld 

/m /moveto ld 



/n /newpath ld 

/N /newpath ld 

/F { 
$pf 
{@pf} 
{ 
@scc 
{eofill}if 
}ifelse 
}bd 

/f { 
@cp F 
}bd 
/S { 
$PF 
{} 
{ 
@SCC 
{ 
@sm 
$ptm concat 
stroke 
$ctm setmatrix 
}if 
}ifelse 
}bd 
/s { 
@cp 
S 
}bd 

/B { 
@gs F @gr 
S 
}bd 
/b { 
@cp 
B 
}bd 

/W { 
oeclip 
@np 
}bd 

/p { 
/$pm xd 
7 {pop} repeat 
/$pyf xd /$pxf xd 
/$pn xd 
/$pf true def 
}bd 

/P { 
11 {pop} repeat 
}bd 

/@p { 
/$pm xd 
/$psy xd 
/$psx xd 
/$pyf xd /$pxf xd 
/$pn xd 
/$pf true def 
}bd 

/@b { 
/$Bbury xd /$Bburx xd 
/$Bblly xd /$Bbllx xd 
}bd 


/z { 
/$al xd 
/$tr xd 
/$le xd 
exch findfont exch scalefont setfont 
}bd 

/Z { 
dup type 0 type eq { /$bDir xd } if
findfont 
dup maxlength 1 add dict exch 



dup 
{1 index /FID ne 
{ 
3 index 
3 1 roll put 
} 
{pop pop}ifelse 
} forall 



pop 
dup dup /Encoding get 
256 array copy 
dup /$fe xd
/Encoding exch put 

dup /Fontname 3 index put 

}bd 

/e { 
@sm 
concat 
[ 
/t {@te}def 
}bd 

/r { 
@sm 
concat 
[ 
/t {@tr}def 
}bd 

/o { 
@sm 
concat 
[ 
/t {pop}def 
}bd 

/a { 
@sm 
concat 
[ 
/t {@ta}def 
}bd 

/@o{
@sm 
concat 
[ 
/t {@t@a}def 
}bd 

/I { 
@sm 
concat 
[ 
/t {pop}def 
}bd 

/t {@te}def 

/T { 
cleartomark 
/$lx 0 def 
/$ly 0 def 
$ctm setmatrix 
}bd 


/u {}bd 

/U {}bd 

/A {pop}bd 

/h { 
$h true def 
}bd 

/h { 
$h true def 
}bd 

/q /@gs ld 

/Q /@gr ld 



/E { 
5 array astore 
exch cvlit exch def 
}bd 

/` {}bd 

/~ {}bd 

/@ {}bd 

/& {}bd 

/CorelDrawRencodeVect [ 
16#80/grave 
16#81/circumflex 
16#82/tilde 
16#83/dotlessi 
16#84/florin 
16#85/quotedblleft 
16#86/quotedblright 
16#87/guilsinglleft 
16#88/guilsinglright 
16#89/fi 
16#8a/fl 
16#8b/dagger 
16#8c/daggerdbl 
16#8d/endash 
16#8e/periodcentered 
16#8f/breve 
16#90/quotedblbase 
16#91/ellipsis 
16#92/perthousand 
16#a1/exclamdown 
16#a2/cent 
16#a3/sterling 
16#a4/currency 
16#a5/yen 
16#a6/bar 
16#a7/section 
16#a8/dieresis 
16#a9/copyright 
16#aa/ordfeminine 
16#ab/guillemotleft 
16#ac/logicalnot 
16#ad/emdash 
16#ae/registered 
16#af/spac 
16#b0/ring 
16#b1/spac 
16#b2/spac 
16#b3/spac 
16#b4/acute 
16#b5/spac 
16#b6/paragraph 
16#b7/bullet 
16#b8/cedilla 
16#b9/spac 
16#ba/ordmasculine 
16#bb/guillemotright 
16#bc/spac 
16#bd/spac 
16#be/spac 
16#bf/questiondown 
16#c0/Agrave 
16#c1/Aacute 
16#c2/Acircumflex 
16#c3/Atilde 
16#c4/Adieresis 
16#c5/Aring 
16#c6/AE 
16#c7/Ccedilla 
16#c8/Egrave 
16#c9/Eacute 
16#ca/Ecircumflex 
16#cb/Edieresis 
16#cc/Igrave 
16#cd/Iacute 
16#ce/Icircumflex 
16#cf/Idieresis 
16#d0/spac 
16#d1/Ntilde 
16#d2/Ograve 
16#d3/Oacute 
16#d4/Ocircumflex 
16#d5/Otilde 
16#d6/Odieresis 
16#d7/OE 
16#d8/Oslash 
16#d9/Ugrave 
16#da/Uacute 
16#db/Ucircumflex 
16#dc/Udieresis 
16#dd/space 
16#de/spac 
16#df/germandbls 
16#e0/agrave 
16#e1/aacute 
16#e2/acircumflex 
16#e3/atilde 
16#e4/adieresis 
16#e5/aring 
16#e6/ae 
16#e7/ccedilla 
16#e8/egrave 
16#e9/eacute 
16#ea/ecircumflex 
16#eb/edieresis 
16#ec/igrave 
16#ed/iacute 
16#ee/icircumflex 
16#ef/idieresis 
16#f0/space 
16#f1/ntilde 
16#f2/ograve 
16#f3/oacute 
16#f4/ocircumflex 
16#f5/otilde 
16#f6/odieresis 
16#f7/oe 
16#f8/oslash 
16#f9/ugrave 
16#fa/uacute 
16#fb/ucircumflex 
16#fc/udieresis 
16#fd/spac 
16#fe/spac 
16#ff/ydieresis 
] def
%%EndProlog
%%BeginSetup
%%BeginEncoding:_Times-Bold Times-Bold
[
]/_Times-Bold/Times-Bold Z
%%EndEncoding
%%EndSetup
0.000 0.000 0.000 1.000 K
0 j
0 J
0.863 w
[]0 d
36.359 362.375 m
98.927 347.255 L
107.495 345.311 112.031 346.823 113.759 350.711 C
117.647 365.831 123.119 380.447 130.608 394.631 C
133.415 398.591 137.231 401.831 143.567 403.343 C
161.280 404.423 177.839 404.279 193.607 403.487 C
200.447 402.695 204.551 399.527 207.503 395.351 C
213.263 384.551 218.447 372.239 222.839 357.983 C
224.135 354.815 226.439 352.367 229.823 350.783 C
242.351 345.167 L
242.279 343.871 244.943 344.447 250.487 344.663 C
508.751 344.375 L
517.103 349.199 L
521.783 365.903 528.479 381.959 537.623 397.223 C
539.423 399.455 542.159 401.183 545.975 402.407 C
562.535 403.127 579.815 403.127 597.887 402.407 C
602.279 401.975 605.303 400.175 607.751 397.799 C
612.000 390.959 615.887 383.111 619.199 373.895 C
619.775 371.231 622.511 369.359 628.559 368.711 C
632.519 368.135 631.871 364.247 639.359 366.623 C
643.247 367.487 642.599 372.239 643.247 378.071 C
648.575 386.063 647.855 401.039 646.271 417.023 C
645.839 419.831 641.879 420.263 642.168 425.447 C
639.072 431.927 L
639.503 436.247 637.343 439.631 633.959 442.511 C
631.655 445.679 628.271 447.839 622.583 448.055 C
577.367 451.943 528.048 454.967 480.383 457.487 C
449.423 524.231 L
449.351 527.471 449.279 531.647 447.047 533.159 C
444.599 534.455 443.087 536.831 443.015 538.199 C
438.191 540.719 436.751 541.871 434.375 540.431 C
413.927 544.751 382.031 548.711 353.735 551.303 C
350.351 552.671 346.247 553.607 340.487 553.751 C
44.927 554.759 L
30.743 554.975 30.311 552.815 30.095 542.879 C
30.095 484.847 30.095 426.671 30.095 368.639 C
30.095 365.327 31.319 363.743 36.359 362.375 C
s
0.000 0.000 0.000 1.000 K
0 j
0 J
0.863 w
[]0 d
607.967 652.607 m
545.399 637.487 L
536.831 635.615 532.295 637.127 530.567 641.015 C
526.679 656.135 521.207 670.751 513.719 684.863 C
510.911 688.895 507.095 692.135 500.759 693.575 C
483.047 694.655 466.487 694.583 450.647 693.719 C
443.807 693.000 439.703 689.831 436.823 685.583 C
430.991 674.855 425.879 662.471 421.487 648.215 C
420.191 645.048 417.887 642.671 414.431 641.087 C
401.903 635.399 L
402.047 634.103 399.383 634.679 393.839 634.967 C
135.575 634.679 L
127.223 639.503 L
122.543 656.207 115.847 672.191 106.703 687.527 C
104.903 689.759 102.167 691.487 98.351 692.711 C
81.791 693.431 64.512 693.431 46.439 692.711 C
42.047 692.279 39.023 690.479 36.576 688.103 C
32.327 681.263 28.439 673.415 25.127 664.127 C
24.551 661.535 21.815 659.663 15.767 658.943 C
11.807 658.439 12.455 654.551 4.967 656.927 C
1.079 657.791 1.727 662.471 1.079 668.303 C
-4.247 676.367 -3.527 691.343 -1.943 707.327 C
-1.511 710.135 2.447 710.495 2.159 715.751 C
5.255 722.159 L
4.823 726.551 6.983 729.863 10.367 732.815 C
12.671 735.911 16.055 738.143 21.743 738.287 C
66.959 742.247 116.279 745.271 163.871 747.719 C
194.831 814.535 L
194.975 817.775 194.975 821.879 197.207 823.391 C
199.655 824.687 201.239 827.063 201.239 828.503 C
206.135 830.951 207.503 832.103 209.951 830.735 C
230.399 835.055 262.295 838.943 290.591 841.607 C
293.903 842.903 298.007 843.911 303.767 844.055 C
599.399 845.063 L
613.583 845.207 614.015 843.119 614.231 833.111 C
614.231 775.079 614.231 716.903 614.231 658.871 C
614.231 655.559 613.007 654.048 607.967 652.607 C
s
0.000 0.000 0.000 1.000 K
0 j
0 J
0.863 w
[]0 d
0.000 0.000 0.000 0.498 k
525.599 356.039 m
517.103 349.199 L
521.783 365.903 528.479 381.959 537.623 397.223 C
539.423 399.455 542.159 401.183 545.975 402.407 C
562.535 403.127 579.815 403.127 597.887 402.407 C
602.279 401.975 605.303 400.175 607.751 397.799 C
612.000 390.959 615.887 383.111 619.199 373.895 C
620.207 370.871 623.231 369.359 627.767 368.783 C
630.935 368.855 631.943 365.975 635.327 365.759 C
617.903 363.455 L
609.264 380.159 589.895 389.231 571.607 389.303 C
547.847 386.927 532.943 375.119 525.599 356.039 C
b
0.000 0.000 0.000 1.000 K
0 j
0 J
0.863 w
[]0 d
0.000 0.000 0.000 0.498 k
118.727 646.271 m
127.223 639.503 L
122.543 656.207 115.847 672.191 106.703 687.527 C
104.903 689.759 102.167 691.487 98.351 692.711 C
81.791 693.431 64.512 693.431 46.439 692.711 C
42.047 692.279 39.023 690.479 36.576 688.103 C
32.327 681.263 28.439 673.415 25.127 664.127 C
24.119 661.103 21.096 659.663 16.559 659.087 C
13.391 659.159 12.383 656.207 9.000 656.063 C
26.423 653.759 L
35.064 670.391 54.431 679.535 72.719 679.535 C
96.479 677.159 111.383 665.351 118.727 646.271 C
b
0.000 0.000 0.000 1.000 K
0 j
0 J
0.863 w
[]0 d
0.000 0.000 0.000 0.498 k
123.767 356.471 m
113.759 350.711 L
117.647 365.831 123.119 380.447 130.608 394.631 C
133.415 398.591 137.231 401.831 143.567 403.343 C
161.280 404.423 177.839 404.279 193.607 403.487 C
200.447 402.695 204.551 399.527 207.503 395.351 C
213.263 384.551 218.447 372.239 222.839 357.983 C
218.015 360.431 L
208.079 378.071 193.247 388.727 171.287 389.231 C
148.319 387.863 132.479 376.991 123.767 356.471 C
b
0.000 0.000 0.000 1.000 K
0 j
0 J
0.863 w
[]0 d
0.000 0.000 0.000 0.498 k
520.559 646.775 m
530.567 641.015 L
526.679 656.135 521.207 670.751 513.719 684.863 C
510.911 688.895 507.095 692.135 500.759 693.575 C
483.047 694.655 466.487 694.583 450.647 693.719 C
443.807 693.000 439.703 689.831 436.823 685.583 C
430.991 674.855 425.879 662.471 421.487 648.215 C
426.239 650.663 L
436.247 668.303 451.079 678.959 473.039 679.535 C
496.007 678.167 511.847 667.223 520.559 646.775 C
b
0.000 0.000 0.000 1.000 K
0 j
0 J
0.287 w
[]0 d
0.000 0.000 0.000 0.298 k
639.359 366.623 m
643.247 367.487 642.599 372.239 643.247 378.071 C
648.575 386.063 647.855 401.039 646.271 417.023 C
645.839 419.831 641.879 420.263 642.168 425.447 C
639.072 431.927 L
639.072 366.551 L
639.359 366.623 L
b
0.000 0.000 0.000 1.000 K
0 j
0 J
0.287 w
[]0 d
0.000 0.000 0.000 0.298 k
4.967 656.927 m
1.079 657.791 1.727 662.471 1.079 668.303 C
-4.247 676.367 -3.527 691.343 -1.943 707.327 C
-1.511 710.135 2.447 710.495 2.159 715.751 C
5.255 722.159 L
5.255 656.783 L
4.967 656.927 L
b
0.000 0.000 0.000 1.000 K
0 j
0 J
0.287 w
[]0 d
0.000 0.000 0.000 0.498 k
718.487 531.072 m
918.863 531.072 L
921.959 531.072 924.407 528.623 924.407 525.527 C
926.855 479.087 L
926.855 476.063 924.407 473.543 921.383 473.543 C
853.847 471.671 783.503 471.671 716.039 473.543 C
713.015 473.543 710.567 476.063 710.567 479.087 C
713.015 525.527 L
713.015 528.623 715.463 531.072 718.487 531.072 C
b
0.000 0.000 0.000 1.000 K
0 j
0 J
0.287 w
[]0 d
0.000 0.000 0.000 0.498 k
362.879 523.727 m
430.487 522.647 L
433.871 522.647 437.111 522.144 439.415 517.463 C
460.151 471.815 L
464.327 462.095 459.647 456.551 450.791 456.551 C
362.879 457.631 L
359.423 457.631 356.615 460.439 356.615 463.895 C
356.615 517.463 L
356.615 520.919 359.423 523.727 362.879 523.727 C
b
0.000 0.000 0.000 1.000 K
0 j
0 J
0.287 w
[]0 d
0.000 0.000 0.000 0.498 k
281.447 813.959 m
213.839 812.951 L
210.383 812.951 207.215 812.447 204.911 807.767 C
184.175 762.119 L
179.927 752.399 184.607 746.855 193.535 746.855 C
281.447 747.935 L
284.831 747.935 287.639 750.671 287.639 754.127 C
287.639 807.767 L
287.639 811.151 284.831 813.959 281.447 813.959 C
b
0.000 0.000 0.000 1.000 K
0 j
0 J
0.287 w
[]0 d
0.000 0.000 0.000 0.200 k
430.415 520.415 m
433.511 520.415 435.311 519.911 436.967 517.175 C
437.327 516.527 L
458.063 470.951 L
458.999 468.431 459.719 466.127 459.143 463.391 C
457.919 459.647 454.247 459.071 450.719 458.855 C
362.879 459.935 L
360.575 460.079 358.991 461.663 358.919 463.895 C
358.919 517.463 L
358.991 519.767 360.575 521.351 362.879 521.423 C
430.415 520.415 L
b
0.000 0.000 0.000 1.000 K
0 j
0 J
0.287 w
[]0 d
0.000 0.000 0.000 0.200 k
213.839 810.647 m
210.815 810.647 208.943 810.143 207.287 807.479 C
206.927 806.759 L
186.263 761.255 L
185.255 758.663 184.535 756.359 185.111 753.623 C
186.407 749.879 190.007 749.303 193.535 749.159 C
281.375 750.239 L
283.751 750.311 285.263 751.895 285.407 754.199 C
285.407 807.695 L
285.263 810.071 283.680 811.583 281.447 811.727 C
213.839 810.647 L
b
u
u
0.000 0.000 0.000 1.000 K
0 j
0 J
0.287 w
[]0 d
30.095 529.631 m
448.055 529.631 L
S
U
U
u
u
0.000 0.000 0.000 1.000 K
0 j
0 J
0.287 w
[]0 d
614.231 819.863 m
196.271 819.863 L
S
U
U
u
u
0.000 0.000 0.000 1.000 K
0 j
0 J
0.287 w
[]0 d
30.095 533.231 m
445.895 533.231 L
S
U
U
u
u
0.000 0.000 0.000 1.000 K
0 j
0 J
0.287 w
[]0 d
614.231 823.463 m
198.431 823.463 L
S
U
U
u
u
0.000 0.000 0.000 1.000 K
0 j
0 J
0.287 w
[]0 d
30.095 453.239 m
341.495 453.239 L
S
U
U
u
u
0.000 0.000 0.000 1.000 K
0 j
0 J
0.287 w
[]0 d
614.231 743.471 m
302.759 743.471 L
S
U
U
u
u
0.000 0.000 0.000 1.000 K
0 j
0 J
0.287 w
[]0 d
30.095 455.831 m
341.495 455.831 L
S
U
U
u
u
0.000 0.000 0.000 1.000 K
0 j
0 J
0.287 w
[]0 d
614.231 746.063 m
302.759 746.063 L
S
U
U
u
u
0.000 0.000 0.000 1.000 K
0 j
0 J
0.287 w
[]0 d
30.095 448.127 m
467.495 448.127 L
S
U
U
u
u
0.000 0.000 0.000 1.000 K
0 j
0 J
0.287 w
[]0 d
614.231 738.431 m
176.759 738.431 L
S
U
U
u
u
0.000 0.000 0.000 1.000 K
0 j
0 J
0.287 w
[]0 d
30.095 442.727 m
479.159 442.727 L
622.943 439.415 L
628.991 438.767 638.351 434.519 639.719 429.839 C
S
U
U
u
u
0.000 0.000 0.000 1.000 K
0 j
0 J
0.287 w
[]0 d
614.231 732.959 m
165.095 732.959 L
21.383 729.647 L
15.335 729.071 5.975 724.823 4.607 720.143 C
S
U
U
u
u
0.000 0.000 0.000 1.000 K
0 j
0 J
0.287 w
[]0 d
341.711 529.631 m
341.711 356.543 L
S
U
U
u
u
0.000 0.000 0.000 1.000 K
0 j
0 J
0.287 w
[]0 d
302.615 819.863 m
302.615 646.775 L
S
U
U
u
u
0.000 0.000 0.000 1.000 K
0 j
0 J
0.287 w
[]0 d
348.623 529.631 m
348.623 356.543 L
S
U
U
u
u
0.000 0.000 0.000 1.000 K
0 j
0 J
0.287 w
[]0 d
295.703 819.863 m
295.703 646.775 L
S
U
U
u
u
0.000 0.000 0.000 1.000 K
0 j
0 J
0.287 w
[]0 d
30.887 528.623 m
430.631 528.623 L
435.887 528.695 439.343 527.759 441.143 525.815 C
473.471 459.071 L
473.471 357.263 L
S
U
U
u
u
0.000 0.000 0.000 1.000 K
0 j
0 J
0.287 w
[]0 d
613.439 818.855 m
213.695 818.855 L
208.439 818.999 204.911 818.063 203.183 816.119 C
170.855 749.375 L
170.855 647.567 L
S
U
U
u
u
0.000 0.000 0.000 1.000 K
0 j
0 J
0.287 w
[]0 d
239.039 357.191 m
507.527 357.191 L
S
U
U
u
u
0.000 0.000 0.000 1.000 K
0 j
0 J
0.287 w
[]0 d
405.287 647.495 m
136.799 647.495 L
S
U
U
u
u
0.000 0.000 0.000 1.000 K
0 j
0 J
0.287 w
[]0 d
99.359 347.183 m
104.975 369.431 113.543 390.023 125.135 408.887 C
130.895 414.647 138.167 417.815 146.951 418.391 C
163.871 419.327 180.143 419.255 195.983 418.391 C
202.751 417.311 208.727 414.143 214.343 409.607 C
229.319 389.231 237.167 367.847 241.055 345.815 C
S
U
U
u
u
0.000 0.000 0.000 1.000 K
0 j
0 J
0.287 w
[]0 d
544.967 637.487 m
539.351 659.735 530.783 680.255 519.192 699.119 C
513.432 704.879 506.159 708.048 497.375 708.695 C
480.455 709.559 464.183 709.487 448.271 708.695 C
441.575 707.615 435.527 704.375 429.911 699.911 C
415.007 679.535 407.159 658.079 403.271 636.120 C
S
U
U
u
u
0.000 0.000 0.000 1.000 K
0 j
0 J
0.287 w
[]0 d
504.719 344.159 m
509.399 367.343 517.679 388.799 530.135 408.167 C
535.031 413.783 541.295 417.671 550.655 417.599 C
565.631 417.599 580.679 417.599 595.655 417.599 C
607.823 414.863 614.663 410.615 617.903 405.287 C
627.911 392.471 633.599 379.439 635.327 365.975 C
S
U
U
u
u
0.000 0.000 0.000 1.000 K
0 j
0 J
0.287 w
[]0 d
139.607 634.463 m
134.927 657.647 126.647 679.103 114.191 698.471 C
109.295 704.087 103.031 707.975 93.671 707.903 C
78.695 707.903 63.647 707.903 48.671 707.903 C
36.503 705.167 29.663 700.847 26.423 695.519 C
16.416 682.775 10.727 669.671 9.000 656.279 C
S
U
U
0.000 0.000 0.000 1.000 K
0 j
0 J
0.287 w
[]0 d
74.015 410.903 m
74.015 427.607 L
74.015 432.359 70.128 436.247 65.304 436.247 C
64.799 436.247 L
60.047 436.247 56.159 432.359 56.159 427.607 C
56.159 410.903 L
74.015 410.903 L
s
0.000 0.000 0.000 1.000 K
0 j
0 J
0.287 w
[]0 d
0.000 0.000 0.000 0.498 k
65.015 418.175 m
69.263 418.175 72.719 421.631 72.719 425.879 c
72.719 430.127 69.263 433.583 65.015 433.583 c
60.839 433.583 57.383 430.127 57.383 425.879 c
57.383 421.631 60.839 418.175 65.015 418.175 c
b
0.000 0.000 0.000 1.000 K
0 j
0 J
0.287 w
[]0 d
56.159 410.903 m
74.015 410.903 L
74.015 406.223 L
56.159 406.223 L
56.159 410.903 L
s
u
u
0.000 0.000 0.000 1.000 K
0 j
0 J
0.287 w
[]0 d
480.455 457.415 m
480.455 357.335 L
S
U
U
u
u
0.000 0.000 0.000 1.000 K
0 j
0 J
0.287 w
[]0 d
163.799 747.647 m
163.799 647.567 L
S
U
U
u
u
0.000 0.000 0.000 1.000 K
0 j
0 J
0.287 w
[]0 d
642.815 377.135 m
642.815 420.335 L
S
U
U
u
u
0.000 0.000 0.000 1.000 K
0 j
0 J
0.287 w
[]0 d
1.511 667.439 m
1.511 710.639 L
S
U
U
0.000 0.000 0.000 1.000 K
0 j
0 J
0.287 w
[]0 d
0.000 0.000 0.000 0.298 k
608.471 430.487 m
614.663 430.487 l
615.383 430.487 616.031 429.911 616.031 429.191 c
616.031 426.527 l
616.031 425.807 615.383 425.231 614.663 425.231 c
608.471 425.231 l
607.751 425.231 607.175 425.807 607.175 426.527 c
607.175 429.191 l
607.175 429.911 607.751 430.487 608.471 430.487 c
b
0.000 0.000 0.000 1.000 K
0 j
0 J
0.287 w
[]0 d
0.000 0.000 0.000 0.298 k
35.855 720.791 m
29.663 720.791 l
28.943 720.791 28.295 720.215 28.295 719.495 c
28.295 716.759 l
28.295 716.039 28.943 715.463 29.663 715.463 c
35.855 715.463 l
36.576 715.463 37.151 716.039 37.151 716.759 c
37.151 719.495 l
37.151 720.215 36.576 720.791 35.855 720.791 c
b
0.000 0.000 0.000 1.000 K
0 j
0 J
0.287 w
[]0 d
0.000 0.000 0.000 0.498 k
368.639 425.663 m
389.951 425.663 L
390.455 425.663 390.887 425.231 390.887 424.727 C
390.887 420.911 L
390.887 420.407 390.455 419.975 389.951 419.975 C
368.639 419.975 L
368.639 425.663 L
b
0.000 0.000 0.000 1.000 K
0 j
0 J
0.287 w
[]0 d
0.000 0.000 0.000 0.498 k
275.615 715.967 m
254.303 715.967 L
253.799 715.967 253.367 715.535 253.367 715.031 C
253.367 711.215 L
253.367 710.711 253.799 710.279 254.303 710.279 C
275.615 710.279 L
275.615 715.967 L
b
0.000 0.000 0.000 1.000 K
0 j
0 J
0.287 w
[]0 d
0.000 0.000 0.000 0.498 k
367.487 426.815 m
361.871 426.815 l
361.295 426.815 360.791 426.311 360.791 425.663 c
360.791 420.047 l
360.791 419.471 361.295 418.967 361.871 418.967 c
367.487 418.967 l
368.135 418.967 368.639 419.471 368.639 420.047 c
368.639 425.663 l
368.639 426.311 368.135 426.815 367.487 426.815 c
b
0.000 0.000 0.000 1.000 K
0 j
0 J
0.287 w
[]0 d
0.000 0.000 0.000 0.498 k
276.767 717.048 m
282.383 717.048 l
283.031 717.048 283.536 716.543 283.536 715.967 c
283.536 710.351 l
283.536 709.703 283.031 709.199 282.383 709.199 c
276.767 709.199 l
276.192 709.199 275.687 709.703 275.687 710.351 c
275.687 715.967 l
275.687 716.543 276.192 717.048 276.767 717.048 c
b
0.000 0.000 0.000 1.000 k
364.679 424.655 m
365.615 424.655 366.407 423.935 366.407 422.927 c
366.407 421.991 365.615 421.199 364.679 421.199 c
363.671 421.199 362.951 421.991 362.951 422.927 c
362.951 423.935 363.671 424.655 364.679 424.655 c
f
0.000 0.000 0.000 1.000 k
279.575 714.959 m
278.639 714.959 277.919 714.167 277.919 713.159 c
277.919 712.223 278.639 711.503 279.575 711.503 c
280.584 711.503 281.375 712.223 281.375 713.159 c
281.375 714.167 280.584 714.959 279.575 714.959 c
f
0.000 0.000 0.000 1.000 K
0 j
0 J
0.287 w
[]0 d
379.799 428.975 m
385.559 428.975 390.239 426.239 390.239 422.855 c
390.239 419.471 385.559 416.663 379.799 416.663 c
374.111 416.663 369.431 419.471 369.431 422.855 c
369.431 426.239 374.111 428.975 379.799 428.975 c
s
0.000 0.000 0.000 1.000 K
0 j
0 J
0.287 w
[]0 d
264.455 719.279 m
258.695 719.279 254.087 716.471 254.087 713.087 c
254.087 709.703 258.695 706.967 264.455 706.967 c
270.215 706.967 274.895 709.703 274.895 713.087 c
274.895 716.471 270.215 719.279 264.455 719.279 c
s
0.000 0.000 0.000 1.000 K
0 j
0 J
0.287 w
[]0 d
0.000 0.000 0.000 1.000 k
171.503 389.015 m
199.871 389.015 223.055 365.831 223.055 337.391 c
223.055 309.024 199.871 285.839 171.503 285.839 c
143.063 285.839 119.879 309.024 119.879 337.391 c
119.879 365.831 143.063 389.015 171.503 389.015 c
b
0.000 0.000 0.000 1.000 K
0 j
0 J
0.287 w
[]0 d
0.000 0.000 0.000 1.000 k
472.823 679.247 m
444.383 679.247 421.271 656.135 421.271 627.695 c
421.271 599.255 444.383 576.144 472.823 576.144 c
501.263 576.144 524.447 599.255 524.447 627.695 c
524.447 656.135 501.263 679.247 472.823 679.247 c
b
0.000 0.000 0.000 1.000 K
0 j
0 J
0.287 w
[]0 d
0.000 0.000 0.000 1.000 k
543.168 379.151 m
566.135 395.855 598.463 390.743 615.168 367.775 c
631.871 344.807 626.759 312.407 603.791 295.703 c
580.751 279.000 548.423 284.111 531.719 307.151 c
515.015 330.119 520.127 362.447 543.168 379.151 c
b
0.000 0.000 0.000 1.000 K
0 j
0 J
0.287 w
[]0 d
0.000 0.000 0.000 1.000 k
101.159 669.455 m
78.191 686.159 45.863 680.975 29.159 658.007 c
12.455 635.039 17.567 602.711 40.535 586.007 c
63.575 569.303 95.903 574.415 112.607 597.383 c
129.311 620.423 124.199 652.751 101.159 669.455 c
b
0.000 0.000 0.000 1.000 K
0 j
0 J
0.287 w
[]0 d
0.000 0.000 0.000 0.098 k
171.503 371.375 m
190.151 371.375 205.415 356.111 205.415 337.391 c
205.415 318.743 190.151 303.479 171.503 303.479 c
152.783 303.479 137.519 318.743 137.519 337.391 c
137.519 356.111 152.783 371.375 171.503 371.375 c
b
0.000 0.000 0.000 1.000 K
0 j
0 J
0.287 w
[]0 d
0.000 0.000 0.000 0.098 k
472.823 661.607 m
454.103 661.607 438.911 646.415 438.911 627.695 c
438.911 608.975 454.103 593.783 472.823 593.783 c
491.543 593.783 506.807 608.975 506.807 627.695 c
506.807 646.415 491.543 661.607 472.823 661.607 c
b
0.000 0.000 0.000 1.000 K
0 j
0 J
0.287 w
[]0 d
0.000 0.000 0.000 0.098 k
553.535 364.895 m
568.583 375.839 589.895 372.455 600.911 357.335 c
611.855 342.215 608.471 320.975 593.351 309.959 c
578.231 298.943 556.991 302.399 545.975 317.447 c
535.031 332.639 538.343 353.879 553.535 364.895 c
b
0.000 0.000 0.000 1.000 K
0 j
0 J
0.287 w
[]0 d
0.000 0.000 0.000 0.098 k
90.791 655.127 m
75.743 666.144 54.431 662.759 43.415 647.639 c
32.471 632.519 35.855 611.207 50.975 600.264 c
66.095 589.247 87.335 592.631 98.351 607.751 c
109.295 622.871 105.983 644.183 90.791 655.127 c
b
0.000 0.000 0.000 1.000 K
0 j
0 J
0.287 w
[]0 d
0.000 0.000 0.000 0.000 k
171.431 364.895 m
186.551 364.895 198.863 352.583 198.863 337.463 c
198.863 322.343 186.551 310.031 171.431 310.031 c
156.311 310.031 144.000 322.343 144.000 337.463 c
144.000 352.583 156.311 364.895 171.431 364.895 c
b
0.000 0.000 0.000 1.000 K
0 j
0 J
0.287 w
[]0 d
0.000 0.000 0.000 0.000 k
472.823 655.127 m
457.775 655.127 445.463 642.815 445.463 627.695 c
445.463 612.647 457.775 600.335 472.823 600.335 c
488.015 600.335 500.327 612.647 500.327 627.695 c
500.327 642.815 488.015 655.127 472.823 655.127 c
b
0.000 0.000 0.000 1.000 K
0 j
0 J
0.287 w
[]0 d
0.000 0.000 0.000 0.000 k
557.351 359.639 m
569.591 368.495 586.727 365.759 595.655 353.591 c
604.511 341.351 601.775 324.143 589.535 315.287 c
577.367 306.431 560.159 309.096 551.303 321.335 c
542.375 333.575 545.111 350.783 557.351 359.639 c
b
0.000 0.000 0.000 1.000 K
0 j
0 J
0.287 w
[]0 d
0.000 0.000 0.000 0.000 k
86.975 649.943 m
74.735 658.799 57.599 656.063 48.671 643.823 c
39.815 631.655 42.551 614.447 54.791 605.519 c
66.959 596.663 84.167 599.399 93.023 611.639 c
101.951 623.807 99.215 641.015 86.975 649.943 c
b
0.000 0.000 0.000 1.000 k
171.431 342.575 m
174.239 342.575 176.543 340.271 176.543 337.463 c
176.543 334.583 174.239 332.279 171.431 332.279 c
168.551 332.279 166.247 334.583 166.247 337.463 c
166.247 340.271 168.551 342.575 171.431 342.575 c
f
0.000 0.000 0.000 1.000 k
472.895 632.879 m
470.015 632.879 467.711 630.575 467.711 627.695 c
467.711 624.887 470.015 622.583 472.895 622.583 c
475.703 622.583 478.007 624.887 478.007 627.695 c
478.007 630.575 475.703 632.879 472.895 632.879 c
f
0.000 0.000 0.000 1.000 k
570.455 341.567 m
572.687 343.223 575.927 342.719 577.583 340.415 c
579.240 338.183 578.735 334.943 576.503 333.287 c
574.199 331.631 570.959 332.135 569.303 334.367 c
567.647 336.671 568.151 339.911 570.455 341.567 c
f
0.000 0.000 0.000 1.000 k
73.871 631.871 m
71.640 633.527 68.399 633.024 66.743 630.719 c
65.087 628.415 65.591 625.175 67.823 623.519 c
70.128 621.863 73.367 622.367 75.024 624.671 c
76.679 626.975 76.175 630.216 73.871 631.871 c
f
0.000 0.000 0.000 1.000 k
183.455 339.983 m
184.823 339.983 185.975 338.831 185.975 337.463 c
185.975 336.095 184.823 334.943 183.455 334.943 c
182.087 334.943 180.935 336.095 180.935 337.463 c
180.935 338.831 182.087 339.983 183.455 339.983 c
f
0.000 0.000 0.000 1.000 k
460.871 630.287 m
459.431 630.287 458.279 629.135 458.279 627.767 c
458.279 626.327 459.431 625.175 460.871 625.175 c
462.239 625.175 463.391 626.327 463.391 627.767 c
463.391 629.135 462.239 630.287 460.871 630.287 c
f
0.000 0.000 0.000 1.000 k
581.687 346.536 m
582.767 347.327 584.351 347.111 585.216 345.959 c
586.007 344.807 585.791 343.223 584.639 342.431 c
583.487 341.639 581.903 341.855 581.111 343.007 c
580.319 344.087 580.535 345.743 581.687 346.536 c
f
0.000 0.000 0.000 1.000 k
62.639 636.767 m
61.559 637.631 59.975 637.343 59.111 636.263 c
58.319 635.111 58.535 633.527 59.687 632.663 c
60.839 631.871 62.423 632.159 63.215 633.239 c
64.007 634.391 63.791 635.975 62.639 636.767 c
f
0.000 0.000 0.000 1.000 k
172.727 349.559 m
173.159 350.855 174.527 351.575 175.895 351.143 c
177.191 350.711 177.911 349.271 177.479 347.975 c
177.119 346.679 175.679 345.887 174.311 346.319 c
173.015 346.751 172.295 348.191 172.727 349.559 c
f
0.000 0.000 0.000 1.000 k
471.599 639.791 m
471.167 641.159 469.727 641.879 468.431 641.447 c
467.063 641.015 466.343 639.575 466.775 638.279 c
467.207 636.911 468.647 636.192 469.943 636.623 c
471.311 637.055 472.031 638.495 471.599 639.791 c
f
0.000 0.000 0.000 1.000 k
567.360 347.975 m
566.927 349.271 567.719 350.711 569.015 351.143 c
570.312 351.575 571.751 350.855 572.183 349.487 c
572.615 348.191 571.895 346.751 570.599 346.319 c
569.231 345.887 567.791 346.607 567.360 347.975 c
f
0.000 0.000 0.000 1.000 k
76.967 638.207 m
77.399 639.575 76.607 640.943 75.311 641.375 c
74.015 641.807 72.575 641.087 72.143 639.791 c
71.711 638.495 72.431 637.055 73.727 636.623 c
75.095 636.192 76.535 636.911 76.967 638.207 c
f
0.000 0.000 0.000 1.000 k
160.415 342.215 m
159.263 343.007 159.048 344.591 159.839 345.743 c
160.631 346.895 162.215 347.111 163.367 346.319 c
164.519 345.455 164.735 343.871 163.943 342.791 c
163.151 341.639 161.495 341.423 160.415 342.215 c
f
0.000 0.000 0.000 1.000 k
483.911 632.447 m
485.063 633.311 485.279 634.895 484.487 636.048 c
483.695 637.127 482.111 637.415 480.887 636.551 c
479.807 635.759 479.519 634.175 480.383 633.024 c
481.175 631.943 482.831 631.655 483.911 632.447 c
f
0.000 0.000 0.000 1.000 k
561.671 334.799 m
560.303 334.799 559.151 335.879 559.151 337.319 c
559.151 338.687 560.303 339.839 561.671 339.839 c
563.039 339.839 564.192 338.687 564.192 337.319 c
564.192 335.951 563.039 334.799 561.671 334.799 c
f
0.000 0.000 0.000 1.000 k
82.655 625.031 m
84.023 625.031 85.175 626.183 85.175 627.551 c
85.175 628.991 84.023 630.144 82.655 630.144 c
81.287 630.144 80.135 628.991 80.135 627.551 c
80.135 626.183 81.287 625.031 82.655 625.031 c
f
0.000 0.000 0.000 1.000 k
163.439 328.319 m
162.359 327.455 160.775 327.743 159.911 328.823 c
159.119 329.975 159.335 331.560 160.487 332.351 c
161.639 333.215 163.223 332.927 164.015 331.847 c
164.807 330.695 164.591 329.111 163.439 328.319 c
f
0.000 0.000 0.000 1.000 k
480.815 618.551 m
481.967 617.759 483.551 617.975 484.415 619.127 c
485.207 620.207 484.991 621.791 483.839 622.655 c
482.687 623.447 481.103 623.231 480.239 622.079 c
479.447 621.000 479.735 619.343 480.815 618.551 c
f
0.000 0.000 0.000 1.000 k
572.399 325.295 m
571.967 323.927 570.599 323.207 569.231 323.639 c
567.935 324.072 567.216 325.512 567.647 326.807 c
568.079 328.175 569.447 328.895 570.815 328.463 c
572.111 328.031 572.831 326.591 572.399 325.295 c
f
0.000 0.000 0.000 1.000 k
71.927 615.527 m
72.359 614.231 73.727 613.511 75.095 613.943 c
76.391 614.375 77.111 615.743 76.679 617.111 c
76.247 618.407 74.879 619.199 73.512 618.767 c
72.215 618.335 71.495 616.895 71.927 615.527 c
f
0.000 0.000 0.000 1.000 k
177.695 326.879 m
178.127 325.512 177.407 324.143 176.111 323.711 c
174.743 323.279 173.303 324.000 172.871 325.295 c
172.439 326.591 173.159 328.031 174.527 328.463 c
175.823 328.895 177.263 328.175 177.695 326.879 c
f
0.000 0.000 0.000 1.000 k
466.559 617.111 m
466.127 615.815 466.919 614.375 468.215 613.943 c
469.511 613.511 470.951 614.231 471.383 615.599 c
471.815 616.895 471.095 618.335 469.799 618.767 c
468.431 619.199 466.991 618.479 466.559 617.111 c
f
0.000 0.000 0.000 1.000 k
584.711 332.567 m
585.863 331.703 586.079 330.119 585.288 329.039 c
584.495 327.887 582.911 327.599 581.759 328.463 c
580.607 329.255 580.391 330.839 581.183 331.991 c
581.975 333.072 583.631 333.359 584.711 332.567 c
f
0.000 0.000 0.000 1.000 k
59.615 622.799 m
58.463 622.007 58.247 620.423 59.039 619.271 c
59.831 618.120 61.415 617.903 62.567 618.695 c
63.719 619.559 63.935 621.144 63.143 622.223 c
62.351 623.375 60.695 623.591 59.615 622.799 c
f
u
u
0.000 0.000 0.000 1.000 K
0 j
0 J
0.287 w
[]0 d
480.671 454.175 m
631.151 446.183 L
S
U
U
u
u
0.000 0.000 0.000 1.000 K
0 j
0 J
0.287 w
[]0 d
163.655 744.407 m
13.175 736.415 L
S
U
U
0.000 0.000 0.000 1.000 K
0 j
0 J
0.863 w
[]0 d
931.391 350.639 m
937.295 350.639 L
938.159 350.639 938.591 351.359 938.591 352.151 C
938.591 420.911 L
938.447 431.063 939.671 434.087 931.391 438.407 C
934.343 465.407 932.903 494.567 928.439 521.495 C
930.455 525.599 930.743 528.336 928.583 531.072 C
925.847 545.759 916.991 553.679 900.719 553.391 C
845.927 554.111 791.135 554.111 736.271 553.391 C
720.000 553.679 711.143 545.759 708.407 531.072 C
706.247 528.336 706.535 525.599 708.551 521.495 C
704.159 494.567 702.647 465.407 705.671 438.407 C
697.319 434.087 698.543 431.063 698.399 420.911 C
698.399 352.151 L
698.399 351.359 698.831 350.639 699.695 350.639 C
705.671 350.639 L
931.391 350.639 L
s
0.000 0.000 0.000 1.000 K
0 j
0 J
0.287 w
[]0 d
0.000 0.000 0.000 0.200 k
919.871 527.759 m
921.383 527.111 922.103 526.175 922.175 524.519 C
924.623 479.087 L
924.479 477.143 923.255 475.919 921.311 475.847 C
912.887 475.631 904.391 475.415 895.895 475.271 C
842.399 474.119 788.687 474.263 735.191 475.415 C
728.783 475.487 722.159 475.487 715.751 475.847 C
714.095 476.135 713.015 477.359 712.871 479.087 C
715.319 524.519 L
715.391 526.535 716.615 527.759 718.559 527.903 C
918.863 527.903 L
919.223 527.903 919.583 527.831 919.871 527.759 C
b
u
u
0.000 0.000 0.000 1.000 K
0 j
0 J
0.287 w
[]0 d
708.407 520.703 m
710.711 528.623 714.599 533.663 721.439 533.735 C
818.567 533.735 L
S
U
U
u
u
0.000 0.000 0.000 1.000 K
0 j
0 J
0.287 w
[]0 d
928.439 520.703 m
926.135 528.623 922.247 533.663 915.479 533.735 C
818.423 533.735 L
721.439 533.735 L
714.599 533.663 710.711 528.623 708.407 520.703 C
S
U
U
0.000 0.000 0.000 1.000 K
0 j
0 J
0.287 w
[]0 d
0.000 0.000 0.000 0.498 k
747.431 425.807 m
711.719 425.807 l
707.615 425.807 704.303 422.423 704.303 418.391 c
704.303 382.679 l
704.303 378.575 707.615 375.263 711.719 375.263 c
747.431 375.263 l
751.535 375.263 754.847 378.575 754.847 382.679 c
754.847 418.391 l
754.847 422.423 751.535 425.807 747.431 425.807 c
b
0.000 0.000 0.000 1.000 K
0 j
0 J
0.287 w
[]0 d
0.000 0.000 0.000 0.498 k
924.407 425.807 m
888.695 425.807 l
884.591 425.807 881.279 422.423 881.279 418.391 c
881.279 382.679 l
881.279 378.575 884.591 375.263 888.695 375.263 c
924.407 375.263 l
928.439 375.263 931.823 378.575 931.823 382.679 c
931.823 418.391 l
931.823 422.423 928.439 425.807 924.407 425.807 c
b
0.000 0.000 0.000 1.000 K
0 j
0 J
0.287 w
[]0 d
0.000 0.000 0.000 0.098 k
737.783 418.679 m
746.063 418.679 752.759 411.983 752.759 403.703 c
752.759 395.423 746.063 388.727 737.783 388.727 c
729.503 388.727 722.807 395.423 722.807 403.703 c
722.807 411.983 729.503 418.679 737.783 418.679 c
b
0.000 0.000 0.000 1.000 K
0 j
0 J
0.287 w
[]0 d
0.000 0.000 0.000 0.098 k
899.423 418.679 m
907.631 418.679 914.399 411.983 914.399 403.703 c
914.399 395.423 907.631 388.727 899.423 388.727 c
891.143 388.727 884.375 395.423 884.375 403.703 c
884.375 411.983 891.143 418.679 899.423 418.679 c
b
0.000 0.000 0.000 1.000 K
0 j
0 J
0.287 w
[]0 d
0.000 0.000 0.000 0.000 k
899.423 416.807 m
892.151 416.807 886.247 410.903 886.247 403.703 c
886.247 396.431 892.151 390.527 899.423 390.527 c
906.623 390.527 912.527 396.431 912.527 403.703 c
912.527 410.903 906.623 416.807 899.423 416.807 c
b
0.000 0.000 0.000 1.000 K
0 j
0 J
0.287 w
[]0 d
0.000 0.000 0.000 0.298 k
714.024 399.023 m
710.855 399.023 708.335 396.431 708.335 393.335 c
708.335 390.167 710.855 387.575 714.024 387.575 c
717.191 387.575 719.711 390.167 719.711 393.335 c
719.711 396.431 717.191 399.023 714.024 399.023 c
b
0.000 0.000 0.000 1.000 K
0 j
0 J
0.287 w
[]0 d
0.000 0.000 0.000 0.298 k
923.183 399.023 m
926.351 399.023 928.943 396.431 928.943 393.335 c
928.943 390.167 926.351 387.575 923.183 387.575 c
920.087 387.575 917.495 390.167 917.495 393.335 c
917.495 396.431 920.087 399.023 923.183 399.023 c
b
0.000 0.000 0.000 1.000 K
0 j
0 J
0.287 w
[]0 d
0.000 0.000 0.000 0.000 k
714.024 421.847 m
710.855 421.847 708.335 419.255 708.335 416.159 c
708.335 412.991 710.855 410.399 714.024 410.399 c
717.191 410.399 719.711 412.991 719.711 416.159 c
719.711 419.255 717.191 421.847 714.024 421.847 c
b
0.000 0.000 0.000 1.000 K
0 j
0 J
0.287 w
[]0 d
0.000 0.000 0.000 0.000 k
923.183 421.847 m
926.351 421.847 928.943 419.255 928.943 416.159 c
928.943 412.991 926.351 410.399 923.183 410.399 c
920.087 410.399 917.495 412.991 917.495 416.159 c
917.495 419.255 920.087 421.847 923.183 421.847 c
b
0.000 0.000 0.000 1.000 K
0 j
0 J
0.287 w
[]0 d
0.000 0.000 0.000 0.498 k
758.663 425.807 m
876.959 425.807 l
877.391 425.807 877.751 425.447 877.751 424.943 c
877.751 375.983 l
877.751 375.479 877.391 375.119 876.959 375.119 c
758.663 375.119 l
758.231 375.119 757.871 375.479 757.871 375.983 c
757.871 424.943 l
757.871 425.447 758.231 425.807 758.663 425.807 c
b
u
u
0.000 0.000 0.000 1.000 K
0 j
0 J
0.287 w
[]0 d
705.815 437.759 m
757.799 437.759 L
757.871 432.719 L
877.751 432.791 L
877.751 437.759 L
932.255 437.759 L
S
U
U
0.000 0.000 0.000 1.000 K
0 j
0 J
0.287 w
[]0 d
0.000 0.000 0.000 0.498 k
723.599 454.679 m
810.215 454.679 l
812.447 454.679 814.175 456.407 814.175 458.639 c
814.175 464.183 l
814.175 466.415 812.447 468.143 810.215 468.143 c
723.599 468.143 l
721.439 468.143 719.639 466.415 719.639 464.183 c
719.639 458.639 l
719.639 456.407 721.439 454.679 723.599 454.679 c
b
0.000 0.000 0.000 1.000 K
0 j
0 J
0.287 w
[]0 d
0.000 0.000 0.000 0.498 k
826.631 454.679 m
913.247 454.679 l
915.407 454.679 917.207 456.407 917.207 458.639 c
917.207 464.183 l
917.207 466.415 915.407 468.143 913.247 468.143 c
826.631 468.143 l
824.399 468.143 822.599 466.415 822.599 464.183 c
822.599 458.639 l
822.599 456.407 824.399 454.679 826.631 454.679 c
b
0.000 0.000 0.000 1.000 K
0 j
0 J
0.287 w
[]0 d
0.000 0.000 0.000 0.200 k
810.215 456.551 m
811.511 456.623 812.303 457.415 812.375 458.711 C
812.375 460.583 812.591 462.815 812.375 464.615 C
812.087 465.695 811.367 466.271 810.215 466.343 C
723.671 466.343 L
722.375 466.271 721.583 465.479 721.511 464.183 C
721.511 462.311 721.295 460.079 721.511 458.279 C
721.871 457.127 722.519 456.623 723.671 456.551 C
810.215 456.551 L
b
0.000 0.000 0.000 1.000 K
0 j
0 J
0.287 w
[]0 d
0.000 0.000 0.000 0.200 k
913.175 456.551 m
914.543 456.623 915.263 457.415 915.407 458.711 C
915.407 460.583 915.623 462.815 915.335 464.615 C
915.047 465.695 914.327 466.271 913.175 466.343 C
826.703 466.343 L
825.407 466.271 824.615 465.479 824.471 464.183 C
824.471 462.311 824.255 460.079 824.543 458.279 C
824.831 457.127 825.551 456.623 826.703 456.551 C
913.175 456.551 L
b
u
u
0.000 0.000 0.000 1.000 K
0 j
0 J
0.287 w
[]0 d
880.271 437.831 m
921.887 446.255 L
919.439 448.127 915.695 449.495 909.935 450.143 C
885.455 451.799 848.159 452.159 818.351 451.727 C
788.471 452.159 752.687 451.799 728.135 450.143 C
722.447 449.495 718.631 448.127 716.255 446.255 C
757.871 437.831 L
S
U
U
0.000 0.000 0.000 1.000 k
760.823 422.423 m
764.423 422.423 L
764.423 419.615 L
760.823 419.615 L
760.823 422.423 L
f
0.000 0.000 0.000 1.000 k
768.167 422.423 m
868.031 422.423 L
868.031 419.615 L
768.167 419.615 L
768.167 422.423 L
f
0.000 0.000 0.000 1.000 k
871.055 422.423 m
874.655 422.423 L
874.655 419.615 L
871.055 419.615 L
871.055 422.423 L
f
0.000 0.000 0.000 1.000 k
760.823 415.367 m
764.423 415.367 L
764.423 412.631 L
760.823 412.631 L
760.823 415.367 L
f
0.000 0.000 0.000 1.000 k
768.167 415.367 m
868.031 415.367 L
868.031 412.631 L
768.167 412.631 L
768.167 415.367 L
f
0.000 0.000 0.000 1.000 k
871.055 415.367 m
874.655 415.367 L
874.655 412.631 L
871.055 412.631 L
871.055 415.367 L
f
0.000 0.000 0.000 1.000 k
760.823 408.383 m
764.423 408.383 L
764.423 405.647 L
760.823 405.647 L
760.823 408.383 L
f
0.000 0.000 0.000 1.000 k
768.167 408.383 m
868.031 408.383 L
868.031 405.647 L
768.167 405.647 L
768.167 408.383 L
f
0.000 0.000 0.000 1.000 k
871.055 408.383 m
874.655 408.383 L
874.655 405.647 L
871.055 405.647 L
871.055 408.383 L
f
0.000 0.000 0.000 1.000 k
760.823 401.399 m
764.423 401.399 L
764.423 398.591 L
760.823 398.591 L
760.823 401.399 L
f
0.000 0.000 0.000 1.000 k
768.167 401.399 m
868.031 401.399 L
868.031 398.591 L
768.167 398.591 L
768.167 401.399 L
f
0.000 0.000 0.000 1.000 k
871.055 401.399 m
874.655 401.399 L
874.655 398.591 L
871.055 398.591 L
871.055 401.399 L
f
0.000 0.000 0.000 1.000 k
760.823 394.343 m
764.423 394.343 L
764.423 391.607 L
760.823 391.607 L
760.823 394.343 L
f
0.000 0.000 0.000 1.000 k
768.167 394.343 m
868.031 394.343 L
868.031 391.607 L
768.167 391.607 L
768.167 394.343 L
f
0.000 0.000 0.000 1.000 k
871.055 394.343 m
874.655 394.343 L
874.655 391.607 L
871.055 391.607 L
871.055 394.343 L
f
0.000 0.000 0.000 1.000 k
760.823 387.359 m
764.423 387.359 L
764.423 384.551 L
760.823 384.551 L
760.823 387.359 L
f
0.000 0.000 0.000 1.000 k
768.167 387.359 m
868.031 387.359 L
868.031 384.551 L
768.167 384.551 L
768.167 387.359 L
f
0.000 0.000 0.000 1.000 k
871.055 387.359 m
874.655 387.359 L
874.655 384.551 L
871.055 384.551 L
871.055 387.359 L
f
0.000 0.000 0.000 1.000 k
760.823 380.303 m
764.423 380.303 L
764.423 377.567 L
760.823 377.567 L
760.823 380.303 L
f
0.000 0.000 0.000 1.000 k
768.167 380.303 m
868.031 380.303 L
868.031 377.567 L
768.167 377.567 L
768.167 380.303 L
f
0.000 0.000 0.000 1.000 k
871.055 380.303 m
874.655 380.303 L
874.655 377.567 L
871.055 377.567 L
871.055 380.303 L
f
0.000 0.000 0.000 1.000 K
0 j
0 J
0.287 w
[]0 d
0.000 0.000 0.000 0.000 k
737.783 416.807 m
745.055 416.807 750.959 410.903 750.959 403.703 c
750.959 396.431 745.055 390.527 737.783 390.527 c
730.583 390.527 724.679 396.431 724.679 403.703 c
724.679 410.903 730.583 416.807 737.783 416.807 c
b
u
u
0.000 0.000 0.000 1.000 K
0 j
0 J
0.287 w
[]0 d
757.943 375.335 m
757.943 368.927 L
S
U
U
u
u
0.000 0.000 0.000 1.000 K
0 j
0 J
0.287 w
[]0 d
877.679 375.335 m
877.679 370.367 L
S
U
U
0.000 0.000 0.000 1.000 K
0 j
0 J
0.215 w
[]0 d
0.000 0.000 0.000 0.498 k
702.575 368.135 m
933.623 368.135 l
935.135 368.135 936.287 366.983 936.287 365.471 c
936.287 353.231 l
936.287 351.791 935.135 350.567 933.623 350.567 c
702.575 350.567 l
701.135 350.567 699.911 351.791 699.911 353.231 c
699.911 365.471 l
699.911 366.983 701.135 368.135 702.575 368.135 c
b
0.000 0.000 0.000 1.000 k
747.359 350.711 m
747.359 293.255 L
747.359 289.007 743.903 285.623 739.727 285.623 C
717.551 285.623 L
713.375 285.623 709.919 289.007 709.919 293.255 C
709.919 350.711 L
747.359 350.711 L
f
0.000 0.000 0.000 1.000 k
927.359 350.711 m
927.359 293.255 L
927.359 289.007 923.975 285.623 919.799 285.623 C
897.623 285.623 L
893.447 285.623 889.991 289.007 889.991 293.255 C
889.991 350.711 L
927.359 350.711 L
f
u
u
0.000 0.000 0.000 1.000 K
0 j
0 J
0.287 w
[]0 d
713.735 530.495 m
717.695 538.775 723.671 546.551 733.247 553.319 C
S
U
U
u
u
0.000 0.000 0.000 1.000 K
0 j
0 J
0.287 w
[]0 d
923.543 530.495 m
919.511 538.775 913.535 546.551 904.031 553.319 C
S
U
U
u
u
0.000 0.000 0.000 1.000 K
0 j
0 J
0.287 w
[]0 d
705.095 452.951 m
931.967 452.951 L
S
U
U
u
u
0.000 0.000 0.000 1.000 K
0 j
0 J
0.287 w
[]0 d
716.543 535.535 m
921.167 535.535 L
S
U
U
u
u
0.000 0.000 0.000 1.000 K
0 j
0 J
0.287 w
[]0 d
757.871 432.719 m
757.871 423.143 L
S
U
U
u
u
0.000 0.000 0.000 1.000 K
0 j
0 J
0.287 w
[]0 d
877.823 432.863 m
877.823 424.727 L
S
U
U
u
u
0.000 0.000 0.000 1.000 K
0 j
0 J
0.287 w
[]0 d
877.751 437.759 m
877.895 439.775 877.319 440.855 875.951 440.855 C
865.943 440.855 L
865.007 440.639 864.359 440.351 864.215 439.487 C
771.407 439.487 L
771.263 440.351 770.687 440.639 769.679 440.855 C
759.671 440.855 L
758.375 440.855 757.727 439.775 757.871 437.759 C
S
U
U
u
u
0.000 0.000 0.000 1.000 K
0 j
0 J
0.287 w
[]0 d
771.047 442.295 m
768.311 451.655 L
S
U
U
u
u
0.000 0.000 0.000 1.000 K
0 j
0 J
0.287 w
[]0 d
865.871 442.295 m
868.679 451.655 L
S
U
U
u
u
0.000 0.000 0.000 1.000 K
0 j
0 J
0.287 w
[]0 d
716.183 446.111 m
705.743 437.759 L
S
U
U
u
u
0.000 0.000 0.000 1.000 K
0 j
0 J
0.287 w
[]0 d
921.887 446.111 m
932.327 437.759 L
S
U
U
0.000 0.000 0.000 1.000 K
0 j
0 J
0.287 w
[]0 d
0.000 0.000 0.000 0.498 k
747.575 350.855 m
889.991 350.855 L
889.991 338.687 L
843.191 342.935 L
818.495 341.063 L
786.383 344.159 L
763.991 344.159 L
747.575 338.687 L
747.575 350.855 L
b
0.000 0.000 0.000 1.000 K
0 j
0 J
0.287 w
[]0 d
0.000 0.000 0.000 0.498 k
33.263 363.239 m
35.423 362.591 38.015 362.159 41.759 361.223 C
41.759 348.048 L
41.759 346.319 40.320 344.951 38.591 344.951 C
33.263 344.951 L
31.535 344.951 30.167 346.319 30.167 348.048 C
30.167 360.143 L
30.167 361.871 31.535 363.239 33.263 363.239 C
b
0.000 0.000 0.000 1.000 K
0 j
0 J
0.287 w
[]0 d
0.000 0.000 0.000 0.498 k
611.063 653.543 m
608.903 652.895 606.311 652.463 602.567 651.455 C
602.567 638.351 L
602.567 636.623 604.007 635.183 605.735 635.183 C
611.063 635.183 L
612.791 635.183 614.159 636.623 614.159 638.351 C
614.159 650.375 L
614.159 652.103 612.791 653.543 611.063 653.543 C
b
0.000 0.000 0.000 1.000 K
0 j
0 J
0.287 w
[]0 d
0.000 0.000 0.000 0.498 k
642.168 369.000 m
641.663 367.343 639.791 366.191 633.671 365.615 C
633.671 353.807 L
633.671 352.079 635.111 350.639 636.839 350.639 C
642.168 350.639 L
643.895 350.639 645.263 352.079 645.263 353.807 C
645.263 365.831 L
645.263 367.559 643.895 369.000 642.168 369.000 C
b
0.000 0.000 0.000 1.000 K
0 j
0 J
0.287 w
[]0 d
0.000 0.000 0.000 0.498 k
2.159 659.231 m
2.663 657.647 4.535 656.423 10.655 655.919 C
10.655 644.039 L
10.655 642.311 9.215 640.943 7.487 640.943 C
2.159 640.943 L
0.431 640.943 -0.935 642.311 -0.935 644.039 C
-0.935 656.135 L
-0.935 657.863 0.431 659.231 2.159 659.231 C
b
0.000 0.000 0.000 1.000 K
0 j
0 J
0.287 w
[]0 d
0.000 0.000 0.000 1.000 k
1.799 474.983 m
24.047 474.983 l
27.431 474.983 30.095 472.247 30.095 468.935 c
30.095 377.783 l
30.095 374.399 27.431 371.735 24.047 371.735 c
1.799 371.735 l
-1.583 371.735 -4.247 374.399 -4.247 377.783 c
-4.247 468.935 l
-4.247 472.247 -1.583 474.983 1.799 474.983 c
b
0.000 0.000 0.000 1.000 K
0 j
0 J
0.287 w
[]0 d
0.000 0.000 0.000 1.000 k
642.527 765.215 m
620.279 765.215 l
616.895 765.215 614.231 762.551 614.231 759.167 c
614.231 668.015 l
614.231 664.703 616.895 661.967 620.279 661.967 c
642.527 661.967 l
645.911 661.967 648.575 664.703 648.575 668.015 c
648.575 759.167 l
648.575 762.551 645.911 765.215 642.527 765.215 c
b
0.000 0.000 0.000 1.000 K
0 j
0 J
0.287 w
[]0 d
0.000 0.000 0.000 0.000 k
478.511 372.167 m
467.063 372.167 L
467.063 363.167 L
478.511 363.167 L
478.511 372.167 L
b
0.000 0.000 0.000 1.000 K
0 j
0 J
0.287 w
[]0 d
0.000 0.000 0.000 0.000 k
165.815 662.399 m
177.191 662.399 L
177.191 653.471 L
165.815 653.471 L
165.815 662.399 L
b
0.000 0.000 0.000 1.000 K
0 j
0 J
0.287 w
[]0 d
0.000 0.000 0.000 0.000 k
478.511 452.591 m
467.063 452.591 L
467.063 443.663 L
478.511 443.663 L
478.511 452.591 L
b
0.000 0.000 0.000 1.000 K
0 j
0 J
0.287 w
[]0 d
0.000 0.000 0.000 0.000 k
165.815 742.895 m
177.191 742.895 L
177.191 733.895 L
165.815 733.895 L
165.815 742.895 L
b
0.000 0.000 0.000 1.000 K
0 j
0 J
0.287 w
[]0 d
468.575 371.591 m
469.007 371.591 469.367 371.231 469.367 370.799 c
469.367 370.367 469.007 370.007 468.575 370.007 c
468.143 370.007 467.783 370.367 467.783 370.799 c
467.783 371.231 468.143 371.591 468.575 371.591 c
s
0.000 0.000 0.000 1.000 K
0 j
0 J
0.287 w
[]0 d
175.751 661.823 m
175.247 661.823 174.959 661.535 174.959 661.103 c
174.959 660.599 175.247 660.311 175.751 660.311 c
176.183 660.311 176.471 660.599 176.471 661.103 c
176.471 661.535 176.183 661.823 175.751 661.823 c
s
0.000 0.000 0.000 1.000 K
0 j
0 J
0.287 w
[]0 d
468.575 452.015 m
469.007 452.015 469.367 451.727 469.367 451.295 c
469.367 450.791 469.007 450.503 468.575 450.503 c
468.143 450.503 467.783 450.791 467.783 451.295 c
467.783 451.727 468.143 452.015 468.575 452.015 c
s
0.000 0.000 0.000 1.000 K
0 j
0 J
0.287 w
[]0 d
175.751 742.319 m
175.247 742.319 174.959 741.959 174.959 741.527 c
174.959 741.095 175.247 740.735 175.751 740.735 c
176.183 740.735 176.471 741.095 176.471 741.527 c
176.471 741.959 176.183 742.319 175.751 742.319 c
s
0.000 0.000 0.000 1.000 K
0 j
0 J
0.287 w
[]0 d
468.575 365.327 m
469.007 365.327 469.367 365.039 469.367 364.607 c
469.367 364.103 469.007 363.815 468.575 363.815 c
468.143 363.815 467.783 364.103 467.783 364.607 c
467.783 365.039 468.143 365.327 468.575 365.327 c
s
0.000 0.000 0.000 1.000 K
0 j
0 J
0.287 w
[]0 d
175.751 655.631 m
175.247 655.631 174.959 655.271 174.959 654.839 c
174.959 654.407 175.247 654.048 175.751 654.048 c
176.183 654.048 176.471 654.407 176.471 654.839 c
176.471 655.271 176.183 655.631 175.751 655.631 c
s
0.000 0.000 0.000 1.000 K
0 j
0 J
0.287 w
[]0 d
468.575 445.751 m
469.007 445.751 469.367 445.463 469.367 445.031 c
469.367 444.527 469.007 444.239 468.575 444.239 c
468.143 444.239 467.783 444.527 467.783 445.031 c
467.783 445.463 468.143 445.751 468.575 445.751 c
s
0.000 0.000 0.000 1.000 K
0 j
0 J
0.287 w
[]0 d
175.751 736.055 m
175.247 736.055 174.959 735.695 174.959 735.263 c
174.959 734.831 175.247 734.471 175.751 734.471 c
176.183 734.471 176.471 734.831 176.471 735.263 c
176.471 735.695 176.183 736.055 175.751 736.055 c
s
0.000 0.000 0.000 1.000 K
0 j
0 J
0.287 w
[]0 d
476.783 371.591 m
477.215 371.591 477.575 371.231 477.575 370.799 c
477.575 370.367 477.215 370.007 476.783 370.007 c
476.351 370.007 475.991 370.367 475.991 370.799 c
475.991 371.231 476.351 371.591 476.783 371.591 c
s
0.000 0.000 0.000 1.000 K
0 j
0 J
0.287 w
[]0 d
167.543 661.823 m
167.039 661.823 166.751 661.535 166.751 661.103 c
166.751 660.599 167.039 660.311 167.543 660.311 c
167.975 660.311 168.263 660.599 168.263 661.103 c
168.263 661.535 167.975 661.823 167.543 661.823 c
s
0.000 0.000 0.000 1.000 K
0 j
0 J
0.287 w
[]0 d
476.783 452.015 m
477.215 452.015 477.575 451.727 477.575 451.295 c
477.575 450.791 477.215 450.503 476.783 450.503 c
476.351 450.503 475.991 450.791 475.991 451.295 c
475.991 451.727 476.351 452.015 476.783 452.015 c
s
0.000 0.000 0.000 1.000 K
0 j
0 J
0.287 w
[]0 d
167.543 742.319 m
167.039 742.319 166.751 741.959 166.751 741.527 c
166.751 741.095 167.039 740.735 167.543 740.735 c
167.975 740.735 168.263 741.095 168.263 741.527 c
168.263 741.959 167.975 742.319 167.543 742.319 c
s
0.000 0.000 0.000 1.000 K
0 j
0 J
0.287 w
[]0 d
476.783 365.327 m
477.215 365.327 477.575 365.039 477.575 364.607 c
477.575 364.103 477.215 363.815 476.783 363.815 c
476.351 363.815 475.991 364.103 475.991 364.607 c
475.991 365.039 476.351 365.327 476.783 365.327 c
s
0.000 0.000 0.000 1.000 K
0 j
0 J
0.287 w
[]0 d
167.543 655.631 m
167.039 655.631 166.751 655.271 166.751 654.839 c
166.751 654.407 167.039 654.048 167.543 654.048 c
167.975 654.048 168.263 654.407 168.263 654.839 c
168.263 655.271 167.975 655.631 167.543 655.631 c
s
0.000 0.000 0.000 1.000 K
0 j
0 J
0.287 w
[]0 d
476.783 445.751 m
477.215 445.751 477.575 445.463 477.575 445.031 c
477.575 444.527 477.215 444.239 476.783 444.239 c
476.351 444.239 475.991 444.527 475.991 445.031 c
475.991 445.463 476.351 445.751 476.783 445.751 c
s
0.000 0.000 0.000 1.000 K
0 j
0 J
0.287 w
[]0 d
167.543 736.055 m
167.039 736.055 166.751 735.695 166.751 735.263 c
166.751 734.831 167.039 734.471 167.543 734.471 c
167.975 734.471 168.263 734.831 168.263 735.263 c
168.263 735.695 167.975 736.055 167.543 736.055 c
s
0.000 0.000 0.000 1.000 K
0 j
0 J
0.287 w
[]0 d
0.000 0.000 0.000 0.498 k
470.663 459.287 m
468.575 459.287 l
467.495 459.287 466.559 460.151 466.559 461.303 c
466.559 489.599 l
466.559 490.679 467.495 491.615 468.575 491.615 c
470.663 491.615 l
471.815 491.615 472.679 490.679 472.679 489.599 c
472.679 461.303 l
472.679 460.151 471.815 459.287 470.663 459.287 c
b
0.000 0.000 0.000 1.000 K
0 j
0 J
0.287 w
[]0 d
0.000 0.000 0.000 0.498 k
173.591 749.519 m
175.679 749.519 l
176.831 749.519 177.695 750.455 177.695 751.535 c
177.695 779.831 l
177.695 780.983 176.831 781.847 175.679 781.847 c
173.591 781.847 l
172.512 781.847 171.575 780.983 171.575 779.831 c
171.575 751.535 l
171.575 750.455 172.512 749.519 173.591 749.519 c
b
0.000 0.000 0.000 1.000 K
0 j
0 J
0.287 w
[]0 d
0.000 0.000 0.000 0.498 k
468.215 459.287 m
469.871 459.287 L
469.871 452.735 L
468.215 452.735 L
468.215 459.287 L
b
0.000 0.000 0.000 1.000 K
0 j
0 J
0.287 w
[]0 d
0.000 0.000 0.000 0.498 k
176.111 749.519 m
174.455 749.519 L
174.455 742.967 L
176.111 742.967 L
176.111 749.519 L
b
0.000 0.000 0.000 1.000 K
0 j
0 J
0.287 w
[]0 d
0.000 0.000 0.000 0.498 k
685.583 491.903 m
693.359 491.903 l
695.303 491.903 696.959 490.247 696.959 488.303 c
696.959 463.391 l
696.959 461.375 695.303 459.791 693.359 459.791 c
685.583 459.791 l
683.567 459.791 681.983 461.375 681.983 463.391 c
681.983 488.303 l
681.983 490.247 683.567 491.903 685.583 491.903 c
b
0.000 0.000 0.000 1.000 K
0 j
0 J
0.287 w
[]0 d
0.000 0.000 0.000 0.498 k
951.119 491.903 m
943.343 491.903 l
941.327 491.903 939.743 490.247 939.743 488.303 c
939.743 463.391 l
939.743 461.375 941.327 459.791 943.343 459.791 c
951.119 459.791 l
953.135 459.791 954.719 461.375 954.719 463.391 c
954.719 488.303 l
954.719 490.247 953.135 491.903 951.119 491.903 c
b
0.000 0.000 0.000 1.000 K
0 j
0 J
0.287 w
[]0 d
0.000 0.000 0.000 0.498 k
704.519 452.879 m
690.911 452.879 L
689.759 453.095 689.111 453.527 688.967 454.391 C
688.967 459.719 L
690.695 459.719 L
690.695 455.183 L
690.767 454.535 691.199 454.247 691.991 454.319 C
704.519 454.319 L
704.519 452.879 L
b
0.000 0.000 0.000 1.000 K
0 j
0 J
0.287 w
[]0 d
0.000 0.000 0.000 0.498 k
932.111 452.879 m
945.719 452.879 L
946.871 453.095 947.519 453.527 947.663 454.391 C
947.663 459.719 L
945.935 459.719 L
945.935 455.183 L
945.863 454.535 945.431 454.247 944.639 454.319 C
932.111 454.319 L
932.111 452.879 L
b
u
u
U
u
0.000 0.000 0.000 1.000 K
0 j
0 J
0.215 w
[]0 d
176.111 263.663 m
318.815 263.663 L
S
U
U
u
u
U
u
0.000 0.000 0.000 1.000 K
0 j
0 J
0.215 w
[]0 d
425.447 263.663 m
574.487 263.663 L
S
U
U
u
u
U
u
0.000 0.000 0.000 1.000 K
0 j
0 J
0.215 w
[]0 d
171.863 277.127 m
171.863 247.103 L
S
U
U
0.000 0.000 0.000 1.000 k
171.647 263.735 m
181.583 260.783 L
181.583 266.687 L
171.647 263.735 L
f
u
u
U
u
0.000 0.000 0.000 1.000 K
0 j
0 J
0.215 w
[]0 d
573.264 275.111 m
573.264 245.447 L
S
U
U
0.000 0.000 0.000 1.000 k
573.336 263.735 m
563.399 260.783 L
563.399 266.687 L
573.336 263.735 L
f
0.000 0.000 0.000 1.000 k
393.983 257.975 m
393.983 258.120 L
393.983 266.759 L
394.919 266.759 L
394.919 265.247 L
394.991 265.247 L
395.567 266.255 396.431 266.975 397.871 266.975 c
399.023 266.975 400.103 266.471 400.391 265.247 C
400.895 266.471 401.975 266.975 403.199 266.975 c
405.071 266.975 406.079 265.967 406.079 263.951 c
406.079 257.975 L
404.999 257.975 L
404.999 263.879 l
404.999 265.319 404.423 266.111 402.911 266.111 c
401.111 266.111 400.535 264.527 400.535 262.943 c
400.535 257.975 L
399.455 257.975 L
399.455 263.951 l
399.527 265.103 399.023 266.111 397.655 266.111 c
395.783 266.111 395.063 264.743 395.063 262.871 c
395.063 257.975 L
393.983 257.975 L
f
0.000 0.000 0.000 1.000 k
379.799 257.975 m
379.799 258.120 L
379.799 266.759 L
380.807 266.759 L
380.807 265.247 L
380.879 265.247 L
381.383 266.255 382.319 266.975 383.759 266.975 c
384.839 266.975 385.919 266.471 386.207 265.247 C
386.711 266.471 387.863 266.975 389.015 266.975 c
390.887 266.975 391.967 265.967 391.967 263.951 c
391.967 257.975 L
390.887 257.975 L
390.887 263.879 l
390.887 265.319 390.311 266.111 388.799 266.111 c
386.927 266.111 386.423 264.527 386.423 262.943 c
386.423 257.975 L
385.343 257.975 L
385.343 263.951 l
385.343 265.103 384.839 266.111 383.471 266.111 c
381.671 266.111 380.879 264.743 380.879 262.871 c
380.879 257.975 L
379.799 257.975 L
f
0.000 0.000 0.000 1.000 k
365.183 260.927 m
365.183 261.935 L
370.655 269.855 L
371.663 269.855 L
371.663 261.863 L
373.391 261.863 L
373.391 260.927 L
371.663 260.927 L
371.663 257.975 L
370.655 257.975 L
370.655 260.927 L
365.183 260.927 L
f
0.000 0.000 0.000 1.000 k
356.111 260.855 m
357.191 260.855 L
357.407 259.487 358.343 258.623 359.711 258.623 c
362.447 258.623 362.951 261.791 362.951 263.951 C
362.879 263.951 L
362.303 262.799 361.079 261.935 359.711 261.935 c
357.407 261.935 355.823 263.663 355.823 265.895 c
355.823 268.271 357.479 269.927 359.855 269.927 c
362.735 269.927 364.031 268.271 364.031 263.663 c
364.031 262.295 363.671 257.687 359.783 257.687 c
357.695 257.687 356.399 258.767 356.111 260.855 C
f
0.000 0.000 0.000 1.000 k
346.679 268.704 m
346.679 269.711 L
354.311 269.711 L
354.311 268.704 L
352.871 267.192 349.847 263.519 349.559 257.975 C
348.407 257.975 L
348.695 262.007 349.991 264.959 353.303 268.704 C
346.679 268.704 L
f
0.000 0.000 0.000 1.000 k
344.807 258.983 m
344.807 257.975 L
337.031 257.975 L
337.175 261.503 340.775 262.367 342.719 264.383 c
343.439 265.031 343.727 265.680 343.727 266.615 c
343.727 268.199 342.575 269.063 341.063 269.063 c
339.119 269.063 338.399 267.479 338.399 265.751 C
337.319 265.751 L
337.319 268.199 338.543 269.927 341.135 269.927 c
343.223 269.927 344.807 268.847 344.807 266.615 c
344.807 264.671 343.367 263.375 341.855 262.439 c
340.631 261.575 338.543 260.567 338.255 258.983 C
344.807 258.983 L
f
0.000 0.000 0.000 0.000 k
366.119 261.863 m
370.655 261.863 L
370.655 268.343 L
370.655 268.343 L
366.119 261.863 L
f
0.000 0.000 0.000 0.000 k
359.783 262.871 m
361.583 262.871 362.735 264.239 362.735 266.039 c
362.735 267.695 361.799 269.063 359.711 269.063 c
358.055 269.063 356.903 267.623 356.903 266.039 c
356.903 264.311 357.983 262.871 359.783 262.871 c
f
0.000 0.000 0.000 1.000 K
0 j
0 J
0.287 w
[]0 d
0.000 0.000 0.000 0.498 k
759.311 721.727 m
780.623 721.727 L
781.127 721.727 781.559 721.295 781.559 720.791 C
781.559 716.975 L
781.559 716.471 781.127 716.039 780.623 716.039 C
759.311 716.039 L
759.311 721.727 L
b
0.000 0.000 0.000 1.000 K
0 j
0 J
0.287 w
[]0 d
0.000 0.000 0.000 0.498 k
758.159 722.807 m
752.543 722.807 l
751.967 722.807 751.463 722.303 751.463 721.727 c
751.463 716.111 l
751.463 715.463 751.967 714.959 752.543 714.959 c
758.159 714.959 l
758.807 714.959 759.311 715.463 759.311 716.111 c
759.311 721.727 l
759.311 722.303 758.807 722.807 758.159 722.807 c
b
0.000 0.000 0.000 1.000 K
0 j
0 J
0.287 w
[]0 d
770.471 725.039 m
776.231 725.039 780.839 722.231 780.839 718.847 c
780.839 715.463 776.231 712.727 770.471 712.727 c
764.711 712.727 760.031 715.463 760.031 718.847 c
760.031 722.231 764.711 725.039 770.471 725.039 c
s
0.000 0.000 0.000 1.000 K
0 j
0 J
0.287 w
[]0 d
0.000 0.000 0.000 1.000 k
833.183 764.711 m
804.743 764.711 781.631 741.527 781.631 713.159 c
781.631 684.719 804.743 661.607 833.183 661.607 c
861.551 661.607 884.735 684.719 884.735 713.159 c
884.735 741.527 861.551 764.711 833.183 764.711 c
b
0.000 0.000 0.000 1.000 K
0 j
0 J
0.287 w
[]0 d
0.000 0.000 0.000 0.098 k
833.183 747.071 m
814.463 747.071 799.271 731.807 799.271 713.087 c
799.271 694.439 814.463 679.175 833.183 679.175 c
851.831 679.175 867.095 694.439 867.095 713.087 c
867.095 731.807 851.831 747.071 833.183 747.071 c
b
0.000 0.000 0.000 1.000 K
0 j
0 J
0.287 w
[]0 d
0.000 0.000 0.000 0.000 k
833.255 740.591 m
818.135 740.591 805.823 728.279 805.823 713.159 c
805.823 698.039 818.135 685.727 833.255 685.727 c
848.303 685.727 860.615 698.039 860.615 713.159 c
860.615 728.279 848.303 740.591 833.255 740.591 c
b
0.000 0.000 0.000 1.000 k
833.255 718.271 m
830.375 718.271 828.071 715.967 828.071 713.087 c
828.071 710.279 830.375 707.975 833.255 707.975 c
836.063 707.975 838.367 710.279 838.367 713.087 c
838.367 715.967 836.063 718.271 833.255 718.271 c
f
0.000 0.000 0.000 1.000 k
821.231 715.679 m
819.791 715.679 818.711 714.527 818.711 713.087 c
818.711 711.719 819.791 710.567 821.231 710.567 c
822.599 710.567 823.751 711.719 823.751 713.087 c
823.751 714.527 822.599 715.679 821.231 715.679 c
f
0.000 0.000 0.000 1.000 k
831.887 725.255 m
831.527 726.551 830.087 727.271 828.719 726.839 c
827.423 726.407 826.703 724.967 827.135 723.671 c
827.495 722.375 828.935 721.583 830.303 722.015 c
831.599 722.447 832.319 723.887 831.887 725.255 c
f
0.000 0.000 0.000 1.000 k
844.271 717.911 m
845.423 718.703 845.639 720.287 844.847 721.439 c
844.055 722.519 842.399 722.807 841.319 722.015 c
840.167 721.151 839.951 719.567 840.743 718.487 c
841.535 717.335 843.119 717.048 844.271 717.911 c
f
0.000 0.000 0.000 1.000 k
841.175 703.943 m
842.327 703.151 843.911 703.367 844.703 704.519 c
845.495 705.599 845.279 707.183 844.127 708.048 c
843.047 708.839 841.463 708.623 840.599 707.471 c
839.807 706.319 840.023 704.735 841.175 703.943 c
f
0.000 0.000 0.000 1.000 k
826.919 702.503 m
826.487 701.207 827.279 699.767 828.575 699.335 c
829.871 698.903 831.311 699.623 831.743 700.991 c
832.175 702.287 831.455 703.727 830.159 704.159 c
828.791 704.591 827.351 703.871 826.919 702.503 c
f
0.000 0.000 0.000 1.000 K
0 j
0 J
0.863 w
[]0 d
931.391 652.751 m
937.295 652.751 L
938.159 652.751 938.591 653.471 938.591 654.263 C
938.591 707.039 L
938.447 717.263 942.911 720.215 934.559 724.535 C
937.511 751.607 936.071 784.223 931.679 811.151 C
933.623 815.255 933.911 817.991 931.823 820.727 C
929.087 835.415 916.991 843.335 900.719 843.047 C
845.927 843.767 791.135 843.767 736.271 843.047 C
720.000 843.335 707.903 835.415 705.167 820.727 C
703.079 817.991 703.367 815.255 705.311 811.151 C
700.919 784.223 699.479 751.607 702.431 724.535 C
694.079 720.215 698.543 717.263 698.399 707.039 C
698.399 654.263 L
698.399 653.471 698.831 652.751 699.695 652.751 C
705.671 652.751 L
931.391 652.751 L
s
0.000 0.000 0.000 1.000 k
747.359 634.607 m
747.359 582.911 L
747.359 578.735 743.903 575.279 739.727 575.279 C
717.551 575.279 L
713.375 575.279 709.919 578.735 709.919 582.911 C
709.919 634.607 L
747.359 634.607 L
f
0.000 0.000 0.000 1.000 k
927.359 634.607 m
927.359 582.911 L
927.359 578.735 923.975 575.279 919.799 575.279 C
897.623 575.279 L
893.447 575.279 889.991 578.735 889.991 582.911 C
889.991 634.607 L
927.359 634.607 L
f
u
u
0.000 0.000 0.000 1.000 K
0 j
0 J
0.287 w
[]0 d
747.359 819.287 m
748.583 823.823 751.823 827.207 756.647 828.863 C
757.943 829.223 L
759.383 829.439 L
760.751 829.511 L
876.095 829.511 L
882.575 829.223 887.399 825.695 889.559 819.575 C
889.631 819.287 L
S
U
U
0.000 0.000 0.000 1.000 K
0 j
0 J
0.287 w
[]0 d
760.823 827.711 m
876.095 827.711 L
882.863 827.711 888.335 822.167 888.335 815.471 C
888.335 661.031 L
748.583 661.031 L
748.583 815.471 L
748.583 822.167 754.055 827.711 760.823 827.711 C
s
u
u
0.000 0.000 0.000 1.000 K
0 j
0 J
0.287 w
[]0 d
748.943 661.535 m
698.255 661.535 L
S
U
U
u
u
0.000 0.000 0.000 1.000 K
0 j
0 J
0.287 w
[]0 d
886.391 661.535 m
938.879 661.535 L
S
U
U
0.000 0.000 0.000 1.000 K
0 j
0 J
0.287 w
[]0 d
0.000 0.000 0.000 0.498 k
715.535 747.143 m
735.335 747.143 L
738.575 747.143 741.239 749.807 741.239 753.047 C
741.239 796.607 L
741.239 799.847 738.575 802.511 735.335 802.511 C
717.119 802.511 L
713.879 802.511 711.215 799.847 711.215 796.607 C
709.631 753.047 L
709.631 749.807 712.295 747.143 715.535 747.143 C
b
0.000 0.000 0.000 1.000 K
0 j
0 J
0.287 w
[]0 d
0.000 0.000 0.000 0.498 k
921.527 747.143 m
901.727 747.143 L
898.487 747.143 895.823 749.807 895.823 753.047 C
895.823 796.607 L
895.823 799.847 898.487 802.511 901.727 802.511 C
920.015 802.511 L
923.255 802.511 925.919 799.847 925.919 796.607 C
927.431 753.047 L
927.431 749.807 924.839 747.143 921.527 747.143 C
b
0.000 0.000 0.000 1.000 K
0 j
0 J
0.287 w
[]0 d
0.000 0.000 0.000 0.200 k
735.263 749.015 m
737.711 749.087 739.295 750.743 739.367 753.119 C
739.367 796.607 L
739.295 798.983 737.639 800.567 735.263 800.711 C
717.119 800.711 L
714.743 800.567 713.087 798.911 713.015 796.535 C
711.431 753.047 L
711.575 750.671 713.231 749.087 715.607 749.015 C
735.263 749.015 L
b
0.000 0.000 0.000 1.000 K
0 j
0 J
0.287 w
[]0 d
0.000 0.000 0.000 0.200 k
901.799 749.015 m
899.351 749.087 897.767 750.743 897.695 753.119 C
897.695 796.607 L
897.767 798.983 899.423 800.567 901.799 800.711 C
919.943 800.711 L
922.319 800.567 923.975 798.911 924.047 796.535 C
925.631 753.047 L
925.487 750.671 923.831 749.087 921.455 749.015 C
901.799 749.015 L
b
u
u
0.000 0.000 0.000 1.000 K
0 j
0 J
0.287 w
[]0 d
703.871 818.279 m
748.943 818.279 L
S
U
U
u
u
0.000 0.000 0.000 1.000 K
0 j
0 J
0.287 w
[]0 d
933.119 818.279 m
887.975 818.279 L
S
U
U
u
u
0.000 0.000 0.000 1.000 K
0 j
0 J
0.287 w
[]0 d
704.303 819.287 m
749.375 819.287 L
S
U
U
u
u
0.000 0.000 0.000 1.000 K
0 j
0 J
0.287 w
[]0 d
932.687 819.287 m
887.615 819.287 L
S
U
U
0.000 0.000 0.000 1.000 K
0 j
0 J
0.287 w
[]0 d
0.000 0.000 0.000 0.498 k
763.775 818.351 m
873.143 818.351 L
878.111 818.351 882.215 814.247 882.215 809.279 C
882.215 745.343 L
873.359 745.343 L
854.063 771.119 812.447 771.119 792.935 745.343 C
754.703 745.343 L
754.703 809.279 L
754.703 814.247 758.735 818.351 763.775 818.351 C
b
u
u
0.000 0.000 0.000 1.000 K
0 j
0 J
0.287 w
[]0 d
701.783 743.039 m
791.423 743.039 L
S
U
U
u
u
0.000 0.000 0.000 1.000 K
0 j
0 J
0.287 w
[]0 d
936.143 743.039 m
874.943 743.039 L
S
U
U
u
u
0.000 0.000 0.000 1.000 K
0 j
0 J
0.287 w
[]0 d
701.783 737.783 m
787.967 737.783 L
S
U
U
u
u
0.000 0.000 0.000 1.000 K
0 j
0 J
0.287 w
[]0 d
935.783 737.783 m
878.471 737.783 L
S
U
U
u
u
0.000 0.000 0.000 1.000 K
0 j
0 J
0.287 w
[]0 d
702.359 732.527 m
785.015 732.527 L
S
U
U
u
u
0.000 0.000 0.000 1.000 K
0 j
0 J
0.287 w
[]0 d
935.279 732.527 m
881.135 732.527 L
S
U
U
0.000 0.000 0.000 1.000 K
0 j
0 J
0.287 w
[]0 d
0.000 0.000 0.000 0.200 k
873.143 816.479 m
877.391 816.263 880.199 813.527 880.415 809.207 C
880.415 747.143 L
871.847 747.143 L
853.487 770.183 813.815 770.759 794.591 747.143 C
756.575 747.143 L
756.575 809.207 L
756.791 813.527 759.527 816.263 763.847 816.479 C
873.143 816.479 L
b
0.000 0.000 0.000 1.000 K
0 j
0 J
0.287 w
[]0 d
0.000 0.000 0.000 0.498 k
745.127 838.367 m
776.015 838.367 l
777.095 838.367 778.031 837.431 778.031 836.351 c
778.031 832.679 l
778.031 831.527 777.095 830.663 776.015 830.663 c
745.127 830.663 l
744.047 830.663 743.111 831.527 743.111 832.679 c
743.111 836.351 l
743.111 837.431 744.047 838.367 745.127 838.367 c
b
0.000 0.000 0.000 1.000 K
0 j
0 J
0.287 w
[]0 d
0.000 0.000 0.000 0.498 k
849.239 838.367 m
880.127 838.367 l
881.207 838.367 882.143 837.431 882.143 836.351 c
882.143 832.679 l
882.143 831.527 881.207 830.663 880.127 830.663 c
849.239 830.663 l
848.159 830.663 847.223 831.527 847.223 832.679 c
847.223 836.351 l
847.223 837.431 848.159 838.367 849.239 838.367 c
b
0.000 0.000 0.000 1.000 K
0 j
0 J
0.287 w
[]0 d
0.000 0.000 0.000 0.200 k
775.943 837.431 m
776.663 837.431 777.023 836.999 777.095 836.279 C
777.095 835.199 777.311 833.255 777.023 832.247 C
776.735 831.815 776.447 831.599 775.943 831.527 C
745.199 831.527 L
744.479 831.599 744.047 832.031 744.047 832.751 C
744.047 833.831 743.759 835.703 744.119 836.783 C
744.335 837.215 744.695 837.431 745.199 837.431 C
775.943 837.431 L
b
0.000 0.000 0.000 1.000 K
0 j
0 J
0.287 w
[]0 d
0.000 0.000 0.000 0.200 k
880.055 837.431 m
880.775 837.431 881.207 836.999 881.207 836.279 C
881.207 835.199 881.495 833.255 881.135 832.247 C
880.919 831.815 880.559 831.599 880.055 831.527 C
849.311 831.527 L
848.663 831.599 848.231 832.031 848.159 832.751 C
848.159 833.831 847.943 835.703 848.231 836.783 C
848.447 837.215 848.879 837.431 849.311 837.431 C
880.055 837.431 L
b
0.000 0.000 0.000 1.000 K
0 j
0 J
0.287 w
[]0 d
0.000 0.000 0.000 0.298 k
704.807 721.223 m
707.471 721.223 709.559 719.135 709.559 716.471 c
709.559 713.879 707.471 711.791 704.807 711.791 c
702.215 711.791 700.055 713.879 700.055 716.471 c
700.055 719.135 702.215 721.223 704.807 721.223 c
b
0.000 0.000 0.000 1.000 K
0 j
0 J
0.287 w
[]0 d
0.000 0.000 0.000 0.098 k
704.807 673.631 m
707.471 673.631 709.559 671.543 709.559 668.879 c
709.559 666.287 707.471 664.199 704.807 664.199 c
702.215 664.199 700.055 666.287 700.055 668.879 c
700.055 671.543 702.215 673.631 704.807 673.631 c
b
0.000 0.000 0.000 1.000 K
0 j
0 J
0.287 w
[]0 d
0.000 0.000 0.000 0.098 k
703.007 660.455 m
704.591 660.455 705.815 659.159 705.815 657.575 c
705.815 655.991 704.591 654.695 703.007 654.695 c
701.351 654.695 700.127 655.991 700.127 657.575 c
700.127 659.159 701.351 660.455 703.007 660.455 c
b
0.000 0.000 0.000 1.000 K
0 j
0 J
0.287 w
[]0 d
0.000 0.000 0.000 0.098 k
932.183 673.631 m
929.591 673.631 927.503 671.543 927.503 668.879 c
927.503 666.287 929.591 664.127 932.183 664.127 c
934.847 664.127 937.007 666.287 937.007 668.879 c
937.007 671.543 934.847 673.631 932.183 673.631 c
b
0.000 0.000 0.000 1.000 K
0 j
0 J
0.287 w
[]0 d
0.000 0.000 0.000 0.098 k
934.055 660.383 m
932.471 660.383 931.175 659.159 931.175 657.503 c
931.175 655.991 932.471 654.695 934.055 654.695 c
935.639 654.695 936.935 655.991 936.935 657.503 c
936.935 659.159 935.639 660.383 934.055 660.383 c
b
0.000 0.000 0.000 1.000 K
0 j
0 J
0.287 w
[]0 d
0.000 0.000 0.000 0.298 k
932.183 721.223 m
934.775 721.223 936.863 719.135 936.863 716.471 c
936.863 713.879 934.775 711.791 932.183 711.791 c
929.519 711.791 927.431 713.879 927.431 716.471 c
927.431 719.135 929.519 721.223 932.183 721.223 c
b
0.000 0.000 0.000 1.000 K
0 j
0 J
0.287 w
[]0 d
0.000 0.000 0.000 0.000 k
717.479 674.927 m
732.311 674.927 l
733.319 674.927 734.111 674.135 734.111 673.199 c
734.111 664.847 l
734.111 663.839 733.319 663.048 732.311 663.048 c
717.479 663.048 l
716.543 663.048 715.751 663.839 715.751 664.847 c
715.751 673.199 l
715.751 674.135 716.543 674.927 717.479 674.927 c
b
0.000 0.000 0.000 1.000 K
0 j
0 J
0.287 w
[]0 d
0.000 0.000 0.000 0.298 k
903.815 674.927 m
918.647 674.927 l
919.583 674.927 920.375 674.135 920.375 673.199 c
920.375 664.847 l
920.375 663.839 919.583 663.048 918.647 663.048 c
903.815 663.048 l
902.807 663.048 902.015 663.839 902.015 664.847 c
902.015 673.199 l
902.015 674.135 902.807 674.927 903.815 674.927 c
b
0.000 0.000 0.000 1.000 K
0 j
0 J
0.287 w
[]0 d
0.000 0.000 0.000 0.498 k
698.183 652.967 m
938.807 652.967 L
938.807 634.607 L
698.183 634.607 L
698.183 652.967 L
b
u
u
0.000 0.000 0.000 1.000 K
0 j
0 J
0.287 w
[]0 d
748.799 662.471 m
748.799 634.607 L
S
U
U
u
u
0.000 0.000 0.000 1.000 K
0 j
0 J
0.287 w
[]0 d
888.119 662.471 m
888.119 634.607 L
S
U
U
u
u
0.000 0.000 0.000 1.000 K
0 j
0 J
0.287 w
[]0 d
748.799 634.607 m
705.095 648.575 L
698.183 648.575 L
S
U
U
u
u
0.000 0.000 0.000 1.000 K
0 j
0 J
0.287 w
[]0 d
888.119 634.607 m
931.823 648.575 L
938.735 648.575 L
S
U
U
u
u
0.000 0.000 0.000 1.000 K
0 j
0 J
0.287 w
[]0 d
705.743 648.575 m
705.743 634.463 L
S
U
U
u
u
0.000 0.000 0.000 1.000 K
0 j
0 J
0.287 w
[]0 d
932.471 648.575 m
932.471 634.463 L
S
U
U
0.000 0.000 0.000 1.000 K
0 j
0 J
0.287 w
[]0 d
0.000 0.000 0.000 0.498 k
747.287 634.535 m
890.207 634.535 L
890.207 625.967 L
842.903 630.216 L
818.207 628.343 L
786.095 631.439 L
763.703 631.439 L
747.287 625.967 L
747.287 634.535 L
b
0.000 0.000 0.000 1.000 K
0 j
0 J
0.287 w
[]0 d
0.000 0.000 0.000 0.000 k
880.487 677.087 m
891.863 677.087 L
891.863 668.087 L
880.487 668.087 L
880.487 677.087 L
b
0.000 0.000 0.000 1.000 K
0 j
0 J
0.287 w
[]0 d
890.423 676.511 m
889.919 676.511 889.631 676.151 889.631 675.719 c
889.631 675.287 889.919 674.927 890.423 674.927 c
890.855 674.927 891.143 675.287 891.143 675.719 c
891.143 676.151 890.855 676.511 890.423 676.511 c
s
0.000 0.000 0.000 1.000 K
0 j
0 J
0.287 w
[]0 d
890.423 670.247 m
889.919 670.247 889.631 669.887 889.631 669.455 c
889.631 669.024 889.919 668.663 890.423 668.663 c
890.855 668.663 891.143 669.024 891.143 669.455 c
891.143 669.887 890.855 670.247 890.423 670.247 c
s
0.000 0.000 0.000 1.000 K
0 j
0 J
0.287 w
[]0 d
882.215 676.511 m
881.711 676.511 881.423 676.151 881.423 675.719 c
881.423 675.287 881.711 674.927 882.215 674.927 c
882.647 674.927 882.935 675.287 882.935 675.719 c
882.935 676.151 882.647 676.511 882.215 676.511 c
s
0.000 0.000 0.000 1.000 K
0 j
0 J
0.287 w
[]0 d
882.215 670.247 m
881.711 670.247 881.423 669.887 881.423 669.455 c
881.423 669.024 881.711 668.663 882.215 668.663 c
882.647 668.663 882.935 669.024 882.935 669.455 c
882.935 669.887 882.647 670.247 882.215 670.247 c
s
0.000 0.000 0.000 1.000 K
0 j
0 J
0.287 w
[]0 d
0.000 0.000 0.000 0.498 k
682.199 780.623 m
689.975 780.623 l
691.919 780.623 693.575 778.967 693.575 777.023 c
693.575 752.111 l
693.575 750.095 691.919 748.511 689.975 748.511 c
682.199 748.511 l
680.183 748.511 678.599 750.095 678.599 752.111 c
678.599 777.023 l
678.599 778.967 680.183 780.623 682.199 780.623 c
b
0.000 0.000 0.000 1.000 K
0 j
0 J
0.287 w
[]0 d
0.000 0.000 0.000 0.498 k
954.791 780.623 m
947.015 780.623 l
944.999 780.623 943.415 778.967 943.415 777.023 c
943.415 752.111 l
943.415 750.095 944.999 748.511 947.015 748.511 c
954.791 748.511 l
956.807 748.511 958.391 750.095 958.391 752.111 c
958.391 777.023 l
958.391 778.967 956.807 780.623 954.791 780.623 c
b
0.000 0.000 0.000 1.000 K
0 j
0 J
0.287 w
[]0 d
0.000 0.000 0.000 0.498 k
701.063 741.599 m
687.527 741.599 L
686.375 741.815 685.655 742.247 685.583 743.111 C
685.583 748.439 L
687.311 748.439 L
687.311 743.903 L
687.311 743.255 687.743 742.967 688.535 743.039 C
701.063 743.039 L
701.063 741.599 L
b
0.000 0.000 0.000 1.000 K
0 j
0 J
0.287 w
[]0 d
0.000 0.000 0.000 0.498 k
935.855 741.599 m
949.391 741.599 L
950.543 741.815 951.263 742.247 951.335 743.111 C
951.335 748.439 L
949.607 748.439 L
949.607 743.903 L
949.607 743.255 949.175 742.967 948.383 743.039 C
935.855 743.039 L
935.855 741.599 L
b
0.000 0.000 0.000 1.000 K
0 j
0 J
0.287 w
[]0 d
0.000 0.000 0.000 0.000 k
754.991 730.151 m
756.575 730.151 757.799 728.927 757.799 727.415 c
757.799 725.831 756.575 724.607 754.991 724.607 c
753.479 724.607 752.255 725.831 752.255 727.415 c
752.255 728.927 753.479 730.151 754.991 730.151 c
b
%%Trailer
_E end