%!PS-Adobe-2.0 EPSF-1.2
%%Creator: Adobe Illustrator exported from Corel Draw 3.0
%%Title:6
%%BoundingBox:128 271 450 490
%%CreationDate:(Unknown)
%%ColorUsage:
%%TemplateBox:0 0 612 792
%%EndComments
%%BeginProcSet:Adobe_Illustrator_1.1 0 0
% Version 1.0 3/27/1990 $nokeywords$
% Copyright (C) 1990,1991,1992
% Corel Corporation
% All Rights Reserved

/wPmsDict 150 dict def 
wPmsDict begin 

/$debug 25 string def 

/bd {bind def} bind def 
/ld {load def} bd 
/xd {exch def} bd 
/_ null def 

/$c 0 def 
/$m 0 def 
/$y 0 def 
/$k 0 def 
/$t 1 def 
/$n _ def 
/$o 0 def 
/$pf false def 

/$C 0 def 
/$M 0 def 
/$Y 0 def 
/$K 0 def 
/$T 1 def 
/$N _ def 
/$O 0 def 
/$PF false def 

/$h false def 

/$al 0 def 
/$tr 0 def 
/$le 0 def 
/$lx 0 def 
/$ly 0 def 

/$ctm matrix currentmatrix def 
/$ptm matrix def 

/$pn () def 
/$pm matrix def 
/$px 0 def 
/$py 0 def 
/$pxf 0 def 
/$pyf 0 def 
/$psx 10 def 
/$psy 0 def 

/$llx 0 def 
/$lly 0 def 
/$urx 0 def 
/$ury 0 def 


/$Bbllx 0 def 
/$Bblly 0 def 
/$Bburx 0 def 
/$Bbury 0 def 

/$tllx 0 def 
/$tlly 0 def 
/$turx 0 def 
/$tury 0 def 

/$pd [] def 
/$tx 0 def 
/$ty 0 def 

/$sv 0 def 
/@cp /closepath ld 
/@gs /gsave ld 
/@gr /grestore ld 
/@np /newpath ld 
/@sv {/$sv save def}bd 
/@rs {$sv restore}bd 

/@MN { 
2 copy le{pop}{exch pop}ifelse 
}bd 

/setcmykcolor where {pop} 
{ 
/setcmykcolor 
{ 
4 1 roll 
3 {3 index add 1 @MN 1 exch sub 3 1 roll} repeat 
setrgbcolor 
pop 
}bd 
}ifelse 

/@tc 
{ 
dup 1 ge 
{pop} 
{ 
4 { 
dup 
6 -1 roll 
mul 
exch 
}repeat 
pop 
}ifelse 
}bd 

/@scc 
{ 
$c $m $y $k $t @tc 
setcmykcolor 
true 
}bd 
/@SCC 
{ 
$C $M $Y $K $T @tc 
setcmykcolor 
true 
}bd 

/@sft 
{ 
(setfirsttile sft )print 
/$tx $tllx $pxf add dup $tllx gt {$pwid $psx add sub}if def 
/$ty $tury $pyf sub dup $tury lt {$phei $psy add add}if def 
(setfirsttile exit )print 
}bd 

/@stb 
{ 
pathbbox /$ury xd /$urx xd /$lly xd /$llx xd 
}bd 

/@ep 
{ 
{ 
cvx exec 
}forall 
}bd 

/@tp 
{ 

(tile pattern tp )print 
@sv 
/$in true def 
2 copy 
dup $lly le {/$in false def}if 
$phei sub $ury ge {/$in false def}if 
dup $urx ge {/$in false def}if 
$pwid add $llx le {/$in false def}if 
$in 
{ 
@np 
2 copy moveto 
$pwid 0 rlineto 
0 $phei neg rlineto 
$pwid neg 0 rlineto 
0 $phei rlineto 
clip @np 

$pn cvlit load aload pop 
7 -1 roll 
5 index sub 
7 -1 roll 
3 index sub 
translate 
@ep 
pop pop pop pop 
} 
{pop pop}ifelse 
@rs 
(tile pattern exit )print 
}bd 

/@th 
{ 
(tile horizontal th)print 
@sft 
0 1 $tly 1 sub 
{ 
dup $psx mul $tx add 
{ 
dup $llx gt {$pwid sub}{exit}ifelse 
}loop 
exch $phei mul $ty exch sub 

0 1 $tlx 1 sub 
{ 
$pwid mul 
3 copy 
3 -1 roll add exch 
@tp 
pop 
}for 
pop pop 
} for 
(tile horizontal exiting )print 
}bd 

/@tv 
{ 
(tile vertical tv)print 
@sft 
0 1 $tlx 1 sub 
{ 
dup $pwid mul $tx add 
exch $psy mul $ty exch sub 
{ 
dup $ury lt {$phei add}{exit}ifelse 
}loop 

0 1 $tly 1 sub 
{ 
$phei mul 
3 copy sub 
@tp 
pop 
}for 
pop pop 
} for 
(tile vertical exit )print 
}bd 

/@pf 
{ 
(pattern fill pf)print 
@gs 
$pm concat 
@stb 
@gs 1 setgray eofill @gr 
eoclip 
$Bburx $Bbury $pm itransform /$tury xd /$turx xd 
$Bbllx $Bblly $pm itransform /$tlly xd /$tllx xd 
/$wid $turx $tllx sub def 
/$hei $tury $tlly sub def 
$wid 0 gt $hei 0 gt and 
{ 
$pn cvlit load aload pop 
$pd xd 
3 -1 roll sub /$phei xd 
exch sub /$pwid xd 
/$tlx $wid $pwid div ceiling 1 add def 
/$tly $hei $phei div ceiling 1 add def 
$psx 0 eq 
{ 
@tv 
} 
{ 
@th 
}ifelse 
}if 

@gr 
@np 
(pattern fill exit)print 
}bd 

/@xp 
{ 
{ 
dup (text Character is:) print == 
usertime (time before is:)print == 
(0) dup 3 -1 roll 0 exch put 
@gs 
true charpath currentpoint 
$ctm setmatrix 
@pf 
@gr 
@np 
moveto $tr 0 rmoveto 
usertime (time after is:)print == 
}forall 
pop 
}bd 

/@sm 
{ 
/$ctm $ctm currentmatrix def 
}bd 

%--@lorg  move to line origin   length string @torg length string
/@lorg    % moves currentpoint to line origin according to current alignment
  {      
  $lx $ly moveto    
  /$ly $ly $le sub def      % - prepare for next line(tracking)
  $al 0 ne
    {dup      % ->len str len str
    stringwidth   % ->len str len dx dy
    exch 3 index  % ->len str dy len dx
    1 sub         % ->len str dy len dx (len-1)
    $tr mul add   % ->len str dy len dx+(len-1)*$tr
    neg
    exch neg      % ->len str -dx_total dy len
    $al 1 eq      % check for centered alignment
    {2 div exch 2 div exch} if  
    rmoveto} if
  }bd

/@ft 
{ 
$pf 
{@xp} 
{ 
@scc 
{$tr exch 0 exch ashow pop} 
{pop pop}ifelse 
}ifelse 
}bd 

/@st 
{ 
$PF 
{} 
{ 
@SCC 
{ 
{ 
(0) dup 3 -1 roll 0 exch put 
@gs 
true charpath currentpoint 
$ctm setmatrix $ptm concat 
stroke 
@gr 
moveto $tr 0 rmoveto 
}forall 
pop 
} 
{pop pop}ifelse 
}ifelse 
}bd 
/@pt 
{ 
dup length exch 
}bd 
/@te 
{ 
@pt 
@lorg 
@ft 
}bd 

/@tr 
{ 
@pt 
@lorg 
@st 
}bd 
/@ta 
{ 
@pt 
@lorg 
2 copy 
@gs @ft @gr 
/$lx 0 def 
/$ly 0 def 
@st 
}bd 















/g { 
1 exch sub /$k xd 
/$c 0 def /$m 0 def /$y 0 def /$t 1 def /$n _ def /$pf false def 
}bd 

/G { 
1 exch sub /$K xd 
/$C 0 def /$M 0 def /$Y 0 def /$T 1 def /$N _ def /$PF false def 
}bd 

/k { 
/$k xd /$y xd /$m xd /$c xd 
/$t 1 def /$n _ def /$pf false def 
}bd 

/K { 
/$K xd /$Y xd /$M xd /$C xd 
/$T 1 def /$N _ def /$PF false def 
}bd 

/x { 
/$t xd /$n xd 
/$k xd /$y xd /$m xd /$c xd /$pf false def 
}bd 

/X { 
/$T xd /$N xd 
/$K xd /$Y xd /$M xd /$C xd /$PF false def 
}bd 

/d /setdash ld 

/i { 
dup 0 ne {setflat} {pop} ifelse 
}bd 

/j /setlinejoin ld 

/J /setlinecap ld 

/M /setmiterlimit ld 

/w /setlinewidth ld 

/O { 
/$o xd 
}bd 

/R { 
/$O xd 
}bd 


/c /curveto ld 

/C /c ld 

/v { 
currentpoint
6 2 roll 
curveto 
}bd

/V /v ld 

/y { 
2 copy curveto 
}bd 

/Y /y ld 

/l /lineto ld 

/L /l ld 

/m /moveto ld 



/n /newpath ld 

/N /newpath ld 

/F { 
$pf 
{@pf} 
{ 
@scc 
{eofill}if 
}ifelse 
}bd 

/f { 
@cp F 
}bd 
/S { 
$PF 
{} 
{ 
@SCC 
{ 
@sm 
$ptm concat 
stroke 
$ctm setmatrix 
}if 
}ifelse 
}bd 
/s { 
@cp 
S 
}bd 

/B { 
@gs F @gr 
S 
}bd 
/b { 
@cp 
B 
}bd 

/W { 
oeclip 
@np 
}bd 

/p { 
/$pm xd 
7 {pop} repeat 
/$pyf xd /$pxf xd 
/$pn xd 
/$pf true def 
}bd 

/P { 
11 {pop} repeat 
}bd 

/@p { 
/$pm xd 
/$psy xd 
/$psx xd 
/$pyf xd /$pxf xd 
/$pn xd 
/$pf true def 
}bd 

/@b { 
/$Bbury xd /$Bburx xd 
/$Bblly xd /$Bbllx xd 
}bd 


/z { 
/$al xd 
/$tr xd 
/$le xd 
exch findfont exch scalefont setfont 
}bd 

/Z { 
dup type 0 type eq { /$bDir xd } if
findfont 
dup maxlength 1 add dict exch 



dup 
{1 index /FID ne 
{ 
3 index 
3 1 roll put 
} 
{pop pop}ifelse 
} forall 



pop 
dup dup /Encoding get 
256 array copy 
dup /$fe xd
/Encoding exch put 

dup /Fontname 3 index put 

}bd 

/e { 
@sm 
concat 
[ 
/t {@te}def 
}bd 

/r { 
@sm 
concat 
[ 
/t {@tr}def 
}bd 

/o { 
@sm 
concat 
[ 
/t {pop}def 
}bd 

/a { 
@sm 
concat 
[ 
/t {@ta}def 
}bd 

/@o{
@sm 
concat 
[ 
/t {@t@a}def 
}bd 

/I { 
@sm 
concat 
[ 
/t {pop}def 
}bd 

/t {@te}def 

/T { 
cleartomark 
/$lx 0 def 
/$ly 0 def 
$ctm setmatrix 
}bd 


/u {}bd 

/U {}bd 

/A {pop}bd 

/h { 
$h true def 
}bd 

/h { 
$h true def 
}bd 

/q /@gs ld 

/Q /@gr ld 



/E { 
5 array astore 
exch cvlit exch def 
}bd 

/` {}bd 

/~ {}bd 

/@ {}bd 

/& {}bd 

/CorelDrawRencodeVect [ 
16#80/grave 
16#81/circumflex 
16#82/tilde 
16#83/dotlessi 
16#84/florin 
16#85/quotedblleft 
16#86/quotedblright 
16#87/guilsinglleft 
16#88/guilsinglright 
16#89/fi 
16#8a/fl 
16#8b/dagger 
16#8c/daggerdbl 
16#8d/endash 
16#8e/periodcentered 
16#8f/breve 
16#90/quotedblbase 
16#91/ellipsis 
16#92/perthousand 
16#a1/exclamdown 
16#a2/cent 
16#a3/sterling 
16#a4/currency 
16#a5/yen 
16#a6/bar 
16#a7/section 
16#a8/dieresis 
16#a9/copyright 
16#aa/ordfeminine 
16#ab/guillemotleft 
16#ac/logicalnot 
16#ad/emdash 
16#ae/registered 
16#af/spac 
16#b0/ring 
16#b1/spac 
16#b2/spac 
16#b3/spac 
16#b4/acute 
16#b5/spac 
16#b6/paragraph 
16#b7/bullet 
16#b8/cedilla 
16#b9/spac 
16#ba/ordmasculine 
16#bb/guillemotright 
16#bc/spac 
16#bd/spac 
16#be/spac 
16#bf/questiondown 
16#c0/Agrave 
16#c1/Aacute 
16#c2/Acircumflex 
16#c3/Atilde 
16#c4/Adieresis 
16#c5/Aring 
16#c6/AE 
16#c7/Ccedilla 
16#c8/Egrave 
16#c9/Eacute 
16#ca/Ecircumflex 
16#cb/Edieresis 
16#cc/Igrave 
16#cd/Iacute 
16#ce/Icircumflex 
16#cf/Idieresis 
16#d0/spac 
16#d1/Ntilde 
16#d2/Ograve 
16#d3/Oacute 
16#d4/Ocircumflex 
16#d5/Otilde 
16#d6/Odieresis 
16#d7/OE 
16#d8/Oslash 
16#d9/Ugrave 
16#da/Uacute 
16#db/Ucircumflex 
16#dc/Udieresis 
16#dd/space 
16#de/spac 
16#df/germandbls 
16#e0/agrave 
16#e1/aacute 
16#e2/acircumflex 
16#e3/atilde 
16#e4/adieresis 
16#e5/aring 
16#e6/ae 
16#e7/ccedilla 
16#e8/egrave 
16#e9/eacute 
16#ea/ecircumflex 
16#eb/edieresis 
16#ec/igrave 
16#ed/iacute 
16#ee/icircumflex 
16#ef/idieresis 
16#f0/space 
16#f1/ntilde 
16#f2/ograve 
16#f3/oacute 
16#f4/ocircumflex 
16#f5/otilde 
16#f6/odieresis 
16#f7/oe 
16#f8/oslash 
16#f9/ugrave 
16#fa/uacute 
16#fb/ucircumflex 
16#fc/udieresis 
16#fd/spac 
16#fe/spac 
16#ff/ydieresis 
] def
%%EndProlog
%%BeginSetup
%%BeginEncoding:_Times-Bold Times-Bold
[
]/_Times-Bold/Times-Bold Z
%%EndEncoding
%%EndSetup
0.000 0.000 0.000 1.000 k
390.887 297.431 m
385.055 297.431 L
385.055 293.687 385.055 289.871 385.055 286.127 C
386.999 285.335 389.087 285.335 390.887 286.127 C
390.887 297.431 L
f
0.000 0.000 0.000 1.000 k
429.767 297.431 m
435.599 297.431 L
435.599 293.687 435.599 289.871 435.599 286.127 C
433.727 285.335 431.639 285.335 429.767 286.127 C
429.767 297.431 L
f
0.000 0.000 0.000 1.000 k
384.551 297.431 m
380.591 297.431 L
379.871 297.431 379.007 297.719 378.719 298.512 C
378.719 286.127 L
380.591 285.335 382.679 285.335 384.551 286.127 C
384.551 297.431 L
f
0.000 0.000 0.000 1.000 k
436.175 297.431 m
440.063 297.431 L
440.855 297.431 441.719 297.719 442.007 298.512 C
442.007 286.127 L
440.063 285.335 437.975 285.335 436.175 286.127 C
436.175 297.431 L
f
0.000 0.000 0.000 1.000 K
0 j
0 J
0.215 w
[]0 d
0.000 0.000 0.000 0.498 k
429.695 297.431 m
390.959 297.431 L
390.959 292.967 L
392.543 296.063 L
398.231 292.751 L
399.311 292.031 400.535 291.743 401.687 291.815 C
417.815 291.815 L
419.543 291.743 420.983 291.887 422.639 292.536 C
428.255 295.847 L
429.695 292.751 L
429.695 297.431 L
b
0.000 0.000 0.000 1.000 K
0 j
0 J
0.863 w
[]0 d
379.655 482.471 m
379.511 484.415 380.375 486.503 383.183 486.863 C
390.671 488.735 398.231 489.815 406.799 489.527 C
416.087 489.743 425.879 488.951 433.799 487.007 C
436.463 486.647 437.111 484.559 436.895 482.255 C
438.911 445.679 L
439.919 443.951 L
439.919 432.575 L
440.423 429.911 L
438.911 415.223 L
438.839 413.855 438.191 412.991 437.111 412.991 C
377.207 412.991 L
376.271 412.991 375.479 413.351 375.263 414.359 C
374.327 429.767 L
375.263 432.575 L
375.263 443.951 L
376.631 445.679 L
379.655 482.471 L
s
0.000 0.000 0.000 1.000 K
0 j
0 J
0.863 w
[]0 d
0.000 0.000 0.000 0.498 k
439.775 423.647 m
438.911 415.223 L
438.839 413.855 438.191 412.991 437.111 412.991 C
377.207 412.991 L
376.271 412.991 375.479 413.351 375.263 414.359 C
374.543 423.575 L
439.775 423.647 L
b
0.000 0.000 0.000 1.000 K
0 j
0 J
0.863 w
[]0 d
437.687 367.127 m
437.831 369.071 436.967 371.159 434.159 371.519 C
426.743 373.391 419.111 374.471 410.615 374.183 C
401.255 374.399 391.535 373.607 383.543 371.663 C
380.879 371.303 380.303 369.215 380.519 366.911 C
378.431 330.335 L
377.423 328.607 L
377.423 317.231 L
376.991 314.567 L
378.431 299.879 L
378.575 298.512 379.151 297.647 380.303 297.647 C
440.135 297.647 L
441.143 297.647 441.863 298.007 442.079 299.015 C
443.087 314.423 L
442.079 317.231 L
442.079 328.607 L
440.783 330.335 L
437.687 367.127 L
s
0.000 0.000 0.000 1.000 K
0 j
0 J
0.215 w
[]0 d
381.239 475.919 m
399.599 477.071 417.599 477.071 436.103 475.919 C
437.759 445.031 L
378.287 445.103 L
381.239 475.919 L
s
0.000 0.000 0.000 1.000 K
0 j
0 J
0.215 w
[]0 d
0.000 0.000 0.000 0.498 k
384.551 475.055 m
401.039 475.919 416.015 475.919 432.647 475.055 c
434.159 474.983 435.311 473.759 435.311 472.391 c
436.391 451.079 l
436.391 449.783 435.095 448.343 433.655 448.343 c
382.391 448.343 L
381.023 448.343 379.583 449.783 379.727 451.079 C
381.887 472.391 L
381.959 473.687 383.039 474.983 384.551 475.055 C
b
0.000 0.000 0.000 1.000 K
0 j
0 J
0.215 w
[]0 d
380.231 483.623 m
379.799 487.439 398.231 489.383 409.175 489.023 C
422.279 489.167 437.399 487.079 436.463 483.623 C
436.463 479.807 L
380.015 479.807 L
380.231 483.623 L
s
0.000 0.000 0.000 1.000 K
0 j
0 J
0.215 w
[]0 d
437.183 368.279 m
437.543 372.095 419.183 374.039 408.167 373.679 C
395.135 373.823 380.015 371.735 380.951 368.279 C
380.951 364.463 L
437.399 364.463 L
437.183 368.279 L
s
0.000 0.000 0.000 1.000 k
378.359 412.919 m
384.191 412.919 L
384.191 409.103 384.191 405.359 384.191 401.543 C
382.319 400.823 380.231 400.823 378.359 401.543 C
378.359 412.919 L
f
0.000 0.000 0.000 1.000 k
430.199 412.919 m
436.031 412.919 L
436.031 409.103 436.031 405.359 436.031 401.543 C
434.159 400.823 432.071 400.823 430.199 401.543 C
430.199 412.919 L
f
0.000 0.000 0.000 1.000 K
0 j
0 J
0.215 w
[]0 d
0.000 0.000 0.000 0.498 k
384.191 413.063 m
430.199 413.063 L
430.199 408.599 L
428.615 411.695 L
422.927 408.311 L
421.847 407.591 420.551 407.375 419.471 407.375 C
396.143 407.375 L
394.415 407.375 392.903 407.519 391.319 408.095 C
385.631 411.407 L
384.191 408.311 L
384.191 413.063 L
b
0.000 0.000 0.000 1.000 K
0 j
0 J
0.215 w
[]0 d
375.263 443.735 m
379.583 443.735 L
379.583 441.503 l
379.583 438.839 379.583 438.623 379.583 435.455 c
379.583 433.583 L
375.263 433.583 L
375.263 443.735 L
s
0.000 0.000 0.000 1.000 K
0 j
0 J
0.215 w
[]0 d
439.991 443.735 m
435.671 443.735 L
435.671 441.503 l
435.671 438.839 435.671 438.623 435.671 435.455 c
435.671 433.583 L
439.991 433.583 L
439.991 443.735 L
s
0.000 0.000 0.000 1.000 K
0 j
0 J
0.215 w
[]0 d
0.000 0.000 0.000 0.498 k
367.991 462.959 m
368.279 463.823 369.071 464.327 370.223 464.399 C
378.215 465.335 L
376.919 449.711 L
370.007 451.367 L
368.927 451.511 368.207 452.015 367.991 452.519 C
367.343 456.047 367.415 459.503 367.991 462.959 C
b
0.000 0.000 0.000 1.000 K
0 j
0 J
0.215 w
[]0 d
0.000 0.000 0.000 0.498 k
449.351 347.615 m
449.063 348.479 448.271 348.983 447.119 349.055 C
439.127 349.991 L
440.423 334.367 L
447.407 336.024 L
448.415 336.167 449.207 336.671 449.351 337.175 C
449.999 340.703 449.927 344.159 449.351 347.615 C
b
0.000 0.000 0.000 1.000 K
0 j
0 J
0.215 w
[]0 d
0.000 0.000 0.000 0.498 k
447.911 462.959 m
447.623 463.823 446.831 464.327 445.679 464.399 C
437.831 465.335 L
438.695 449.639 L
445.967 451.367 L
446.975 451.511 447.767 452.015 447.911 452.519 C
448.487 455.831 448.487 459.503 447.911 462.959 C
b
0.000 0.000 0.000 1.000 K
0 j
0 J
0.215 w
[]0 d
0.000 0.000 0.000 0.498 k
369.503 347.615 m
369.791 348.479 370.583 348.983 371.735 349.055 C
379.583 349.991 L
378.719 334.295 L
371.447 336.024 L
370.439 336.167 369.647 336.671 369.503 337.175 C
368.927 340.487 368.927 344.159 369.503 347.615 C
b
u
u
0.000 0.000 0.000 1.000 K
0 j
0 J
0.215 w
[]0 d
375.263 442.295 m
379.511 442.295 L
S
U
U
u
u
0.000 0.000 0.000 1.000 K
0 j
0 J
0.215 w
[]0 d
439.991 442.295 m
435.671 442.295 L
S
U
U
u
u
0.000 0.000 0.000 1.000 K
0 j
0 J
0.215 w
[]0 d
375.263 434.735 m
379.511 434.735 L
S
U
U
u
u
0.000 0.000 0.000 1.000 K
0 j
0 J
0.215 w
[]0 d
439.991 434.735 m
435.671 434.735 L
S
U
U
0.000 0.000 0.000 1.000 K
0 j
0 J
0.215 w
[]0 d
380.303 443.735 m
435.095 443.735 L
433.583 443.663 433.583 441.575 435.095 441.647 C
435.095 435.383 L
433.511 435.599 433.223 433.583 435.095 433.583 C
380.303 433.583 L
381.527 433.583 382.103 435.383 380.303 435.383 C
380.303 441.647 L
381.311 441.575 382.391 443.807 380.303 443.735 C
s
0.000 0.000 0.000 1.000 K
0 j
0 J
0.215 w
[]0 d
0.000 0.000 0.000 0.498 k
375.407 433.655 m
439.991 433.655 L
440.639 430.631 440.135 426.743 439.703 423.647 C
374.471 423.647 L
375.335 427.103 373.319 430.487 375.407 433.655 C
b
u
u
0.000 0.000 0.000 1.000 K
0 j
0 J
0.215 w
[]0 d
385.415 431.567 m
428.759 431.567 L
S
U
U
u
u
0.000 0.000 0.000 1.000 K
0 j
0 J
0.215 w
[]0 d
385.631 424.223 m
428.327 424.223 L
S
U
U
u
u
0.000 0.000 0.000 0.000 K
0 j
0 J
0.215 w
[]0 d
386.135 425.447 m
427.751 425.447 L
S
U
U
u
u
0.000 0.000 0.000 0.000 K
0 j
0 J
0.215 w
[]0 d
386.135 425.447 m
427.751 425.447 L
S
U
U
u
u
0.000 0.000 0.000 1.000 K
0 j
0 J
0.215 w
[]0 d
386.135 425.447 m
427.751 425.447 L
S
U
U
u
u
0.000 0.000 0.000 1.000 K
0 j
0 J
0.215 w
[]0 d
386.135 426.959 m
399.095 426.959 L
S
U
U
u
u
0.000 0.000 0.000 1.000 K
0 j
0 J
0.215 w
[]0 d
386.135 428.543 m
399.095 428.543 L
S
U
U
u
u
0.000 0.000 0.000 1.000 K
0 j
0 J
0.215 w
[]0 d
386.135 430.055 m
399.095 430.055 L
S
U
U
u
u
0.000 0.000 0.000 1.000 K
0 j
0 J
0.215 w
[]0 d
414.791 426.959 m
427.751 426.959 L
S
U
U
u
u
0.000 0.000 0.000 1.000 K
0 j
0 J
0.215 w
[]0 d
414.791 428.543 m
427.751 428.543 L
S
U
U
u
u
0.000 0.000 0.000 1.000 K
0 j
0 J
0.215 w
[]0 d
414.791 430.055 m
427.751 430.055 L
S
U
U
0.000 0.000 0.000 1.000 K
0 j
0 J
0.215 w
[]0 d
0.000 0.000 0.000 0.000 k
412.199 430.199 m
413.207 430.199 413.207 429.263 413.207 428.471 c
413.207 427.751 413.135 426.743 412.199 426.815 c
411.191 426.743 411.119 427.751 411.119 428.471 c
411.119 429.263 411.119 430.199 412.199 430.199 c
b
0.000 0.000 0.000 1.000 K
0 j
0 J
0.215 w
[]0 d
0.000 0.000 0.000 0.498 k
411.839 428.471 m
411.839 427.895 411.911 427.535 412.199 427.535 c
412.487 427.535 412.487 427.895 412.487 428.471 c
412.487 429.119 412.487 429.479 412.199 429.479 c
411.911 429.479 411.839 429.119 411.839 428.471 c
b
0.000 0.000 0.000 1.000 K
0 j
0 J
0.215 w
[]0 d
0.000 0.000 0.000 0.000 k
410.183 429.983 m
410.183 429.119 L
410.039 429.335 409.895 429.479 409.679 429.479 c
409.247 429.479 409.175 428.975 409.175 428.543 c
409.175 427.823 409.319 427.535 409.679 427.535 c
409.895 427.535 410.039 427.679 410.183 427.823 C
410.183 427.031 L
410.039 426.887 409.751 426.815 409.463 426.815 c
408.527 426.815 408.455 427.751 408.455 428.543 c
408.455 429.479 408.599 430.199 409.463 430.199 c
409.751 430.199 409.967 430.127 410.183 429.983 C
b
0.000 0.000 0.000 1.000 K
0 j
0 J
0.215 w
[]0 d
0.000 0.000 0.000 0.000 k
405.791 426.887 m
405.791 429.191 L
405.791 430.199 L
407.447 430.199 L
407.447 429.479 L
406.583 429.479 L
406.583 428.831 L
407.447 428.831 L
407.447 428.111 L
406.583 428.111 L
406.583 427.535 L
407.447 427.535 L
407.447 426.887 L
405.791 426.887 L
b
0.000 0.000 0.000 1.000 K
0 j
0 J
0.215 w
[]0 d
0.000 0.000 0.000 0.000 k
403.343 426.887 m
402.911 429.191 L
402.767 430.199 L
403.487 430.199 L
403.775 427.823 L
403.775 427.607 L
403.775 427.607 L
404.063 429.983 L
404.063 430.199 L
404.855 430.199 L
404.423 427.823 L
404.279 426.887 L
403.343 426.887 L
b
0.000 0.000 0.000 1.000 K
0 j
0 J
0.215 w
[]0 d
0.000 0.000 0.000 0.000 k
400.967 426.887 m
400.967 429.191 L
400.967 430.199 L
401.759 430.199 L
401.759 427.823 L
401.759 426.887 L
400.967 426.887 L
b
0.000 0.000 0.000 1.000 K
0 j
0 J
0.215 w
[]0 d
0.000 0.000 0.000 0.298 k
380.447 431.495 m
385.343 431.495 l
385.775 431.495 386.135 431.207 386.135 430.775 c
386.135 424.943 l
386.135 424.511 385.775 424.151 385.343 424.151 c
380.447 424.151 l
380.015 424.151 379.655 424.511 379.655 424.943 c
379.655 430.775 l
379.655 431.207 380.015 431.495 380.447 431.495 c
b
0.000 0.000 0.000 1.000 K
0 j
0 J
0.215 w
[]0 d
0.000 0.000 0.000 0.298 k
428.543 431.495 m
433.439 431.495 l
433.871 431.495 434.231 431.207 434.231 430.775 c
434.231 424.943 l
434.231 424.511 433.871 424.151 433.439 424.151 c
428.543 424.151 l
428.111 424.151 427.751 424.511 427.751 424.943 c
427.751 430.775 l
427.751 431.207 428.111 431.495 428.543 431.495 c
b
0.000 0.000 0.000 1.000 K
0 j
0 J
0.215 w
[]0 d
0.000 0.000 0.000 0.000 k
381.311 430.487 m
384.551 430.487 l
384.911 430.487 385.199 430.199 385.199 429.767 c
385.199 425.951 l
385.199 425.591 384.911 425.231 384.551 425.231 c
381.311 425.231 l
380.879 425.231 380.591 425.591 380.591 425.951 c
380.591 429.767 l
380.591 430.199 380.879 430.487 381.311 430.487 c
b
0.000 0.000 0.000 1.000 K
0 j
0 J
0.215 w
[]0 d
0.000 0.000 0.000 0.000 k
429.407 430.487 m
432.647 430.487 l
433.007 430.487 433.295 430.199 433.295 429.767 c
433.295 425.951 l
433.295 425.591 433.007 425.231 432.647 425.231 c
429.407 425.231 l
428.975 425.231 428.687 425.591 428.687 425.951 c
428.687 429.767 l
428.687 430.199 428.975 430.487 429.407 430.487 c
b
u
u
0.000 0.000 0.000 1.000 K
0 j
0 J
0.215 w
[]0 d
375.623 444.527 m
439.487 444.527 L
S
U
U
0.000 0.000 0.000 1.000 K
0 j
0 J
0.215 w
[]0 d
0.000 0.000 0.000 0.000 k
370.079 463.175 m
376.919 463.679 L
376.127 450.863 L
370.583 452.231 L
371.231 452.159 371.879 452.375 372.383 453.311 C
372.887 456.263 373.319 459.431 372.527 462.383 C
371.591 463.175 370.871 462.887 370.079 463.175 C
b
0.000 0.000 0.000 1.000 K
0 j
0 J
0.215 w
[]0 d
0.000 0.000 0.000 0.000 k
447.263 347.831 m
440.423 348.335 L
441.215 335.519 L
446.759 336.887 L
446.111 336.815 445.463 337.031 444.959 337.967 C
444.455 340.919 444.023 344.087 444.815 347.039 C
445.751 347.831 446.471 347.543 447.263 347.831 C
b
0.000 0.000 0.000 1.000 K
0 j
0 J
0.215 w
[]0 d
0.000 0.000 0.000 0.000 k
445.823 463.175 m
438.983 463.679 L
439.199 450.647 L
445.319 452.231 L
444.671 452.159 444.023 452.375 443.519 453.311 C
443.015 456.263 442.583 459.431 443.375 462.383 C
444.311 463.175 445.031 462.887 445.823 463.175 C
b
0.000 0.000 0.000 1.000 K
0 j
0 J
0.215 w
[]0 d
0.000 0.000 0.000 0.000 k
371.591 347.831 m
378.359 348.335 L
378.215 335.303 L
372.095 336.887 L
372.743 336.815 373.391 337.031 373.895 337.967 C
374.399 340.919 374.759 344.087 374.039 347.039 C
373.103 347.831 372.383 347.543 371.591 347.831 C
b
0.000 0.000 0.000 1.000 K
0 j
0 J
0.863 w
[]0 d
0.000 0.000 0.000 0.498 k
377.927 305.495 m
442.583 305.495 L
442.223 299.447 L
441.935 298.007 440.927 297.503 439.487 297.719 C
382.319 297.719 L
380.447 297.503 379.151 297.863 378.575 299.447 C
377.927 305.495 L
b
0.000 0.000 0.000 1.000 K
0 j
0 J
0.215 w
[]0 d
0.000 0.000 0.000 0.498 k
380.519 304.415 m
440.207 304.415 l
440.855 304.415 441.431 303.911 441.431 303.191 c
441.431 300.527 l
441.431 299.879 440.855 299.303 440.207 299.303 c
380.519 299.303 l
379.799 299.303 379.295 299.879 379.295 300.527 c
379.295 303.191 l
379.295 303.911 379.799 304.415 380.519 304.415 c
b
0.000 0.000 0.000 1.000 K
0 j
0 J
0.215 w
[]0 d
0.000 0.000 0.000 0.298 k
380.303 304.415 m
389.447 304.415 L
389.447 299.303 L
380.303 299.303 L
380.303 304.415 L
b
0.000 0.000 0.000 1.000 K
0 j
0 J
0.215 w
[]0 d
0.000 0.000 0.000 0.298 k
440.567 304.415 m
431.423 304.415 L
431.423 299.303 L
440.567 299.303 L
440.567 304.415 L
b
u
u
0.000 0.000 0.000 1.000 K
0 j
0 J
0.215 w
[]0 d
382.607 304.415 m
382.607 299.303 L
384.983 299.303 L
384.983 304.415 L
387.215 304.415 L
387.215 299.303 L
S
U
U
u
u
0.000 0.000 0.000 1.000 K
0 j
0 J
0.215 w
[]0 d
438.191 304.415 m
438.191 299.303 L
435.815 299.303 L
435.815 304.415 L
433.583 304.415 L
433.583 299.303 L
S
U
U
u
u
0.000 0.000 0.000 1.000 K
0 j
0 J
0.215 w
[]0 d
380.375 362.159 m
438.335 362.159 L
S
U
U
u
u
0.000 0.000 0.000 1.000 K
0 j
0 J
0.215 w
[]0 d
408.815 364.463 m
408.815 305.495 L
S
U
U
u
u
0.000 0.000 0.000 1.000 K
0 j
0 J
0.215 w
[]0 d
383.399 364.463 m
383.399 305.495 L
S
U
U
u
u
0.000 0.000 0.000 1.000 K
0 j
0 J
0.215 w
[]0 d
435.095 364.463 m
435.095 305.495 L
S
U
U
u
u
0.000 0.000 0.000 1.000 K
0 j
0 J
0.215 w
[]0 d
377.639 307.727 m
442.799 307.727 L
S
U
U
u
u
0.000 0.000 0.000 1.000 K
0 j
0 J
0.215 w
[]0 d
442.151 317.375 m
441.503 305.495 L
S
U
U
u
u
0.000 0.000 0.000 1.000 K
0 j
0 J
0.215 w
[]0 d
434.807 311.831 m
441.791 311.831 L
S
U
U
u
u
0.000 0.000 0.000 1.000 K
0 j
0 J
0.215 w
[]0 d
377.351 316.151 m
378.575 305.423 L
S
U
U
u
u
0.000 0.000 0.000 1.000 K
0 j
0 J
0.215 w
[]0 d
377.999 310.463 m
383.399 310.463 L
S
U
U
u
u
0.000 0.000 0.000 1.000 K
0 j
0 J
0.215 w
[]0 d
378.359 329.903 m
441.071 329.903 L
S
U
U
u
u
0.000 0.000 0.000 1.000 K
0 j
0 J
0.215 w
[]0 d
377.927 329.111 m
441.503 329.111 L
S
U
U
u
u
0.000 0.000 0.000 1.000 K
0 j
0 J
0.215 w
[]0 d
378.575 334.223 m
440.639 334.223 L
S
U
U
u
u
0.000 0.000 0.000 1.000 K
0 j
0 J
0.215 w
[]0 d
380.231 364.031 m
437.975 364.031 L
S
U
U
0.000 0.000 0.000 1.000 K
0 j
0 J
0.215 w
[]0 d
0.000 0.000 0.000 0.498 k
383.399 353.591 m
383.831 353.591 384.191 353.375 384.335 352.943 C
384.551 352.367 384.551 351.719 384.335 351.143 C
384.263 350.783 383.903 350.495 383.399 350.351 C
383.399 353.591 L
b
0.000 0.000 0.000 1.000 K
0 j
0 J
0.215 w
[]0 d
0.000 0.000 0.000 0.498 k
435.095 353.591 m
434.663 353.591 434.303 353.375 434.159 352.943 C
433.943 352.367 433.943 351.719 434.159 351.143 C
434.231 350.783 434.591 350.495 435.095 350.351 C
435.095 353.591 L
b
0.000 0.000 0.000 1.000 K
0 j
0 J
0.215 w
[]0 d
0.000 0.000 0.000 0.498 k
435.095 322.343 m
434.663 322.271 434.303 322.055 434.159 321.695 C
433.943 321.048 433.943 320.471 434.159 319.895 C
434.231 319.463 434.591 319.175 435.095 319.103 C
435.095 322.343 L
b
0.000 0.000 0.000 1.000 K
0 j
0 J
0.215 w
[]0 d
0.000 0.000 0.000 0.498 k
383.183 322.343 m
383.615 322.271 383.975 322.055 384.119 321.695 C
384.335 321.048 384.335 320.471 384.119 319.895 C
384.047 319.463 383.687 319.175 383.183 319.103 C
383.183 322.343 L
b
0.000 0.000 0.000 1.000 K
0 j
0 J
0.215 w
[]0 d
411.623 328.536 m
415.151 328.536 l
415.871 328.536 417.023 328.463 416.591 327.096 c
415.295 323.711 415.151 323.927 411.623 322.199 c
410.975 321.911 410.183 322.199 410.183 323.567 c
410.183 327.096 l
410.183 327.887 410.831 328.536 411.623 328.536 c
s
0.000 0.000 0.000 1.000 K
0 j
0 J
0.215 w
[]0 d
0.000 0.000 0.000 0.498 k
411.407 327.959 m
415.223 327.671 L
415.799 327.455 415.799 327.024 415.223 326.735 C
413.927 326.663 412.703 326.591 411.407 326.447 C
410.615 326.735 410.615 327.743 411.407 327.959 C
b
0.000 0.000 0.000 1.000 K
0 j
0 J
0.215 w
[]0 d
0.000 0.000 0.000 0.498 k
294.839 298.727 m
291.168 298.727 L
290.375 316.512 265.536 317.303 264.096 298.727 c
264.096 298.727 261.503 298.799 261.503 298.799 c
261.647 324.000 296.855 319.031 294.839 298.727 C
b
0.000 0.000 0.000 1.000 K
0 j
0 J
0.215 w
[]0 d
0.000 0.000 0.000 0.498 k
148.536 413.495 m
152.135 413.495 L
153.000 431.351 177.768 432.071 179.279 413.495 c
179.279 413.495 181.871 413.567 181.871 413.567 c
181.727 438.767 146.447 433.799 148.536 413.495 C
b
0.000 0.000 0.000 1.000 K
0 j
0 J
0.215 w
[]0 d
0.000 0.000 0.000 0.498 k
205.631 298.439 m
201.815 298.439 L
200.663 316.151 175.319 317.951 174.527 298.439 C
174.527 298.439 170.135 298.439 170.135 298.439 c
174.743 323.639 203.183 321.191 205.631 298.439 C
b
0.000 0.000 0.000 1.000 K
0 j
0 J
0.215 w
[]0 d
0.000 0.000 0.000 0.498 k
237.671 413.279 m
241.487 413.207 L
242.639 430.919 267.983 432.791 268.775 413.207 C
268.847 413.207 273.168 413.207 273.168 413.279 c
268.632 438.479 240.191 436.031 237.671 413.279 C
b
0.000 0.000 0.000 1.000 K
0 j
0 J
0.863 w
[]0 d
0.000 0.000 0.000 0.000 k
144.719 373.823 m
275.903 373.751 L
281.375 373.751 286.343 373.319 291.743 372.527 C
293.327 372.383 294.048 372.167 294.623 371.447 C
301.463 364.103 L
301.967 361.367 L
312.120 333.935 L
313.415 333.215 L
314.567 329.903 L
314.207 323.711 L
313.919 318.455 L
312.479 308.807 L
315.143 307.655 L
314.135 301.175 L
310.823 298.584 L
304.271 298.007 301.247 297.935 294.839 298.727 C
295.487 321.479 261.072 321.767 261.216 298.512 C
205.559 298.439 L
203.399 321.983 174.383 322.847 170.207 298.439 C
140.471 298.439 L
137.159 298.151 L
136.295 296.783 134.927 295.055 133.415 295.055 C
128.159 295.055 L
128.159 296.279 L
131.183 296.279 L
131.975 296.351 132.119 297.072 132.191 298.007 C
132.191 319.608 L
133.199 331.055 L
135.143 344.735 137.231 366.407 138.743 370.151 C
139.751 373.103 141.983 373.895 144.719 373.823 C
b
0.000 0.000 0.000 1.000 K
0 j
0 J
0.863 w
[]0 d
0.000 0.000 0.000 0.000 k
298.584 488.591 m
167.471 488.519 L
162.000 488.519 156.959 488.087 151.631 487.367 C
149.975 487.151 149.327 486.935 148.679 486.215 C
141.911 478.943 L
141.335 476.207 L
131.256 448.775 L
129.959 448.055 L
128.807 444.743 L
129.167 438.551 L
129.455 433.295 L
130.895 423.647 L
128.231 422.495 L
129.239 416.015 L
132.551 413.423 L
139.031 412.847 142.127 412.775 148.463 413.567 C
147.887 436.319 182.303 436.607 182.159 413.351 C
237.815 413.279 L
239.975 436.823 268.991 437.615 273.096 413.279 C
302.831 413.279 L
306.215 412.991 L
307.079 411.623 308.447 409.823 309.959 409.823 C
315.215 409.823 L
315.215 411.047 L
312.191 411.047 L
311.399 411.191 311.255 411.839 311.183 412.847 C
311.183 434.375 L
310.175 445.895 L
308.231 459.575 306.143 481.175 304.632 484.919 C
303.623 487.871 301.391 488.735 298.584 488.591 C
b
0.000 0.000 0.000 1.000 K
0 j
0 J
0.215 w
[]0 d
145.151 365.399 m
261.575 365.399 L
261.575 298.512 L
205.631 298.439 L
202.895 322.055 174.311 322.631 170.135 298.512 C
145.079 298.512 L
145.151 365.399 L
s
0.000 0.000 0.000 1.000 K
0 j
0 J
0.215 w
[]0 d
298.151 480.167 m
181.727 480.239 L
181.727 413.279 L
237.671 413.279 L
240.479 436.823 269.063 437.399 273.239 413.279 C
298.295 413.279 L
298.151 480.167 L
s
0.000 0.000 0.000 1.000 K
0 j
0 J
0.215 w
[]0 d
261.575 365.399 m
261.503 298.799 L
261.575 365.399 L
s
0.000 0.000 0.000 1.000 K
0 j
0 J
0.215 w
[]0 d
181.799 480.239 m
181.799 413.567 L
181.799 480.239 L
s
0.000 0.000 0.000 1.000 K
0 j
0 J
0.215 w
[]0 d
273.959 360.000 m
273.959 361.727 275.687 362.879 277.343 362.879 C
301.751 362.879 L
302.327 360.791 L
312.191 333.935 L
313.487 333.287 L
314.207 331.343 L
276.192 331.343 L
275.039 331.343 273.959 332.063 273.959 332.927 C
273.959 360.000 L
s
0.000 0.000 0.000 1.000 K
0 j
0 J
0.215 w
[]0 d
169.343 474.767 m
169.343 476.567 167.687 477.719 166.031 477.719 C
141.551 477.647 L
141.048 475.559 L
131.183 448.775 L
129.887 448.055 L
129.167 446.111 L
167.183 446.111 L
168.335 446.111 169.343 446.831 169.343 447.695 C
169.343 474.767 L
s
0.000 0.000 0.000 1.000 K
0 j
0 J
0.215 w
[]0 d
0.000 0.000 0.000 0.498 k
278.567 351.647 m
278.567 353.447 280.295 353.879 282.024 353.951 C
296.423 353.951 L
297.791 353.879 298.655 353.591 299.303 352.655 C
304.055 337.247 L
304.343 335.015 304.055 333.935 302.399 333.863 C
280.656 333.863 L
279.647 333.935 278.567 334.439 278.567 335.879 C
278.567 351.647 L
b
0.000 0.000 0.000 1.000 K
0 j
0 J
0.215 w
[]0 d
0.000 0.000 0.000 0.498 k
164.735 466.415 m
164.735 468.287 163.079 468.719 161.351 468.719 C
146.951 468.719 L
145.512 468.719 144.719 468.431 144.000 467.423 C
139.319 452.087 L
139.031 449.783 139.319 448.703 140.903 448.703 C
162.719 448.703 L
163.655 448.703 164.735 449.279 164.735 450.647 C
164.735 466.415 L
b
0.000 0.000 0.000 1.000 K
0 j
0 J
0.215 w
[]0 d
0.000 0.000 0.000 0.498 k
266.255 362.015 m
270.791 362.015 l
271.727 362.015 272.591 361.223 272.591 360.215 c
272.591 337.607 l
272.591 336.599 271.727 335.807 270.791 335.807 c
266.255 335.807 l
265.319 335.807 264.455 336.599 264.455 337.607 c
264.455 360.215 l
264.455 361.223 265.319 362.015 266.255 362.015 c
b
0.000 0.000 0.000 1.000 K
0 j
0 J
0.215 w
[]0 d
0.000 0.000 0.000 0.498 k
177.119 476.783 m
172.512 476.783 l
171.575 476.783 170.783 475.991 170.783 475.055 c
170.783 452.375 l
170.783 451.439 171.575 450.647 172.512 450.647 c
177.119 450.647 l
178.055 450.647 178.847 451.439 178.847 452.375 c
178.847 475.055 l
178.847 475.991 178.055 476.783 177.119 476.783 c
b
0.000 0.000 0.000 1.000 K
0 j
0 J
0.215 w
[]0 d
0.000 0.000 0.000 0.498 k
279.503 361.727 m
294.695 361.727 l
295.775 361.727 296.783 361.079 296.927 360.503 c
297.575 357.407 l
297.719 356.831 297.000 356.183 296.423 356.183 c
279.503 356.183 l
278.927 356.183 278.351 356.759 278.351 357.407 c
278.351 360.503 l
278.351 361.223 278.855 361.727 279.503 361.727 c
b
0.000 0.000 0.000 1.000 K
0 j
0 J
0.215 w
[]0 d
0.000 0.000 0.000 0.498 k
163.799 476.495 m
148.607 476.495 l
147.527 476.495 146.519 475.919 146.447 475.343 c
145.727 472.175 l
145.655 471.599 146.304 471.023 146.951 471.023 c
163.799 471.023 l
164.447 471.023 164.951 471.527 164.951 472.175 c
164.951 475.343 l
164.951 475.991 164.447 476.495 163.799 476.495 c
b
0.000 0.000 0.000 1.000 K
0 j
0 J
0.215 w
[]0 d
0.000 0.000 0.000 0.498 k
300.311 360.000 m
302.255 360.863 L
312.048 334.223 L
309.096 333.935 L
308.015 333.791 307.584 334.007 307.151 335.519 C
300.383 357.767 L
300.024 358.847 300.024 359.351 300.311 360.000 C
b
0.000 0.000 0.000 1.000 K
0 j
0 J
0.215 w
[]0 d
0.000 0.000 0.000 0.498 k
142.991 474.839 m
141.048 475.703 L
131.328 449.063 L
134.280 448.703 L
135.359 448.631 135.792 448.847 136.223 450.287 C
142.991 472.607 L
143.351 473.615 143.351 474.191 142.991 474.839 C
b
0.000 0.000 0.000 1.000 K
0 j
0 J
0.215 w
[]0 d
0.000 0.000 0.000 0.200 k
300.959 359.567 m
302.471 360.215 L
311.759 334.655 L
309.527 334.367 L
308.447 334.295 308.015 334.512 307.584 336.024 C
300.959 357.335 L
300.671 358.343 300.671 358.919 300.959 359.567 C
b
0.000 0.000 0.000 1.000 K
0 j
0 J
0.215 w
[]0 d
0.000 0.000 0.000 0.200 k
142.343 474.335 m
140.831 475.055 L
131.615 449.495 L
133.847 449.207 L
134.927 449.135 135.359 449.351 135.792 450.791 C
142.343 472.103 L
142.703 473.183 142.703 473.687 142.343 474.335 C
b
0.000 0.000 0.000 1.000 K
0 j
0 J
0.215 w
[]0 d
308.807 330.048 m
314.639 330.048 L
313.991 318.527 L
306.935 318.527 L
308.807 330.048 L
s
0.000 0.000 0.000 1.000 K
0 j
0 J
0.215 w
[]0 d
134.567 444.815 m
128.735 444.815 L
129.383 433.295 L
136.439 433.295 L
134.567 444.815 L
s
0.000 0.000 0.000 1.000 K
0 j
0 J
0.863 w
[]0 d
0.000 0.000 0.000 0.498 k
306.359 308.807 m
312.695 308.807 L
315.215 307.727 L
314.279 301.103 L
310.895 298.584 L
305.207 298.223 L
306.359 308.807 L
b
0.000 0.000 0.000 1.000 K
0 j
0 J
0.863 w
[]0 d
0.000 0.000 0.000 0.498 k
137.015 423.575 m
130.679 423.575 L
128.159 422.567 L
129.096 415.943 L
132.479 413.423 L
138.167 413.063 L
137.015 423.575 L
b
0.000 0.000 0.000 1.000 k
188.135 285.263 m
195.623 285.263 201.743 291.383 201.743 298.871 c
201.743 306.359 195.623 312.479 188.135 312.479 c
180.647 312.479 174.527 306.359 174.527 298.871 c
174.527 291.383 180.647 285.263 188.135 285.263 c
f
0.000 0.000 0.000 1.000 k
255.167 400.103 m
247.679 400.103 241.559 406.223 241.559 413.711 c
241.559 421.199 247.679 427.319 255.167 427.319 c
262.656 427.319 268.775 421.199 268.775 413.711 c
268.775 406.223 262.656 400.103 255.167 400.103 c
f
0.000 0.000 0.000 1.000 k
277.775 285.263 m
285.263 285.263 291.383 291.383 291.383 298.871 c
291.383 306.359 285.263 312.479 277.775 312.479 c
270.287 312.479 264.168 306.359 264.168 298.871 c
264.168 291.383 270.287 285.263 277.775 285.263 c
f
0.000 0.000 0.000 1.000 k
165.599 400.103 m
158.111 400.103 151.991 406.223 151.991 413.711 c
151.991 421.199 158.111 427.319 165.599 427.319 c
173.087 427.319 179.207 421.199 179.207 413.711 c
179.207 406.223 173.087 400.103 165.599 400.103 c
f
u
u
0.000 0.000 0.000 1.000 K
0 j
0 J
0.215 w
[]0 d
262.007 365.327 m
301.823 365.327 L
S
U
U
u
u
0.000 0.000 0.000 1.000 K
0 j
0 J
0.215 w
[]0 d
181.367 480.095 m
141.551 480.095 L
S
U
U
0.000 0.000 0.000 1.000 K
0 j
0 J
0.215 w
[]0 d
276.192 355.751 m
297.647 355.751 L
298.871 355.751 299.951 355.536 300.527 354.311 C
307.727 329.687 L
304.919 301.463 L
295.415 301.391 L
293.615 310.247 286.847 316.512 276.192 315.863 C
276.192 355.751 L
s
0.000 0.000 0.000 1.000 K
0 j
0 J
0.215 w
[]0 d
167.111 470.591 m
145.727 470.591 L
144.503 470.591 143.351 470.303 142.775 469.151 C
135.647 444.527 L
138.383 416.303 L
147.887 416.231 L
149.687 425.015 156.527 431.351 167.111 430.703 C
167.111 470.591 L
s
0.000 0.000 0.000 1.000 K
0 j
0 J
0.215 w
[]0 d
0.000 0.000 0.000 0.200 k
279.359 351.215 m
279.647 352.439 279.719 353.087 281.015 353.231 C
295.415 353.231 L
297.503 353.303 298.079 352.943 298.439 352.007 C
302.327 338.903 L
302.615 337.895 302.183 336.959 300.815 336.959 C
280.727 336.959 L
279.863 336.959 279.431 337.247 279.359 338.183 C
279.359 351.215 L
b
0.000 0.000 0.000 1.000 K
0 j
0 J
0.215 w
[]0 d
0.000 0.000 0.000 0.200 k
164.015 466.055 m
163.727 467.279 163.655 467.855 162.359 467.999 C
147.959 468.071 L
145.871 468.071 145.223 467.711 144.863 466.775 C
140.975 453.743 L
140.687 452.735 141.119 451.727 142.560 451.727 C
162.647 451.727 L
163.439 451.727 163.943 452.015 163.943 452.951 C
164.015 466.055 L
b
0.000 0.000 0.000 1.000 K
0 j
0 J
0.215 w
[]0 d
0.000 0.000 0.000 0.498 k
294.767 353.159 m
295.775 353.159 L
295.775 336.959 L
294.767 336.959 L
294.767 353.159 L
b
0.000 0.000 0.000 1.000 K
0 j
0 J
0.215 w
[]0 d
0.000 0.000 0.000 0.498 k
148.536 467.999 m
147.599 467.999 L
147.599 451.799 L
148.536 451.799 L
148.536 467.999 L
b
u
u
0.000 0.000 0.000 1.000 K
0 j
0 J
0.215 w
[]0 d
292.031 308.879 m
312.479 308.807 L
S
U
U
u
u
0.000 0.000 0.000 1.000 K
0 j
0 J
0.215 w
[]0 d
151.343 423.647 m
130.895 423.647 L
S
U
U
0.000 0.000 0.000 1.000 K
0 j
0 J
0.215 w
[]0 d
0.000 0.000 0.000 0.498 k
306.575 318.527 m
313.991 318.527 L
312.551 308.807 L
305.567 308.807 L
306.575 318.527 L
b
0.000 0.000 0.000 1.000 K
0 j
0 J
0.215 w
[]0 d
0.000 0.000 0.000 0.498 k
136.799 433.295 m
129.383 433.295 L
130.823 423.575 L
137.735 423.575 L
136.799 433.295 L
b
0.000 0.000 0.000 1.000 K
0 j
0 J
0.215 w
[]0 d
0.000 0.000 0.000 0.000 k
308.447 315.287 m
309.743 315.287 l
309.743 315.287 309.815 315.359 309.815 315.359 c
309.815 315.935 l
309.815 315.935 309.743 316.007 309.743 316.007 c
308.447 316.007 l
308.375 316.007 308.375 315.935 308.375 315.935 c
308.375 315.359 l
308.375 315.359 308.375 315.287 308.447 315.287 c
b
0.000 0.000 0.000 1.000 K
0 j
0 J
0.215 w
[]0 d
0.000 0.000 0.000 0.000 k
134.927 430.127 m
133.631 430.127 l
133.631 430.127 133.560 430.127 133.560 430.199 c
133.560 430.703 l
133.560 430.775 133.631 430.775 133.631 430.775 c
134.927 430.775 l
135.000 430.775 135.000 430.775 135.000 430.703 c
135.000 430.199 l
135.000 430.127 135.000 430.127 134.927 430.127 c
b
0.000 0.000 0.000 1.000 K
0 j
0 J
0.215 w
[]0 d
0.000 0.000 0.000 0.000 k
308.231 313.703 m
309.527 313.703 l
309.527 313.703 309.599 313.703 309.599 313.775 c
309.599 314.279 l
309.599 314.351 309.527 314.351 309.527 314.351 c
308.231 314.351 l
308.159 314.351 308.159 314.351 308.159 314.279 c
308.159 313.775 l
308.159 313.703 308.159 313.703 308.231 313.703 c
b
0.000 0.000 0.000 1.000 K
0 j
0 J
0.215 w
[]0 d
0.000 0.000 0.000 0.000 k
135.143 428.471 m
133.847 428.471 l
133.847 428.471 133.775 428.543 133.775 428.543 c
133.775 429.119 l
133.775 429.119 133.847 429.191 133.847 429.191 c
135.143 429.191 l
135.215 429.191 135.215 429.119 135.215 429.119 c
135.215 428.543 l
135.215 428.543 135.215 428.471 135.143 428.471 c
b
0.000 0.000 0.000 1.000 K
0 j
0 J
0.215 w
[]0 d
0.000 0.000 0.000 0.000 k
308.015 312.120 m
309.311 312.120 l
309.383 312.120 309.383 312.191 309.383 312.191 c
309.383 312.767 l
309.383 312.767 309.383 312.839 309.311 312.839 c
308.015 312.839 l
308.015 312.839 307.943 312.767 307.943 312.767 c
307.943 312.191 l
307.943 312.191 308.015 312.120 308.015 312.120 c
b
0.000 0.000 0.000 1.000 K
0 j
0 J
0.215 w
[]0 d
0.000 0.000 0.000 0.000 k
135.359 426.959 m
134.063 426.959 l
133.991 426.959 133.991 426.959 133.991 427.031 c
133.991 427.535 l
133.991 427.607 133.991 427.607 134.063 427.607 c
135.359 427.607 l
135.359 427.607 135.431 427.607 135.431 427.535 c
135.431 427.031 l
135.431 426.959 135.359 426.959 135.359 426.959 c
b
0.000 0.000 0.000 1.000 K
0 j
0 J
0.215 w
[]0 d
0.000 0.000 0.000 0.000 k
307.799 310.751 m
309.096 310.751 l
309.167 310.751 309.167 310.823 309.167 310.823 c
309.167 311.399 l
309.167 311.399 309.167 311.471 309.096 311.471 c
307.799 311.471 l
307.799 311.471 307.727 311.399 307.727 311.399 c
307.727 310.823 l
307.727 310.823 307.799 310.751 307.799 310.751 c
b
0.000 0.000 0.000 1.000 K
0 j
0 J
0.215 w
[]0 d
0.000 0.000 0.000 0.000 k
135.575 425.591 m
134.280 425.591 l
134.207 425.591 134.207 425.591 134.207 425.663 c
134.207 426.167 l
134.207 426.239 134.207 426.239 134.280 426.239 c
135.575 426.239 l
135.575 426.239 135.647 426.239 135.647 426.167 c
135.647 425.663 l
135.647 425.591 135.575 425.591 135.575 425.591 c
b
u
u
0.000 0.000 0.000 1.000 K
0 j
0 J
0.215 w
[]0 d
303.120 331.271 m
286.415 331.271 L
S
U
U
u
u
0.000 0.000 0.000 1.000 K
0 j
0 J
0.215 w
[]0 d
140.183 446.111 m
156.959 446.111 L
S
U
U
u
u
0.000 0.000 0.000 1.000 K
0 j
0 J
0.215 w
[]0 d
265.103 331.271 m
265.103 334.007 L
271.584 334.007 L
271.584 331.271 L
S
U
U
u
u
0.000 0.000 0.000 1.000 K
0 j
0 J
0.215 w
[]0 d
178.199 446.039 m
178.199 448.775 L
171.791 448.775 L
171.791 446.111 L
S
U
U
0.000 0.000 0.000 1.000 K
0 j
0 J
0.215 w
[]0 d
0.000 0.000 0.000 0.498 k
278.135 328.679 m
283.823 328.319 L
284.327 327.887 284.399 327.671 283.823 327.239 C
278.135 327.024 L
276.983 327.599 277.343 328.175 278.135 328.679 C
b
0.000 0.000 0.000 1.000 K
0 j
0 J
0.215 w
[]0 d
0.000 0.000 0.000 0.498 k
165.239 443.447 m
159.551 443.159 L
158.975 442.727 158.903 442.511 159.551 442.079 C
165.239 441.791 L
166.319 442.367 166.031 443.015 165.239 443.447 C
b
0.000 0.000 0.000 1.000 K
0 j
0 J
0.215 w
[]0 d
0.000 0.000 0.000 0.498 k
273.096 326.303 m
273.671 326.303 274.175 325.079 274.175 323.639 c
274.175 322.127 273.671 320.975 273.096 320.975 c
272.447 320.975 271.943 322.127 271.943 323.639 c
271.943 325.079 272.447 326.303 273.096 326.303 c
b
0.000 0.000 0.000 1.000 K
0 j
0 J
0.215 w
[]0 d
0.000 0.000 0.000 0.498 k
170.280 441.071 m
169.631 441.071 169.127 439.919 169.127 438.407 c
169.127 436.967 169.631 435.743 170.280 435.743 c
170.855 435.743 171.359 436.967 171.359 438.407 c
171.359 439.919 170.855 441.071 170.280 441.071 c
b
0.000 0.000 0.000 1.000 K
0 j
0 J
0.215 w
[]0 d
261.503 331.271 m
276.192 331.271 L
276.192 315.935 L
268.847 314.783 263.015 311.327 261.503 302.399 C
261.503 331.271 L
s
0.000 0.000 0.000 1.000 K
0 j
0 J
0.215 w
[]0 d
181.799 446.111 m
167.183 446.111 L
167.183 430.775 L
174.455 429.623 180.287 426.095 181.799 417.167 C
181.799 446.111 L
s
u
u
0.000 0.000 0.000 1.000 K
0 j
0 J
0.215 w
[]0 d
219.311 365.471 m
219.311 298.439 L
S
U
U
u
u
0.000 0.000 0.000 1.000 K
0 j
0 J
0.215 w
[]0 d
224.063 480.311 m
224.063 413.207 L
S
U
U
0.000 0.000 0.000 1.000 K
0 j
0 J
0.215 w
[]0 d
145.151 357.983 m
261.719 357.983 L
261.719 356.327 L
145.151 356.327 L
145.151 357.983 L
s
0.000 0.000 0.000 1.000 K
0 j
0 J
0.215 w
[]0 d
298.223 472.823 m
181.583 472.823 L
181.583 471.095 L
298.223 471.095 L
298.223 472.823 L
s
0.000 0.000 0.000 1.000 K
0 j
0 J
0.215 w
[]0 d
145.079 349.343 m
261.647 349.343 L
261.647 347.687 L
145.079 347.687 L
145.079 349.343 L
s
0.000 0.000 0.000 1.000 K
0 j
0 J
0.215 w
[]0 d
298.223 464.183 m
181.655 464.183 L
181.655 462.455 L
298.223 462.455 L
298.223 464.183 L
s
0.000 0.000 0.000 1.000 K
0 j
0 J
0.215 w
[]0 d
145.151 340.703 m
261.719 340.703 L
261.719 339.048 L
145.151 339.048 L
145.151 340.703 L
s
0.000 0.000 0.000 1.000 K
0 j
0 J
0.215 w
[]0 d
298.223 455.543 m
181.583 455.543 L
181.583 453.815 L
298.223 453.815 L
298.223 455.543 L
s
0.000 0.000 0.000 1.000 K
0 j
0 J
0.215 w
[]0 d
145.079 323.495 m
261.575 323.495 L
261.575 321.767 L
145.079 321.767 L
145.079 323.495 L
s
0.000 0.000 0.000 1.000 K
0 j
0 J
0.215 w
[]0 d
298.223 438.263 m
181.799 438.263 L
181.799 436.607 L
298.223 436.607 L
298.223 438.263 L
s
0.000 0.000 0.000 1.000 K
0 j
0 J
0.215 w
[]0 d
145.079 314.783 m
181.439 314.783 L
180.215 314.207 179.423 313.775 178.487 313.127 C
145.079 313.127 L
145.079 314.783 L
s
0.000 0.000 0.000 1.000 K
0 j
0 J
0.215 w
[]0 d
298.295 429.623 m
261.935 429.623 L
263.159 429.047 263.951 428.543 264.815 427.895 C
298.295 427.895 L
298.295 429.623 L
s
0.000 0.000 0.000 1.000 K
0 j
0 J
0.215 w
[]0 d
261.575 314.783 m
195.335 314.783 L
196.487 314.207 196.847 313.775 197.423 313.127 C
261.575 313.127 L
261.575 314.783 L
s
0.000 0.000 0.000 1.000 K
0 j
0 J
0.215 w
[]0 d
181.799 429.623 m
247.967 429.623 L
246.887 429.047 246.527 428.543 245.951 427.895 C
181.799 427.895 L
181.799 429.623 L
s
0.000 0.000 0.000 0.000 K
0 j
0 J
0.215 w
[]0 d
188.279 306.287 m
184.247 306.287 181.007 303.048 181.007 299.015 C
181.007 295.055 184.247 291.743 188.279 291.743 C
192.239 291.743 195.479 295.055 195.479 299.015 C
195.479 303.048 192.239 306.287 188.279 306.287 C
s
0.000 0.000 0.000 0.000 K
0 j
0 J
0.215 w
[]0 d
255.095 421.055 m
259.055 421.055 262.295 417.815 262.295 413.855 C
262.295 409.895 259.055 406.583 255.095 406.583 C
251.135 406.583 247.823 409.895 247.823 413.855 C
247.823 417.815 251.135 421.055 255.095 421.055 C
s
0.000 0.000 0.000 0.000 K
0 j
0 J
0.215 w
[]0 d
277.847 306.287 m
273.815 306.287 270.575 303.048 270.575 299.015 C
270.575 295.055 273.815 291.743 277.847 291.743 C
281.807 291.743 285.048 295.055 285.048 299.015 C
285.048 303.048 281.807 306.287 277.847 306.287 C
s
0.000 0.000 0.000 0.000 K
0 j
0 J
0.215 w
[]0 d
165.527 421.055 m
169.487 421.055 172.727 417.815 172.727 413.855 C
172.727 409.895 169.487 406.583 165.527 406.583 C
161.567 406.583 158.256 409.895 158.256 413.855 C
158.256 417.815 161.567 421.055 165.527 421.055 C
s
0.000 0.000 0.000 0.000 k
188.279 292.463 m
184.607 292.463 181.727 295.415 181.727 299.015 C
181.727 302.687 184.607 305.567 188.279 305.567 C
191.879 305.567 194.759 302.687 194.759 299.015 C
194.759 295.415 191.879 292.463 188.279 292.463 C
f
0.000 0.000 0.000 0.000 k
255.095 407.303 m
258.695 407.303 261.647 410.183 261.647 413.855 C
261.647 417.455 258.695 420.407 255.095 420.407 C
251.495 420.407 248.543 417.455 248.543 413.855 C
248.543 410.183 251.495 407.303 255.095 407.303 C
f
0.000 0.000 0.000 0.000 k
277.847 292.463 m
274.175 292.463 271.295 295.415 271.295 299.015 C
271.295 302.687 274.175 305.567 277.847 305.567 C
281.447 305.567 284.327 302.687 284.327 299.015 C
284.327 295.415 281.447 292.463 277.847 292.463 C
f
0.000 0.000 0.000 0.000 k
165.527 407.303 m
169.127 407.303 172.079 410.183 172.079 413.855 C
172.079 417.455 169.127 420.407 165.527 420.407 C
161.927 420.407 158.975 417.455 158.975 413.855 C
158.975 410.183 161.927 407.303 165.527 407.303 C
f
0.000 0.000 0.000 1.000 k
188.279 294.551 m
190.727 294.551 192.743 296.567 192.743 299.015 C
192.743 301.463 190.727 303.551 188.279 303.551 C
185.831 303.551 183.815 301.463 183.815 299.015 C
183.815 296.567 185.831 294.551 188.279 294.551 C
f
0.000 0.000 0.000 1.000 k
255.095 409.391 m
252.647 409.391 250.631 411.407 250.631 413.855 C
250.631 416.303 252.647 418.319 255.095 418.319 C
257.543 418.319 259.560 416.303 259.560 413.855 C
259.560 411.407 257.543 409.391 255.095 409.391 C
f
0.000 0.000 0.000 1.000 k
277.847 294.551 m
280.295 294.551 282.311 296.567 282.311 299.015 C
282.311 301.463 280.295 303.551 277.847 303.551 C
275.399 303.551 273.383 301.463 273.383 299.015 C
273.383 296.567 275.399 294.551 277.847 294.551 C
f
0.000 0.000 0.000 1.000 k
165.527 409.391 m
163.079 409.391 161.063 411.407 161.063 413.855 C
161.063 416.303 163.079 418.319 165.527 418.319 C
167.975 418.319 169.991 416.303 169.991 413.855 C
169.991 411.407 167.975 409.391 165.527 409.391 C
f
0.000 0.000 0.000 0.000 k
188.279 295.343 m
186.191 295.343 184.607 297.000 184.607 299.015 C
184.607 301.031 186.191 302.759 188.279 302.759 C
190.295 302.759 191.951 301.031 191.951 299.015 C
191.951 297.000 190.295 295.343 188.279 295.343 C
f
0.000 0.000 0.000 0.000 k
255.095 410.183 m
257.111 410.183 258.767 411.839 258.767 413.855 C
258.767 415.871 257.111 417.527 255.095 417.527 C
253.079 417.527 251.423 415.871 251.423 413.855 C
251.423 411.839 253.079 410.183 255.095 410.183 C
f
0.000 0.000 0.000 0.000 k
277.847 295.343 m
275.759 295.343 274.175 297.000 274.175 299.015 C
274.175 301.031 275.759 302.759 277.847 302.759 C
279.863 302.759 281.519 301.031 281.519 299.015 C
281.519 297.000 279.863 295.343 277.847 295.343 C
f
0.000 0.000 0.000 0.000 k
165.527 410.183 m
167.543 410.183 169.199 411.839 169.199 413.855 C
169.199 415.871 167.543 417.527 165.527 417.527 C
163.512 417.527 161.855 415.871 161.855 413.855 C
161.855 411.839 163.512 410.183 165.527 410.183 C
f
0.000 0.000 0.000 1.000 k
188.351 297.431 m
189.143 297.431 189.791 298.079 189.791 298.871 C
189.791 299.735 189.143 300.311 188.351 300.311 C
187.559 300.311 186.911 299.735 186.911 298.871 C
186.911 298.079 187.559 297.431 188.351 297.431 C
f
0.000 0.000 0.000 1.000 k
254.951 412.271 m
254.159 412.271 253.511 412.919 253.511 413.711 C
253.511 414.503 254.159 415.151 254.951 415.151 C
255.743 415.151 256.463 414.503 256.463 413.711 C
256.463 412.919 255.743 412.271 254.951 412.271 C
f
0.000 0.000 0.000 1.000 k
277.847 297.575 m
278.639 297.575 279.287 298.223 279.287 299.015 C
279.287 299.879 278.639 300.455 277.847 300.455 C
277.055 300.455 276.335 299.879 276.335 299.015 C
276.335 298.223 277.055 297.575 277.847 297.575 C
f
0.000 0.000 0.000 1.000 k
165.527 412.415 m
164.735 412.415 164.087 413.063 164.087 413.855 C
164.087 414.647 164.735 415.295 165.527 415.295 C
166.319 415.295 166.967 414.647 166.967 413.855 C
166.967 413.063 166.319 412.415 165.527 412.415 C
f
0.000 0.000 0.000 1.000 k
188.279 301.967 m
188.135 301.967 187.991 301.895 187.991 301.751 C
187.991 301.608 188.135 301.463 188.279 301.463 C
188.351 301.463 188.495 301.608 188.495 301.751 C
188.495 301.895 188.351 301.967 188.279 301.967 C
f
0.000 0.000 0.000 1.000 k
255.095 416.807 m
255.239 416.807 255.311 416.663 255.311 416.519 C
255.311 416.375 255.239 416.303 255.095 416.303 C
254.951 416.303 254.879 416.375 254.879 416.519 C
254.879 416.663 254.951 416.807 255.095 416.807 C
f
0.000 0.000 0.000 1.000 k
277.847 301.967 m
277.703 301.967 277.560 301.895 277.560 301.751 C
277.560 301.608 277.703 301.463 277.847 301.463 C
277.919 301.463 278.063 301.608 278.063 301.751 C
278.063 301.895 277.919 301.967 277.847 301.967 C
f
0.000 0.000 0.000 1.000 k
165.527 416.807 m
165.671 416.807 165.743 416.663 165.743 416.519 C
165.743 416.375 165.671 416.303 165.527 416.303 C
165.383 416.303 165.311 416.375 165.311 416.519 C
165.311 416.663 165.383 416.807 165.527 416.807 C
f
0.000 0.000 0.000 1.000 k
185.471 299.879 m
185.399 299.735 185.471 299.663 185.615 299.591 C
185.759 299.591 185.831 299.591 185.903 299.735 C
185.975 299.879 185.831 300.024 185.759 300.024 C
185.615 300.096 185.471 300.024 185.471 299.879 C
f
0.000 0.000 0.000 1.000 k
257.903 414.719 m
257.903 414.575 257.831 414.431 257.687 414.359 C
257.615 414.359 257.471 414.431 257.471 414.575 C
257.399 414.647 257.471 414.863 257.543 414.863 C
257.687 414.935 257.831 414.863 257.903 414.719 C
f
0.000 0.000 0.000 1.000 k
275.039 299.879 m
274.967 299.735 275.039 299.663 275.183 299.591 C
275.327 299.591 275.399 299.591 275.471 299.735 C
275.543 299.879 275.399 300.024 275.327 300.024 C
275.183 300.096 275.039 300.024 275.039 299.879 C
f
0.000 0.000 0.000 1.000 k
168.335 414.719 m
168.335 414.575 168.263 414.431 168.119 414.359 C
168.047 414.359 167.903 414.431 167.903 414.575 C
167.831 414.647 167.903 414.863 167.975 414.863 C
168.119 414.935 168.263 414.863 168.335 414.719 C
f
0.000 0.000 0.000 1.000 k
186.623 296.567 m
186.767 296.495 186.911 296.567 186.983 296.639 C
187.055 296.783 187.055 296.927 186.911 297.000 C
186.767 297.072 186.623 297.072 186.551 296.927 C
186.479 296.783 186.479 296.639 186.623 296.567 C
f
0.000 0.000 0.000 1.000 k
256.680 411.407 m
256.608 411.335 256.463 411.335 256.391 411.479 C
256.319 411.551 256.319 411.767 256.463 411.767 C
256.536 411.911 256.680 411.839 256.751 411.767 C
256.823 411.623 256.823 411.479 256.680 411.407 C
f
0.000 0.000 0.000 1.000 k
276.192 296.567 m
276.335 296.495 276.479 296.567 276.551 296.639 C
276.623 296.783 276.623 296.927 276.479 297.000 C
276.335 297.072 276.192 297.072 276.120 296.927 C
276.048 296.783 276.048 296.639 276.192 296.567 C
f
0.000 0.000 0.000 1.000 k
167.111 411.407 m
167.039 411.335 166.895 411.335 166.823 411.479 C
166.751 411.551 166.751 411.767 166.895 411.767 C
166.967 411.911 167.111 411.839 167.183 411.767 C
167.256 411.623 167.256 411.479 167.111 411.407 C
f
0.000 0.000 0.000 1.000 k
190.079 296.783 m
190.151 296.783 190.223 297.000 190.151 297.072 C
190.007 297.215 189.863 297.215 189.791 297.144 C
189.647 297.072 189.647 296.927 189.719 296.783 C
189.863 296.639 190.007 296.639 190.079 296.783 C
f
0.000 0.000 0.000 1.000 k
253.223 411.551 m
253.151 411.623 253.079 411.767 253.223 411.911 C
253.295 411.983 253.439 412.055 253.583 411.911 C
253.655 411.839 253.655 411.695 253.583 411.623 C
253.511 411.479 253.367 411.479 253.223 411.551 C
f
0.000 0.000 0.000 1.000 k
279.647 296.783 m
279.719 296.783 279.791 297.000 279.719 297.072 C
279.575 297.215 279.431 297.215 279.359 297.144 C
279.215 297.072 279.215 296.927 279.287 296.783 C
279.431 296.639 279.575 296.639 279.647 296.783 C
f
0.000 0.000 0.000 1.000 k
163.655 411.551 m
163.583 411.623 163.512 411.767 163.655 411.911 C
163.727 411.983 163.871 412.055 164.015 411.911 C
164.087 411.839 164.087 411.695 164.015 411.623 C
163.943 411.479 163.799 411.479 163.655 411.551 C
f
0.000 0.000 0.000 1.000 k
190.943 300.167 m
190.871 300.239 190.727 300.311 190.655 300.239 C
190.511 300.239 190.439 300.096 190.511 299.951 C
190.583 299.879 190.727 299.807 190.799 299.807 C
190.943 299.879 191.015 300.024 190.943 300.167 C
f
0.000 0.000 0.000 1.000 k
252.359 414.935 m
252.431 415.079 252.575 415.151 252.647 415.079 C
252.791 415.007 252.863 414.863 252.791 414.791 C
252.791 414.647 252.647 414.575 252.503 414.647 C
252.359 414.647 252.359 414.863 252.359 414.935 C
f
0.000 0.000 0.000 1.000 k
280.512 300.167 m
280.439 300.239 280.295 300.311 280.223 300.239 C
280.079 300.239 280.007 300.096 280.079 299.951 C
280.151 299.879 280.295 299.807 280.367 299.807 C
280.512 299.879 280.584 300.024 280.512 300.167 C
f
0.000 0.000 0.000 1.000 k
162.792 414.935 m
162.863 415.079 163.007 415.151 163.079 415.079 C
163.223 415.007 163.295 414.863 163.223 414.791 C
163.223 414.647 163.079 414.575 162.935 414.647 C
162.792 414.647 162.792 414.863 162.792 414.935 C
f
u
u
0.000 0.000 0.000 1.000 K
0 j
0 J
0.215 w
[]0 d
286.415 331.271 m
145.151 331.271 L
S
U
U
u
u
0.000 0.000 0.000 1.000 K
0 j
0 J
0.215 w
[]0 d
156.959 446.111 m
298.223 446.111 L
S
U
U
u
u
0.000 0.000 0.000 1.000 K
0 j
0 J
0.215 w
[]0 d
144.935 323.423 m
132.407 323.423 L
S
U
U
u
u
0.000 0.000 0.000 1.000 K
0 j
0 J
0.215 w
[]0 d
298.367 438.191 m
310.967 438.191 L
S
U
U
0.000 0.000 0.000 1.000 K
0 j
0 J
0.863 w
[]0 d
0.000 0.000 0.000 0.498 k
132.191 305.567 m
136.151 304.775 L
136.943 304.487 137.304 304.127 137.519 303.407 C
136.727 297.647 L
135.863 296.279 L
131.615 296.279 L
132.191 297.431 L
132.191 305.567 L
b
0.000 0.000 0.000 1.000 K
0 j
0 J
0.863 w
[]0 d
0.000 0.000 0.000 0.498 k
311.183 420.335 m
307.223 419.543 L
306.431 419.255 306.072 418.895 305.783 418.175 C
306.647 412.487 L
307.512 411.119 L
311.759 411.119 L
311.183 412.199 L
311.183 420.335 L
b
0.000 0.000 0.000 1.000 K
0 j
0 J
0.215 w
[]0 d
208.295 309.383 m
213.479 309.383 l
213.911 309.383 214.271 309.024 214.271 308.591 c
214.271 304.271 l
214.271 303.839 213.911 303.551 213.479 303.551 c
208.295 303.551 l
207.791 303.551 207.503 303.839 207.503 304.271 c
207.503 308.591 l
207.503 309.024 207.791 309.383 208.295 309.383 c
s
0.000 0.000 0.000 1.000 K
0 j
0 J
0.215 w
[]0 d
0.000 0.000 0.000 0.498 k
182.519 334.223 m
218.663 334.223 l
219.095 334.223 219.455 333.863 219.455 333.431 c
219.455 332.207 l
219.455 331.775 219.095 331.415 218.663 331.415 c
182.519 331.415 l
182.015 331.415 181.727 331.775 181.727 332.207 c
181.727 333.431 l
181.727 333.863 182.015 334.223 182.519 334.223 c
b
0.000 0.000 0.000 1.000 K
0 j
0 J
0.215 w
[]0 d
0.000 0.000 0.000 0.498 k
260.855 448.991 m
224.711 448.991 l
224.279 448.991 223.919 448.703 223.919 448.199 c
223.919 447.047 l
223.919 446.543 224.279 446.255 224.711 446.255 c
260.855 446.255 l
261.287 446.255 261.647 446.543 261.647 447.047 c
261.647 448.199 l
261.647 448.703 261.287 448.991 260.855 448.991 c
b
0.000 0.000 0.000 1.000 k
181.727 333.431 m
219.599 333.431 L
219.599 331.991 L
181.727 331.991 L
181.727 333.431 L
f
0.000 0.000 0.000 1.000 k
261.647 448.199 m
223.775 448.199 L
223.775 446.831 L
261.647 446.831 L
261.647 448.199 L
f
0.000 0.000 0.000 1.000 K
0 j
0 J
0.215 w
[]0 d
0.000 0.000 0.000 0.498 k
220.679 329.111 m
226.655 328.751 L
227.087 328.463 227.087 328.247 226.655 328.103 C
220.679 327.743 L
219.887 328.175 219.887 328.536 220.679 329.111 C
b
0.000 0.000 0.000 1.000 K
0 j
0 J
0.215 w
[]0 d
0.000 0.000 0.000 0.498 k
222.695 443.951 m
216.719 443.519 L
216.287 443.231 216.287 443.087 216.719 442.871 C
222.695 442.511 L
223.487 443.015 223.487 443.303 222.695 443.951 C
b
0.000 0.000 0.000 1.000 K
0 j
0 J
0.215 w
[]0 d
0.000 0.000 0.000 0.498 k
256.319 329.111 m
250.343 328.751 L
249.911 328.463 249.911 328.247 250.343 328.103 C
256.319 327.743 L
257.111 328.175 257.111 328.536 256.319 329.111 C
b
0.000 0.000 0.000 1.000 K
0 j
0 J
0.215 w
[]0 d
0.000 0.000 0.000 0.498 k
187.055 443.951 m
193.031 443.519 L
193.463 443.231 193.463 443.087 193.031 442.871 C
187.055 442.511 L
186.263 443.015 186.263 443.303 187.055 443.951 C
b
u
u
0.000 0.000 0.000 1.000 K
0 j
0 J
0.215 w
[]0 d
145.151 365.399 m
137.591 365.399 L
S
U
U
u
u
0.000 0.000 0.000 1.000 K
0 j
0 J
0.215 w
[]0 d
298.223 480.167 m
305.711 480.167 L
S
U
U
u
u
U
u
0.000 0.000 0.000 1.000 K
0 j
0 J
0.215 w
[]0 d
127.727 282.527 m
127.727 270.791 L
S
U
U
0.000 0.000 0.000 1.000 K
0 j
0 J
0.215 w
[]0 d
393.263 422.279 m
420.839 422.279 l
421.631 422.279 422.279 421.631 422.279 420.839 c
422.279 418.607 l
422.279 417.743 421.631 417.095 420.839 417.095 c
393.263 417.095 l
392.471 417.095 391.823 417.743 391.823 418.607 c
391.823 420.839 l
391.823 421.631 392.471 422.279 393.263 422.279 c
s
0.000 0.000 0.000 1.000 K
0 j
0 J
0.215 w
[]0 d
0.000 0.000 0.000 1.000 k
393.335 421.487 m
396.359 421.487 l
396.647 421.487 396.863 421.271 396.863 420.983 c
396.863 420.191 l
396.863 419.903 396.647 419.687 396.359 419.687 c
393.335 419.687 l
393.047 419.687 392.831 419.903 392.831 420.191 c
392.831 420.983 l
392.831 421.271 393.047 421.487 393.335 421.487 c
b
0.000 0.000 0.000 1.000 K
0 j
0 J
0.215 w
[]0 d
0.000 0.000 0.000 1.000 k
399.095 421.487 m
402.191 421.487 l
402.479 421.487 402.695 421.271 402.695 420.983 c
402.695 420.191 l
402.695 419.903 402.479 419.687 402.191 419.687 c
399.095 419.687 l
398.807 419.687 398.591 419.903 398.591 420.191 c
398.591 420.983 l
398.591 421.271 398.807 421.487 399.095 421.487 c
b
u
u
0.000 0.000 0.000 1.000 K
0 j
0 J
0.215 w
[]0 d
378.143 422.423 m
389.375 422.423 L
S
U
U
u
u
0.000 0.000 0.000 1.000 K
0 j
0 J
0.215 w
[]0 d
436.031 422.423 m
424.799 422.423 L
S
U
U
u
u
0.000 0.000 0.000 1.000 K
0 j
0 J
0.215 w
[]0 d
378.575 416.519 m
389.231 416.519 L
S
U
U
u
u
0.000 0.000 0.000 1.000 K
0 j
0 J
0.215 w
[]0 d
435.527 416.519 m
424.943 416.519 L
S
U
U
0.000 0.000 0.000 1.000 K
0 j
0 J
0.215 w
[]0 d
0.000 0.000 0.000 0.200 k
384.983 474.623 m
400.895 475.415 416.159 475.415 432.215 474.623 c
433.655 474.551 434.735 473.399 434.807 472.031 c
435.815 451.439 l
435.887 450.071 434.663 448.847 433.223 448.847 c
382.967 448.847 l
381.527 448.847 380.231 450.071 380.375 451.439 c
382.391 472.031 l
382.535 473.399 383.543 474.551 384.983 474.623 c
b
0.000 0.000 0.000 1.000 K
0 j
0 J
0.215 w
[]0 d
0.000 0.000 0.000 0.200 k
279.935 361.223 m
294.479 361.223 l
295.343 361.223 296.207 360.719 296.279 360.287 c
296.855 357.623 l
296.927 357.119 296.423 356.615 295.847 356.615 c
279.935 356.615 l
279.359 356.615 278.927 357.047 278.927 357.623 c
278.927 360.287 l
278.927 360.791 279.359 361.223 279.935 361.223 c
b
0.000 0.000 0.000 1.000 K
0 j
0 J
0.215 w
[]0 d
0.000 0.000 0.000 0.200 k
163.439 476.063 m
148.895 476.063 l
147.959 476.063 147.167 475.559 147.024 475.055 c
146.447 472.463 l
146.375 471.959 146.879 471.455 147.455 471.455 c
163.439 471.455 l
164.015 471.455 164.447 471.887 164.447 472.463 c
164.447 475.055 l
164.447 475.631 163.943 476.063 163.439 476.063 c
b
0.000 0.000 0.000 1.000 K
0 j
0 J
0.215 w
[]0 d
0.000 0.000 0.000 0.098 k
266.831 361.439 m
270.215 361.439 l
271.223 361.439 271.943 360.719 271.943 359.783 c
271.943 338.039 l
271.943 337.103 271.223 336.311 270.215 336.311 c
266.831 336.311 l
265.895 336.311 265.103 337.103 265.103 338.039 c
265.103 359.783 l
265.103 360.719 265.895 361.439 266.831 361.439 c
b
0.000 0.000 0.000 1.000 K
0 j
0 J
0.215 w
[]0 d
0.000 0.000 0.000 0.098 k
176.543 476.279 m
173.087 476.279 l
172.151 476.279 171.359 475.559 171.359 474.551 c
171.359 452.807 l
171.359 451.871 172.151 451.151 173.087 451.151 c
176.543 451.151 l
177.479 451.151 178.199 451.871 178.199 452.807 c
178.199 474.551 l
178.199 475.559 177.479 476.279 176.543 476.279 c
b
0.000 0.000 0.000 1.000 K
0 j
0 J
0.215 w
[]0 d
137.015 361.799 m
140.471 361.799 L
141.623 361.439 141.840 361.151 141.840 360.000 C
141.840 335.735 L
141.840 334.439 141.695 333.719 140.399 333.719 C
133.487 333.719 L
134.639 343.583 135.431 349.991 137.015 361.799 C
s
0.000 0.000 0.000 1.000 K
0 j
0 J
0.215 w
[]0 d
306.359 476.567 m
302.831 476.567 L
301.679 476.279 301.463 475.991 301.463 474.839 C
301.463 450.575 L
301.463 449.279 301.608 448.487 302.975 448.487 C
309.887 448.487 L
308.735 458.423 307.943 464.759 306.359 476.567 C
s
%%Trailer
_E end