%!PS-Adobe-2.0 EPSF-1.2
%%Creator: Adobe Illustrator exported from Corel Draw 3.0
%%Title:6
%%BoundingBox:10 643 991 1171
%%CreationDate:(Unknown)
%%ColorUsage:
%%TemplateBox:10 643 991 1171
%%EndComments
%%BeginProcSet:Adobe_Illustrator_1.1 0 0
% Version 1.0 3/27/1990 $nokeywords$
% Copyright (C) 1990,1991,1992
% Corel Corporation
% All Rights Reserved

/wPmsDict 150 dict def 
wPmsDict begin 

/$debug 25 string def 

/bd {bind def} bind def 
/ld {load def} bd 
/xd {exch def} bd 
/_ null def 

/$c 0 def 
/$m 0 def 
/$y 0 def 
/$k 0 def 
/$t 1 def 
/$n _ def 
/$o 0 def 
/$pf false def 

/$C 0 def 
/$M 0 def 
/$Y 0 def 
/$K 0 def 
/$T 1 def 
/$N _ def 
/$O 0 def 
/$PF false def 

/$h false def 

/$al 0 def 
/$tr 0 def 
/$le 0 def 
/$lx 0 def 
/$ly 0 def 

/$ctm matrix currentmatrix def 
/$ptm matrix def 

/$pn () def 
/$pm matrix def 
/$px 0 def 
/$py 0 def 
/$pxf 0 def 
/$pyf 0 def 
/$psx 10 def 
/$psy 0 def 

/$llx 0 def 
/$lly 0 def 
/$urx 0 def 
/$ury 0 def 


/$Bbllx 0 def 
/$Bblly 0 def 
/$Bburx 0 def 
/$Bbury 0 def 

/$tllx 0 def 
/$tlly 0 def 
/$turx 0 def 
/$tury 0 def 

/$pd [] def 
/$tx 0 def 
/$ty 0 def 

/$sv 0 def 
/@cp /closepath ld 
/@gs /gsave ld 
/@gr /grestore ld 
/@np /newpath ld 
/@sv {/$sv save def}bd 
/@rs {$sv restore}bd 

/@MN { 
2 copy le{pop}{exch pop}ifelse 
}bd 

/setcmykcolor where {pop} 
{ 
/setcmykcolor 
{ 
4 1 roll 
3 {3 index add 1 @MN 1 exch sub 3 1 roll} repeat 
setrgbcolor 
pop 
}bd 
}ifelse 

/@tc 
{ 
dup 1 ge 
{pop} 
{ 
4 { 
dup 
6 -1 roll 
mul 
exch 
}repeat 
pop 
}ifelse 
}bd 

/@scc 
{ 
$c $m $y $k $t @tc 
setcmykcolor 
true 
}bd 
/@SCC 
{ 
$C $M $Y $K $T @tc 
setcmykcolor 
true 
}bd 

/@sft 
{ 
(setfirsttile sft )print 
/$tx $tllx $pxf add dup $tllx gt {$pwid $psx add sub}if def 
/$ty $tury $pyf sub dup $tury lt {$phei $psy add add}if def 
(setfirsttile exit )print 
}bd 

/@stb 
{ 
pathbbox /$ury xd /$urx xd /$lly xd /$llx xd 
}bd 

/@ep 
{ 
{ 
cvx exec 
}forall 
}bd 

/@tp 
{ 

(tile pattern tp )print 
@sv 
/$in true def 
2 copy 
dup $lly le {/$in false def}if 
$phei sub $ury ge {/$in false def}if 
dup $urx ge {/$in false def}if 
$pwid add $llx le {/$in false def}if 
$in 
{ 
@np 
2 copy moveto 
$pwid 0 rlineto 
0 $phei neg rlineto 
$pwid neg 0 rlineto 
0 $phei rlineto 
clip @np 

$pn cvlit load aload pop 
7 -1 roll 
5 index sub 
7 -1 roll 
3 index sub 
translate 
@ep 
pop pop pop pop 
} 
{pop pop}ifelse 
@rs 
(tile pattern exit )print 
}bd 

/@th 
{ 
(tile horizontal th)print 
@sft 
0 1 $tly 1 sub 
{ 
dup $psx mul $tx add 
{ 
dup $llx gt {$pwid sub}{exit}ifelse 
}loop 
exch $phei mul $ty exch sub 

0 1 $tlx 1 sub 
{ 
$pwid mul 
3 copy 
3 -1 roll add exch 
@tp 
pop 
}for 
pop pop 
} for 
(tile horizontal exiting )print 
}bd 

/@tv 
{ 
(tile vertical tv)print 
@sft 
0 1 $tlx 1 sub 
{ 
dup $pwid mul $tx add 
exch $psy mul $ty exch sub 
{ 
dup $ury lt {$phei add}{exit}ifelse 
}loop 

0 1 $tly 1 sub 
{ 
$phei mul 
3 copy sub 
@tp 
pop 
}for 
pop pop 
} for 
(tile vertical exit )print 
}bd 

/@pf 
{ 
(pattern fill pf)print 
@gs 
$pm concat 
@stb 
@gs 1 setgray eofill @gr 
eoclip 
$Bburx $Bbury $pm itransform /$tury xd /$turx xd 
$Bbllx $Bblly $pm itransform /$tlly xd /$tllx xd 
/$wid $turx $tllx sub def 
/$hei $tury $tlly sub def 
$wid 0 gt $hei 0 gt and 
{ 
$pn cvlit load aload pop 
$pd xd 
3 -1 roll sub /$phei xd 
exch sub /$pwid xd 
/$tlx $wid $pwid div ceiling 1 add def 
/$tly $hei $phei div ceiling 1 add def 
$psx 0 eq 
{ 
@tv 
} 
{ 
@th 
}ifelse 
}if 

@gr 
@np 
(pattern fill exit)print 
}bd 

/@xp 
{ 
{ 
dup (text Character is:) print == 
usertime (time before is:)print == 
(0) dup 3 -1 roll 0 exch put 
@gs 
true charpath currentpoint 
$ctm setmatrix 
@pf 
@gr 
@np 
moveto $tr 0 rmoveto 
usertime (time after is:)print == 
}forall 
pop 
}bd 

/@sm 
{ 
/$ctm $ctm currentmatrix def 
}bd 

%--@lorg  move to line origin   length string @torg length string
/@lorg    % moves currentpoint to line origin according to current alignment
  {      
  $lx $ly moveto    
  /$ly $ly $le sub def      % - prepare for next line(tracking)
  $al 0 ne
    {dup      % ->len str len str
    stringwidth   % ->len str len dx dy
    exch 3 index  % ->len str dy len dx
    1 sub         % ->len str dy len dx (len-1)
    $tr mul add   % ->len str dy len dx+(len-1)*$tr
    neg
    exch neg      % ->len str -dx_total dy len
    $al 1 eq      % check for centered alignment
    {2 div exch 2 div exch} if  
    rmoveto} if
  }bd

/@ft 
{ 
$pf 
{@xp} 
{ 
@scc 
{$tr exch 0 exch ashow pop} 
{pop pop}ifelse 
}ifelse 
}bd 

/@st 
{ 
$PF 
{} 
{ 
@SCC 
{ 
{ 
(0) dup 3 -1 roll 0 exch put 
@gs 
true charpath currentpoint 
$ctm setmatrix $ptm concat 
stroke 
@gr 
moveto $tr 0 rmoveto 
}forall 
pop 
} 
{pop pop}ifelse 
}ifelse 
}bd 
/@pt 
{ 
dup length exch 
}bd 
/@te 
{ 
@pt 
@lorg 
@ft 
}bd 

/@tr 
{ 
@pt 
@lorg 
@st 
}bd 
/@ta 
{ 
@pt 
@lorg 
2 copy 
@gs @ft @gr 
/$lx 0 def 
/$ly 0 def 
@st 
}bd 















/g { 
1 exch sub /$k xd 
/$c 0 def /$m 0 def /$y 0 def /$t 1 def /$n _ def /$pf false def 
}bd 

/G { 
1 exch sub /$K xd 
/$C 0 def /$M 0 def /$Y 0 def /$T 1 def /$N _ def /$PF false def 
}bd 

/k { 
/$k xd /$y xd /$m xd /$c xd 
/$t 1 def /$n _ def /$pf false def 
}bd 

/K { 
/$K xd /$Y xd /$M xd /$C xd 
/$T 1 def /$N _ def /$PF false def 
}bd 

/x { 
/$t xd /$n xd 
/$k xd /$y xd /$m xd /$c xd /$pf false def 
}bd 

/X { 
/$T xd /$N xd 
/$K xd /$Y xd /$M xd /$C xd /$PF false def 
}bd 

/d /setdash ld 

/i { 
dup 0 ne {setflat} {pop} ifelse 
}bd 

/j /setlinejoin ld 

/J /setlinecap ld 

/M /setmiterlimit ld 

/w /setlinewidth ld 

/O { 
/$o xd 
}bd 

/R { 
/$O xd 
}bd 


/c /curveto ld 

/C /c ld 

/v { 
currentpoint
6 2 roll 
curveto 
}bd

/V /v ld 

/y { 
2 copy curveto 
}bd 

/Y /y ld 

/l /lineto ld 

/L /l ld 

/m /moveto ld 



/n /newpath ld 

/N /newpath ld 

/F { 
$pf 
{@pf} 
{ 
@scc 
{eofill}if 
}ifelse 
}bd 

/f { 
@cp F 
}bd 
/S { 
$PF 
{} 
{ 
@SCC 
{ 
@sm 
$ptm concat 
stroke 
$ctm setmatrix 
}if 
}ifelse 
}bd 
/s { 
@cp 
S 
}bd 

/B { 
@gs F @gr 
S 
}bd 
/b { 
@cp 
B 
}bd 

/W { 
oeclip 
@np 
}bd 

/p { 
/$pm xd 
7 {pop} repeat 
/$pyf xd /$pxf xd 
/$pn xd 
/$pf true def 
}bd 

/P { 
11 {pop} repeat 
}bd 

/@p { 
/$pm xd 
/$psy xd 
/$psx xd 
/$pyf xd /$pxf xd 
/$pn xd 
/$pf true def 
}bd 

/@b { 
/$Bbury xd /$Bburx xd 
/$Bblly xd /$Bbllx xd 
}bd 


/z { 
/$al xd 
/$tr xd 
/$le xd 
exch findfont exch scalefont setfont 
}bd 

/Z { 
dup type 0 type eq { /$bDir xd } if
findfont 
dup maxlength 1 add dict exch 



dup 
{1 index /FID ne 
{ 
3 index 
3 1 roll put 
} 
{pop pop}ifelse 
} forall 



pop 
dup dup /Encoding get 
256 array copy 
dup /$fe xd
/Encoding exch put 

dup /Fontname 3 index put 

}bd 

/e { 
@sm 
concat 
[ 
/t {@te}def 
}bd 

/r { 
@sm 
concat 
[ 
/t {@tr}def 
}bd 

/o { 
@sm 
concat 
[ 
/t {pop}def 
}bd 

/a { 
@sm 
concat 
[ 
/t {@ta}def 
}bd 

/@o{
@sm 
concat 
[ 
/t {@t@a}def 
}bd 

/I { 
@sm 
concat 
[ 
/t {pop}def 
}bd 

/t {@te}def 

/T { 
cleartomark 
/$lx 0 def 
/$ly 0 def 
$ctm setmatrix 
}bd 


/u {}bd 

/U {}bd 

/A {pop}bd 

/h { 
$h true def 
}bd 

/h { 
$h true def 
}bd 

/q /@gs ld 

/Q /@gr ld 



/E { 
5 array astore 
exch cvlit exch def 
}bd 

/` {}bd 

/~ {}bd 

/@ {}bd 

/& {}bd 

/CorelDrawRencodeVect [ 
16#80/grave 
16#81/circumflex 
16#82/tilde 
16#83/dotlessi 
16#84/florin 
16#85/quotedblleft 
16#86/quotedblright 
16#87/guilsinglleft 
16#88/guilsinglright 
16#89/fi 
16#8a/fl 
16#8b/dagger 
16#8c/daggerdbl 
16#8d/endash 
16#8e/periodcentered 
16#8f/breve 
16#90/quotedblbase 
16#91/ellipsis 
16#92/perthousand 
16#a1/exclamdown 
16#a2/cent 
16#a3/sterling 
16#a4/currency 
16#a5/yen 
16#a6/bar 
16#a7/section 
16#a8/dieresis 
16#a9/copyright 
16#aa/ordfeminine 
16#ab/guillemotleft 
16#ac/logicalnot 
16#ad/emdash 
16#ae/registered 
16#af/spac 
16#b0/ring 
16#b1/spac 
16#b2/spac 
16#b3/spac 
16#b4/acute 
16#b5/spac 
16#b6/paragraph 
16#b7/bullet 
16#b8/cedilla 
16#b9/spac 
16#ba/ordmasculine 
16#bb/guillemotright 
16#bc/spac 
16#bd/spac 
16#be/spac 
16#bf/questiondown 
16#c0/Agrave 
16#c1/Aacute 
16#c2/Acircumflex 
16#c3/Atilde 
16#c4/Adieresis 
16#c5/Aring 
16#c6/AE 
16#c7/Ccedilla 
16#c8/Egrave 
16#c9/Eacute 
16#ca/Ecircumflex 
16#cb/Edieresis 
16#cc/Igrave 
16#cd/Iacute 
16#ce/Icircumflex 
16#cf/Idieresis 
16#d0/spac 
16#d1/Ntilde 
16#d2/Ograve 
16#d3/Oacute 
16#d4/Ocircumflex 
16#d5/Otilde 
16#d6/Odieresis 
16#d7/OE 
16#d8/Oslash 
16#d9/Ugrave 
16#da/Uacute 
16#db/Ucircumflex 
16#dc/Udieresis 
16#dd/space 
16#de/spac 
16#df/germandbls 
16#e0/agrave 
16#e1/aacute 
16#e2/acircumflex 
16#e3/atilde 
16#e4/adieresis 
16#e5/aring 
16#e6/ae 
16#e7/ccedilla 
16#e8/egrave 
16#e9/eacute 
16#ea/ecircumflex 
16#eb/edieresis 
16#ec/igrave 
16#ed/iacute 
16#ee/icircumflex 
16#ef/idieresis 
16#f0/space 
16#f1/ntilde 
16#f2/ograve 
16#f3/oacute 
16#f4/ocircumflex 
16#f5/otilde 
16#f6/odieresis 
16#f7/oe 
16#f8/oslash 
16#f9/ugrave 
16#fa/uacute 
16#fb/ucircumflex 
16#fc/udieresis 
16#fd/spac 
16#fe/spac 
16#ff/ydieresis 
] def
%%EndProlog
%%BeginSetup
%%BeginEncoding:_Times-Bold Times-Bold
[
]/_Times-Bold/Times-Bold Z
%%EndEncoding
%%EndSetup
0.000 0.000 0.000 1.000 K
0 j
0 J
0.215 w
[]0 d
0.000 0.000 0.000 0.698 k
504.287 1058.111 m
519.120 1049.903 529.271 1033.847 529.271 1015.487 C
529.271 1013.111 529.271 1010.735 528.767 1008.359 C
530.207 1003.175 535.391 1005.335 537.767 1005.767 C
540.360 1006.487 570.240 1012.391 573.839 1013.543 C
576.072 1014.263 583.271 1015.559 590.399 1016.495 C
590.903 1016.495 591.407 1016.495 591.983 1016.495 C
591.839 1016.495 591.839 1016.495 591.839 1016.495 C
587.231 1014.551 582.911 1013.543 581.975 1013.543 C
581.471 1013.471 579.671 1012.607 577.583 1011.455 C
590.399 1007.783 L
585.863 1002.167 L
567.360 1004.975 L
564.264 1003.103 561.887 1001.303 560.951 1000.583 C
558.575 998.639 553.319 997.199 553.319 997.199 C
519.911 997.343 L
522.432 1002.815 523.871 1009.007 523.871 1015.343 C
523.871 1039.175 504.719 1058.255 481.103 1058.255 C
457.343 1058.255 438.263 1039.175 438.263 1015.343 C
438.263 1007.351 440.495 999.935 444.383 993.527 C
349.919 993.527 255.095 994.391 160.775 994.607 C
164.447 1001.303 161.495 1008.863 161.495 1016.639 C
161.495 1041.768 146.735 1049.975 123.191 1049.975 C
99.503 1049.975 84.311 1041.768 84.311 1016.639 C
84.311 1009.079 82.295 1001.303 85.823 994.967 C
80.855 994.967 76.391 994.967 71.640 994.967 C
66.959 994.967 66.239 996.623 63.791 997.415 C
61.415 998.351 60.263 998.855 60.263 998.855 C
60.263 998.855 51.767 998.351 48.239 998.855 C
44.423 999.071 43.631 1000.871 43.631 1000.871 C
43.631 1000.871 42.551 1000.583 40.463 1000.871 C
38.519 1001.303 37.007 1002.599 37.007 1002.599 C
32.903 1008.143 L
33.119 1008.143 33.479 1008.143 33.839 1008.287 C
37.007 1008.143 40.320 1008.071 43.055 1007.783 C
49.391 1007.351 58.607 1005.911 62.135 1004.255 C
65.879 1002.599 69.695 999.575 71.063 1002.167 C
71.567 1003.319 73.439 1006.127 75.311 1009.223 C
75.095 1011.311 74.879 1013.471 74.879 1015.559 C
74.879 1032.048 83.087 1046.447 95.831 1055.159 C
95.831 1055.303 95.831 1055.303 95.831 1055.303 C
103.607 1060.703 113.039 1064.015 123.407 1064.015 C
150.048 1064.015 171.503 1042.343 171.503 1015.487 C
171.503 1013.111 171.287 1010.735 171.000 1008.647 C
172.439 1007.711 174.095 1007.207 174.095 1006.991 C
174.599 1002.023 176.687 999.215 184.031 998.927 C
191.519 998.711 275.471 1001.087 284.399 1001.087 C
293.111 1001.087 418.751 1001.087 422.783 1001.807 C
426.815 1002.743 430.559 1003.895 431.279 1009.583 C
431.495 1010.519 432.215 1011.959 432.935 1013.327 C
432.935 1014.047 432.935 1014.767 432.935 1015.487 C
432.935 1042.343 454.391 1064.015 481.247 1064.015 C
489.527 1064.015 497.087 1061.927 503.711 1058.399 C
504.359 1058.471 505.223 1058.615 506.015 1058.831 C
505.439 1058.615 504.863 1058.399 504.287 1058.111 C
b
0.000 0.000 0.000 1.000 K
0 j
0 J
0.215 w
[]0 d
0.000 0.000 0.000 0.698 k
123.983 778.103 m
109.151 769.823 98.999 753.839 98.999 735.407 C
98.999 733.031 98.999 730.727 99.503 728.351 C
98.063 723.167 92.879 725.255 90.503 725.759 C
87.911 726.479 58.031 732.383 54.431 733.535 C
52.199 734.255 45.071 735.551 37.871 736.487 C
37.367 736.487 36.935 736.487 36.287 736.487 C
36.431 736.487 36.431 736.487 36.431 736.487 C
41.039 734.471 45.359 733.535 46.367 733.535 C
46.799 733.391 48.599 732.599 50.687 731.375 C
37.871 727.775 L
42.479 722.087 L
60.983 724.895 L
64.007 723.024 66.384 721.295 67.319 720.575 C
69.695 718.559 74.951 717.119 74.951 717.119 C
108.359 717.263 L
105.839 722.807 104.471 728.927 104.471 735.335 C
104.471 759.095 123.551 778.175 147.095 778.175 C
170.927 778.175 190.007 759.095 190.007 735.335 C
190.007 727.271 187.775 719.855 183.887 713.519 C
278.279 713.519 373.175 714.311 467.495 714.527 C
463.823 721.295 466.775 728.783 466.775 736.631 C
466.775 761.687 481.463 769.967 505.079 769.967 C
528.767 769.967 543.959 761.687 543.959 736.631 C
543.959 729.071 545.975 721.295 542.447 714.887 C
547.415 714.887 551.879 714.887 556.631 714.887 C
561.312 714.887 562.031 716.543 564.479 717.407 C
566.855 718.343 568.007 718.775 568.007 718.775 C
568.007 718.775 576.503 718.343 580.031 718.775 C
583.847 719.063 584.639 720.791 584.639 720.791 C
584.639 720.791 585.719 720.575 587.807 720.791 C
589.751 721.295 591.264 722.591 591.264 722.591 C
595.367 728.135 L
595.151 728.135 594.791 728.135 594.431 728.207 C
591.264 728.135 587.951 727.991 585.216 727.775 C
578.879 727.271 569.663 725.903 566.135 724.247 C
562.391 722.591 558.575 719.495 557.207 722.087 C
556.703 723.311 554.831 726.119 552.959 729.143 C
553.175 731.303 553.391 733.391 553.391 735.551 C
553.391 752.039 545.183 766.439 532.439 775.151 C
532.439 775.223 532.439 775.223 532.439 775.223 C
524.663 780.695 515.231 784.007 504.863 784.007 C
478.151 784.007 456.767 762.263 456.767 735.407 C
456.767 733.031 456.983 730.727 457.199 728.567 C
455.759 727.631 454.175 727.199 454.175 726.911 C
453.671 722.015 451.583 719.135 444.239 718.919 C
436.679 718.703 352.799 721.007 343.799 721.007 C
335.087 721.007 209.447 721.007 205.415 721.727 C
201.455 722.663 197.639 723.887 196.991 729.503 C
196.703 730.439 196.055 731.879 195.335 733.319 C
195.335 733.967 195.335 734.687 195.335 735.407 C
195.335 762.263 173.879 784.007 147.024 784.007 C
138.743 784.007 131.183 781.847 124.559 778.319 C
123.911 778.463 123.047 778.535 122.255 778.823 C
122.831 778.535 123.407 778.319 123.983 778.103 C
b
u
u
U
u
0.000 0.000 0.000 1.000 K
0 j
0 J
0.215 w
[]0 d
11.879 666.359 m
276.120 666.359 L
S
U
U
u
u
U
u
0.000 0.000 0.000 1.000 K
0 j
0 J
0.215 w
[]0 d
388.223 665.063 m
614.735 665.063 L
S
U
U
u
u
U
u
0.000 0.000 0.000 1.000 K
0 j
0 J
0.215 w
[]0 d
10.871 683.639 m
10.871 645.120 L
S
U
U
0.000 0.000 0.000 1.000 k
12.167 666.431 m
24.911 662.687 L
24.911 670.247 L
12.167 666.431 L
f
u
u
U
u
0.000 0.000 0.000 1.000 K
0 j
0 J
0.215 w
[]0 d
618.479 681.048 m
618.479 643.031 L
S
U
U
0.000 0.000 0.000 1.000 k
618.623 666.431 m
606.024 662.687 L
606.024 670.247 L
618.623 666.431 L
f
0.000 0.000 0.000 1.000 k
362.231 661.247 m
363.239 661.247 L
363.239 666.000 L
363.239 667.799 363.959 669.096 365.759 669.096 C
367.055 669.096 367.487 668.087 367.487 666.935 C
367.487 661.247 L
368.567 661.247 L
368.567 666.000 L
368.567 667.511 369.071 669.096 370.799 669.096 C
372.311 669.096 372.815 668.375 372.815 666.935 C
372.815 661.247 L
373.895 661.247 L
373.895 666.935 L
373.895 668.951 372.959 669.887 371.015 669.887 C
370.007 669.887 368.927 669.383 368.351 668.231 C
368.135 669.383 367.055 669.887 365.975 669.887 C
364.535 669.887 363.743 669.311 363.167 668.231 C
363.167 668.231 L
363.167 669.671 L
362.231 669.671 L
362.231 661.247 L
362.231 661.247 L
f
0.000 0.000 0.000 1.000 k
348.551 661.247 m
349.631 661.247 L
349.631 666.000 L
349.631 667.799 350.279 669.096 352.079 669.096 C
353.375 669.096 353.807 668.087 353.807 666.935 C
353.807 661.247 L
354.887 661.247 L
354.887 666.000 L
354.887 667.511 355.391 669.096 357.119 669.096 C
358.703 669.096 359.135 668.375 359.135 666.935 C
359.135 661.247 L
360.215 661.247 L
360.215 666.935 L
360.215 668.951 359.279 669.887 357.407 669.887 C
356.327 669.887 355.247 669.383 354.671 668.231 C
354.455 669.383 353.375 669.887 352.295 669.887 C
350.927 669.887 350.063 669.311 349.487 668.231 C
349.487 668.231 L
349.487 669.671 L
348.551 669.671 L
348.551 661.247 L
348.551 661.247 L
f
0.000 0.000 0.000 1.000 K
0 j
0 J
0.215 w
[]0 d
0.000 0.000 0.000 0.000 k
95.831 1055.303 m
83.591 1055.303 61.919 1055.303 59.039 1055.303 C
53.855 1054.799 27.935 1053.144 21.096 1052.711 C
20.735 1052.711 20.303 1052.711 19.943 1052.567 C
19.727 1052.567 19.439 1052.567 19.367 1052.567 C
19.367 1053.432 19.583 1054.151 19.727 1054.583 C
20.663 1058.975 22.967 1068.839 30.743 1073.231 C
38.663 1077.336 51.551 1082.303 51.551 1082.303 C
67.751 1087.559 105.983 1095.048 120.023 1096.703 C
134.135 1098.288 148.895 1100.303 154.079 1100.303 C
160.055 1101.023 159.623 1100.447 163.223 1101.959 C
166.823 1103.399 169.631 1107.432 173.159 1107.432 C
176.543 1107.432 176.543 1105.847 176.543 1105.847 C
176.543 1105.847 177.407 1103.615 181.655 1103.615 C
185.903 1103.615 190.223 1104.336 190.223 1104.336 C
199.439 1108.943 L
199.439 1108.943 259.560 1152.863 266.759 1155.096 C
273.671 1157.255 268.415 1159.127 270.144 1160.063 C
271.799 1161.000 281.735 1163.879 281.735 1163.879 C
281.735 1163.879 295.415 1166.183 303.983 1167.048 C
312.479 1169.135 400.607 1171.151 428.183 1167.983 C
455.543 1165.175 487.511 1154.879 496.511 1151.567 C
505.655 1148.615 550.727 1132.127 557.927 1129.535 C
565.199 1126.871 573.120 1123.631 581.615 1121.399 C
589.823 1119.167 595.295 1118.591 599.183 1118.591 C
603.144 1118.591 608.471 1118.087 610.199 1113.624 C
611.855 1108.943 611.063 1083.599 611.063 1083.599 C
611.063 1083.599 606.671 1075.247 606.671 1069.055 C
606.671 1067.471 606.671 1066.463 606.671 1065.455 C
584.639 1064.879 L
584.855 1062.144 581.111 1061.063 581.111 1061.063 C
581.111 1061.063 571.463 1060.487 568.007 1060.487 C
564.479 1060.487 524.159 1059.551 520.919 1060.127 C
518.903 1060.631 509.687 1059.407 503.711 1058.399 C
496.943 1061.927 489.383 1063.871 481.103 1063.871 C
454.247 1063.871 432.791 1042.199 432.791 1015.343 C
432.791 1014.767 432.935 1014.047 432.935 1013.327 C
432.215 1011.815 431.423 1010.519 431.135 1009.439 C
430.487 1003.895 426.815 1002.743 422.783 1001.807 C
418.679 1000.943 293.111 1000.943 284.327 1000.943 C
275.327 1000.943 191.447 998.639 184.031 998.855 C
176.687 999.071 174.599 1001.879 174.095 1006.847 C
173.951 1007.063 172.439 1007.711 170.927 1008.503 C
171.287 1010.735 171.359 1013.111 171.359 1015.343 C
171.359 1042.199 149.903 1063.871 123.263 1063.871 C
113.039 1063.871 103.607 1060.703 95.831 1055.303 C
b
0.000 0.000 0.000 1.000 K
0 j
0 J
0.215 w
[]0 d
0.000 0.000 0.000 0.000 k
532.439 775.223 m
544.679 775.223 566.351 775.223 569.231 775.223 C
574.415 774.791 600.335 773.135 607.175 772.631 C
607.535 772.631 607.967 772.631 608.327 772.559 C
608.615 772.559 608.831 772.559 608.903 772.559 C
608.903 773.351 608.687 774.071 608.615 774.575 C
607.607 778.895 605.303 788.831 597.527 793.151 C
589.607 797.327 576.791 802.223 576.791 802.223 C
560.519 807.551 522.288 814.967 508.247 816.623 C
494.135 818.279 479.375 820.295 474.191 820.295 C
468.143 821.015 468.647 820.367 464.975 821.951 C
461.447 823.319 458.639 827.351 455.111 827.351 C
451.655 827.351 451.655 825.839 451.655 825.839 C
451.655 825.839 450.863 823.607 446.615 823.607 C
442.367 823.607 437.975 824.255 437.975 824.255 C
428.831 828.863 L
428.831 828.863 368.711 872.855 361.512 875.087 C
354.527 877.175 359.855 879.119 358.055 880.055 C
356.399 880.991 346.536 883.799 346.536 883.799 C
346.536 883.799 332.855 886.175 324.287 886.967 C
315.791 889.127 227.591 891.143 200.015 887.903 C
172.655 885.095 140.759 874.871 131.759 871.559 C
122.615 868.607 77.543 852.119 70.343 849.527 C
63.071 846.791 55.151 843.623 46.655 841.391 C
38.448 839.159 33.047 838.583 29.159 838.583 C
25.127 838.583 19.799 838.079 18.071 833.615 C
16.416 828.863 17.207 803.519 17.207 803.519 C
17.207 803.519 21.599 795.167 21.599 789.047 C
21.599 787.391 21.599 786.455 21.599 785.375 C
43.631 784.799 L
43.415 782.063 47.159 781.055 47.159 781.055 C
47.159 781.055 56.807 780.407 60.263 780.407 C
63.791 780.407 104.111 779.471 107.351 780.119 C
109.367 780.551 118.583 779.399 124.559 778.319 C
131.328 781.847 138.887 783.863 147.095 783.863 C
173.951 783.863 195.407 762.191 195.407 735.335 C
195.407 734.687 195.335 733.967 195.335 733.319 C
196.055 731.735 196.847 730.439 197.063 729.431 C
197.783 723.887 201.455 722.663 205.415 721.727 C
209.591 720.935 335.087 720.935 343.943 720.935 C
352.871 720.935 436.823 718.559 444.239 718.775 C
451.583 719.063 453.671 721.871 454.175 726.839 C
454.247 727.055 455.759 727.631 457.343 728.495 C
456.983 730.727 456.839 733.031 456.839 735.335 C
456.839 762.191 478.295 783.863 505.007 783.863 C
515.231 783.863 524.663 780.695 532.439 775.223 C
b
0.000 0.000 0.000 1.000 K
0 j
0 J
0.215 w
[]0 d
0.000 0.000 0.000 0.650 (PANTONE Cool Gray 9 CV) -0.000 x
72.863 1018.871 m
72.575 1018.655 72.575 1018.655 72.575 1018.655 C
72.863 1018.871 L
b
0.000 0.000 0.000 1.000 K
0 j
0 J
0.215 w
[]0 d
0.000 0.000 0.000 0.650 (PANTONE Cool Gray 9 CV) -0.000 x
555.551 739.007 m
555.767 738.719 555.767 738.719 555.767 738.719 C
555.551 739.007 L
b
0.000 0.000 0.000 1.000 K
0 j
0 J
0.215 w
[]0 d
0.000 0.000 0.000 1.000 k
731.879 743.687 m
741.383 743.687 l
745.775 743.687 749.015 740.303 749.015 735.695 c
749.015 700.775 l
749.015 696.167 745.775 692.783 741.383 692.783 c
731.879 692.783 l
727.415 692.783 724.175 696.167 724.175 700.775 c
724.175 735.695 l
724.175 740.303 727.415 743.687 731.879 743.687 c
b
0.000 0.000 0.000 1.000 K
0 j
0 J
0.215 w
[]0 d
0.000 0.000 0.000 1.000 k
964.943 743.543 m
975.455 743.543 l
980.279 743.543 983.879 740.159 983.879 735.623 c
983.879 700.919 l
983.879 696.311 980.279 692.927 975.455 692.927 c
964.943 692.927 l
960.119 692.927 956.519 696.311 956.519 700.919 c
956.519 735.623 l
956.519 740.159 960.119 743.543 964.943 743.543 c
b
0.000 0.000 0.000 1.000 K
0 j
0 J
0.215 w
[]0 d
0.000 0.000 0.000 0.000 k
779.687 884.447 m
773.135 883.223 770.111 881.567 765.935 876.023 c
755.495 862.271 747.575 842.903 739.583 829.007 c
739.583 829.007 727.775 805.967 727.271 805.175 c
724.463 800.063 722.591 797.327 722.303 795.599 c
721.871 792.071 720.719 782.711 720.719 777.887 C
985.895 777.887 L
985.895 782.711 985.535 789.623 984.887 795.959 c
984.743 799.127 982.079 800.351 980.207 805.031 c
977.903 810.431 967.895 822.887 964.511 829.943 c
959.831 839.663 943.343 872.639 938.591 877.535 c
934.847 881.279 932.903 883.223 927.215 884.015 c
891.071 889.559 815.183 891.719 779.687 884.447 c
b
0.000 0.000 0.000 1.000 K
0 j
0 J
0.215 w
[]0 d
0.000 0.000 0.000 0.298 k
798.479 778.175 m
767.447 778.175 741.167 778.031 729.143 778.031 C
729.431 788.039 730.367 794.951 736.919 798.695 C
755.495 798.983 770.399 798.335 789.623 796.823 C
793.655 794.951 795.095 793.583 797.111 790.847 C
798.479 786.023 799.127 781.271 798.479 778.175 C
b
0.000 0.000 0.000 1.000 K
0 j
0 J
0.215 w
[]0 d
0.000 0.000 0.000 0.298 k
977.687 778.031 m
908.279 778.031 L
907.847 781.199 908.495 786.311 909.863 790.919 C
911.879 793.583 913.319 794.951 917.351 796.823 C
936.647 798.335 951.479 798.983 970.055 798.767 C
976.391 794.951 977.471 787.823 977.687 778.031 C
b
0.000 0.000 0.000 1.000 K
0 j
0 J
0.215 w
[]0 d
794.951 793.439 m
795.815 792.791 796.463 792.071 797.255 790.991 C
798.335 787.535 798.839 783.863 798.839 780.983 C
908.207 780.983 L
908.351 783.863 908.855 787.607 909.791 790.991 C
910.583 791.999 911.159 792.791 911.807 793.439 C
794.951 793.439 L
s
0.000 0.000 0.000 1.000 K
0 j
0 J
0.215 w
[]0 d
0.000 0.000 0.000 0.000 k
720.719 777.887 m
720.071 764.207 725.039 738.791 725.903 734.615 c
726.767 730.367 727.415 729.143 731.303 729.143 c
732.599 729.143 736.271 731.447 738.000 731.447 c
776.879 731.447 828.719 730.799 851.399 730.799 c
874.079 730.799 949.679 731.015 971.711 731.015 c
974.519 731.015 977.759 728.279 978.191 729.143 c
978.191 729.143 981.431 730.799 982.079 734.183 c
984.887 747.000 985.967 764.855 985.967 777.887 C
720.719 777.887 L
b
0.000 0.000 0.000 1.000 K
0 j
0 J
0.215 w
[]0 d
0.000 0.000 0.000 0.498 k
777.311 763.847 m
774.647 763.847 770.327 763.847 770.111 760.535 c
769.535 752.975 769.679 745.055 772.487 739.511 c
774.071 736.127 776.807 735.047 781.991 735.047 c
924.767 735.047 l
929.879 735.047 934.127 737.351 935.351 740.015 c
937.871 746.207 936.287 759.239 936.143 760.823 c
935.855 762.767 930.959 763.847 924.767 763.847 c
777.311 763.847 l
b
0.000 0.000 0.000 1.000 K
0 j
0 J
0.215 w
[]0 d
0.000 0.000 0.000 0.698 k
749.087 731.591 m
786.311 731.447 830.735 730.727 851.327 730.727 C
870.335 730.727 925.775 731.015 956.663 731.015 C
956.663 712.511 L
949.463 712.367 920.951 714.959 914.903 716.255 C
869.975 716.543 824.975 716.687 780.119 716.975 C
771.695 715.175 758.591 714.239 749.087 714.095 C
749.087 731.591 L
b
0.000 0.000 0.000 1.000 K
0 j
0 J
0.215 w
[]0 d
0.000 0.000 0.000 0.098 k
726.335 771.047 m
725.111 771.047 726.335 767.447 726.335 765.935 c
726.335 761.543 731.303 760.103 731.303 760.319 c
731.303 760.103 755.423 760.319 755.423 760.535 c
755.423 760.319 758.519 762.407 758.519 762.191 c
758.519 761.543 763.127 771.047 761.687 771.047 c
726.335 771.047 l
b
0.000 0.000 0.000 1.000 K
0 j
0 J
0.215 w
[]0 d
0.000 0.000 0.000 0.098 k
981.503 771.047 m
982.727 771.047 981.503 767.447 981.503 765.935 c
981.503 761.543 976.535 760.103 976.535 760.319 c
976.535 760.103 952.415 760.319 952.415 760.535 c
952.415 760.319 949.247 762.407 949.247 762.191 c
949.247 761.543 944.711 771.047 946.151 771.047 c
981.503 771.047 l
b
u
u
0.000 0.000 0.000 1.000 K
0 j
0 J
0.215 w
[]0 d
761.327 771.047 m
946.151 771.047 L
S
U
U
0.000 0.000 0.000 1.000 K
0 j
0 J
0.215 w
[]0 d
0.000 0.000 0.000 0.698 k
773.135 747.791 m
933.839 747.791 L
933.623 743.183 934.055 737.351 924.335 737.351 c
783.143 737.351 l
772.127 737.351 773.351 744.119 773.135 747.791 C
b
u
u
0.000 0.000 0.000 1.000 K
0 j
0 J
0.215 w
[]0 d
943.415 750.167 m
959.471 750.167 l
964.871 750.167 970.055 748.871 975.455 747.647 C
S
U
U
u
u
0.000 0.000 0.000 1.000 K
0 j
0 J
0.215 w
[]0 d
763.559 750.239 m
741.743 750.455 l
737.135 750.455 735.479 749.663 730.727 749.015 C
S
U
U
u
u
0.000 0.000 0.000 1.000 K
0 j
0 J
0.215 w
[]0 d
742.967 823.175 m
740.879 818.351 747.359 807.191 750.239 799.415 C
749.231 778.247 L
S
U
U
u
u
0.000 0.000 0.000 1.000 K
0 j
0 J
0.215 w
[]0 d
962.639 818.063 m
961.631 810.719 954.791 805.247 955.367 799.559 C
956.879 778.103 L
S
U
U
0.000 0.000 0.000 1.000 K
0 j
0 J
0.215 w
[]0 d
0.000 0.000 0.000 0.498 k
924.407 880.487 m
931.319 879.551 934.847 877.823 936.791 874.439 c
945.503 860.471 957.959 835.847 958.751 829.799 c
959.543 823.679 961.703 822.383 957.023 822.887 c
952.343 823.463 910.439 831.311 852.263 831.455 c
794.015 831.527 752.687 827.927 748.799 827.351 c
744.911 826.847 743.471 828.143 744.551 830.591 c
745.559 833.039 762.191 868.607 770.471 876.815 c
772.919 879.119 776.087 880.919 779.039 881.279 c
819.359 887.687 879.407 886.607 924.407 880.487 c
b
0.000 0.000 0.000 1.000 K
0 j
0 J
0.215 w
[]0 d
0.000 0.000 0.000 0.098 k
747.215 827.351 m
748.511 837.071 761.399 860.615 768.455 871.271 C
774.359 879.695 776.807 879.911 786.671 880.775 C
838.079 886.319 884.735 884.159 924.623 878.327 C
927.287 878.327 932.687 875.591 934.415 873.863 C
942.695 861.119 950.903 846.431 956.087 832.103 C
956.231 830.879 957.311 826.127 957.671 822.743 C
953.567 823.535 909.143 831.383 852.263 831.527 C
793.871 831.815 752.975 827.999 748.943 827.495 C
748.295 827.351 747.719 827.351 747.215 827.351 C
b
u
u
0.000 0.000 0.000 1.000 K
0 j
0 J
0.215 w
[]0 d
741.527 822.887 m
741.527 822.887 826.127 829.799 837.719 828.935 C
S
U
U
u
u
0.000 0.000 0.000 1.000 K
0 j
0 J
0.215 w
[]0 d
966.743 818.495 m
966.743 818.495 899.999 828.359 869.183 828.503 C
S
U
U
0.000 0.000 0.000 1.000 K
0 j
0 J
0.215 w
[]0 d
0.000 0.000 0.000 0.498 k
845.927 782.639 m
845.927 782.639 846.071 786.959 843.263 787.103 c
840.455 787.247 800.855 787.103 800.855 787.103 c
802.583 782.639 L
845.927 782.639 L
b
0.000 0.000 0.000 1.000 K
0 j
0 J
0.215 w
[]0 d
0.000 0.000 0.000 0.498 k
861.191 782.639 m
861.191 782.639 861.047 786.959 863.855 787.103 c
866.663 787.247 906.263 787.103 906.263 787.103 c
904.535 782.639 L
861.191 782.639 L
b
0.000 0.000 0.000 1.000 K
0 j
0 J
0.215 w
[]0 d
0.000 0.000 0.000 1.000 k
814.823 766.151 m
892.151 766.151 L
893.879 766.151 895.247 765.143 895.751 763.847 C
897.191 763.847 L
896.399 766.223 894.527 768.023 892.439 768.023 C
814.247 768.023 L
811.943 768.023 810.071 766.223 809.279 763.847 C
811.295 763.847 L
811.871 765.143 813.167 766.151 814.823 766.151 C
b
u
u
u
0.000 0.000 0.000 1.000 k
853.991 783.071 m
853.991 782.423 L
857.303 782.423 860.039 784.511 860.039 787.103 C
860.039 789.695 857.303 791.783 853.991 791.783 C
853.991 791.351 L
856.655 791.351 858.887 789.479 858.887 787.247 C
858.887 784.943 856.655 783.071 853.991 783.071 C
f
0.000 0.000 0.000 1.000 k
853.991 791.351 m
853.991 791.783 L
853.991 791.783 853.991 791.855 853.991 791.855 C
850.607 791.855 847.871 789.767 847.871 787.103 C
847.871 784.511 850.607 782.423 853.991 782.423 C
853.991 782.423 853.991 782.423 853.991 782.423 C
853.991 783.071 L
853.991 783.071 853.991 783.071 853.991 783.071 C
851.255 783.071 849.095 784.943 849.095 787.247 C
849.095 789.551 851.255 791.423 853.991 791.423 C
853.991 791.423 853.991 791.351 853.991 791.351 C
f
U
U
u
u
0.000 0.000 0.000 1.000 k
853.919 787.175 m
853.919 786.887 L
853.919 786.887 853.919 786.887 853.991 786.887 C
856.079 786.887 857.879 787.967 857.879 789.335 C
857.879 790.775 856.079 791.855 853.991 791.855 C
853.919 791.855 853.919 791.783 853.919 791.783 C
853.919 791.567 L
853.919 791.567 853.919 791.639 853.991 791.639 C
855.719 791.639 857.087 790.631 857.087 789.407 C
857.087 788.183 855.719 787.175 853.991 787.175 C
853.919 787.175 853.919 787.175 853.919 787.175 C
f
0.000 0.000 0.000 1.000 k
853.919 791.567 m
853.919 791.783 L
851.759 791.783 850.103 790.703 850.103 789.335 C
850.103 787.967 851.759 786.887 853.919 786.887 C
853.919 787.175 L
852.191 787.175 850.823 788.183 850.823 789.407 C
850.823 790.559 852.191 791.567 853.919 791.567 C
f
U
U
u
u
0.000 0.000 0.000 1.000 k
853.919 784.511 m
853.919 783.143 L
853.919 783.143 853.919 783.143 853.991 783.143 C
854.495 783.143 854.999 785.015 854.999 787.319 C
854.999 789.551 854.495 791.423 853.991 791.423 C
853.919 791.423 853.919 791.351 853.919 791.351 C
853.919 790.055 L
853.919 790.055 853.919 790.127 853.991 790.127 C
854.279 790.127 854.639 788.903 854.639 787.319 C
854.639 785.735 854.279 784.511 853.991 784.511 C
853.919 784.511 853.919 784.511 853.919 784.511 C
f
0.000 0.000 0.000 1.000 k
853.919 790.055 m
853.919 791.351 L
853.343 791.207 852.983 789.407 852.983 787.319 C
852.983 785.087 853.343 783.287 853.919 783.143 C
853.919 784.511 L
853.559 784.655 853.271 785.807 853.271 787.319 C
853.271 788.759 853.559 789.911 853.919 790.055 C
f
U
U
U
u
0.000 0.000 0.000 1.000 K
0 j
0 J
0.215 w
[]0 d
0.000 0.000 0.000 1.000 k
123.119 1058.111 m
146.807 1058.111 165.887 1039.031 165.887 1015.343 c
165.887 991.583 146.807 972.503 123.119 972.503 c
99.431 972.503 80.279 991.583 80.279 1015.343 c
80.279 1039.031 99.431 1058.111 123.119 1058.111 c
b
0.000 0.000 0.000 1.000 K
0 j
0 J
0.215 w
[]0 d
0.000 0.000 0.000 0.000 k
122.255 1043.279 m
137.447 1043.279 149.831 1030.895 149.831 1015.415 c
149.831 1000.223 137.447 987.839 122.255 987.839 c
106.847 987.839 94.391 1000.223 94.391 1015.415 c
94.391 1030.895 106.847 1043.279 122.255 1043.279 c
b
0.000 0.000 0.000 1.000 K
0 j
0 J
0.215 w
[]0 d
0.000 0.000 0.000 1.000 k
126.935 991.079 m
123.983 990.575 121.031 990.575 118.007 991.079 c
115.559 991.439 115.775 993.527 116.711 994.391 C
118.727 1000.799 L
119.735 1001.879 124.703 1001.879 125.711 1000.799 C
126.935 998.927 126.863 996.335 128.159 994.391 C
129.024 993.527 129.096 991.439 126.935 991.079 c
b
0.000 0.000 0.000 1.000 K
0 j
0 J
0.215 w
[]0 d
0.000 0.000 0.000 1.000 k
108.575 994.607 m
106.127 996.407 104.039 998.495 102.239 1000.943 c
100.799 1002.887 102.383 1004.255 103.679 1004.183 C
109.655 1007.279 L
111.095 1007.351 114.623 1003.823 114.623 1002.383 C
114.119 1000.151 112.247 998.423 111.815 996.119 C
111.815 994.823 110.303 993.311 108.575 994.607 c
b
0.000 0.000 0.000 1.000 K
0 j
0 J
0.215 w
[]0 d
0.000 0.000 0.000 1.000 k
98.207 1010.447 m
97.703 1013.399 97.703 1016.351 98.207 1019.375 c
98.567 1021.751 100.655 1021.607 101.519 1020.599 C
107.927 1018.583 L
109.007 1017.575 109.007 1012.679 107.927 1011.671 C
106.055 1010.375 103.463 1010.519 101.519 1009.223 C
100.655 1008.287 98.567 1008.287 98.207 1010.447 c
b
0.000 0.000 0.000 1.000 K
0 j
0 J
0.215 w
[]0 d
0.000 0.000 0.000 1.000 k
101.879 1028.663 m
103.607 1031.111 105.695 1033.199 108.215 1035.000 c
110.159 1036.439 111.455 1034.855 111.455 1033.487 C
114.551 1027.583 L
114.551 1026.144 111.095 1022.615 109.655 1022.615 C
107.423 1023.119 105.623 1024.991 103.391 1025.423 C
102.095 1025.423 100.583 1026.935 101.879 1028.663 c
b
0.000 0.000 0.000 1.000 K
0 j
0 J
0.215 w
[]0 d
0.000 0.000 0.000 1.000 k
117.431 1039.103 m
120.383 1039.679 123.335 1039.607 126.359 1039.103 c
128.807 1038.743 128.591 1036.727 127.655 1035.791 C
125.639 1029.384 L
124.631 1028.375 119.663 1028.375 118.655 1029.384 C
117.431 1031.255 117.503 1033.919 116.207 1035.791 C
115.343 1036.727 115.271 1038.816 117.431 1039.103 c
b
0.000 0.000 0.000 1.000 K
0 j
0 J
0.215 w
[]0 d
0.000 0.000 0.000 1.000 k
135.935 1035.359 m
138.383 1033.631 140.399 1031.543 142.199 1029.023 c
143.639 1027.079 142.055 1025.783 140.759 1025.783 C
134.783 1022.687 L
133.343 1022.687 129.887 1026.144 129.887 1027.583 C
130.319 1029.816 132.263 1031.615 132.695 1033.847 C
132.695 1035.144 134.135 1036.655 135.935 1035.359 c
b
0.000 0.000 0.000 1.000 K
0 j
0 J
0.215 w
[]0 d
0.000 0.000 0.000 1.000 k
146.304 1019.807 m
146.807 1016.855 146.735 1013.903 146.304 1010.879 c
145.871 1008.431 143.855 1008.647 142.919 1009.583 C
136.512 1011.599 L
135.503 1012.607 135.503 1017.575 136.512 1018.583 C
138.383 1019.807 141.048 1019.735 142.919 1021.031 C
143.855 1021.895 145.943 1021.967 146.304 1019.807 c
b
0.000 0.000 0.000 1.000 K
0 j
0 J
0.215 w
[]0 d
0.000 0.000 0.000 1.000 k
142.560 1001.519 m
140.831 999.071 138.743 997.055 136.295 995.255 c
134.280 993.815 132.983 995.399 133.055 996.695 C
129.959 1002.671 L
129.887 1004.111 133.415 1007.639 134.855 1007.567 C
137.087 1007.135 138.816 1005.191 141.119 1004.759 C
142.415 1004.759 143.855 1003.319 142.560 1001.519 c
b
0.000 0.000 0.000 1.000 K
0 j
0 J
0.215 w
[]0 d
122.327 1024.055 m
127.223 1024.055 131.183 1020.095 131.183 1015.199 c
131.183 1010.375 127.223 1006.415 122.327 1006.415 c
117.503 1006.415 113.543 1010.375 113.543 1015.199 c
113.543 1020.095 117.503 1024.055 122.327 1024.055 c
s
0.000 0.000 0.000 1.000 K
0 j
0 J
0.215 w
[]0 d
122.183 1018.151 m
123.767 1018.151 125.135 1016.855 125.135 1015.199 c
125.135 1013.543 123.767 1012.247 122.183 1012.247 c
120.527 1012.247 119.159 1013.543 119.159 1015.199 c
119.159 1016.855 120.527 1018.151 122.183 1018.151 c
s
U
u
0.000 0.000 0.000 1.000 K
0 j
0 J
0.215 w
[]0 d
0.000 0.000 0.000 1.000 k
505.151 778.175 m
481.463 778.175 462.311 759.095 462.311 735.407 c
462.311 711.719 481.463 692.567 505.151 692.567 c
528.839 692.567 547.991 711.719 547.991 735.407 c
547.991 759.095 528.839 778.175 505.151 778.175 c
b
0.000 0.000 0.000 1.000 K
0 j
0 J
0.215 w
[]0 d
0.000 0.000 0.000 0.000 k
506.015 763.343 m
490.823 763.343 478.367 750.959 478.367 735.551 c
478.367 720.287 490.823 707.903 506.015 707.903 c
521.423 707.903 533.879 720.287 533.879 735.551 c
533.879 750.959 521.423 763.343 506.015 763.343 c
b
0.000 0.000 0.000 1.000 K
0 j
0 J
0.215 w
[]0 d
0.000 0.000 0.000 1.000 k
501.479 711.143 m
504.431 710.639 507.383 710.711 510.407 711.143 c
512.855 711.503 512.639 713.591 511.703 714.455 C
509.687 720.863 L
508.679 721.943 503.711 721.943 502.703 720.863 C
501.407 718.991 501.551 716.399 500.255 714.455 C
499.319 713.591 499.319 711.503 501.479 711.143 c
b
0.000 0.000 0.000 1.000 K
0 j
0 J
0.215 w
[]0 d
0.000 0.000 0.000 1.000 k
519.839 714.671 m
522.288 716.471 524.303 718.559 526.175 721.007 c
527.615 723.024 526.031 724.319 524.663 724.247 C
518.759 727.343 L
517.247 727.415 513.791 723.887 513.791 722.447 C
514.223 720.215 516.168 718.487 516.599 716.183 C
516.599 714.887 518.039 713.447 519.839 714.671 c
b
0.000 0.000 0.000 1.000 K
0 j
0 J
0.215 w
[]0 d
0.000 0.000 0.000 1.000 k
530.207 730.511 m
530.711 733.463 530.639 736.415 530.207 739.439 c
529.847 741.887 527.759 741.671 526.823 740.735 C
520.487 738.719 L
519.408 737.639 519.408 732.743 520.487 731.735 C
522.360 730.439 524.951 730.583 526.823 729.287 C
527.759 728.351 529.847 728.351 530.207 730.511 c
b
0.000 0.000 0.000 1.000 K
0 j
0 J
0.215 w
[]0 d
0.000 0.000 0.000 1.000 k
526.535 748.727 m
524.807 751.175 522.647 753.263 520.199 755.063 c
518.255 756.503 516.887 754.919 516.959 753.623 C
513.863 747.647 L
513.791 746.207 517.319 742.679 518.759 742.679 C
520.991 743.183 522.719 745.055 525.024 745.487 C
526.319 745.487 527.831 747.000 526.535 748.727 c
b
0.000 0.000 0.000 1.000 K
0 j
0 J
0.215 w
[]0 d
0.000 0.000 0.000 1.000 k
510.983 759.239 m
507.959 759.743 505.079 759.671 502.055 759.239 c
499.607 758.807 499.823 756.791 500.759 755.855 C
502.775 749.447 L
503.783 748.439 508.751 748.439 509.759 749.447 C
510.983 751.391 510.911 753.983 512.135 755.855 C
513.072 756.791 513.144 758.879 510.983 759.239 c
b
0.000 0.000 0.000 1.000 K
0 j
0 J
0.215 w
[]0 d
0.000 0.000 0.000 1.000 k
492.479 755.423 m
489.959 753.695 487.943 751.607 486.143 749.087 c
484.703 747.143 486.287 745.847 487.583 745.847 C
493.559 742.751 L
494.999 742.751 498.527 746.207 498.527 747.647 C
498.023 749.879 496.151 751.679 495.719 753.911 C
495.719 755.207 494.279 756.719 492.479 755.423 c
b
0.000 0.000 0.000 1.000 K
0 j
0 J
0.215 w
[]0 d
0.000 0.000 0.000 1.000 k
482.111 739.871 m
481.607 736.919 481.607 733.967 482.111 730.943 c
482.471 728.495 484.487 728.711 485.423 729.647 C
491.831 731.663 L
492.911 732.671 492.911 737.639 491.831 738.647 C
489.959 739.871 487.367 739.799 485.423 741.095 C
484.487 741.959 482.399 742.031 482.111 739.871 c
b
0.000 0.000 0.000 1.000 K
0 j
0 J
0.215 w
[]0 d
0.000 0.000 0.000 1.000 k
485.783 721.655 m
487.511 719.207 489.599 717.119 492.119 715.319 c
494.063 713.879 495.431 715.463 495.359 716.759 C
498.455 722.735 L
498.527 724.175 494.999 727.703 493.559 727.631 C
491.327 727.199 489.527 725.327 487.295 724.823 C
485.999 724.823 484.487 723.383 485.783 721.655 c
b
0.000 0.000 0.000 1.000 K
0 j
0 J
0.215 w
[]0 d
506.015 744.119 m
501.191 744.119 497.231 740.159 497.231 735.335 c
497.231 730.439 501.191 726.479 506.015 726.479 c
510.911 726.479 514.871 730.439 514.871 735.335 c
514.871 740.159 510.911 744.119 506.015 744.119 c
s
0.000 0.000 0.000 1.000 K
0 j
0 J
0.215 w
[]0 d
506.231 738.215 m
504.647 738.215 503.279 736.919 503.279 735.263 c
503.279 733.679 504.647 732.311 506.231 732.311 c
507.887 732.311 509.255 733.679 509.255 735.263 c
509.255 736.919 507.887 738.215 506.231 738.215 c
s
U
0.000 0.000 0.000 1.000 K
0 j
0 J
0.215 w
[]0 d
0.000 0.000 0.000 1.000 k
481.031 1058.111 m
504.791 1058.111 523.871 1039.031 523.871 1015.343 c
523.871 991.583 504.791 972.503 481.031 972.503 c
457.343 972.503 438.263 991.583 438.263 1015.343 c
438.263 1039.031 457.343 1058.111 481.031 1058.111 c
b
0.000 0.000 0.000 1.000 K
0 j
0 J
0.215 w
[]0 d
0.000 0.000 0.000 1.000 k
147.311 778.175 m
123.623 778.175 104.471 759.095 104.471 735.407 c
104.471 711.719 123.623 692.567 147.311 692.567 c
171.000 692.567 190.151 711.719 190.151 735.407 c
190.151 759.095 171.000 778.175 147.311 778.175 c
b
0.000 0.000 0.000 1.000 K
0 j
0 J
0.215 w
[]0 d
0.000 0.000 0.000 0.000 k
480.095 1043.279 m
495.287 1043.279 507.743 1030.895 507.743 1015.415 c
507.743 1000.223 495.287 987.839 480.095 987.839 c
464.687 987.839 452.231 1000.223 452.231 1015.415 c
452.231 1030.895 464.687 1043.279 480.095 1043.279 c
b
0.000 0.000 0.000 1.000 K
0 j
0 J
0.215 w
[]0 d
0.000 0.000 0.000 0.000 k
148.247 763.343 m
133.055 763.343 120.671 750.959 120.671 735.551 c
120.671 720.287 133.055 707.903 148.247 707.903 c
163.655 707.903 176.111 720.287 176.111 735.551 c
176.111 750.959 163.655 763.343 148.247 763.343 c
b
0.000 0.000 0.000 1.000 K
0 j
0 J
0.215 w
[]0 d
0.000 0.000 0.000 1.000 k
484.775 991.079 m
481.823 990.575 478.871 990.575 475.847 991.079 c
473.399 991.439 473.615 993.527 474.551 994.391 C
476.567 1000.799 L
477.575 1001.879 482.543 1001.879 483.551 1000.799 C
484.775 998.927 484.703 996.335 485.999 994.391 C
486.863 993.527 486.935 991.439 484.775 991.079 c
b
0.000 0.000 0.000 1.000 K
0 j
0 J
0.215 w
[]0 d
0.000 0.000 0.000 1.000 k
143.639 711.143 m
146.591 710.639 149.471 710.711 152.495 711.143 c
154.943 711.503 154.727 713.591 153.792 714.455 C
151.775 720.863 L
150.768 721.943 145.799 721.943 144.792 720.863 C
143.567 718.991 143.639 716.399 142.415 714.455 C
141.479 713.591 141.479 711.503 143.639 711.143 c
b
0.000 0.000 0.000 1.000 K
0 j
0 J
0.215 w
[]0 d
0.000 0.000 0.000 1.000 k
466.415 994.607 m
463.967 996.407 461.879 998.495 460.079 1000.943 c
458.639 1002.887 460.223 1004.255 461.519 1004.183 C
467.495 1007.279 L
468.935 1007.351 472.463 1003.823 472.391 1002.383 C
471.959 1000.151 470.087 998.423 469.583 996.119 C
469.583 994.823 468.143 993.311 466.415 994.607 c
b
0.000 0.000 0.000 1.000 K
0 j
0 J
0.215 w
[]0 d
0.000 0.000 0.000 1.000 k
161.927 714.671 m
164.447 716.471 166.463 718.559 168.263 721.007 c
169.703 723.024 168.119 724.319 166.823 724.247 C
160.847 727.343 L
159.407 727.415 155.879 723.887 155.951 722.447 C
156.383 720.215 158.256 718.487 158.759 716.183 C
158.759 714.887 160.199 713.447 161.927 714.671 c
b
0.000 0.000 0.000 1.000 K
0 j
0 J
0.215 w
[]0 d
0.000 0.000 0.000 1.000 k
456.047 1010.447 m
455.543 1013.399 455.543 1016.351 456.047 1019.375 c
456.407 1021.751 458.495 1021.607 459.359 1020.599 C
465.767 1018.583 L
466.847 1017.575 466.847 1012.679 465.767 1011.671 C
463.895 1010.375 461.303 1010.519 459.359 1009.223 C
458.495 1008.287 456.407 1008.287 456.047 1010.447 c
b
0.000 0.000 0.000 1.000 K
0 j
0 J
0.215 w
[]0 d
0.000 0.000 0.000 1.000 k
172.295 730.511 m
172.799 733.463 172.799 736.415 172.295 739.439 c
171.935 741.887 169.919 741.671 168.983 740.735 C
162.575 738.719 L
161.567 737.639 161.567 732.743 162.575 731.735 C
164.447 730.439 167.039 730.583 168.983 729.287 C
169.919 728.351 172.007 728.351 172.295 730.511 c
b
0.000 0.000 0.000 1.000 K
0 j
0 J
0.215 w
[]0 d
0.000 0.000 0.000 1.000 k
459.719 1028.663 m
461.447 1031.111 463.535 1033.199 466.055 1035.000 c
467.999 1036.439 469.295 1034.855 469.295 1033.487 C
472.391 1027.583 L
472.391 1026.144 468.935 1022.615 467.423 1022.615 C
465.263 1023.119 463.463 1024.991 461.231 1025.423 C
459.935 1025.423 458.423 1026.935 459.719 1028.663 c
b
0.000 0.000 0.000 1.000 K
0 j
0 J
0.215 w
[]0 d
0.000 0.000 0.000 1.000 k
168.623 748.727 m
166.895 751.175 164.807 753.263 162.359 755.063 c
160.343 756.503 159.048 754.919 159.048 753.623 C
155.951 747.647 L
155.951 746.207 159.479 742.679 160.919 742.679 C
163.151 743.183 164.879 745.055 167.111 745.487 C
168.407 745.487 169.919 747.000 168.623 748.727 c
b
0.000 0.000 0.000 1.000 K
0 j
0 J
0.215 w
[]0 d
0.000 0.000 0.000 1.000 k
475.271 1039.103 m
478.223 1039.679 481.175 1039.607 484.199 1039.103 c
486.647 1038.743 486.431 1036.727 485.495 1035.791 C
483.479 1029.384 L
482.471 1028.375 477.503 1028.375 476.495 1029.384 C
475.271 1031.255 475.343 1033.919 474.047 1035.791 C
473.183 1036.727 473.111 1038.816 475.271 1039.103 c
b
0.000 0.000 0.000 1.000 K
0 j
0 J
0.215 w
[]0 d
0.000 0.000 0.000 1.000 k
153.071 759.239 m
150.119 759.743 147.167 759.671 144.143 759.239 c
141.768 758.807 141.911 756.791 142.847 755.855 C
144.935 749.447 L
145.943 748.439 150.839 748.439 151.847 749.447 C
153.143 751.391 153.000 753.983 154.295 755.855 C
155.231 756.791 155.231 758.879 153.071 759.239 c
b
0.000 0.000 0.000 1.000 K
0 j
0 J
0.215 w
[]0 d
0.000 0.000 0.000 1.000 k
493.775 1035.359 m
496.223 1033.631 498.311 1031.543 500.111 1029.023 c
501.551 1027.079 499.967 1025.783 498.671 1025.783 C
492.695 1022.687 L
491.255 1022.687 487.727 1026.144 487.727 1027.583 C
488.159 1029.816 490.103 1031.615 490.535 1033.847 C
490.535 1035.144 492.047 1036.655 493.775 1035.359 c
b
0.000 0.000 0.000 1.000 K
0 j
0 J
0.215 w
[]0 d
0.000 0.000 0.000 1.000 k
134.639 755.423 m
132.191 753.695 130.103 751.607 128.304 749.087 c
126.863 747.143 128.447 745.847 129.743 745.847 C
135.719 742.751 L
137.159 742.751 140.687 746.207 140.615 747.647 C
140.183 749.879 138.311 751.679 137.807 753.911 C
137.807 755.207 136.367 756.719 134.639 755.423 c
b
0.000 0.000 0.000 1.000 K
0 j
0 J
0.215 w
[]0 d
0.000 0.000 0.000 1.000 k
504.143 1019.807 m
504.647 1016.855 504.575 1013.903 504.143 1010.879 c
503.783 1008.431 501.695 1008.647 500.831 1009.583 C
494.423 1011.599 L
493.343 1012.607 493.343 1017.575 494.423 1018.583 C
496.295 1019.807 498.887 1019.735 500.831 1021.031 C
501.695 1021.895 503.783 1021.967 504.143 1019.807 c
b
0.000 0.000 0.000 1.000 K
0 j
0 J
0.215 w
[]0 d
0.000 0.000 0.000 1.000 k
124.271 739.871 m
123.767 736.919 123.767 733.967 124.271 730.943 c
124.631 728.495 126.647 728.711 127.583 729.647 C
133.991 731.663 L
135.000 732.671 135.000 737.639 133.991 738.647 C
132.119 739.871 129.527 739.799 127.583 741.095 C
126.647 741.959 124.559 742.031 124.271 739.871 c
b
0.000 0.000 0.000 1.000 K
0 j
0 J
0.215 w
[]0 d
0.000 0.000 0.000 1.000 k
500.471 1001.519 m
498.743 999.071 496.655 997.055 494.135 995.255 c
492.191 993.815 490.895 995.399 490.895 996.695 C
487.727 1002.671 L
487.727 1004.111 491.255 1007.639 492.695 1007.567 C
494.927 1007.135 496.727 1005.191 498.959 1004.759 C
500.255 1004.759 501.767 1003.319 500.471 1001.519 c
b
0.000 0.000 0.000 1.000 K
0 j
0 J
0.215 w
[]0 d
0.000 0.000 0.000 1.000 k
127.943 721.655 m
129.671 719.207 131.759 717.119 134.207 715.319 c
136.223 713.879 137.519 715.463 137.519 716.759 C
140.615 722.735 L
140.615 724.175 137.087 727.703 135.647 727.631 C
133.487 727.199 131.687 725.327 129.455 724.823 C
128.159 724.823 126.647 723.383 127.943 721.655 c
b
0.000 0.000 0.000 1.000 K
0 j
0 J
0.215 w
[]0 d
480.167 1024.055 m
485.063 1024.055 489.023 1020.095 489.023 1015.199 c
489.023 1010.375 485.063 1006.415 480.167 1006.415 c
475.343 1006.415 471.383 1010.375 471.383 1015.199 c
471.383 1020.095 475.343 1024.055 480.167 1024.055 c
s
0.000 0.000 0.000 1.000 K
0 j
0 J
0.215 w
[]0 d
148.175 744.119 m
143.280 744.119 139.319 740.159 139.319 735.335 c
139.319 730.439 143.280 726.479 148.175 726.479 c
153.071 726.479 157.031 730.439 157.031 735.335 c
157.031 740.159 153.071 744.119 148.175 744.119 c
s
0.000 0.000 0.000 1.000 K
0 j
0 J
0.215 w
[]0 d
479.951 1018.151 m
481.607 1018.151 482.975 1016.855 482.975 1015.199 c
482.975 1013.543 481.607 1012.247 479.951 1012.247 c
478.367 1012.247 476.999 1013.543 476.999 1015.199 c
476.999 1016.855 478.367 1018.151 479.951 1018.151 c
s
0.000 0.000 0.000 1.000 K
0 j
0 J
0.215 w
[]0 d
148.391 738.215 m
146.735 738.215 145.367 736.919 145.367 735.263 c
145.367 733.679 146.735 732.311 148.391 732.311 c
149.975 732.311 151.343 733.679 151.343 735.263 c
151.343 736.919 149.975 738.215 148.391 738.215 c
s
0.000 0.000 0.000 1.000 K
0 j
0 J
0.215 w
[]0 d
0.000 0.000 0.000 0.498 k
740.447 830.159 m
740.159 829.727 740.015 829.439 739.727 829.079 C
739.727 829.079 738.719 826.991 737.207 824.183 C
717.407 826.055 L
715.967 826.919 714.455 827.855 713.231 829.727 C
713.159 833.759 713.375 833.903 713.519 836.639 C
713.519 836.639 713.951 841.247 719.423 842.687 C
724.895 844.199 736.847 843.119 736.847 843.119 C
738.575 842.183 739.367 840.959 739.727 836.639 C
737.783 831.095 L
740.447 830.159 L
b
0.000 0.000 0.000 1.000 K
0 j
0 J
0.215 w
[]0 d
0.000 0.000 0.000 0.498 k
967.967 824.255 m
966.671 826.559 965.447 828.575 964.655 830.015 C
964.655 830.159 964.655 830.303 964.511 830.447 C
966.383 831.095 L
964.367 836.639 L
964.367 841.031 965.879 842.183 967.319 843.191 C
967.319 843.191 979.199 844.271 984.743 842.759 C
990.215 841.247 990.575 836.639 990.575 836.639 C
990.719 833.975 991.007 833.831 990.863 829.799 C
989.639 827.855 988.199 826.919 986.687 826.127 C
967.967 824.255 L
b
0.000 0.000 0.000 1.000 K
0 j
0 J
0.215 w
[]0 d
0.000 0.000 0.000 0.698 k
811.007 752.039 m
811.007 762.335 L
811.007 762.911 811.151 763.271 811.295 763.847 C
782.783 763.847 L
780.623 763.415 778.751 762.911 777.815 762.623 C
773.783 761.111 774.071 752.039 774.071 752.039 C
811.007 752.039 L
b
0.000 0.000 0.000 1.000 K
0 j
0 J
0.215 w
[]0 d
0.000 0.000 0.000 0.698 k
896.255 752.039 m
896.255 762.335 L
896.255 762.911 896.111 763.271 895.967 763.847 C
924.479 763.847 L
926.567 763.415 928.439 762.911 929.375 762.623 C
933.407 761.111 933.119 752.039 933.119 752.039 C
896.255 752.039 L
b
0.000 0.000 0.000 1.000 K
0 j
0 J
0.215 w
[]0 d
0.000 0.000 0.000 0.000 k
814.607 765.935 m
892.079 765.935 l
894.239 765.935 895.823 764.495 895.823 762.407 c
895.823 751.751 l
895.823 749.663 894.239 748.151 892.079 748.151 c
814.607 748.151 l
812.447 748.151 810.935 749.663 810.935 751.751 c
810.935 762.407 l
810.935 764.495 812.447 765.935 814.607 765.935 c
b
u
u
0.000 0.000 0.000 1.000 K
0 j
0 J
0.215 w
[]0 d
58.247 1078.487 m
58.247 1078.487 95.327 1087.847 118.439 1090.799 c
141.623 1093.751 189.791 1096.847 189.791 1096.847 C
S
U
U
u
u
0.000 0.000 0.000 1.000 K
0 j
0 J
0.215 w
[]0 d
570.024 798.623 m
570.024 798.623 532.943 807.911 509.831 810.863 c
486.647 813.815 438.479 816.911 438.479 816.911 C
S
U
U
u
u
0.000 0.000 0.000 1.000 K
0 j
0 J
0.215 w
[]0 d
199.799 1098.215 m
208.223 1098.215 L
S
U
U
u
u
0.000 0.000 0.000 1.000 K
0 j
0 J
0.215 w
[]0 d
428.543 818.279 m
420.119 818.279 L
S
U
U
0.000 0.000 0.000 1.000 K
0 j
0 J
0.215 w
[]0 d
0.000 0.000 0.000 0.498 k
218.663 1098.576 m
335.231 1101.959 L
348.623 1162.655 L
337.895 1163.447 304.271 1159.127 294.767 1156.967 c
285.551 1154.879 285.048 1156.535 267.911 1147.823 c
250.775 1139.039 222.407 1116.791 209.519 1105.919 c
201.095 1098.863 206.207 1098.288 218.663 1098.576 c
b
0.000 0.000 0.000 1.000 K
0 j
0 J
0.215 w
[]0 d
0.000 0.000 0.000 0.498 k
409.679 818.639 m
293.183 822.023 L
279.791 882.719 L
290.447 883.511 324.072 879.191 333.575 877.031 c
342.791 874.943 343.367 876.599 360.431 867.887 c
377.567 859.103 405.935 836.855 418.823 825.983 c
427.247 818.927 422.135 818.351 409.679 818.639 c
b
0.000 0.000 0.000 1.000 K
0 j
0 J
0.215 w
[]0 d
46.223 1007.783 m
52.127 1007.063 59.255 1005.911 62.279 1004.327 C
62.423 1004.327 62.567 1004.327 62.711 1004.255 C
58.823 1005.335 54.143 1006.919 49.823 1006.919 C
48.815 1006.919 47.591 1007.207 46.223 1007.783 C
s
0.000 0.000 0.000 1.000 K
0 j
0 J
0.215 w
[]0 d
582.120 727.703 m
576.288 726.983 569.159 725.903 566.063 724.319 C
565.991 724.319 565.847 724.319 565.703 724.175 C
569.591 725.327 574.271 726.839 578.519 726.839 C
579.599 726.839 580.823 727.127 582.120 727.703 C
s
0.000 0.000 0.000 1.000 K
0 j
0 J
0.215 w
[]0 d
0.000 0.000 0.000 0.098 k
179.639 1103.831 m
180.143 1103.687 180.935 1103.543 181.727 1103.543 C
186.047 1103.543 190.295 1104.407 190.295 1104.407 C
199.655 1108.943 L
199.655 1108.943 259.632 1152.935 266.831 1155.240 C
272.375 1156.895 270.215 1158.480 270.072 1159.415 C
268.343 1159.271 L
268.343 1159.271 244.079 1147.463 225.503 1135.007 c
212.399 1126.151 189.935 1110.887 179.639 1103.831 C
b
0.000 0.000 0.000 1.000 K
0 j
0 J
0.215 w
[]0 d
0.000 0.000 0.000 0.098 k
448.775 823.895 m
448.199 823.751 447.407 823.607 446.615 823.607 C
442.295 823.607 438.047 824.471 438.047 824.471 C
428.687 829.007 L
428.687 829.007 368.711 872.999 361.512 875.303 C
356.039 876.959 358.127 878.543 358.271 879.479 C
360.000 879.407 L
360.000 879.407 384.263 867.527 402.839 855.071 c
415.943 846.215 438.479 830.951 448.775 823.895 C
b
0.000 0.000 0.000 1.000 K
0 j
0 J
0.215 w
[]0 d
341.207 1101.959 m
338.687 1086.839 336.024 1072.727 336.024 1059.911 C
336.024 1047.096 337.247 1033.919 338.039 1028.447 C
338.831 1022.975 343.223 1013.183 343.223 1013.183 C
198.575 1011.095 L
198.575 1011.095 190.583 1030.967 190.583 1036.943 C
190.583 1042.847 191.087 1078.703 191.735 1083.240 C
192.023 1085.615 193.751 1096.919 195.623 1107.071 C
199.511 1108.871 L
199.511 1108.871 250.487 1146.311 264.168 1153.871 C
265.463 1154.591 266.687 1155.023 267.767 1155.599 C
268.560 1155.887 269.207 1156.175 269.639 1156.463 C
271.367 1157.183 272.303 1158.119 272.303 1157.543 C
272.951 1158.263 291.024 1162.799 307.223 1163.951 C
324.000 1165.463 347.759 1166.183 353.663 1166.471 C
349.271 1145.159 343.655 1116.359 341.207 1101.959 c
s
0.000 0.000 0.000 1.000 K
0 j
0 J
0.215 w
[]0 d
287.135 822.023 m
289.656 806.975 292.319 792.863 292.319 779.975 C
292.319 767.159 291.168 754.055 290.375 748.511 C
289.512 743.039 285.120 733.247 285.120 733.247 C
429.767 731.159 L
429.767 731.159 437.831 751.031 437.831 757.007 C
437.831 762.911 437.255 798.767 436.607 803.303 C
436.319 805.679 434.591 816.983 432.719 827.135 C
428.831 828.935 L
428.831 828.935 377.855 866.375 364.175 874.007 C
362.879 874.655 361.655 875.087 360.575 875.663 C
359.783 875.951 359.135 876.239 358.703 876.527 C
356.975 877.247 356.039 878.183 356.039 877.679 C
355.391 878.327 337.319 882.863 321.119 884.015 C
304.415 885.527 280.584 886.247 274.680 886.535 C
279.072 865.223 284.687 836.423 287.135 822.023 c
s
0.000 0.000 0.000 1.000 K
0 j
0 J
0.215 w
[]0 d
0.000 0.000 0.000 0.298 k
62.495 1055.519 m
61.055 1055.519 59.831 1055.519 59.183 1055.375 C
53.783 1054.799 28.151 1053.144 21.167 1052.855 C
20.735 1052.855 20.231 1052.855 19.799 1052.711 C
19.799 1053.432 19.799 1054.151 19.943 1054.655 C
20.663 1058.183 22.391 1065.528 27.287 1070.351 C
34.919 1071.215 44.423 1072.223 48.167 1072.223 C
54.215 1072.223 57.167 1069.631 59.831 1065.816 c
61.703 1063.295 62.639 1055.663 62.639 1055.663 C
62.639 1055.663 62.495 1055.519 62.495 1055.519 C
b
0.000 0.000 0.000 1.000 K
0 j
0 J
0.215 w
[]0 d
0.000 0.000 0.000 0.298 k
565.775 775.583 m
567.216 775.583 568.439 775.583 569.087 775.439 C
574.487 774.935 600.120 773.207 607.103 772.919 C
607.535 772.919 608.039 772.919 608.471 772.775 C
608.471 773.495 608.471 774.215 608.327 774.791 C
607.679 778.319 605.879 785.663 600.983 790.415 C
593.351 791.279 583.847 792.287 580.103 792.287 C
574.055 792.287 571.103 789.695 568.439 785.879 c
566.567 783.359 565.631 775.727 565.631 775.727 C
565.631 775.727 565.775 775.583 565.775 775.583 C
b
0.000 0.000 0.000 1.000 K
0 j
0 J
0.215 w
[]0 d
0.000 0.000 0.000 0.000 k
75.311 1009.079 m
75.095 1011.239 74.879 1013.327 74.879 1015.487 C
74.879 1031.975 83.087 1046.447 95.687 1055.159 C
83.591 1055.303 61.775 1055.303 58.967 1055.159 C
53.783 1054.799 27.935 1053.144 21.023 1052.711 C
14.039 1052.351 12.383 1042.343 10.943 1038.672 C
9.791 1035.935 10.151 1029.384 10.511 1024.199 C
10.727 1022.543 14.543 1019.591 14.759 1018.655 C
15.479 1015.919 16.128 1012.247 16.128 1012.247 C
16.128 1012.247 19.224 1008.143 22.967 1008.143 C
26.567 1008.143 36.431 1008.143 42.911 1007.783 C
49.391 1007.351 58.607 1005.911 62.135 1004.255 C
65.807 1002.599 69.695 999.575 70.991 1002.023 C
71.567 1003.319 73.439 1006.127 75.311 1009.079 C
b
0.000 0.000 0.000 1.000 K
0 j
0 J
0.215 w
[]0 d
0.000 0.000 0.000 0.000 k
552.959 729.071 m
553.175 731.159 553.391 733.319 553.391 735.407 C
553.391 751.895 545.183 766.439 532.583 775.151 C
544.679 775.223 566.495 775.223 569.303 775.151 C
574.487 774.791 600.335 773.135 607.319 772.631 C
614.231 772.343 615.887 762.263 617.327 758.663 C
618.479 755.927 618.120 749.303 617.759 744.119 C
617.543 742.463 613.799 739.511 613.511 738.575 C
612.791 735.911 612.144 732.239 612.144 732.239 C
612.144 732.239 609.048 728.135 605.303 728.135 C
601.775 728.135 591.839 728.135 585.359 727.775 C
578.879 727.271 569.663 725.903 566.135 724.247 C
562.463 722.591 558.575 719.495 557.279 722.015 C
556.703 723.311 554.831 726.119 552.959 729.071 C
b
u
u
0.000 0.000 0.000 1.000 K
0 j
0 J
0.215 w
[]0 d
78.983 1046.807 m
78.983 1046.807 55.799 1046.807 48.599 1046.807 c
41.399 1046.807 19.583 1046.807 19.583 1046.807 C
S
U
U
u
u
0.000 0.000 0.000 1.000 K
0 j
0 J
0.215 w
[]0 d
549.288 766.871 m
549.288 766.871 572.471 766.871 579.671 766.871 c
586.871 766.871 608.687 766.871 608.687 766.871 C
S
U
U
0.000 0.000 0.000 1.000 K
0 j
0 J
0.215 w
[]0 d
0.000 0.000 0.000 0.098 k
49.535 1046.807 m
49.535 1046.807 50.831 1037.663 39.311 1037.663 c
27.863 1037.663 22.751 1037.663 22.751 1037.663 c
22.751 1037.663 19.799 1042.559 20.231 1046.375 C
27.719 1047.096 49.535 1046.807 49.535 1046.807 c
b
0.000 0.000 0.000 1.000 K
0 j
0 J
0.215 w
[]0 d
0.000 0.000 0.000 0.098 k
578.735 766.871 m
578.735 766.871 577.439 757.727 588.959 757.727 c
600.407 757.727 605.519 757.727 605.519 757.727 c
605.519 757.727 608.471 762.623 608.039 766.439 C
600.551 767.159 578.735 766.871 578.735 766.871 c
b
u
u
0.000 0.000 0.000 1.000 K
0 j
0 J
0.215 w
[]0 d
60.263 1021.679 m
11.159 1023.983 L
S
U
U
u
u
0.000 0.000 0.000 1.000 K
0 j
0 J
0.215 w
[]0 d
568.007 741.815 m
617.111 744.047 L
S
U
U
u
u
0.000 0.000 0.000 1.000 K
0 j
0 J
0.215 w
[]0 d
426.887 1014.767 m
174.239 1010.087 L
S
U
U
u
u
0.000 0.000 0.000 1.000 K
0 j
0 J
0.215 w
[]0 d
201.455 734.831 m
454.103 730.151 L
S
U
U
0.000 0.000 0.000 1.000 K
0 j
0 J
0.215 w
[]0 d
175.535 1075.895 m
180.359 1075.895 l
181.007 1075.895 181.583 1075.391 181.583 1074.672 c
181.583 1071.864 l
181.583 1071.144 181.007 1070.567 180.359 1070.567 c
175.535 1070.567 l
174.887 1070.567 174.311 1071.144 174.311 1071.864 c
174.311 1074.672 l
174.311 1075.391 174.887 1075.895 175.535 1075.895 c
s
0.000 0.000 0.000 1.000 K
0 j
0 J
0.215 w
[]0 d
452.807 796.031 m
447.983 796.031 l
447.335 796.031 446.831 795.455 446.831 794.735 c
446.831 791.927 l
446.831 791.207 447.335 790.631 447.983 790.631 c
452.807 790.631 l
453.455 790.631 454.031 791.207 454.031 791.927 c
454.031 794.735 l
454.031 795.455 453.455 796.031 452.807 796.031 c
s
0.000 0.000 0.000 1.000 K
0 j
0 J
0.215 w
[]0 d
0.000 0.000 0.000 0.498 k
454.247 1154.087 m
454.247 1154.087 454.247 1154.087 454.103 1154.087 C
447.119 1156.895 434.807 1159.703 427.895 1160.567 C
420.479 1162.295 361.727 1163.519 361.512 1162.871 C
356.111 1162.871 L
345.167 1102.175 L
388.223 1104.551 450.647 1106.135 489.311 1111.319 c
498.959 1112.615 500.399 1122.767 499.463 1128.815 c
497.879 1139.975 480.311 1145.735 473.399 1148.615 C
469.511 1149.983 461.159 1152.288 454.247 1154.087 C
b
0.000 0.000 0.000 1.000 K
0 j
0 J
0.215 w
[]0 d
0.000 0.000 0.000 0.498 k
174.095 874.151 m
174.095 874.151 174.095 874.151 174.239 874.151 C
181.223 876.959 193.535 879.839 200.519 880.631 C
207.863 882.359 266.615 883.583 266.831 882.935 C
272.231 882.935 L
283.175 822.239 L
240.119 824.615 177.768 826.199 139.103 831.383 c
129.455 832.679 127.943 842.831 128.879 848.879 c
130.536 860.039 148.031 865.871 155.015 868.679 C
158.903 870.047 167.183 872.351 174.095 874.151 C
b
0.000 0.000 0.000 1.000 K
0 j
0 J
0.215 w
[]0 d
0.000 0.000 0.000 0.098 k
488.663 1137.455 m
494.063 1134.071 496.223 1131.119 495.503 1122.911 C
494.063 1116.144 489.455 1115.711 482.759 1114.199 C
476.927 1128.959 465.551 1141.703 457.919 1150.271 C
458.711 1150.271 460.871 1149.480 461.663 1149.336 C
471.311 1146.599 480.239 1142.927 488.663 1137.455 c
b
0.000 0.000 0.000 1.000 K
0 j
0 J
0.215 w
[]0 d
0.000 0.000 0.000 0.098 k
139.679 857.519 m
134.352 854.135 132.191 851.183 132.840 842.975 C
134.352 836.207 138.887 835.775 145.584 834.263 C
151.487 849.023 162.863 861.767 170.495 870.335 C
169.631 870.335 167.543 869.543 166.679 869.399 C
157.103 866.663 148.103 863.063 139.679 857.519 c
b
0.000 0.000 0.000 1.000 K
0 j
0 J
0.215 w
[]0 d
0.000 0.000 0.000 0.098 k
358.775 1158.911 m
358.919 1159.775 417.383 1159.343 437.183 1155.384 C
444.023 1147.607 446.831 1144.943 452.735 1135.511 C
451.007 1111.751 L
417.239 1108.799 383.831 1107.288 350.495 1107.000 C
358.775 1158.911 L
b
0.000 0.000 0.000 1.000 K
0 j
0 J
0.215 w
[]0 d
0.000 0.000 0.000 0.098 k
269.567 878.975 m
269.423 879.839 210.959 879.407 191.159 875.447 C
184.319 867.671 181.512 865.007 175.607 855.575 C
177.335 831.815 L
211.103 828.863 244.511 827.351 277.847 827.063 C
269.567 878.975 L
b
0.000 0.000 0.000 1.000 K
0 j
0 J
0.215 w
[]0 d
0.000 0.000 0.000 0.498 k
456.839 1136.015 m
454.967 1113.192 L
471.959 1114.199 L
456.839 1136.015 L
b
0.000 0.000 0.000 1.000 K
0 j
0 J
0.215 w
[]0 d
0.000 0.000 0.000 0.498 k
171.503 856.079 m
173.375 833.255 L
156.383 834.263 L
171.503 856.079 L
b
u
u
0.000 0.000 0.000 1.000 K
0 j
0 J
0.215 w
[]0 d
456.839 1136.375 m
443.591 1153.439 l
443.591 1153.439 456.839 1150.631 459.143 1150.055 C
S
U
U
u
u
0.000 0.000 0.000 1.000 K
0 j
0 J
0.215 w
[]0 d
171.503 856.439 m
184.751 873.575 l
184.751 873.575 171.503 870.695 169.199 870.119 C
S
U
U
0.000 0.000 0.000 1.000 K
0 j
0 J
0.215 w
[]0 d
0.000 0.000 0.000 0.098 k
344.087 1158.407 m
331.199 1105.487 l
331.199 1105.487 218.951 1102.463 215.711 1102.463 c
212.543 1102.463 211.607 1104.911 213.839 1105.919 c
216.143 1106.855 243.143 1127.735 252.359 1133.567 c
261.647 1139.327 274.895 1149.048 285.839 1151.495 c
296.783 1153.871 304.703 1155.672 312.479 1156.247 C
317.663 1157.111 337.247 1158.263 344.087 1158.407 C
b
0.000 0.000 0.000 1.000 K
0 j
0 J
0.215 w
[]0 d
0.000 0.000 0.000 0.098 k
284.327 878.471 m
297.144 825.551 l
297.144 825.551 409.391 822.599 412.631 822.599 c
415.871 822.599 416.807 824.975 414.503 825.983 c
412.271 826.919 385.199 847.799 375.983 853.631 c
366.767 859.391 353.519 869.111 342.503 871.559 c
331.560 873.935 323.639 875.807 315.863 876.311 C
310.679 877.175 291.168 878.327 284.327 878.471 C
b
u
u
0.000 0.000 0.000 1.000 K
0 j
0 J
0.215 w
[]0 d
509.543 1110.959 m
509.543 1110.959 557.783 1111.751 562.031 1111.751 C
S
U
U
u
u
0.000 0.000 0.000 1.000 K
0 j
0 J
0.215 w
[]0 d
118.799 831.023 m
118.799 831.023 70.631 831.887 66.384 831.887 C
S
U
U
u
u
0.000 0.000 0.000 1.000 K
0 j
0 J
0.215 w
[]0 d
604.079 1110.240 m
604.079 1110.240 599.831 1099.367 596.879 1092.455 c
593.927 1085.543 591.407 1077.480 591.120 1071.720 C
S
U
U
u
u
0.000 0.000 0.000 1.000 K
0 j
0 J
0.215 w
[]0 d
24.191 830.303 m
24.191 830.303 28.439 819.431 31.391 812.519 c
34.343 805.607 36.863 797.543 37.151 791.783 C
S
U
U
0.000 0.000 0.000 1.000 K
0 j
0 J
0.215 w
[]0 d
595.439 1065.167 m
606.815 1065.455 L
606.815 1066.607 606.815 1067.759 606.815 1069.127 C
606.815 1075.319 611.135 1083.528 611.135 1083.528 C
611.135 1083.528 611.639 1105.415 610.415 1111.895 C
610.415 1112.039 L
610.415 1112.039 603.216 1095.551 600.551 1088.639 C
597.887 1081.727 595.439 1072.367 595.439 1066.319 C
595.439 1065.887 595.439 1065.599 595.439 1065.167 C
s
0.000 0.000 0.000 1.000 K
0 j
0 J
0.215 w
[]0 d
32.832 785.231 m
21.455 785.519 L
21.455 786.671 21.455 787.823 21.455 789.191 C
21.455 795.455 17.207 803.591 17.207 803.591 C
17.207 803.591 16.631 825.479 17.855 831.959 C
17.855 832.103 L
17.855 832.103 25.055 815.615 27.719 808.703 C
30.455 801.791 32.832 792.431 32.832 786.383 C
32.832 785.951 32.832 785.663 32.832 785.231 C
s
0.000 0.000 0.000 1.000 K
0 j
0 J
0.215 w
[]0 d
0.000 0.000 0.000 0.000 k
504.143 1058.111 m
519.120 1049.903 529.271 1033.847 529.271 1015.343 C
529.271 1012.967 529.127 1010.735 528.767 1008.359 C
530.207 1003.103 535.391 1005.191 537.767 1005.695 C
540.360 1006.415 570.168 1012.247 573.839 1013.543 C
576.072 1014.263 584.279 1015.559 592.055 1016.639 C
591.983 1016.639 591.695 1016.423 591.623 1016.423 C
597.527 1017.215 603.503 1018.439 606.240 1019.087 C
612.144 1020.671 613.079 1026.647 613.079 1029.599 C
613.079 1032.551 615.887 1037.231 617.183 1039.031 C
618.479 1040.903 617.183 1042.703 616.823 1051.775 C
616.607 1060.631 610.343 1059.336 608.615 1060.991 C
606.815 1062.359 607.031 1065.455 607.031 1065.455 C
584.567 1064.735 L
584.783 1062.144 580.967 1060.991 580.967 1060.991 C
580.967 1060.991 571.463 1060.487 568.007 1060.487 C
564.479 1060.487 523.871 1059.551 520.775 1060.127 C
518.327 1060.487 513.719 1060.271 510.407 1059.983 C
510.407 1059.911 506.879 1058.975 504.143 1058.111 C
b
0.000 0.000 0.000 1.000 K
0 j
0 J
0.215 w
[]0 d
0.000 0.000 0.000 0.000 k
124.127 778.103 m
109.151 769.823 98.999 753.839 98.999 735.335 C
98.999 732.959 99.143 730.727 99.503 728.351 C
98.063 723.024 92.879 725.183 90.503 725.615 C
87.911 726.335 58.103 732.239 54.431 733.535 C
52.199 734.255 43.991 735.551 36.215 736.631 C
36.287 736.631 36.576 736.343 36.647 736.343 C
30.743 737.207 24.767 738.359 22.032 739.079 C
16.128 740.591 15.191 746.639 15.191 749.591 C
15.191 752.543 12.383 757.223 11.087 759.023 C
9.791 760.895 11.087 762.623 11.447 771.695 C
11.663 780.551 17.927 779.255 19.727 780.911 C
21.455 782.351 21.239 785.375 21.239 785.375 C
43.775 784.655 L
43.487 782.063 47.303 780.911 47.303 780.911 C
47.303 780.911 56.807 780.407 60.263 780.407 C
63.791 780.407 104.471 779.471 107.495 780.119 C
110.015 780.407 114.551 780.191 117.863 779.975 C
117.863 779.831 121.391 778.895 124.127 778.103 C
b
u
u
0.000 0.000 0.000 1.000 K
0 j
0 J
0.215 w
[]0 d
613.079 1028.015 m
557.135 1027.727 L
S
U
U
u
u
0.000 0.000 0.000 1.000 K
0 j
0 J
0.215 w
[]0 d
15.191 748.079 m
71.135 747.791 L
S
U
U
u
u
0.000 0.000 0.000 1.000 K
0 j
0 J
0.215 w
[]0 d
616.607 1053.864 m
517.535 1053.864 L
S
U
U
u
u
0.000 0.000 0.000 1.000 K
0 j
0 J
0.215 w
[]0 d
11.663 773.927 m
110.735 773.927 L
S
U
U
u
u
0.000 0.000 0.000 1.000 K
0 j
0 J
0.215 w
[]0 d
170.423 1051.631 m
170.423 1051.631 168.839 1054.727 174.743 1054.727 c
180.647 1054.727 429.551 1058.543 429.551 1058.543 c
429.551 1058.543 454.247 1076.327 477.575 1077.911 c
500.903 1079.423 524.807 1065.455 524.807 1065.455 c
584.495 1064.735 L
S
U
U
u
u
0.000 0.000 0.000 1.000 K
0 j
0 J
0.215 w
[]0 d
457.919 771.695 m
457.919 771.695 459.503 774.791 453.599 774.791 c
447.767 774.791 198.863 778.607 198.863 778.607 c
198.863 778.607 174.095 796.391 150.768 797.975 c
127.511 799.487 103.535 785.519 103.535 785.519 c
43.847 784.871 L
S
U
U
0.000 0.000 0.000 1.000 K
0 j
0 J
0.215 w
[]0 d
506.735 1073.663 m
510.839 1072.223 514.583 1070.711 517.535 1069.415 C
527.975 1069.415 L
530.423 1069.415 532.295 1071.432 532.295 1073.951 C
532.295 1087.919 L
532.295 1090.439 530.423 1092.455 527.975 1092.455 C
510.983 1092.455 L
508.607 1092.455 506.735 1090.439 506.735 1087.919 C
506.735 1073.951 L
506.735 1073.807 506.735 1073.663 506.735 1073.663 C
s
0.000 0.000 0.000 1.000 K
0 j
0 J
0.215 w
[]0 d
308.519 1085.471 m
329.039 1085.471 l
331.055 1085.471 332.639 1083.816 332.639 1081.655 c
332.639 1081.511 l
332.639 1079.423 331.055 1077.695 329.039 1077.695 c
308.519 1077.695 l
306.503 1077.695 304.919 1079.423 304.919 1081.511 c
304.919 1081.655 l
304.919 1083.816 306.503 1085.471 308.519 1085.471 c
s
0.000 0.000 0.000 1.000 K
0 j
0 J
0.215 w
[]0 d
319.823 805.535 m
299.375 805.535 l
297.359 805.535 295.703 803.879 295.703 801.719 c
295.703 801.575 l
295.703 799.487 297.359 797.759 299.375 797.759 c
319.823 797.759 l
321.839 797.759 323.423 799.487 323.423 801.575 c
323.423 801.719 l
323.423 803.879 321.839 805.535 319.823 805.535 c
s
0.000 0.000 0.000 1.000 K
0 j
0 J
0.215 w
[]0 d
439.631 1090.223 m
460.079 1090.223 l
462.095 1090.223 463.679 1088.495 463.679 1086.407 c
463.679 1086.263 l
463.679 1084.103 462.095 1082.447 460.079 1082.447 c
439.631 1082.447 l
437.615 1082.447 435.959 1084.103 435.959 1086.263 c
435.959 1086.407 l
435.959 1088.495 437.615 1090.223 439.631 1090.223 c
s
0.000 0.000 0.000 1.000 K
0 j
0 J
0.215 w
[]0 d
188.783 810.287 m
168.263 810.287 l
166.247 810.287 164.663 808.559 164.663 806.471 c
164.663 806.327 l
164.663 804.167 166.247 802.511 168.263 802.511 c
188.783 802.511 l
190.727 802.511 192.383 804.167 192.383 806.327 c
192.383 806.471 l
192.383 808.559 190.727 810.287 188.783 810.287 c
s
u
u
0.000 0.000 0.000 1.000 K
0 j
0 J
0.215 w
[]0 d
305.783 1081.727 m
330.407 1081.439 L
S
U
U
u
u
0.000 0.000 0.000 1.000 K
0 j
0 J
0.215 w
[]0 d
322.631 801.791 m
298.007 801.503 L
S
U
U
u
u
0.000 0.000 0.000 1.000 K
0 j
0 J
0.215 w
[]0 d
436.823 1086.263 m
461.591 1086.263 L
S
U
U
u
u
0.000 0.000 0.000 1.000 K
0 j
0 J
0.215 w
[]0 d
191.519 806.399 m
166.751 806.399 L
S
U
U
u
u
0.000 0.000 0.000 1.000 K
0 j
0 J
0.215 w
[]0 d
169.055 1046.663 m
172.367 1048.247 175.031 1048.247 179.495 1048.247 c
183.887 1048.247 436.391 1052.783 436.391 1052.783 C
S
U
U
u
u
0.000 0.000 0.000 1.000 K
0 j
0 J
0.215 w
[]0 d
459.359 766.799 m
455.975 768.311 453.311 768.311 448.919 768.311 c
444.455 768.311 191.951 772.847 191.951 772.847 C
S
U
U
0.000 0.000 0.000 1.000 K
0 j
0 J
0.215 w
[]0 d
0.000 0.000 0.000 0.298 k
175.751 1044.576 m
433.223 1049.399 L
430.415 1045.871 L
175.751 1041.048 L
175.751 1044.576 L
b
0.000 0.000 0.000 1.000 K
0 j
0 J
0.215 w
[]0 d
0.000 0.000 0.000 0.298 k
452.591 764.639 m
195.119 769.463 L
197.927 765.935 L
452.591 761.111 L
452.591 764.639 L
b
0.000 0.000 0.000 1.000 K
0 j
0 J
0.215 w
[]0 d
0.000 0.000 0.000 0.498 k
222.911 1111.175 m
222.911 1111.175 221.975 1116.503 223.847 1117.655 c
225.719 1118.807 230.399 1121.615 233.855 1120.463 c
237.311 1119.384 237.311 1103.687 237.311 1103.687 c
237.311 1103.687 230.759 1100.879 228.383 1101.743 c
225.935 1102.535 225.143 1104.983 225.143 1104.983 c
221.831 1104.695 l
221.831 1104.695 221.255 1102.535 217.655 1102.535 c
214.055 1102.535 212.687 1103.255 212.687 1104.551 c
212.687 1105.775 221.255 1111.031 221.255 1111.031 C
222.911 1111.175 L
b
0.000 0.000 0.000 1.000 K
0 j
0 J
0.215 w
[]0 d
0.000 0.000 0.000 0.498 k
405.431 831.239 m
405.431 831.239 406.367 836.639 404.495 837.719 c
402.623 838.871 397.943 841.679 394.487 840.527 c
391.031 839.447 391.031 823.751 391.031 823.751 c
391.031 823.751 397.583 820.943 399.959 821.807 c
402.407 822.599 403.199 825.047 403.199 825.047 c
406.511 824.759 l
406.511 824.759 407.087 822.599 410.687 822.599 c
414.287 822.599 415.655 823.319 415.655 824.615 c
415.655 825.911 407.087 831.095 407.087 831.095 C
405.431 831.239 L
b
0.000 0.000 0.000 1.000 K
0 j
0 J
0.215 w
[]0 d
0.000 0.000 0.000 0.498 k
335.303 1102.031 m
348.695 1162.871 L
356.183 1162.871 L
345.383 1102.463 L
335.303 1102.031 L
b
0.000 0.000 0.000 1.000 K
0 j
0 J
0.215 w
[]0 d
0.000 0.000 0.000 0.498 k
293.039 822.095 m
279.647 882.935 L
272.159 882.935 L
283.031 822.527 L
293.039 822.095 L
b
u
u
0.000 0.000 0.000 1.000 K
0 j
0 J
0.215 w
[]0 d
341.207 1101.959 m
338.831 1087.055 336.167 1072.943 336.167 1059.911 C
336.167 1047.240 337.175 1033.991 338.039 1028.591 C
338.831 1022.975 343.367 1013.399 343.367 1013.399 C
342.719 1013.399 L
342.935 1013.255 343.223 1013.255 343.223 1013.255 C
423.359 1014.623 L
423.359 1014.623 428.471 1040.903 440.351 1052.063 C
452.303 1063.151 457.631 1066.535 466.055 1070.063 c
469.151 1071.215 479.159 1079.279 480.023 1107.071 C
480.023 1109.591 479.735 1112.975 479.735 1112.975 C
474.119 1127.663 458.711 1145.159 448.271 1156.319 c
445.103 1159.703 438.911 1162.223 427.823 1164.096 c
412.559 1166.471 359.927 1166.471 353.807 1166.471 C
349.271 1145.159 343.655 1116.359 341.207 1101.959 C
s
0.000 0.000 0.000 1.000 K
0 j
0 J
0.215 w
[]0 d
353.375 1166.471 m
353.375 1166.471 353.303 1166.471 353.159 1166.471 C
353.159 1166.471 353.303 1166.615 353.303 1166.615 C
353.303 1166.615 353.303 1166.471 353.375 1166.471 C
s
U
U
u
u
0.000 0.000 0.000 1.000 K
0 j
0 J
0.215 w
[]0 d
287.135 822.095 m
289.512 807.119 292.247 793.007 292.247 779.975 C
292.247 767.303 291.168 754.055 290.375 748.655 C
289.512 743.039 284.975 733.463 284.975 733.463 C
285.695 733.463 L
285.407 733.319 285.120 733.319 285.120 733.319 C
204.983 734.687 L
204.983 734.687 199.871 760.967 187.991 772.127 C
176.039 783.287 170.711 786.671 162.287 790.199 c
159.191 791.279 149.183 799.343 148.391 827.135 C
148.391 829.655 148.607 833.039 148.607 833.039 C
154.223 847.727 169.631 865.223 180.071 876.383 c
183.311 879.767 189.431 882.287 200.519 884.159 c
215.783 886.535 268.415 886.535 274.536 886.535 C
279.072 865.223 284.759 836.423 287.135 822.095 C
s
0.000 0.000 0.000 1.000 K
0 j
0 J
0.215 w
[]0 d
274.967 886.535 m
274.967 886.535 275.111 886.535 275.255 886.535 C
275.255 886.535 275.111 886.679 275.111 886.679 C
275.111 886.679 275.111 886.535 274.967 886.535 C
s
U
U
u
u
0.000 0.000 0.000 1.000 K
0 j
0 J
0.215 w
[]0 d
22.607 1046.591 m
25.559 1037.519 L
S
U
U
u
u
0.000 0.000 0.000 1.000 K
0 j
0 J
0.215 w
[]0 d
605.663 766.655 m
602.711 757.655 L
S
U
U
u
u
0.000 0.000 0.000 1.000 k
324.503 662.543 m
324.503 661.391 L
327.096 661.391 328.175 663.551 328.175 667.151 C
328.175 671.111 326.519 672.191 324.503 672.191 C
324.503 670.967 L
325.871 670.967 326.591 669.959 326.591 668.735 C
326.591 667.439 325.799 666.359 324.503 666.359 C
324.503 665.279 L
325.512 665.279 326.375 665.855 326.879 666.719 C
326.879 666.719 L
326.879 663.983 326.015 662.543 324.503 662.543 C
f
0.000 0.000 0.000 1.000 k
329.687 666.575 m
330.767 666.431 L
331.199 667.151 331.919 667.511 332.711 667.511 c
334.151 667.511 335.087 666.431 335.087 665.063 c
335.087 663.407 334.007 662.543 332.855 662.543 c
331.560 662.543 330.767 663.407 330.623 664.559 C
329.327 664.559 L
329.471 662.543 330.839 661.391 332.711 661.391 c
335.231 661.391 336.383 663.263 336.383 665.063 c
336.383 667.439 334.871 668.591 333.000 668.591 c
332.279 668.591 331.560 668.375 331.127 667.871 C
331.127 667.871 L
331.560 670.967 L
335.951 670.967 L
335.951 671.975 L
330.623 671.975 L
329.687 666.575 L
f
0.000 0.000 0.000 1.000 k
324.503 670.967 m
324.503 672.191 L
324.503 672.191 324.503 672.263 324.503 672.263 C
322.487 672.263 321.048 670.823 321.048 668.807 C
321.048 666.719 322.271 665.279 324.359 665.279 C
324.359 665.279 324.431 665.279 324.503 665.279 C
324.503 666.359 L
324.503 666.359 324.503 666.359 324.503 666.359 C
323.279 666.359 322.343 667.439 322.343 668.591 C
322.343 669.887 322.991 671.039 324.503 671.039 C
324.503 671.039 324.503 670.967 324.503 670.967 C
f
0.000 0.000 0.000 1.000 k
324.503 661.391 m
324.503 662.543 L
324.503 662.543 324.503 662.543 324.503 662.543 C
323.423 662.543 322.631 663.191 322.631 664.199 C
321.335 664.199 L
321.407 662.327 322.703 661.391 324.503 661.391 C
324.503 661.391 324.503 661.319 324.503 661.391 C
f
0.000 0.000 0.000 1.000 k
307.295 665.279 m
307.295 664.127 L
309.024 664.127 L
309.024 661.607 L
310.247 661.607 L
310.247 664.127 L
311.615 664.127 L
311.615 665.279 L
310.247 665.279 L
310.247 672.263 L
309.167 672.263 L
307.295 669.599 L
307.295 667.943 L
308.951 670.463 L
309.024 670.463 L
309.024 665.279 L
307.295 665.279 L
f
0.000 0.000 0.000 1.000 k
318.383 669.167 m
318.383 667.799 317.447 667.079 315.503 666.000 c
314.135 665.063 312.839 664.127 312.623 661.607 C
319.536 661.607 L
319.536 662.831 L
314.135 662.831 L
314.351 664.127 315.791 664.703 317.087 665.495 c
318.383 666.359 319.679 667.295 319.679 669.167 c
319.679 671.183 318.096 672.263 316.367 672.263 c
314.207 672.263 312.911 670.679 312.911 668.447 C
314.207 668.447 L
314.207 669.887 314.855 671.039 316.223 671.039 c
317.447 671.039 318.383 670.391 318.383 669.167 c
f
0.000 0.000 0.000 1.000 k
307.295 667.943 m
307.295 669.599 L
304.343 665.423 L
304.343 664.127 L
307.295 664.127 L
307.295 665.279 L
305.495 665.279 L
307.295 667.943 L
f
U
U
0.000 0.000 0.000 1.000 K
0 j
0 J
0.215 w
[]0 d
0.000 0.000 0.000 1.000 k
732.455 1030.319 m
743.255 1030.319 l
747.575 1030.319 750.887 1027.007 750.887 1022.759 c
750.887 980.423 l
750.887 976.247 747.575 972.935 743.255 972.935 c
732.455 972.935 l
728.135 972.935 724.823 976.247 724.823 980.423 c
724.823 1022.759 l
724.823 1027.007 728.135 1030.319 732.455 1030.319 c
b
0.000 0.000 0.000 1.000 K
0 j
0 J
0.215 w
[]0 d
0.000 0.000 0.000 1.000 k
962.639 1030.319 m
973.439 1030.319 l
977.759 1030.319 981.071 1027.007 981.071 1022.759 c
981.071 980.423 l
981.071 976.247 977.759 972.935 973.439 972.935 c
962.639 972.935 l
958.319 972.935 955.007 976.247 955.007 980.423 c
955.007 1022.759 l
955.007 1027.007 958.319 1030.319 962.639 1030.319 c
b
0.000 0.000 0.000 1.000 K
0 j
0 J
0.215 w
[]0 d
0.000 0.000 0.000 0.000 k
970.703 1065.887 m
970.703 1065.887 974.735 1065.384 978.479 1061.711 C
981.431 1058.975 985.031 1056.743 986.399 1055.807 C
985.823 1070.351 977.255 1096.199 977.255 1099.367 C
977.255 1102.463 971.279 1104.695 969.119 1112.687 C
966.959 1120.679 952.343 1143.935 946.367 1153.583 C
940.319 1163.231 927.503 1168.343 924.119 1168.847 C
920.807 1169.423 900.719 1170.576 856.583 1170.576 C
833.831 1170.576 805.319 1170.071 787.391 1168.055 C
776.663 1166.903 771.335 1164.528 764.639 1156.967 C
754.055 1145.087 742.175 1119.599 739.079 1112.687 C
735.983 1105.775 733.031 1103.687 729.863 1098.791 C
726.623 1093.967 723.815 1075.391 723.311 1071.791 C
722.735 1068.119 720.575 1064.303 720.575 1064.303 C
720.575 1064.303 720.575 1054.223 720.575 1050.983 C
720.575 1050.480 720.575 1050.048 720.719 1049.831 C
720.719 1053.071 720.719 1055.951 720.719 1055.951 C
720.719 1055.951 725.039 1057.247 727.703 1060.127 C
730.367 1062.720 728.207 1065.887 732.527 1065.887 C
811.727 1066.679 892.007 1066.679 970.703 1065.887 C
b
0.000 0.000 0.000 1.000 K
0 j
0 J
0.215 w
[]0 d
0.000 0.000 0.000 0.000 k
970.631 1065.887 m
970.631 1065.887 974.519 1065.167 978.263 1061.567 c
982.007 1057.895 986.975 1055.303 986.975 1055.303 c
986.975 1055.303 987.047 1029.887 983.591 1019.591 c
980.135 1009.295 978.767 1005.047 975.023 1004.183 c
971.279 1003.247 968.327 1001.807 966.311 1004.831 c
964.295 1007.855 964.871 1013.039 960.839 1013.831 c
956.807 1014.623 873.359 1014.335 855.935 1014.335 c
838.511 1014.335 755.855 1014.911 751.463 1014.911 c
747.000 1014.911 743.111 1012.031 741.671 1009.007 c
740.159 1005.983 737.783 1004.327 734.543 1005.335 c
731.375 1006.415 725.327 1009.151 724.247 1014.335 c
723.167 1019.591 720.503 1039.175 720.503 1043.495 c
720.503 1047.816 720.503 1055.807 720.503 1055.807 c
720.503 1055.807 724.967 1057.247 727.631 1059.983 c
730.295 1062.720 728.135 1065.887 732.455 1065.887 C
811.655 1066.535 891.791 1066.535 970.631 1065.887 c
b
u
u
0.000 0.000 0.000 1.000 K
0 j
0 J
0.215 w
[]0 d
727.127 1059.407 m
727.127 1059.407 729.287 1073.375 731.447 1079.711 c
733.607 1085.975 736.775 1101.887 744.983 1109.879 c
753.119 1117.871 763.415 1126.727 847.871 1127.375 c
932.327 1128.023 941.111 1122.695 951.263 1116.288 c
961.487 1109.879 970.991 1093.247 974.015 1080.215 c
977.111 1067.111 977.759 1068.839 979.415 1061.495 C
S
U
U
0.000 0.000 0.000 1.000 K
0 j
0 J
0.215 w
[]0 d
960.911 1081.367 m
743.831 1080.791 l
743.831 1080.791 734.471 1079.639 736.703 1086.551 c
739.007 1093.535 746.135 1107.503 753.047 1112.183 c
760.031 1116.863 782.063 1119.672 795.743 1120.175 c
809.423 1120.679 849.239 1122.767 853.127 1122.767 c
857.015 1122.767 928.079 1120.823 936.503 1117.943 c
944.927 1115.063 950.687 1113.263 956.591 1107.359 c
962.495 1101.455 968.471 1089.863 968.471 1089.863 C
968.471 1089.863 971.063 1081.367 960.911 1081.367 C
s
0.000 0.000 0.000 1.000 K
0 j
0 J
0.215 w
[]0 d
0.000 0.000 0.000 0.298 k
895.031 1104.192 m
895.031 1093.103 L
895.031 1091.015 893.375 1089.432 891.215 1089.432 C
814.679 1089.432 L
812.591 1089.432 810.935 1091.015 810.935 1093.103 C
810.935 1104.192 L
753.551 1104.192 L
748.727 1104.192 747.503 1100.447 747.503 1100.447 C
747.503 1100.447 742.679 1095.695 740.591 1089.288 C
738.431 1082.879 743.759 1081.871 743.759 1081.871 C
743.759 1081.871 950.687 1082.375 959.759 1082.375 C
968.831 1082.375 965.231 1088.279 965.231 1088.279 C
965.231 1088.279 962.063 1097.279 959.255 1100.447 C
956.447 1103.543 953.855 1104.192 953.855 1104.192 C
895.031 1104.192 L
b
0.000 0.000 0.000 1.000 K
0 j
0 J
0.215 w
[]0 d
0.000 0.000 0.000 0.698 k
808.847 1113.192 m
896.903 1113.192 l
899.927 1113.192 902.519 1110.672 902.375 1107.791 c
900.791 1089.288 l
900.647 1086.480 898.055 1083.887 895.247 1083.887 c
811.007 1083.887 l
808.127 1083.887 805.751 1086.263 805.463 1089.288 c
803.375 1107.791 l
803.087 1110.815 805.751 1113.192 808.847 1113.192 c
b
u
u
0.000 0.000 0.000 1.000 K
0 j
0 J
0.215 w
[]0 d
745.991 1097.711 m
803.951 1097.711 L
S
U
U
u
u
0.000 0.000 0.000 1.000 K
0 j
0 J
0.215 w
[]0 d
742.247 1090.871 m
805.535 1091.447 L
S
U
U
u
u
0.000 0.000 0.000 1.000 K
0 j
0 J
0.215 w
[]0 d
901.799 1091.375 m
963.143 1091.375 L
S
U
U
u
u
0.000 0.000 0.000 1.000 K
0 j
0 J
0.215 w
[]0 d
901.367 1097.711 m
960.911 1097.711 L
S
U
U
u
u
0.000 0.000 0.000 1.000 K
0 j
0 J
0.215 w
[]0 d
724.823 1054.223 m
724.823 1054.223 725.471 1055.807 728.639 1055.807 c
731.879 1055.807 979.847 1055.807 979.847 1055.807 c
982.511 1053.071 L
S
U
U
u
u
0.000 0.000 0.000 1.000 K
0 j
0 J
0.215 w
[]0 d
738.431 1061.567 m
960.335 1061.567 L
S
U
U
0.000 0.000 0.000 1.000 K
0 j
0 J
0.215 w
[]0 d
759.743 1126.151 m
759.959 1123.919 765.215 1120.391 766.511 1118.447 C
770.327 1113.119 786.095 1066.967 786.095 1066.967 C
919.799 1066.967 L
919.799 1066.967 932.759 1106.279 934.343 1109.447 C
935.927 1112.615 937.007 1118.447 941.471 1121.759 C
942.479 1122.551 943.487 1123.415 944.135 1124.495 C
941.975 1124.711 938.231 1125.503 930.743 1126.439 C
913.319 1128.528 781.703 1125.935 773.135 1125.935 C
772.199 1125.935 759.743 1125.791 759.743 1126.151 C
s
0.000 0.000 0.000 1.000 K
0 j
0 J
0.215 w
[]0 d
0.000 0.000 0.000 0.098 k
760.031 1126.007 m
760.031 1126.007 760.031 1126.079 759.887 1126.079 C
758.879 1129.751 759.887 1131.839 759.887 1131.839 C
759.887 1131.839 769.823 1158.551 774.071 1161.144 C
778.391 1163.735 780.911 1163.879 789.119 1164.959 c
797.399 1166.111 835.631 1168.487 853.055 1168.487 C
870.479 1168.487 915.551 1165.967 923.039 1165.463 c
925.991 1165.175 931.463 1163.231 934.127 1159.559 C
936.863 1155.887 947.231 1137.096 947.231 1133.423 C
947.231 1130.687 946.727 1127.159 944.351 1124.279 C
942.335 1124.639 938.447 1125.432 930.959 1126.511 C
876.743 1131.983 826.847 1130.543 773.423 1126.871 C
768.455 1126.871 763.775 1126.007 760.031 1126.007 C
b
u
u
0.000 0.000 0.000 1.000 K
0 j
0 J
0.215 w
[]0 d
737.423 1011.671 m
737.423 1011.671 735.695 1015.991 747.071 1015.991 c
758.447 1015.991 957.023 1015.991 959.831 1015.991 c
962.639 1015.991 968.471 1014.839 970.631 1011.167 C
S
U
U
0.000 0.000 0.000 1.000 K
0 j
0 J
0.215 w
[]0 d
744.335 1026.576 m
960.335 1025.495 L
939.311 1026.576 l
939.311 1026.576 934.919 1030.319 931.175 1030.319 c
927.431 1030.319 779.039 1030.319 779.039 1030.319 c
779.039 1030.319 771.911 1028.663 769.247 1028.087 C
766.583 1027.583 744.335 1026.576 744.335 1026.576 C
s
0.000 0.000 0.000 1.000 K
0 j
0 J
0.215 w
[]0 d
0.000 0.000 0.000 0.498 k
744.119 1123.487 m
741.887 1118.735 740.015 1114.847 739.079 1112.615 C
737.639 1109.519 736.199 1107.288 734.831 1105.415 C
730.223 1105.559 723.887 1105.919 722.087 1106.279 C
717.695 1107.359 717.119 1112.615 718.919 1118.087 C
720.647 1123.487 730.367 1123.487 734.543 1123.487 C
736.199 1123.487 740.807 1123.487 744.119 1123.487 C
b
0.000 0.000 0.000 1.000 K
0 j
0 J
0.215 w
[]0 d
0.000 0.000 0.000 0.498 k
973.511 1104.983 m
971.927 1106.711 970.199 1109.087 969.263 1112.471 C
968.687 1114.991 966.887 1118.807 964.511 1123.343 C
967.391 1123.343 970.559 1123.343 972.071 1123.343 C
976.319 1123.343 985.967 1123.343 987.623 1117.727 C
989.423 1112.471 988.775 1107.071 984.455 1105.991 C
981.719 1105.343 977.039 1105.271 973.511 1104.983 C
b
0.000 0.000 0.000 1.000 K
0 j
0 J
0.215 w
[]0 d
0.000 0.000 0.000 0.298 k
742.607 1120.031 m
741.095 1116.791 740.015 1114.199 739.151 1112.615 C
738.431 1110.959 737.639 1109.447 736.919 1108.223 C
728.567 1108.439 L
728.567 1108.439 720.575 1108.439 720.575 1114.343 C
720.575 1119.959 729.503 1120.679 729.503 1120.679 C
742.607 1120.031 L
b
0.000 0.000 0.000 1.000 K
0 j
0 J
0.215 w
[]0 d
0.000 0.000 0.000 0.298 k
970.919 1108.439 m
970.199 1109.663 969.623 1111.031 969.119 1112.543 C
968.687 1114.415 967.607 1117.007 966.095 1120.103 C
977.039 1120.535 L
977.039 1120.535 986.111 1119.743 986.111 1114.127 C
986.111 1108.295 977.975 1108.295 977.975 1108.295 C
972.647 1108.439 L
972.647 1108.439 971.855 1108.439 970.919 1108.439 C
b
0.000 0.000 0.000 1.000 K
0 j
0 J
0.215 w
[]0 d
0.000 0.000 0.000 0.698 k
955.007 1014.335 m
955.007 994.031 L
946.367 995.255 L
940.967 995.255 L
936.575 992.087 L
932.255 993.671 L
922.535 994.175 L
915.047 994.175 L
911.663 996.911 L
908.495 994.679 L
884.663 995.255 L
881.999 993.167 L
848.879 993.167 L
845.135 996.407 L
837.575 996.263 L
834.839 994.679 L
789.911 995.255 L
786.671 993.671 L
786.671 993.671 778.535 993.671 774.791 993.671 C
771.047 993.671 770.903 996.911 768.239 996.911 C
765.575 996.911 763.415 994.175 763.415 994.175 C
763.415 994.175 759.527 993.167 756.287 993.167 C
754.991 993.167 753.119 993.815 750.959 994.823 C
750.959 1014.983 L
751.103 1014.983 751.247 1015.127 751.463 1015.127 C
756.071 1015.127 838.727 1014.551 856.151 1014.551 C
870.983 1014.551 935.063 1014.695 955.007 1014.335 C
b
0.000 0.000 0.000 1.000 K
0 j
0 J
0.215 w
[]0 d
899.279 1014.479 m
916.343 1014.479 934.559 1014.479 946.871 1014.335 C
946.871 1007.567 L
946.871 1002.455 943.415 998.423 939.095 998.423 C
906.983 998.423 L
902.735 998.423 899.279 1002.455 899.279 1007.567 C
899.279 1014.479 L
s
0.000 0.000 0.000 1.000 K
0 j
0 J
0.215 w
[]0 d
933.335 1009.583 m
935.711 1009.583 937.583 1007.711 937.583 1005.407 c
937.583 1003.031 935.711 1001.231 933.335 1001.231 c
930.959 1001.231 929.087 1003.031 929.087 1005.407 c
929.087 1007.711 930.959 1009.583 933.335 1009.583 c
s
0.000 0.000 0.000 1.000 K
0 j
0 J
0.215 w
[]0 d
812.591 1112.111 m
893.663 1112.111 l
896.471 1112.111 898.631 1110.023 898.631 1107.288 c
898.631 1089.791 l
898.631 1086.983 896.471 1084.895 893.663 1084.895 c
812.591 1084.895 l
809.783 1084.895 807.623 1086.983 807.623 1089.791 c
807.623 1107.288 l
807.623 1110.023 809.783 1112.111 812.591 1112.111 c
s
0.000 0.000 0.000 1.000 K
0 j
0 J
0.215 w
[]0 d
0.000 0.000 0.000 0.000 k
814.679 1108.367 m
891.143 1108.367 l
893.231 1108.367 894.887 1106.783 894.887 1104.695 c
894.887 1092.887 l
894.887 1090.799 893.231 1089.288 891.143 1089.288 c
814.679 1089.288 l
812.591 1089.288 810.935 1090.799 810.935 1092.887 c
810.935 1104.695 l
810.935 1106.783 812.591 1108.367 814.679 1108.367 c
b
u
u
u
0.000 0.000 0.000 1.000 k
853.343 1114.631 m
853.343 1114.199 L
853.343 1114.199 853.343 1114.199 853.415 1114.199 C
857.015 1114.199 859.967 1115.783 859.967 1117.727 C
859.967 1119.743 857.015 1121.327 853.415 1121.327 C
853.343 1121.327 853.343 1121.255 853.343 1121.255 C
853.343 1120.895 L
853.343 1120.895 853.343 1120.967 853.415 1120.967 C
856.295 1120.967 858.671 1119.528 858.671 1117.799 C
858.671 1116.071 856.295 1114.631 853.415 1114.631 C
853.343 1114.631 853.343 1114.631 853.343 1114.631 C
f
0.000 0.000 0.000 1.000 k
853.343 1120.895 m
853.343 1121.255 L
849.671 1121.255 846.791 1119.672 846.791 1117.727 C
846.791 1115.783 849.671 1114.199 853.343 1114.199 C
853.343 1114.631 L
850.391 1114.631 848.087 1116.071 848.087 1117.799 C
848.087 1119.455 850.391 1120.895 853.343 1120.895 C
f
U
u
0.000 0.000 0.000 1.000 K
0 j
0 J
0.215 w
[]0 d
853.415 1121.327 m
857.015 1121.327 859.967 1119.743 859.967 1117.727 c
859.967 1115.783 857.015 1114.199 853.415 1114.199 c
849.743 1114.199 846.791 1115.783 846.791 1117.727 c
846.791 1119.743 849.743 1121.327 853.415 1121.327 c
s
0.000 0.000 0.000 1.000 K
0 j
0 J
0.215 w
[]0 d
853.415 1120.967 m
856.295 1120.967 858.671 1119.528 858.671 1117.799 c
858.671 1116.071 856.295 1114.631 853.415 1114.631 c
850.463 1114.631 848.087 1116.071 848.087 1117.799 c
848.087 1119.528 850.463 1120.967 853.415 1120.967 c
s
U
U
u
u
0.000 0.000 0.000 1.000 k
853.415 1117.799 m
853.415 1117.511 L
855.719 1117.511 857.591 1118.375 857.591 1119.384 C
857.591 1120.391 855.719 1121.255 853.415 1121.255 C
853.415 1121.039 L
855.287 1121.039 856.799 1120.319 856.799 1119.455 C
856.799 1118.519 855.287 1117.799 853.415 1117.799 C
f
0.000 0.000 0.000 1.000 k
853.415 1121.039 m
853.415 1121.255 L
853.415 1121.255 853.415 1121.327 853.415 1121.327 C
851.039 1121.327 849.167 1120.463 849.167 1119.384 C
849.167 1118.375 851.039 1117.511 853.415 1117.511 C
853.415 1117.511 853.415 1117.511 853.415 1117.511 C
853.415 1117.799 L
853.415 1117.799 853.415 1117.799 853.415 1117.799 C
851.543 1117.799 850.031 1118.519 850.031 1119.455 C
850.031 1120.391 851.543 1121.111 853.415 1121.111 C
853.415 1121.111 853.415 1121.039 853.415 1121.039 C
f
U
u
0.000 0.000 0.000 1.000 K
0 j
0 J
0.215 w
[]0 d
853.415 1121.327 m
855.719 1121.327 857.591 1120.463 857.591 1119.384 c
857.591 1118.375 855.719 1117.511 853.415 1117.511 c
851.039 1117.511 849.167 1118.375 849.167 1119.384 c
849.167 1120.463 851.039 1121.327 853.415 1121.327 c
s
0.000 0.000 0.000 1.000 K
0 j
0 J
0.215 w
[]0 d
853.415 1121.111 m
855.287 1121.111 856.799 1120.391 856.799 1119.455 c
856.799 1118.519 855.287 1117.799 853.415 1117.799 c
851.543 1117.799 850.031 1118.519 850.031 1119.455 c
850.031 1120.391 851.543 1121.111 853.415 1121.111 c
s
U
U
u
u
0.000 0.000 0.000 1.000 k
853.415 1115.639 m
853.415 1114.631 L
853.991 1114.631 854.423 1116.000 854.423 1117.727 C
854.423 1119.384 853.991 1120.751 853.415 1120.751 C
853.415 1119.815 L
853.775 1119.815 854.135 1118.879 854.135 1117.727 C
854.135 1116.576 853.775 1115.639 853.415 1115.639 C
f
0.000 0.000 0.000 1.000 k
853.415 1119.815 m
853.415 1120.751 L
853.415 1120.751 853.415 1120.823 853.415 1120.823 C
852.767 1120.823 852.335 1119.455 852.335 1117.727 C
852.335 1116.000 852.767 1114.631 853.415 1114.631 C
853.415 1114.631 853.415 1114.631 853.415 1114.631 C
853.415 1115.639 L
853.415 1115.639 853.415 1115.639 853.415 1115.639 C
852.983 1115.639 852.695 1116.576 852.695 1117.727 C
852.695 1118.951 852.983 1119.887 853.415 1119.887 C
853.415 1119.887 853.415 1119.815 853.415 1119.815 C
f
U
u
0.000 0.000 0.000 1.000 K
0 j
0 J
0.215 w
[]0 d
853.415 1120.823 m
853.991 1120.823 854.423 1119.455 854.423 1117.727 c
854.423 1116.000 853.991 1114.631 853.415 1114.631 c
852.767 1114.631 852.335 1116.000 852.335 1117.727 c
852.335 1119.455 852.767 1120.823 853.415 1120.823 c
s
0.000 0.000 0.000 1.000 K
0 j
0 J
0.215 w
[]0 d
853.415 1119.887 m
853.775 1119.887 854.135 1118.951 854.135 1117.727 c
854.135 1116.576 853.775 1115.639 853.415 1115.639 c
852.983 1115.639 852.695 1116.576 852.695 1117.727 c
852.695 1118.951 852.983 1119.887 853.415 1119.887 c
s
U
U
U
%%Trailer
_E end