%!PS-Adobe-2.0 EPSF-1.2
%%Creator: Adobe Illustrator exported from Corel Draw 3.0
%%Title:6
%%BoundingBox:24 216 868 744
%%CreationDate:(Unknown)
%%ColorUsage:
%%TemplateBox:24 216 868 744
%%EndComments
%%BeginProcSet:Adobe_Illustrator_1.1 0 0
% Version 1.0 3/27/1990 $nokeywords$
% Copyright (C) 1990,1991,1992
% Corel Corporation
% All Rights Reserved

/wPmsDict 150 dict def 
wPmsDict begin 

/$debug 25 string def 

/bd {bind def} bind def 
/ld {load def} bd 
/xd {exch def} bd 
/_ null def 

/$c 0 def 
/$m 0 def 
/$y 0 def 
/$k 0 def 
/$t 1 def 
/$n _ def 
/$o 0 def 
/$pf false def 

/$C 0 def 
/$M 0 def 
/$Y 0 def 
/$K 0 def 
/$T 1 def 
/$N _ def 
/$O 0 def 
/$PF false def 

/$h false def 

/$al 0 def 
/$tr 0 def 
/$le 0 def 
/$lx 0 def 
/$ly 0 def 

/$ctm matrix currentmatrix def 
/$ptm matrix def 

/$pn () def 
/$pm matrix def 
/$px 0 def 
/$py 0 def 
/$pxf 0 def 
/$pyf 0 def 
/$psx 10 def 
/$psy 0 def 

/$llx 0 def 
/$lly 0 def 
/$urx 0 def 
/$ury 0 def 


/$Bbllx 0 def 
/$Bblly 0 def 
/$Bburx 0 def 
/$Bbury 0 def 

/$tllx 0 def 
/$tlly 0 def 
/$turx 0 def 
/$tury 0 def 

/$pd [] def 
/$tx 0 def 
/$ty 0 def 

/$sv 0 def 
/@cp /closepath ld 
/@gs /gsave ld 
/@gr /grestore ld 
/@np /newpath ld 
/@sv {/$sv save def}bd 
/@rs {$sv restore}bd 

/@MN { 
2 copy le{pop}{exch pop}ifelse 
}bd 

/setcmykcolor where {pop} 
{ 
/setcmykcolor 
{ 
4 1 roll 
3 {3 index add 1 @MN 1 exch sub 3 1 roll} repeat 
setrgbcolor 
pop 
}bd 
}ifelse 

/@tc 
{ 
dup 1 ge 
{pop} 
{ 
4 { 
dup 
6 -1 roll 
mul 
exch 
}repeat 
pop 
}ifelse 
}bd 

/@scc 
{ 
$c $m $y $k $t @tc 
setcmykcolor 
true 
}bd 
/@SCC 
{ 
$C $M $Y $K $T @tc 
setcmykcolor 
true 
}bd 

/@sft 
{ 
(setfirsttile sft )print 
/$tx $tllx $pxf add dup $tllx gt {$pwid $psx add sub}if def 
/$ty $tury $pyf sub dup $tury lt {$phei $psy add add}if def 
(setfirsttile exit )print 
}bd 

/@stb 
{ 
pathbbox /$ury xd /$urx xd /$lly xd /$llx xd 
}bd 

/@ep 
{ 
{ 
cvx exec 
}forall 
}bd 

/@tp 
{ 

(tile pattern tp )print 
@sv 
/$in true def 
2 copy 
dup $lly le {/$in false def}if 
$phei sub $ury ge {/$in false def}if 
dup $urx ge {/$in false def}if 
$pwid add $llx le {/$in false def}if 
$in 
{ 
@np 
2 copy moveto 
$pwid 0 rlineto 
0 $phei neg rlineto 
$pwid neg 0 rlineto 
0 $phei rlineto 
clip @np 

$pn cvlit load aload pop 
7 -1 roll 
5 index sub 
7 -1 roll 
3 index sub 
translate 
@ep 
pop pop pop pop 
} 
{pop pop}ifelse 
@rs 
(tile pattern exit )print 
}bd 

/@th 
{ 
(tile horizontal th)print 
@sft 
0 1 $tly 1 sub 
{ 
dup $psx mul $tx add 
{ 
dup $llx gt {$pwid sub}{exit}ifelse 
}loop 
exch $phei mul $ty exch sub 

0 1 $tlx 1 sub 
{ 
$pwid mul 
3 copy 
3 -1 roll add exch 
@tp 
pop 
}for 
pop pop 
} for 
(tile horizontal exiting )print 
}bd 

/@tv 
{ 
(tile vertical tv)print 
@sft 
0 1 $tlx 1 sub 
{ 
dup $pwid mul $tx add 
exch $psy mul $ty exch sub 
{ 
dup $ury lt {$phei add}{exit}ifelse 
}loop 

0 1 $tly 1 sub 
{ 
$phei mul 
3 copy sub 
@tp 
pop 
}for 
pop pop 
} for 
(tile vertical exit )print 
}bd 

/@pf 
{ 
(pattern fill pf)print 
@gs 
$pm concat 
@stb 
@gs 1 setgray eofill @gr 
eoclip 
$Bburx $Bbury $pm itransform /$tury xd /$turx xd 
$Bbllx $Bblly $pm itransform /$tlly xd /$tllx xd 
/$wid $turx $tllx sub def 
/$hei $tury $tlly sub def 
$wid 0 gt $hei 0 gt and 
{ 
$pn cvlit load aload pop 
$pd xd 
3 -1 roll sub /$phei xd 
exch sub /$pwid xd 
/$tlx $wid $pwid div ceiling 1 add def 
/$tly $hei $phei div ceiling 1 add def 
$psx 0 eq 
{ 
@tv 
} 
{ 
@th 
}ifelse 
}if 

@gr 
@np 
(pattern fill exit)print 
}bd 

/@xp 
{ 
{ 
dup (text Character is:) print == 
usertime (time before is:)print == 
(0) dup 3 -1 roll 0 exch put 
@gs 
true charpath currentpoint 
$ctm setmatrix 
@pf 
@gr 
@np 
moveto $tr 0 rmoveto 
usertime (time after is:)print == 
}forall 
pop 
}bd 

/@sm 
{ 
/$ctm $ctm currentmatrix def 
}bd 

%--@lorg  move to line origin   length string @torg length string
/@lorg    % moves currentpoint to line origin according to current alignment
  {      
  $lx $ly moveto    
  /$ly $ly $le sub def      % - prepare for next line(tracking)
  $al 0 ne
    {dup      % ->len str len str
    stringwidth   % ->len str len dx dy
    exch 3 index  % ->len str dy len dx
    1 sub         % ->len str dy len dx (len-1)
    $tr mul add   % ->len str dy len dx+(len-1)*$tr
    neg
    exch neg      % ->len str -dx_total dy len
    $al 1 eq      % check for centered alignment
    {2 div exch 2 div exch} if  
    rmoveto} if
  }bd

/@ft 
{ 
$pf 
{@xp} 
{ 
@scc 
{$tr exch 0 exch ashow pop} 
{pop pop}ifelse 
}ifelse 
}bd 

/@st 
{ 
$PF 
{} 
{ 
@SCC 
{ 
{ 
(0) dup 3 -1 roll 0 exch put 
@gs 
true charpath currentpoint 
$ctm setmatrix $ptm concat 
stroke 
@gr 
moveto $tr 0 rmoveto 
}forall 
pop 
} 
{pop pop}ifelse 
}ifelse 
}bd 
/@pt 
{ 
dup length exch 
}bd 
/@te 
{ 
@pt 
@lorg 
@ft 
}bd 

/@tr 
{ 
@pt 
@lorg 
@st 
}bd 
/@ta 
{ 
@pt 
@lorg 
2 copy 
@gs @ft @gr 
/$lx 0 def 
/$ly 0 def 
@st 
}bd 















/g { 
1 exch sub /$k xd 
/$c 0 def /$m 0 def /$y 0 def /$t 1 def /$n _ def /$pf false def 
}bd 

/G { 
1 exch sub /$K xd 
/$C 0 def /$M 0 def /$Y 0 def /$T 1 def /$N _ def /$PF false def 
}bd 

/k { 
/$k xd /$y xd /$m xd /$c xd 
/$t 1 def /$n _ def /$pf false def 
}bd 

/K { 
/$K xd /$Y xd /$M xd /$C xd 
/$T 1 def /$N _ def /$PF false def 
}bd 

/x { 
/$t xd /$n xd 
/$k xd /$y xd /$m xd /$c xd /$pf false def 
}bd 

/X { 
/$T xd /$N xd 
/$K xd /$Y xd /$M xd /$C xd /$PF false def 
}bd 

/d /setdash ld 

/i { 
dup 0 ne {setflat} {pop} ifelse 
}bd 

/j /setlinejoin ld 

/J /setlinecap ld 

/M /setmiterlimit ld 

/w /setlinewidth ld 

/O { 
/$o xd 
}bd 

/R { 
/$O xd 
}bd 


/c /curveto ld 

/C /c ld 

/v { 
currentpoint
6 2 roll 
curveto 
}bd

/V /v ld 

/y { 
2 copy curveto 
}bd 

/Y /y ld 

/l /lineto ld 

/L /l ld 

/m /moveto ld 



/n /newpath ld 

/N /newpath ld 

/F { 
$pf 
{@pf} 
{ 
@scc 
{eofill}if 
}ifelse 
}bd 

/f { 
@cp F 
}bd 
/S { 
$PF 
{} 
{ 
@SCC 
{ 
@sm 
$ptm concat 
stroke 
$ctm setmatrix 
}if 
}ifelse 
}bd 
/s { 
@cp 
S 
}bd 

/B { 
@gs F @gr 
S 
}bd 
/b { 
@cp 
B 
}bd 

/W { 
oeclip 
@np 
}bd 

/p { 
/$pm xd 
7 {pop} repeat 
/$pyf xd /$pxf xd 
/$pn xd 
/$pf true def 
}bd 

/P { 
11 {pop} repeat 
}bd 

/@p { 
/$pm xd 
/$psy xd 
/$psx xd 
/$pyf xd /$pxf xd 
/$pn xd 
/$pf true def 
}bd 

/@b { 
/$Bbury xd /$Bburx xd 
/$Bblly xd /$Bbllx xd 
}bd 


/z { 
/$al xd 
/$tr xd 
/$le xd 
exch findfont exch scalefont setfont 
}bd 

/Z { 
dup type 0 type eq { /$bDir xd } if
findfont 
dup maxlength 1 add dict exch 



dup 
{1 index /FID ne 
{ 
3 index 
3 1 roll put 
} 
{pop pop}ifelse 
} forall 



pop 
dup dup /Encoding get 
256 array copy 
dup /$fe xd
/Encoding exch put 

dup /Fontname 3 index put 

}bd 

/e { 
@sm 
concat 
[ 
/t {@te}def 
}bd 

/r { 
@sm 
concat 
[ 
/t {@tr}def 
}bd 

/o { 
@sm 
concat 
[ 
/t {pop}def 
}bd 

/a { 
@sm 
concat 
[ 
/t {@ta}def 
}bd 

/@o{
@sm 
concat 
[ 
/t {@t@a}def 
}bd 

/I { 
@sm 
concat 
[ 
/t {pop}def 
}bd 

/t {@te}def 

/T { 
cleartomark 
/$lx 0 def 
/$ly 0 def 
$ctm setmatrix 
}bd 


/u {}bd 

/U {}bd 

/A {pop}bd 

/h { 
$h true def 
}bd 

/h { 
$h true def 
}bd 

/q /@gs ld 

/Q /@gr ld 



/E { 
5 array astore 
exch cvlit exch def 
}bd 

/` {}bd 

/~ {}bd 

/@ {}bd 

/& {}bd 

/CorelDrawRencodeVect [ 
16#80/grave 
16#81/circumflex 
16#82/tilde 
16#83/dotlessi 
16#84/florin 
16#85/quotedblleft 
16#86/quotedblright 
16#87/guilsinglleft 
16#88/guilsinglright 
16#89/fi 
16#8a/fl 
16#8b/dagger 
16#8c/daggerdbl 
16#8d/endash 
16#8e/periodcentered 
16#8f/breve 
16#90/quotedblbase 
16#91/ellipsis 
16#92/perthousand 
16#a1/exclamdown 
16#a2/cent 
16#a3/sterling 
16#a4/currency 
16#a5/yen 
16#a6/bar 
16#a7/section 
16#a8/dieresis 
16#a9/copyright 
16#aa/ordfeminine 
16#ab/guillemotleft 
16#ac/logicalnot 
16#ad/emdash 
16#ae/registered 
16#af/spac 
16#b0/ring 
16#b1/spac 
16#b2/spac 
16#b3/spac 
16#b4/acute 
16#b5/spac 
16#b6/paragraph 
16#b7/bullet 
16#b8/cedilla 
16#b9/spac 
16#ba/ordmasculine 
16#bb/guillemotright 
16#bc/spac 
16#bd/spac 
16#be/spac 
16#bf/questiondown 
16#c0/Agrave 
16#c1/Aacute 
16#c2/Acircumflex 
16#c3/Atilde 
16#c4/Adieresis 
16#c5/Aring 
16#c6/AE 
16#c7/Ccedilla 
16#c8/Egrave 
16#c9/Eacute 
16#ca/Ecircumflex 
16#cb/Edieresis 
16#cc/Igrave 
16#cd/Iacute 
16#ce/Icircumflex 
16#cf/Idieresis 
16#d0/spac 
16#d1/Ntilde 
16#d2/Ograve 
16#d3/Oacute 
16#d4/Ocircumflex 
16#d5/Otilde 
16#d6/Odieresis 
16#d7/OE 
16#d8/Oslash 
16#d9/Ugrave 
16#da/Uacute 
16#db/Ucircumflex 
16#dc/Udieresis 
16#dd/space 
16#de/spac 
16#df/germandbls 
16#e0/agrave 
16#e1/aacute 
16#e2/acircumflex 
16#e3/atilde 
16#e4/adieresis 
16#e5/aring 
16#e6/ae 
16#e7/ccedilla 
16#e8/egrave 
16#e9/eacute 
16#ea/ecircumflex 
16#eb/edieresis 
16#ec/igrave 
16#ed/iacute 
16#ee/icircumflex 
16#ef/idieresis 
16#f0/space 
16#f1/ntilde 
16#f2/ograve 
16#f3/oacute 
16#f4/ocircumflex 
16#f5/otilde 
16#f6/odieresis 
16#f7/oe 
16#f8/oslash 
16#f9/ugrave 
16#fa/uacute 
16#fb/ucircumflex 
16#fc/udieresis 
16#fd/spac 
16#fe/spac 
16#ff/ydieresis 
] def
%%EndProlog
%%BeginSetup
%%BeginEncoding:_Times-Bold Times-Bold
[
]/_Times-Bold/Times-Bold Z
%%EndEncoding
%%EndSetup
0.498 0.498 0.000 0.400 K
0 j
0 J
0.504 w
[]0 d
0.000 0.000 0.000 1.000 k
811.799 298.295 m
833.039 298.151 L
832.679 304.487 838.367 310.823 843.047 317.879 C
843.047 262.943 L
838.871 252.359 816.263 251.927 811.799 262.943 C
811.799 298.295 L
b
0.000 0.000 0.000 0.000 K
0 j
0 J
0.504 w
[]0 d
0.000 0.000 0.000 1.000 k
623.159 317.231 m
626.687 311.111 631.439 304.775 632.375 298.151 C
654.407 298.223 L
654.407 262.871 L
650.231 252.431 627.623 251.927 623.159 262.871 C
623.159 317.231 L
b
0.000 0.000 0.000 0.000 K
0 j
0 J
0.504 w
[]0 d
0.000 0.000 0.000 1.000 k
625.679 597.959 m
627.263 593.207 629.063 588.455 629.423 583.199 C
629.855 581.111 631.799 580.679 633.024 579.671 C
656.927 579.743 L
656.927 548.207 L
652.679 537.695 630.144 537.264 625.679 548.207 C
625.679 597.959 L
b
0.000 0.000 0.000 0.000 K
0 j
0 J
0.504 w
[]0 d
0.000 0.000 0.000 1.000 k
845.567 598.391 m
843.983 593.855 842.831 587.879 841.535 582.551 C
840.743 580.679 839.879 580.247 837.431 579.671 C
813.959 579.743 L
813.959 548.207 L
818.135 537.695 841.103 538.631 845.567 549.575 C
845.567 598.391 L
b
0.000 0.000 0.000 1.000 K
0 j
0 J
0.863 w
[]0 d
0.000 0.000 0.000 0.000 k
433.079 742.463 m
387.215 743.975 348.335 744.191 296.639 742.463 C
288.935 741.959 282.383 740.303 272.951 739.583 C
268.704 739.007 262.943 738.215 259.560 736.343 C
233.063 721.511 204.551 700.631 181.223 680.759 C
176.471 675.503 170.495 673.631 166.895 673.343 C
125.927 669.671 92.663 666.000 51.983 657.791 C
41.327 655.343 36.000 654.695 33.839 650.951 c
28.439 641.591 29.375 627.983 30.959 615.527 C
81.287 615.455 L
92.879 626.255 115.199 633.096 135.215 625.967 C
151.487 619.631 165.455 602.063 168.263 576.863 C
401.975 576.863 L
409.535 576.863 412.703 581.183 413.927 586.799 C
416.879 601.919 427.103 616.967 441.431 624.959 C
448.919 628.415 456.263 630.359 464.615 630.359 c
541.871 630.359 L
542.951 634.751 L
545.471 646.487 545.111 658.871 542.303 672.551 C
541.655 674.639 541.871 677.303 540.360 678.671 c
500.327 712.511 474.119 730.151 454.823 737.783 C
446.687 741.671 441.863 742.175 433.079 742.463 c
b
0.000 0.000 0.000 1.000 K
0 j
0 J
0.863 w
[]0 d
0.000 0.000 0.000 0.000 k
142.991 455.831 m
188.855 457.415 227.663 457.559 279.359 455.831 C
287.063 455.327 293.615 453.671 303.048 453.023 C
307.367 452.375 313.055 451.583 316.439 449.711 C
342.935 434.951 371.447 413.999 394.775 394.199 C
399.527 388.871 405.503 386.999 409.103 386.711 C
450.143 383.039 483.407 379.367 524.015 371.159 C
534.671 368.711 540.072 368.063 542.159 364.319 c
547.559 354.959 546.623 341.423 545.039 328.895 C
494.711 328.823 L
483.191 339.623 460.871 346.463 440.855 339.335 C
424.583 333.000 410.543 315.431 407.735 290.231 C
174.024 290.231 L
166.463 290.231 163.295 294.551 162.071 300.167 C
159.119 315.287 148.967 330.335 134.567 338.327 C
127.151 341.783 119.735 343.727 111.455 343.727 c
34.128 343.727 L
33.119 348.119 L
30.599 359.855 30.887 372.239 33.768 385.919 C
34.343 388.007 34.128 390.743 35.711 392.039 c
75.671 425.879 101.951 443.591 121.247 451.151 C
129.311 455.039 134.207 455.615 142.991 455.831 c
b
0.000 0.000 0.000 1.000 K
0 j
0 J
0.215 w
[]0 d
0.000 0.000 0.000 0.498 k
441.215 733.031 m
402.263 733.031 408.167 733.031 369.287 733.031 c
367.703 733.031 365.831 729.647 365.831 729.647 c
366.263 720.000 366.839 710.567 367.199 701.135 c
367.631 691.775 368.207 682.271 368.567 672.767 c
368.567 672.623 371.951 669.527 371.951 669.527 c
412.847 670.031 448.847 671.039 489.023 671.903 C
500.255 672.407 504.791 681.120 496.583 689.327 C
480.671 704.159 460.151 721.367 447.191 729.575 c
445.895 730.367 444.455 733.031 441.215 733.031 c
b
0.000 0.000 0.000 1.000 K
0 j
0 J
0.215 w
[]0 d
0.000 0.000 0.000 0.498 k
134.855 446.399 m
173.735 446.399 167.831 446.399 206.711 446.399 c
208.367 446.399 210.167 443.015 210.167 443.015 c
209.735 433.367 209.231 423.935 208.799 414.503 c
208.439 405.143 207.791 395.639 207.503 386.207 c
207.503 385.991 204.119 382.895 204.119 382.895 c
163.151 383.399 127.151 384.479 87.047 385.343 C
75.815 385.775 71.207 394.487 79.487 402.767 C
95.327 417.527 115.919 434.735 128.879 442.943 c
130.175 443.735 131.543 446.399 134.855 446.399 c
b
0.000 0.000 0.000 1.000 K
0 j
0 J
0.215 w
[]0 d
0.000 0.000 0.000 0.200 k
439.991 731.303 m
402.767 731.303 408.887 731.303 371.663 731.303 c
369.719 731.303 368.207 729.503 368.279 727.847 c
368.639 718.919 369.215 709.991 369.575 701.279 c
370.007 692.495 370.655 683.639 371.015 674.783 c
371.087 672.983 372.671 671.399 374.183 671.399 c
413.855 672.048 447.839 673.127 486.215 673.991 C
496.439 674.927 500.903 681.263 493.343 688.463 C
476.855 704.375 456.983 720.935 446.039 727.847 c
443.375 729.575 443.375 731.303 439.991 731.303 c
b
0.000 0.000 0.000 1.000 K
0 j
0 J
0.215 w
[]0 d
0.000 0.000 0.000 0.498 k
340.199 733.535 m
278.495 730.799 l
272.159 730.511 270.431 730.151 266.903 727.271 c
198.575 672.551 l
192.527 667.655 196.703 666.144 198.575 666.144 c
340.199 668.807 l
342.071 668.807 343.727 670.463 343.727 672.335 c
343.727 730.007 l
343.727 731.951 341.855 733.607 340.199 733.535 c
b
0.000 0.000 0.000 1.000 K
0 j
0 J
0.215 w
[]0 d
0.000 0.000 0.000 0.498 k
235.799 446.903 m
297.503 444.167 l
303.839 443.951 305.567 443.519 309.096 440.639 c
377.495 385.919 l
383.543 381.023 379.295 379.511 377.495 379.511 c
235.799 382.175 l
233.999 382.175 232.271 383.831 232.271 385.703 c
232.271 443.375 l
232.271 445.319 234.143 446.975 235.799 446.903 c
b
0.000 0.000 0.000 1.000 K
0 j
0 J
0.215 w
[]0 d
0.000 0.000 0.000 0.200 k
338.255 731.447 m
279.647 728.711 l
273.815 728.495 273.168 729.287 268.055 725.255 c
213.551 682.055 L
213.479 668.159 L
338.255 670.463 l
339.983 670.463 341.783 672.120 341.783 673.991 c
341.783 727.919 l
341.783 729.791 339.551 731.447 338.255 731.447 c
b
0.000 0.000 0.000 1.000 K
0 j
0 J
0.215 w
[]0 d
352.151 737.567 m
325.151 737.855 298.151 736.703 271.079 734.111 C
266.903 733.823 262.656 732.383 259.199 729.647 c
196.127 678.024 L
187.847 667.295 186.623 652.895 186.767 637.271 c
186.911 619.127 187.343 597.815 193.895 583.199 C
347.903 583.271 L
356.039 603.575 356.903 641.303 352.151 670.967 C
352.151 737.567 L
s
0.000 0.000 0.000 1.000 K
0 j
0 J
0.215 w
[]0 d
223.847 450.935 m
250.847 451.223 277.919 450.071 304.919 447.551 C
309.096 447.191 313.415 445.751 316.799 443.015 c
379.871 391.463 L
388.151 380.663 389.375 366.335 389.231 350.711 c
389.087 332.567 388.655 311.183 382.103 296.567 C
228.095 296.639 L
220.031 317.015 219.095 354.671 223.847 384.335 C
223.847 450.935 L
s
0.000 0.000 0.000 1.000 K
0 j
0 J
0.215 w
[]0 d
0.000 0.000 0.000 0.298 k
536.399 666.503 m
536.399 670.319 538.487 672.048 542.303 672.407 C
544.895 659.735 545.687 649.871 543.527 637.703 C
536.327 637.703 L
537.695 650.519 537.408 653.975 536.399 666.503 C
b
0.000 0.000 0.000 1.000 K
0 j
0 J
0.215 w
[]0 d
0.000 0.000 0.000 0.298 k
39.599 379.871 m
39.599 383.759 37.583 385.487 33.695 385.775 C
31.103 373.175 30.383 363.239 32.543 351.071 C
39.671 351.071 L
38.375 363.887 38.663 367.343 39.599 379.871 C
b
0.000 0.000 0.000 1.000 K
0 j
0 J
1.008 w
[]0 d
0.000 0.000 0.000 0.498 k
551.447 622.727 m
551.807 625.751 549.431 626.687 547.559 626.183 C
544.391 626.183 L
541.295 626.687 542.231 629.495 542.015 630.287 C
465.695 630.287 L
495.791 629.855 508.103 613.223 510.623 600.839 C
512.351 596.015 512.711 590.903 511.991 586.151 C
519.839 591.623 526.967 596.447 529.055 603.216 C
545.039 605.303 L
549.503 611.279 551.087 614.375 551.447 622.727 C
b
0.000 0.000 0.000 1.000 K
0 j
0 J
1.008 w
[]0 d
0.000 0.000 0.000 0.498 k
24.623 336.095 m
24.191 339.119 26.639 340.055 28.439 339.551 C
31.679 339.551 L
34.775 340.055 33.768 342.863 34.055 343.655 C
110.375 343.655 L
80.279 343.295 67.967 326.591 65.447 314.207 C
63.719 309.455 63.359 304.343 64.007 299.519 C
56.159 305.063 49.103 309.815 47.015 316.584 C
30.959 318.671 L
26.567 324.647 24.911 327.743 24.623 336.095 C
b
0.000 0.000 0.000 1.000 K
0 j
0 J
0.215 w
[]0 d
0.000 0.000 0.000 0.498 k
512.351 585.791 m
506.879 583.415 L
504.359 608.039 490.175 623.663 463.751 624.455 C
442.223 624.024 425.231 605.591 424.511 585.503 C
413.711 586.511 L
417.167 602.135 426.671 615.743 438.407 623.015 C
454.319 633.096 474.551 631.655 491.903 624.743 C
503.351 617.471 513.432 603.575 512.351 585.791 C
b
0.000 0.000 0.000 1.000 K
0 j
0 J
0.215 w
[]0 d
0.000 0.000 0.000 0.498 k
63.647 299.159 m
69.191 296.783 L
71.640 321.479 85.895 337.103 112.247 337.823 C
133.775 337.391 150.839 319.031 151.560 298.871 C
162.287 299.951 L
158.831 315.503 149.327 329.111 137.663 336.383 C
121.679 346.463 101.519 345.024 84.167 338.111 C
72.719 330.839 62.639 316.943 63.647 299.159 C
b
0.000 0.000 0.000 1.000 K
0 j
0 J
0.215 w
[]0 d
0.000 0.000 0.000 0.498 k
168.623 577.799 m
157.895 578.807 L
160.271 606.599 137.735 624.168 116.351 624.455 C
94.463 623.807 74.087 606.671 75.384 579.455 C
67.751 580.895 L
69.335 594.000 74.591 606.527 81.431 615.383 C
94.463 626.759 116.567 633.527 137.447 625.103 C
156.239 616.031 164.231 599.255 168.623 577.799 C
b
0.000 0.000 0.000 1.000 K
0 j
0 J
0.215 w
[]0 d
0.000 0.000 0.000 0.498 k
407.447 291.168 m
418.247 292.175 L
415.871 319.967 438.407 337.536 459.791 337.823 C
481.679 337.175 502.055 320.039 500.759 292.823 C
508.391 294.263 L
506.807 307.439 501.551 319.895 494.711 328.751 C
481.679 340.199 459.575 346.895 438.695 338.543 C
419.903 329.399 411.839 312.695 407.447 291.168 C
b
0.000 0.000 0.000 1.000 K
0 j
0 J
0.215 w
[]0 d
0.000 0.000 0.000 0.498 k
83.231 616.967 m
30.743 617.183 L
30.959 615.455 L
29.087 615.455 L
25.487 615.455 24.335 614.231 24.767 609.479 C
26.711 602.135 29.087 600.192 36.863 597.671 C
45.575 596.519 L
47.015 594.216 49.175 592.847 51.623 591.911 C
54.071 589.967 50.615 585.503 51.623 583.199 C
51.767 581.615 52.631 580.895 54.359 580.823 C
67.679 580.823 L
68.759 591.623 74.447 608.255 83.231 616.967 C
b
0.000 0.000 0.000 1.000 K
0 j
0 J
0.215 w
[]0 d
0.000 0.000 0.000 0.498 k
492.911 330.335 m
545.399 330.551 L
545.183 328.823 L
547.055 328.823 L
550.655 328.823 551.807 327.671 551.375 322.847 C
549.360 315.575 547.055 313.560 539.279 311.039 C
530.567 309.887 L
529.127 307.584 526.967 306.215 524.519 305.279 C
522.072 303.407 525.527 298.871 524.519 296.567 C
524.375 294.983 523.439 294.263 521.783 294.191 C
508.463 294.191 L
507.383 304.991 501.695 321.623 492.911 330.335 C
b
0.000 0.000 0.000 1.000 K
0 j
0 J
0.215 w
[]0 d
337.175 655.631 m
323.783 655.631 l
322.560 655.631 321.695 654.767 321.695 653.615 c
321.695 646.415 l
321.695 645.192 322.560 644.327 323.783 644.327 c
337.175 644.327 l
338.399 644.327 339.263 645.192 339.263 646.415 c
339.263 653.615 l
339.263 654.767 338.399 655.631 337.175 655.631 c
s
0.000 0.000 0.000 1.000 K
0 j
0 J
0.215 w
[]0 d
238.823 369.071 m
252.215 369.071 l
253.439 369.071 254.303 368.207 254.303 366.983 c
254.303 359.783 l
254.303 358.631 253.439 357.767 252.215 357.767 c
238.823 357.767 l
237.599 357.767 236.735 358.631 236.735 359.783 c
236.735 366.983 l
236.735 368.207 237.599 369.071 238.823 369.071 c
s
0.000 0.000 0.000 1.000 K
0 j
0 J
0.215 w
[]0 d
0.000 0.000 0.000 0.498 k
344.807 652.031 m
316.367 651.455 L
314.783 651.455 312.551 648.431 316.584 648.359 c
344.735 647.855 L
347.399 647.855 350.855 652.103 344.807 652.031 c
b
0.000 0.000 0.000 1.000 K
0 j
0 J
0.215 w
[]0 d
0.000 0.000 0.000 0.498 k
231.191 365.399 m
259.632 364.895 L
261.216 364.895 263.447 361.799 259.415 361.727 c
231.263 361.223 L
228.599 361.223 225.143 365.471 231.191 365.399 c
b
0.000 0.000 0.000 1.000 K
0 j
0 J
0.215 w
[]0 d
0.000 0.000 0.000 0.498 k
259.055 731.159 m
261.216 732.815 262.007 735.479 259.704 736.487 C
236.735 724.175 197.855 695.375 176.615 677.087 C
180.143 672.263 186.911 672.479 191.159 676.151 C
214.055 696.455 235.799 712.871 259.055 731.159 c
b
0.000 0.000 0.000 1.000 K
0 j
0 J
0.215 w
[]0 d
0.000 0.000 0.000 0.498 k
316.943 444.527 m
314.783 446.183 313.991 448.847 316.367 449.855 C
339.263 437.543 378.143 408.743 399.383 390.455 C
395.855 385.631 389.087 385.919 384.839 389.519 C
361.943 409.823 340.199 426.239 316.943 444.527 c
b
0.000 0.000 0.000 1.000 K
0 j
0 J
0.504 w
[]0 d
0.000 0.000 0.000 1.000 k
465.623 540.575 m
442.871 540.575 424.367 559.151 424.367 581.903 c
424.367 604.583 442.871 623.159 465.623 623.159 c
488.375 623.159 506.879 604.583 506.879 581.903 c
506.879 559.151 488.375 540.575 465.623 540.575 c
b
0.000 0.000 0.000 1.000 K
0 j
0 J
0.504 w
[]0 d
0.000 0.000 0.000 1.000 k
110.447 253.943 m
133.199 253.943 151.703 272.519 151.703 295.271 c
151.703 318.024 133.199 336.527 110.447 336.527 c
87.695 336.527 69.191 318.024 69.191 295.271 c
69.191 272.519 87.695 253.943 110.447 253.943 c
b
0.000 0.000 0.000 1.000 K
0 j
0 J
0.504 w
[]0 d
0.000 0.000 0.000 1.000 k
116.711 541.871 m
93.959 541.871 75.455 560.375 75.455 583.127 c
75.455 605.879 93.959 624.383 116.711 624.383 c
139.463 624.383 157.967 605.879 157.967 583.127 c
157.967 560.375 139.463 541.871 116.711 541.871 c
b
0.000 0.000 0.000 1.000 K
0 j
0 J
0.504 w
[]0 d
0.000 0.000 0.000 1.000 k
459.431 255.239 m
482.183 255.239 500.687 273.815 500.687 296.495 c
500.687 319.247 482.183 337.823 459.431 337.823 c
436.679 337.823 418.103 319.247 418.103 296.495 c
418.103 273.815 436.679 255.239 459.431 255.239 c
b
0.000 0.000 0.000 1.000 K
0 j
0 J
0.215 w
[]0 d
0.000 0.000 0.000 0.000 k
343.079 648.503 m
342.359 648.503 341.711 649.151 341.711 649.943 c
341.711 650.663 342.359 651.311 343.079 651.311 c
343.871 651.311 344.519 650.663 344.519 649.943 c
344.519 649.151 343.871 648.503 343.079 648.503 c
b
0.000 0.000 0.000 1.000 K
0 j
0 J
0.215 w
[]0 d
0.000 0.000 0.000 0.000 k
232.919 361.871 m
233.639 361.871 234.287 362.519 234.287 363.311 c
234.287 364.031 233.639 364.679 232.919 364.679 c
232.127 364.679 231.479 364.031 231.479 363.311 c
231.479 362.519 232.127 361.871 232.919 361.871 c
b
u
u
0.000 0.000 0.000 1.000 K
0 j
0 J
0.504 w
[]0 d
343.223 650.807 m
343.223 648.935 L
S
U
U
u
u
0.000 0.000 0.000 1.000 K
0 j
0 J
0.504 w
[]0 d
232.775 364.175 m
232.775 362.303 L
S
U
U
u
u
0.000 0.000 0.000 1.000 K
0 j
0 J
0.215 w
[]0 d
544.463 658.223 m
537.192 658.223 L
S
U
U
u
u
0.000 0.000 0.000 1.000 K
0 j
0 J
0.215 w
[]0 d
31.607 371.591 m
38.807 371.591 L
S
U
U
0.000 0.000 0.000 1.000 K
0 j
0 J
0.215 w
[]0 d
0.000 0.000 0.000 0.098 k
41.183 643.031 m
31.751 644.615 L
29.231 638.495 29.231 628.055 30.815 619.631 C
40.175 620.495 L
43.128 620.495 44.711 621.791 44.927 624.311 C
44.927 639.216 L
44.927 641.807 43.703 642.239 41.183 643.031 C
b
0.000 0.000 0.000 1.000 K
0 j
0 J
0.215 w
[]0 d
0.000 0.000 0.000 0.098 k
534.959 356.471 m
544.319 357.983 L
546.839 351.863 546.839 341.423 545.327 333.072 C
535.967 333.863 L
533.015 333.863 531.432 335.159 531.216 337.679 C
531.216 352.583 L
531.216 355.175 532.439 355.679 534.959 356.471 C
b
0.000 0.000 0.000 1.000 K
0 j
0 J
0.215 w
[]0 d
0.000 0.000 0.000 0.098 k
41.903 643.751 m
31.967 645.335 L
29.303 638.855 29.303 627.767 30.887 618.839 C
40.895 619.703 L
44.064 619.703 45.647 621.072 45.935 623.807 C
45.935 639.647 L
45.935 642.383 44.639 642.887 41.903 643.751 C
b
0.000 0.000 0.000 1.000 K
0 j
0 J
0.215 w
[]0 d
0.000 0.000 0.000 0.098 k
534.240 357.119 m
544.175 358.703 L
546.839 352.223 546.839 341.135 545.255 332.207 C
535.247 333.072 L
532.079 333.072 530.423 334.512 530.207 337.175 C
530.207 353.015 L
530.207 355.751 531.503 356.255 534.240 357.119 C
b
u
u
0.000 0.000 0.000 1.000 K
0 j
0 J
0.215 w
[]0 d
352.367 737.567 m
400.175 738.935 413.279 739.799 456.767 736.991 C
S
U
U
u
u
0.000 0.000 0.000 1.000 K
0 j
0 J
0.215 w
[]0 d
223.631 450.935 m
175.823 452.375 162.719 453.239 119.303 450.359 C
S
U
U
u
u
0.000 0.000 0.000 1.000 K
0 j
0 J
0.215 w
[]0 d
435.527 742.319 m
453.095 739.799 522.719 696.959 534.815 673.199 C
538.415 659.879 534.959 641.375 534.455 630.359 C
S
U
U
u
u
0.000 0.000 0.000 1.000 K
0 j
0 J
0.215 w
[]0 d
140.543 455.687 m
122.903 453.167 53.351 410.327 41.256 386.567 C
37.655 373.247 41.111 354.743 41.543 343.727 C
S
U
U
u
u
0.000 0.000 0.000 1.000 K
0 j
0 J
0.504 w
[]0 d
488.015 626.111 m
544.751 626.111 L
S
U
U
u
u
0.000 0.000 0.000 1.000 K
0 j
0 J
0.504 w
[]0 d
88.055 339.551 m
31.247 339.551 L
S
U
U
u
u
0.000 0.000 0.000 1.000 K
0 j
0 J
1.008 w
[]0 d
494.135 623.447 m
551.735 623.447 L
551.159 621.287 L
497.447 621.287 L
S
U
U
u
u
0.000 0.000 0.000 1.000 K
0 j
0 J
1.008 w
[]0 d
81.935 336.815 m
24.263 336.815 L
24.911 334.655 L
78.623 334.655 L
S
U
U
u
u
0.000 0.000 0.000 1.000 K
0 j
0 J
1.008 w
[]0 d
510.335 600.767 m
528.911 603.216 L
S
U
U
u
u
0.000 0.000 0.000 1.000 K
0 j
0 J
1.008 w
[]0 d
65.735 314.135 m
47.159 316.655 L
S
U
U
0.000 0.000 0.000 1.000 K
0 j
0 J
0.215 w
[]0 d
0.000 0.000 0.000 0.098 k
451.295 561.959 m
462.095 554.183 477.431 556.487 485.351 567.216 C
493.343 577.943 490.967 593.279 480.383 601.343 C
469.511 609.264 454.175 606.959 446.255 596.087 C
438.191 585.359 440.567 570.024 451.295 561.959 C
b
0.000 0.000 0.000 1.000 K
0 j
0 J
0.215 w
[]0 d
0.000 0.000 0.000 0.098 k
124.919 275.543 m
114.119 267.695 98.783 270.072 90.863 280.799 C
82.943 291.527 85.247 306.863 95.831 314.855 C
106.703 322.847 122.039 320.471 129.959 309.671 C
138.024 298.943 135.647 283.608 124.919 275.543 C
b
0.000 0.000 0.000 1.000 K
0 j
0 J
0.215 w
[]0 d
0.000 0.000 0.000 0.098 k
95.759 566.423 m
104.255 556.127 119.663 554.327 130.103 562.679 C
140.543 570.959 142.271 586.439 134.063 596.951 C
125.639 607.391 110.231 609.120 99.791 600.695 C
89.207 592.415 87.479 577.007 95.759 566.423 C
b
0.000 0.000 0.000 1.000 K
0 j
0 J
0.215 w
[]0 d
0.000 0.000 0.000 0.098 k
480.311 279.935 m
471.887 269.567 456.479 267.839 446.039 276.120 C
435.599 284.471 433.871 299.879 442.079 310.391 C
450.503 320.831 465.911 322.560 476.351 314.207 C
486.863 305.927 488.663 290.447 480.311 279.935 C
b
0.000 0.000 0.000 1.000 k
453.887 565.559 m
462.743 559.079 475.271 561.024 481.895 569.807 C
488.375 578.591 486.431 591.192 477.719 597.743 C
468.863 604.223 456.407 602.279 449.711 593.495 C
443.231 584.711 445.175 572.111 453.887 565.559 C
f
0.000 0.000 0.000 1.000 k
122.327 279.144 m
113.471 272.663 101.015 274.608 94.319 283.391 C
87.839 292.175 89.783 304.775 98.495 311.327 C
107.351 317.807 119.807 315.863 126.503 307.079 C
132.983 298.295 131.039 285.695 122.327 279.144 C
f
0.000 0.000 0.000 1.000 k
99.215 569.231 m
106.127 560.663 118.655 559.295 127.439 566.063 C
135.935 572.903 137.304 585.575 130.608 594.144 C
123.695 602.711 111.167 604.079 102.455 597.311 C
93.887 590.471 92.519 577.799 99.215 569.231 C
f
0.000 0.000 0.000 1.000 k
476.927 282.743 m
470.015 274.175 457.415 272.807 448.703 279.575 C
440.207 286.415 438.839 299.015 445.535 307.584 C
452.447 316.151 464.975 317.519 473.687 310.751 C
482.183 303.911 483.623 291.311 476.927 282.743 C
f
0.000 0.000 0.000 1.000 K
0 j
0 J
0.215 w
[]0 d
0.000 0.000 0.000 0.098 k
455.255 567.431 m
463.031 561.599 474.191 563.255 480.095 571.103 C
485.855 578.879 484.199 590.039 476.423 595.943 C
468.575 601.703 457.487 599.975 451.583 592.127 C
445.751 584.351 447.407 573.192 455.255 567.431 C
b
0.000 0.000 0.000 1.000 K
0 j
0 J
0.215 w
[]0 d
0.000 0.000 0.000 0.098 k
120.959 280.943 m
113.183 275.183 102.023 276.839 96.119 284.615 C
90.359 292.463 92.015 303.551 99.791 309.455 C
107.639 315.287 118.799 313.560 124.631 305.711 C
130.463 297.863 128.807 286.775 120.959 280.943 C
b
0.000 0.000 0.000 1.000 K
0 j
0 J
0.215 w
[]0 d
0.000 0.000 0.000 0.098 k
101.015 570.671 m
107.063 563.039 118.223 561.743 125.927 567.791 C
133.560 573.839 134.855 585.000 128.807 592.703 C
122.759 600.335 111.599 601.559 103.895 595.511 C
96.263 589.463 94.967 578.303 101.015 570.671 C
b
0.000 0.000 0.000 1.000 K
0 j
0 J
0.215 w
[]0 d
0.000 0.000 0.000 0.098 k
475.127 284.111 m
469.079 276.479 457.919 275.183 450.143 281.231 C
442.583 287.279 441.287 298.439 447.263 306.215 C
453.383 313.847 464.543 315.000 472.247 308.951 C
479.879 302.903 481.175 291.743 475.127 284.111 C
b
0.000 0.000 0.000 1.000 K
0 j
0 J
0.215 w
[]0 d
0.000 0.000 0.000 1.000 k
452.591 587.519 m
452.015 586.079 L
457.199 581.687 L
459.215 587.303 L
452.591 587.519 L
b
0.000 0.000 0.000 1.000 K
0 j
0 J
0.215 w
[]0 d
0.000 0.000 0.000 1.000 k
123.623 301.103 m
124.199 299.591 L
119.087 295.271 L
116.999 300.887 L
123.623 301.103 L
b
0.000 0.000 0.000 1.000 K
0 j
0 J
0.215 w
[]0 d
0.000 0.000 0.000 1.000 k
103.679 590.759 m
102.743 589.463 L
106.559 583.991 L
110.015 588.887 L
103.679 590.759 L
b
0.000 0.000 0.000 1.000 K
0 j
0 J
0.215 w
[]0 d
0.000 0.000 0.000 1.000 k
472.463 304.199 m
473.399 302.975 L
469.511 297.431 L
466.127 302.327 L
472.463 304.199 L
b
0.000 0.000 0.000 1.000 K
0 j
0 J
0.215 w
[]0 d
0.000 0.000 0.000 1.000 k
456.119 570.599 m
457.271 569.735 L
462.959 573.479 L
458.207 577.007 L
456.119 570.599 L
b
0.000 0.000 0.000 1.000 K
0 j
0 J
0.215 w
[]0 d
0.000 0.000 0.000 1.000 k
120.095 284.183 m
118.943 283.319 L
113.255 287.063 L
118.007 290.519 L
120.095 284.183 L
b
0.000 0.000 0.000 1.000 K
0 j
0 J
0.215 w
[]0 d
0.000 0.000 0.000 1.000 k
102.671 573.479 m
103.607 572.399 L
110.087 574.559 L
106.415 579.096 L
102.671 573.479 L
b
0.000 0.000 0.000 1.000 K
0 j
0 J
0.215 w
[]0 d
0.000 0.000 0.000 1.000 k
473.471 286.991 m
472.535 285.839 L
466.055 288.000 L
469.727 292.608 L
473.471 286.991 L
b
0.000 0.000 0.000 1.000 K
0 j
0 J
0.215 w
[]0 d
0.000 0.000 0.000 1.000 k
473.471 569.159 m
474.623 570.024 L
472.895 576.575 L
468.215 573.120 L
473.471 569.159 L
b
0.000 0.000 0.000 1.000 K
0 j
0 J
0.215 w
[]0 d
0.000 0.000 0.000 1.000 k
102.743 282.743 m
101.591 283.608 L
103.319 290.159 L
108.071 286.703 L
102.743 282.743 L
b
0.000 0.000 0.000 1.000 K
0 j
0 J
0.215 w
[]0 d
0.000 0.000 0.000 1.000 k
119.087 567.647 m
120.455 568.151 L
120.455 574.919 L
114.983 572.831 L
119.087 567.647 L
b
0.000 0.000 0.000 1.000 K
0 j
0 J
0.215 w
[]0 d
0.000 0.000 0.000 1.000 k
457.055 281.087 m
455.687 281.591 L
455.687 288.431 L
461.159 286.271 L
457.055 281.087 L
b
0.000 0.000 0.000 1.000 K
0 j
0 J
0.215 w
[]0 d
0.000 0.000 0.000 1.000 k
480.095 585.288 m
479.591 586.655 L
472.823 586.799 L
474.623 581.327 L
480.095 585.288 L
b
0.000 0.000 0.000 1.000 K
0 j
0 J
0.215 w
[]0 d
0.000 0.000 0.000 1.000 k
96.119 298.871 m
96.623 300.167 L
103.391 300.383 L
101.591 294.911 L
96.119 298.871 L
b
0.000 0.000 0.000 1.000 K
0 j
0 J
0.215 w
[]0 d
0.000 0.000 0.000 1.000 k
129.599 581.471 m
129.527 582.911 L
123.047 584.855 L
123.407 579.096 L
129.599 581.471 L
b
0.000 0.000 0.000 1.000 K
0 j
0 J
0.215 w
[]0 d
0.000 0.000 0.000 1.000 k
446.471 294.983 m
446.615 296.423 L
453.095 298.367 L
452.735 292.536 L
446.471 294.983 L
b
0.000 0.000 0.000 1.000 K
0 j
0 J
0.215 w
[]0 d
0.000 0.000 0.000 1.000 k
467.135 596.303 m
465.695 596.303 L
463.175 589.895 L
469.079 589.895 L
467.135 596.303 L
b
0.000 0.000 0.000 1.000 K
0 j
0 J
0.215 w
[]0 d
0.000 0.000 0.000 1.000 k
109.079 309.887 m
110.519 309.887 L
113.039 303.479 L
107.135 303.479 L
109.079 309.887 L
b
0.000 0.000 0.000 1.000 K
0 j
0 J
0.215 w
[]0 d
0.000 0.000 0.000 1.000 k
119.951 595.511 m
118.583 595.871 L
114.479 590.327 L
120.167 588.815 L
119.951 595.511 L
b
0.000 0.000 0.000 1.000 K
0 j
0 J
0.215 w
[]0 d
0.000 0.000 0.000 1.000 k
456.191 308.951 m
457.559 309.311 L
461.663 303.839 L
455.975 302.327 L
456.191 308.951 L
b
0.000 0.000 0.000 1.000 K
0 j
0 J
0.215 w
[]0 d
0.000 0.000 0.000 1.000 k
464.903 597.168 m
459.647 597.096 455.111 594.431 452.159 589.319 C
461.519 588.743 L
464.903 597.168 L
b
0.000 0.000 0.000 1.000 K
0 j
0 J
0.215 w
[]0 d
0.000 0.000 0.000 1.000 k
111.311 310.751 m
116.567 310.608 121.103 308.015 124.055 302.903 C
114.695 302.327 L
111.311 310.751 L
b
0.000 0.000 0.000 1.000 K
0 j
0 J
0.215 w
[]0 d
0.000 0.000 0.000 1.000 k
118.079 596.879 m
112.967 598.175 107.927 596.807 103.679 592.631 C
112.607 589.679 L
118.079 596.879 L
b
0.000 0.000 0.000 1.000 K
0 j
0 J
0.215 w
[]0 d
0.000 0.000 0.000 1.000 k
458.063 310.391 m
463.175 311.615 468.215 310.319 472.391 306.143 C
463.535 303.120 L
458.063 310.391 L
b
0.000 0.000 0.000 1.000 K
0 j
0 J
0.215 w
[]0 d
0.000 0.000 0.000 1.000 k
450.503 585.216 m
449.135 580.247 450.215 575.135 454.247 570.815 C
457.631 579.599 L
450.503 585.216 L
b
0.000 0.000 0.000 1.000 K
0 j
0 J
0.215 w
[]0 d
0.000 0.000 0.000 1.000 k
125.711 298.727 m
127.079 293.831 125.999 288.719 121.967 284.327 C
118.583 293.111 L
125.711 298.727 L
b
0.000 0.000 0.000 1.000 K
0 j
0 J
0.215 w
[]0 d
0.000 0.000 0.000 1.000 k
101.015 589.031 m
98.495 584.639 98.135 579.455 100.943 574.199 C
106.487 581.759 L
101.015 589.031 L
b
0.000 0.000 0.000 1.000 K
0 j
0 J
0.215 w
[]0 d
0.000 0.000 0.000 1.000 k
475.055 302.543 m
477.647 298.151 477.935 292.895 475.199 287.639 C
469.655 295.271 L
475.055 302.543 L
b
0.000 0.000 0.000 1.000 K
0 j
0 J
0.215 w
[]0 d
0.000 0.000 0.000 1.000 k
457.919 568.079 m
462.167 565.343 467.495 564.911 472.823 567.431 C
465.479 573.192 L
457.919 568.079 L
b
0.000 0.000 0.000 1.000 K
0 j
0 J
0.215 w
[]0 d
0.000 0.000 0.000 1.000 k
118.295 281.663 m
114.047 278.927 108.719 278.423 103.391 280.943 C
110.735 286.775 L
118.295 281.663 L
b
0.000 0.000 0.000 1.000 K
0 j
0 J
0.215 w
[]0 d
0.000 0.000 0.000 1.000 k
103.823 570.599 m
107.207 566.927 112.247 565.055 118.007 566.135 C
112.391 573.623 L
103.823 570.599 L
b
0.000 0.000 0.000 1.000 K
0 j
0 J
0.215 w
[]0 d
0.000 0.000 0.000 1.000 k
472.319 284.111 m
468.935 280.367 463.895 278.495 458.135 279.575 C
463.751 287.063 L
472.319 284.111 L
b
0.000 0.000 0.000 1.000 K
0 j
0 J
0.215 w
[]0 d
0.000 0.000 0.000 1.000 k
476.495 570.096 m
480.455 573.479 482.327 578.303 481.535 584.207 C
473.759 578.807 L
476.495 570.096 L
b
0.000 0.000 0.000 1.000 K
0 j
0 J
0.215 w
[]0 d
0.000 0.000 0.000 1.000 k
99.719 283.680 m
95.759 287.063 93.959 291.887 94.679 297.791 C
102.455 292.391 L
99.719 283.680 L
b
0.000 0.000 0.000 1.000 K
0 j
0 J
0.215 w
[]0 d
0.000 0.000 0.000 1.000 k
122.255 567.791 m
126.935 570.024 129.959 574.199 130.751 580.103 C
121.895 576.863 L
122.255 567.791 L
b
0.000 0.000 0.000 1.000 K
0 j
0 J
0.215 w
[]0 d
0.000 0.000 0.000 1.000 k
453.887 281.231 m
449.207 283.463 446.183 287.711 445.391 293.543 C
454.247 290.375 L
453.887 281.231 L
b
0.000 0.000 0.000 1.000 K
0 j
0 J
0.215 w
[]0 d
0.000 0.000 0.000 1.000 k
479.879 588.599 m
477.863 593.279 473.903 596.591 467.999 597.383 C
470.807 588.455 L
479.879 588.599 L
b
0.000 0.000 0.000 1.000 K
0 j
0 J
0.215 w
[]0 d
0.000 0.000 0.000 1.000 k
96.335 302.111 m
98.351 306.863 102.311 310.175 108.215 310.895 C
105.407 302.039 L
96.335 302.111 L
b
0.000 0.000 0.000 1.000 K
0 j
0 J
0.215 w
[]0 d
0.000 0.000 0.000 1.000 k
130.319 584.711 m
129.527 589.823 126.575 594.000 121.103 596.303 C
121.463 587.015 L
130.319 584.711 L
b
0.000 0.000 0.000 1.000 K
0 j
0 J
0.215 w
[]0 d
0.000 0.000 0.000 1.000 k
445.823 298.223 m
446.543 303.263 449.567 307.512 455.039 309.743 C
454.607 300.455 L
445.823 298.223 L
b
u
u
0.000 0.000 0.000 1.000 K
0 j
0 J
0.215 w
[]0 d
344.087 582.983 m
397.151 582.983 L
406.583 582.983 410.255 585.935 411.911 591.407 C
413.639 598.535 415.223 602.423 419.111 608.615 c
430.703 626.687 439.343 636.911 462.527 636.767 C
541.511 636.767 L
S
U
U
u
u
0.000 0.000 0.000 1.000 K
0 j
0 J
0.215 w
[]0 d
231.911 296.351 m
178.847 296.351 L
169.415 296.351 165.743 299.303 164.087 304.847 C
162.359 311.903 160.775 315.791 156.887 321.983 c
145.295 340.055 136.655 350.279 113.543 350.135 C
34.487 350.135 L
S
U
U
u
u
0.000 0.000 0.000 1.000 K
0 j
0 J
0.215 w
[]0 d
544.535 646.199 m
537.048 646.199 L
136.151 636.551 L
S
0.000 0.000 0.000 1.000 K
0 j
0 J
0.215 w
[]0 d
96.839 636.263 m
45.935 634.535 L
S
U
U
u
u
0.000 0.000 0.000 1.000 K
0 j
0 J
0.215 w
[]0 d
31.535 359.639 m
39.023 359.639 L
439.919 349.919 L
S
0.000 0.000 0.000 1.000 K
0 j
0 J
0.215 w
[]0 d
479.231 349.631 m
530.135 347.903 L
S
U
U
u
u
0.000 0.000 0.000 1.000 K
0 j
0 J
0.215 w
[]0 d
194.831 583.271 m
178.631 583.271 L
173.735 583.271 171.503 585.791 170.495 588.815 C
163.151 616.823 149.039 640.727 116.639 639.647 C
97.343 640.151 79.775 629.423 76.319 616.823 C
S
U
U
u
u
0.000 0.000 0.000 1.000 K
0 j
0 J
0.215 w
[]0 d
381.311 296.639 m
397.511 296.639 L
402.335 296.639 404.639 299.159 405.575 302.255 C
412.919 330.191 427.103 354.167 459.503 353.015 C
478.727 353.519 496.367 342.791 499.823 330.191 C
S
U
U
u
u
0.000 0.000 0.000 1.000 K
0 j
0 J
0.215 w
[]0 d
496.007 689.903 m
512.927 676.439 510.479 670.103 499.463 669.887 C
189.503 664.415 L
139.463 662.975 95.975 660.024 47.087 652.463 C
37.655 652.463 37.655 648.144 36.576 643.823 C
34.775 636.263 33.551 626.399 34.415 617.183 C
S
U
U
u
u
0.000 0.000 0.000 1.000 K
0 j
0 J
0.215 w
[]0 d
79.991 403.271 m
63.143 389.807 65.519 383.471 76.535 383.255 C
386.495 377.855 L
436.607 376.343 480.023 373.463 528.983 365.831 C
538.415 365.831 538.415 361.512 539.495 357.191 C
541.295 349.631 542.447 339.839 541.655 330.551 C
S
U
U
u
u
0.000 0.000 0.000 1.000 K
0 j
0 J
0.215 w
[]0 d
78.335 610.847 m
24.767 610.847 L
S
U
U
u
u
0.000 0.000 0.000 1.000 K
0 j
0 J
0.215 w
[]0 d
497.807 324.215 m
551.375 324.215 L
S
U
U
u
u
0.000 0.000 0.000 1.000 K
0 j
0 J
0.215 w
[]0 d
77.039 609.407 m
24.767 609.407 L
S
U
U
u
u
0.000 0.000 0.000 1.000 K
0 j
0 J
0.215 w
[]0 d
499.103 322.775 m
551.375 322.775 L
S
U
U
u
u
0.000 0.000 0.000 1.000 K
0 j
0 J
1.008 w
[]0 d
44.567 596.807 m
53.279 595.007 62.279 595.295 70.775 595.583 C
S
U
U
u
u
0.000 0.000 0.000 1.000 K
0 j
0 J
1.008 w
[]0 d
531.575 310.247 m
522.791 308.447 513.863 308.663 505.367 308.951 C
S
U
U
0.000 0.000 0.000 1.000 K
0 j
0 J
0.215 w
[]0 d
160.631 348.119 m
175.607 348.119 l
177.335 348.119 178.775 346.751 178.775 345.024 c
178.775 332.855 l
178.775 331.127 177.335 329.687 175.607 329.687 c
160.631 329.687 l
158.903 329.687 157.536 331.127 157.536 332.855 c
157.536 345.024 l
157.536 346.751 158.903 348.119 160.631 348.119 c
s
0.000 0.000 0.000 1.000 K
0 j
0 J
0.215 w
[]0 d
0.000 0.000 0.000 0.098 k
183.455 635.183 m
178.703 635.183 l
178.271 635.183 177.983 634.895 177.983 634.535 c
177.983 632.807 l
177.983 632.375 178.271 632.087 178.703 632.087 c
183.455 632.087 l
183.887 632.087 184.103 632.375 184.103 632.807 c
184.103 634.535 l
184.103 634.895 183.887 635.183 183.455 635.183 c
b
0.000 0.000 0.000 1.000 K
0 j
0 J
0.215 w
[]0 d
0.000 0.000 0.000 0.098 k
392.615 348.551 m
397.439 348.551 l
397.799 348.551 398.087 348.263 398.087 347.903 c
398.087 346.175 l
398.087 345.743 397.799 345.527 397.439 345.527 c
392.615 345.527 l
392.255 345.527 391.967 345.743 391.967 346.175 c
391.967 347.903 l
391.967 348.263 392.255 348.551 392.615 348.551 c
b
0.000 0.000 0.000 1.000 K
0 j
0 J
0.863 w
[]0 d
843.767 344.015 m
842.903 357.911 842.471 371.735 839.087 385.631 C
834.839 407.375 829.583 428.687 820.583 446.471 C
818.927 449.351 813.023 453.815 808.559 454.175 c
763.127 458.495 695.879 458.495 653.975 454.103 c
649.871 453.743 647.927 449.423 646.559 446.471 c
638.567 430.127 631.943 407.447 626.759 386.063 c
623.447 372.311 623.015 357.767 622.151 344.015 C
843.767 344.015 L
s
0.000 0.000 0.000 1.000 K
0 j
0 J
0.863 w
[]0 d
847.007 614.663 m
847.079 619.991 847.727 626.975 849.239 631.295 C
849.167 633.168 846.863 634.175 846.647 636.192 c
845.351 648.647 842.543 662.831 840.527 670.895 C
836.279 692.639 829.223 713.951 820.223 731.735 C
818.567 734.615 812.663 739.079 808.199 739.439 c
762.767 743.759 695.519 743.759 653.615 739.367 c
649.511 739.007 647.567 734.687 646.199 731.735 c
638.207 715.391 631.439 692.639 626.399 671.327 c
625.031 665.279 625.535 648.791 624.455 636.263 c
624.383 634.679 622.943 632.807 621.935 631.583 C
623.447 626.903 624.024 621.359 623.951 614.879 C
847.007 614.663 L
s
0.000 0.000 0.000 1.000 K
0 j
0 J
0.215 w
[]0 d
0.000 0.000 0.000 0.298 k
632.231 385.631 m
626.903 385.631 L
623.663 374.183 623.375 363.815 622.583 351.359 C
643.319 351.359 L
643.247 380.231 642.168 385.415 632.231 385.631 C
b
0.000 0.000 0.000 1.000 K
0 j
0 J
0.215 w
[]0 d
0.000 0.000 0.000 0.298 k
833.759 385.631 m
839.087 385.631 L
841.895 372.887 842.615 364.535 843.407 351.359 C
822.743 351.359 L
822.815 380.231 823.823 385.415 833.759 385.631 C
b
0.000 0.000 0.000 1.000 K
0 j
0 J
0.215 w
[]0 d
0.000 0.000 0.000 0.498 k
820.655 397.079 m
806.111 397.079 791.279 396.575 776.879 396.503 c
762.623 396.503 748.079 396.215 733.751 396.215 c
718.919 396.215 704.231 396.215 690.048 396.215 c
675.575 396.215 660.671 396.935 646.487 397.079 c
642.815 397.079 638.711 400.175 639.575 403.055 c
640.439 405.935 641.735 409.103 642.671 411.983 c
643.679 415.007 644.615 418.103 645.551 421.127 c
646.559 424.151 647.567 427.103 648.431 430.127 c
649.439 433.151 650.519 436.247 651.383 439.271 c
652.319 442.295 657.791 445.535 660.959 445.679 c
672.983 445.967 685.511 446.687 697.463 446.831 c
709.271 446.975 721.367 447.407 733.751 447.407 c
745.343 447.407 757.943 446.975 769.823 446.831 c
781.703 446.543 794.159 445.823 806.327 445.535 c
809.495 445.535 814.967 442.295 815.975 439.271 c
816.911 436.247 817.919 433.223 818.927 430.199 c
819.791 427.175 821.015 424.151 821.879 421.271 c
822.815 418.319 823.895 415.295 824.831 412.343 c
825.839 409.391 826.991 406.151 828.071 403.199 c
829.079 400.319 824.615 397.079 820.655 397.079 c
b
0.000 0.000 0.000 1.000 K
0 j
0 J
0.215 w
[]0 d
0.000 0.000 0.000 0.498 k
826.415 673.343 m
795.311 673.415 764.279 673.631 733.175 673.559 c
702.143 673.487 670.967 673.343 639.863 673.343 c
636.120 673.343 631.943 677.519 632.735 680.687 c
633.671 684.503 634.967 688.751 636.048 692.351 c
637.127 696.096 638.423 700.271 639.647 704.087 c
640.871 707.831 642.311 711.863 643.463 715.751 c
644.471 719.495 646.343 723.887 647.711 727.631 c
648.935 731.231 655.271 735.551 658.727 735.623 c
670.895 735.911 683.855 737.135 696.024 737.207 c
708.048 737.207 720.503 738.575 733.175 738.575 c
745.055 738.575 757.871 737.423 769.751 737.351 c
781.991 737.207 794.879 735.767 807.335 735.623 c
810.503 735.623 816.767 731.231 818.279 727.343 c
819.719 723.671 821.231 719.711 822.527 715.823 c
823.895 712.151 825.767 708.191 826.919 704.519 c
828.215 700.559 829.439 696.455 830.663 692.639 c
831.887 688.895 833.111 684.791 834.407 681.120 c
835.487 677.735 830.591 673.343 826.415 673.343 c
b
0.000 0.000 0.000 1.000 K
0 j
0 J
1.008 w
[]0 d
0.000 0.000 0.000 0.498 k
846.359 340.055 m
844.847 340.415 844.847 341.567 844.487 342.935 C
844.487 343.583 843.839 344.015 843.119 344.015 C
623.447 344.015 L
622.655 344.015 622.151 343.727 621.863 343.079 C
621.072 341.063 621.072 340.055 619.199 340.055 C
618.192 339.695 616.967 338.975 616.823 337.679 C
615.383 331.487 617.471 321.839 621.359 319.175 C
626.111 311.975 631.583 304.415 632.591 298.223 C
833.039 298.223 L
833.039 304.775 836.927 308.303 843.191 318.096 C
847.583 321.983 849.815 331.271 848.375 337.823 c
848.159 338.687 847.799 339.767 846.359 340.055 C
b
0.000 0.000 0.000 1.000 K
0 j
0 J
1.008 w
[]0 d
0.000 0.000 0.000 0.498 k
846.719 614.807 m
622.871 614.807 L
620.711 606.383 629.135 592.343 628.919 584.567 C
629.927 581.687 630.287 581.327 632.159 579.743 C
837.287 579.743 L
843.623 579.312 841.967 592.991 845.495 597.455 C
845.999 598.391 851.615 614.591 846.719 614.807 C
b
u
u
0.000 0.000 0.000 1.000 K
0 j
0 J
0.504 w
[]0 d
839.231 385.559 m
626.687 385.559 L
S
U
U
u
u
0.000 0.000 0.000 1.000 K
0 j
0 J
0.215 w
[]0 d
619.271 340.127 m
846.287 340.127 L
S
U
U
u
u
0.000 0.000 0.000 1.000 K
0 j
0 J
0.215 w
[]0 d
622.583 612.647 m
848.591 612.647 L
S
U
U
u
u
0.000 0.000 0.000 1.000 K
0 j
0 J
0.215 w
[]0 d
616.535 337.031 m
848.447 337.103 L
S
U
U
u
u
0.000 0.000 0.000 1.000 K
0 j
0 J
1.008 w
[]0 d
616.319 335.015 m
848.735 335.015 L
S
U
U
u
u
0.000 0.000 0.000 1.000 K
0 j
0 J
0.504 w
[]0 d
653.615 618.048 m
811.511 618.048 L
S
U
U
u
u
0.000 0.000 0.000 1.000 K
0 j
0 J
1.008 w
[]0 d
633.599 317.951 m
829.943 317.951 L
S
U
U
u
u
0.000 0.000 0.000 1.000 K
0 j
0 J
1.008 w
[]0 d
627.048 595.079 m
844.415 594.647 L
S
U
U
u
u
0.000 0.000 0.000 1.000 K
0 j
0 J
1.008 w
[]0 d
630.431 303.983 m
640.655 302.183 L
822.383 302.183 L
834.479 304.703 L
S
U
U
u
u
0.000 0.000 0.000 1.000 K
0 j
0 J
1.008 w
[]0 d
629.351 585.431 m
645.839 583.703 L
827.855 583.703 L
842.183 586.223 L
S
U
U
u
u
0.000 0.000 0.000 1.000 K
0 j
0 J
0.215 w
[]0 d
642.168 371.951 m
624.815 371.951 L
S
U
U
u
u
0.000 0.000 0.000 1.000 K
0 j
0 J
0.215 w
[]0 d
823.751 371.951 m
841.103 371.951 L
S
U
U
u
u
0.000 0.000 0.000 1.000 K
0 j
0 J
0.215 w
[]0 d
642.959 359.783 m
623.303 359.783 L
S
U
U
u
u
0.000 0.000 0.000 1.000 K
0 j
0 J
0.215 w
[]0 d
822.959 359.783 m
842.615 359.783 L
S
U
U
u
u
0.000 0.000 0.000 1.000 K
0 j
0 J
0.504 w
[]0 d
645.695 344.015 m
645.479 381.455 646.343 385.127 629.855 385.487 C
633.887 405.359 642.239 427.319 648.359 444.887 C
650.447 451.079 653.615 452.951 672.335 453.815 c
711.503 455.543 753.551 455.543 792.719 453.815 C
804.095 453.239 815.183 452.735 818.711 444.815 c
826.343 427.607 833.327 406.079 836.135 385.631 C
819.647 384.479 821.519 382.031 821.519 343.943 C
S
U
U
u
u
0.000 0.000 0.000 1.000 K
0 j
0 J
0.215 w
[]0 d
643.175 351.359 m
703.007 352.151 762.839 352.151 822.599 351.359 C
S
U
U
u
u
0.000 0.000 0.000 1.000 K
0 j
0 J
0.215 w
[]0 d
622.511 347.111 m
843.407 347.111 L
S
U
U
u
u
0.000 0.000 0.000 1.000 K
0 j
0 J
0.215 w
[]0 d
634.751 649.799 m
700.415 651.527 766.079 651.527 831.815 649.799 C
S
U
U
0.000 0.000 0.000 1.000 K
0 j
0 J
0.215 w
[]0 d
684.647 379.799 m
700.055 379.799 715.391 379.799 730.799 379.799 c
746.135 379.799 761.399 379.799 776.807 379.799 c
779.399 379.799 781.055 377.999 780.767 375.551 c
780.407 372.815 779.903 370.007 779.471 367.199 c
779.183 364.391 778.607 361.583 778.247 358.847 c
777.887 356.471 775.727 354.671 773.351 354.671 c
759.167 354.671 744.911 354.671 730.799 354.671 c
716.543 354.671 702.287 354.671 688.175 354.671 c
685.799 354.671 683.639 356.399 683.279 358.847 c
682.847 361.512 682.415 364.391 682.055 367.199 c
681.623 370.007 681.120 372.815 680.759 375.551 c
680.471 377.999 682.127 379.799 684.647 379.799 c
s
0.000 0.000 0.000 1.000 K
0 j
0 J
0.215 w
[]0 d
0.000 0.000 0.000 0.498 k
684.719 379.727 m
699.983 379.727 715.319 379.727 730.799 379.727 c
746.135 379.727 761.399 379.727 776.807 379.727 c
779.399 379.727 780.983 377.927 780.695 375.479 C
680.759 375.479 L
680.471 377.927 682.055 379.727 684.719 379.727 c
b
0.000 0.000 0.000 1.000 K
0 j
0 J
0.215 w
[]0 d
0.000 0.000 0.000 0.000 k
693.575 373.535 m
768.239 373.535 l
770.399 373.535 772.055 371.879 772.055 369.719 c
772.055 360.431 l
772.055 358.343 770.399 356.615 768.239 356.615 c
693.575 356.615 l
691.415 356.615 689.759 358.343 689.759 360.431 c
689.759 369.719 l
689.759 371.879 691.415 373.535 693.575 373.535 c
b
0.000 0.000 0.000 1.000 K
0 j
0 J
0.215 w
[]0 d
0.000 0.000 0.000 0.000 k
732.959 376.415 m
732.311 376.415 731.663 376.991 731.663 377.639 c
731.663 378.359 732.311 378.935 732.959 378.935 c
733.607 378.935 734.255 378.359 734.255 377.639 c
734.255 376.991 733.607 376.415 732.959 376.415 c
b
u
u
0.000 0.000 0.000 1.000 K
0 j
0 J
1.008 w
[]0 d
843.191 335.015 m
833.471 325.151 830.015 317.447 823.751 302.183 C
S
U
U
u
u
0.000 0.000 0.000 1.000 K
0 j
0 J
1.008 w
[]0 d
621.863 335.015 m
628.055 324.431 635.687 316.799 642.743 302.183 C
S
U
U
0.000 0.000 0.000 1.000 k
732.959 384.119 m
730.655 384.119 728.711 386.063 728.711 388.439 c
728.711 390.743 730.655 392.687 732.959 392.687 c
735.335 392.687 737.279 390.743 737.279 388.439 c
737.279 386.063 735.335 384.119 732.959 384.119 c
f
0.000 0.000 0.000 0.000 k
733.031 384.479 m
730.799 384.479 729.071 386.279 729.071 388.439 c
729.071 390.671 730.799 392.471 733.031 392.471 c
735.191 392.471 736.991 390.671 736.991 388.439 c
736.991 386.279 735.191 384.479 733.031 384.479 c
f
0.000 0.000 0.000 1.000 k
732.599 388.511 m
733.463 388.511 L
734.615 391.247 L
735.047 391.031 735.263 390.815 735.551 390.455 C
734.039 386.783 L
733.391 388.223 L
732.599 388.223 L
731.879 386.855 L
730.439 390.383 L
730.583 390.599 731.087 391.031 731.375 391.247 C
732.599 388.511 L
f
0.000 0.000 0.000 1.000 k
733.103 389.447 m
732.239 391.535 L
732.527 391.751 733.607 391.751 733.967 391.535 C
733.103 389.447 L
f
0.000 0.000 0.000 1.000 k
731.663 385.487 m
730.223 386.207 729.575 387.575 729.935 389.375 C
731.663 385.487 L
f
0.000 0.000 0.000 1.000 k
733.895 385.271 m
733.319 385.127 732.671 385.127 732.167 385.271 C
733.031 387.359 L
733.895 385.271 L
f
0.000 0.000 0.000 1.000 k
734.399 385.343 m
736.127 389.591 L
736.847 387.863 735.983 386.063 734.399 385.343 C
f
0.000 0.000 0.000 1.000 K
0 j
0 J
0.215 w
[]0 d
0.000 0.000 0.000 0.498 k
419.615 609.120 m
156.455 609.120 L
159.048 605.159 L
417.167 605.159 L
419.615 609.120 L
b
0.000 0.000 0.000 1.000 K
0 j
0 J
0.215 w
[]0 d
0.000 0.000 0.000 0.498 k
156.383 322.487 m
419.543 322.487 L
416.951 318.527 L
158.831 318.527 L
156.383 322.487 L
b
0.000 0.000 0.000 1.000 K
0 j
0 J
0.215 w
[]0 d
0.000 0.000 0.000 0.498 k
672.551 643.607 m
663.191 643.607 644.903 643.607 635.543 643.607 c
634.319 643.607 633.168 642.599 632.879 641.303 c
631.727 633.599 631.871 627.839 632.951 620.207 c
633.168 619.055 634.463 618.048 635.687 618.048 c
645.767 618.048 664.775 618.048 674.855 618.048 c
676.007 618.048 676.871 618.983 676.799 620.207 c
676.151 627.192 675.287 634.247 674.639 641.303 c
674.567 642.527 673.631 643.607 672.551 643.607 c
b
0.000 0.000 0.000 1.000 K
0 j
0 J
0.215 w
[]0 d
0.000 0.000 0.000 0.498 k
795.743 643.607 m
805.103 643.607 823.391 643.607 832.751 643.607 c
833.975 643.607 835.127 642.599 835.343 641.303 c
836.495 633.599 836.351 627.839 835.271 620.207 c
835.127 619.055 833.831 618.048 832.607 618.048 c
822.527 618.048 803.447 618.048 793.367 618.048 c
792.215 618.048 791.351 618.983 791.423 620.207 c
792.071 627.192 793.007 634.247 793.655 641.303 c
793.727 642.527 794.663 643.607 795.743 643.607 c
b
0.000 0.000 0.000 1.000 K
0 j
0 J
0.215 w
[]0 d
0.000 0.000 0.000 0.000 k
671.399 642.455 m
667.367 642.455 663.407 642.455 659.447 642.455 c
655.343 642.455 651.383 642.455 647.351 642.455 c
646.559 642.455 646.055 641.879 646.055 640.943 c
646.271 637.775 646.703 634.247 646.991 630.935 c
647.279 627.551 647.567 624.024 647.855 620.855 c
647.927 619.919 648.647 619.343 649.367 619.343 c
653.399 619.343 657.431 619.343 661.463 619.343 c
665.423 619.343 669.455 619.343 673.487 619.343 c
674.279 619.343 674.855 620.135 674.783 620.927 c
674.567 624.240 674.063 627.623 673.847 631.007 c
673.559 634.319 673.271 637.703 672.983 641.015 c
672.911 641.879 672.191 642.455 671.399 642.455 c
b
0.000 0.000 0.000 1.000 K
0 j
0 J
0.215 w
[]0 d
0.000 0.000 0.000 0.000 k
796.895 642.455 m
800.927 642.455 804.887 642.455 808.775 642.455 c
812.879 642.455 816.839 642.455 820.871 642.455 c
821.735 642.455 822.167 641.879 822.167 640.943 c
821.951 637.775 821.591 634.247 821.303 630.935 c
820.943 627.551 820.727 624.024 820.439 620.855 c
820.367 619.919 819.647 619.343 818.855 619.343 c
814.823 619.343 810.791 619.343 806.759 619.343 c
802.871 619.343 798.839 619.343 794.807 619.343 c
794.015 619.343 793.367 620.135 793.439 620.927 c
793.727 624.240 794.159 627.623 794.375 631.007 c
794.735 634.319 795.023 637.703 795.239 641.015 c
795.311 641.879 796.103 642.455 796.895 642.455 c
b
0.000 0.000 0.000 1.000 K
0 j
0 J
0.215 w
[]0 d
0.000 0.000 0.000 0.098 k
642.959 642.527 m
639.072 642.527 639.359 642.527 639.719 642.527 c
640.079 642.527 640.367 642.527 636.335 642.527 c
635.399 642.527 634.679 641.951 634.607 641.159 c
634.463 639.575 634.175 637.775 634.103 636.120 c
634.031 634.607 633.959 632.807 633.959 631.151 c
633.959 629.423 634.031 627.551 634.175 625.967 c
634.319 624.383 634.391 622.439 634.607 621.000 c
634.679 620.135 635.615 619.415 636.767 619.415 c
641.735 619.415 641.375 619.415 640.871 619.415 c
640.439 619.415 640.079 619.415 644.831 619.415 c
645.839 619.415 646.415 620.135 646.415 621.000 c
646.343 622.583 646.055 624.383 645.839 625.967 c
645.623 627.623 645.335 629.423 645.263 631.151 c
645.120 632.735 644.903 634.535 644.831 636.120 c
644.687 637.775 644.543 639.503 644.543 641.159 c
644.543 642.096 643.751 642.527 642.959 642.527 c
b
0.000 0.000 0.000 1.000 K
0 j
0 J
0.215 w
[]0 d
0.000 0.000 0.000 0.098 k
825.263 642.527 m
829.223 642.527 828.935 642.527 828.503 642.527 c
828.215 642.527 827.927 642.527 831.959 642.527 c
832.895 642.527 833.543 641.951 833.615 641.159 c
833.759 639.575 834.119 637.775 834.191 636.120 c
834.263 634.607 834.335 632.807 834.335 631.151 c
834.335 629.423 834.263 627.551 834.119 625.967 c
833.975 624.383 833.903 622.439 833.615 621.000 c
833.543 620.135 832.607 619.415 831.455 619.415 c
826.487 619.415 826.919 619.415 827.351 619.415 c
827.855 619.415 828.215 619.415 823.391 619.415 c
822.383 619.415 821.879 620.135 821.879 621.000 c
821.951 622.583 822.167 624.383 822.383 625.967 c
822.671 627.623 822.959 629.423 823.031 631.151 c
823.103 632.735 823.319 634.535 823.391 636.120 c
823.607 637.775 823.751 639.503 823.751 641.159 c
823.751 642.096 824.471 642.527 825.263 642.527 c
b
u
u
0.000 0.000 0.000 1.000 K
0 j
0 J
0.215 w
[]0 d
638.495 673.703 m
637.199 667.367 L
637.055 658.511 641.663 653.111 645.407 643.535 C
S
U
U
u
u
0.000 0.000 0.000 1.000 K
0 j
0 J
0.215 w
[]0 d
830.447 673.271 m
831.671 667.367 L
831.815 658.511 827.207 653.111 823.535 643.535 C
S
U
U
u
u
0.000 0.000 0.000 1.000 K
0 j
0 J
0.215 w
[]0 d
639.935 643.823 m
633.096 652.391 628.199 659.303 626.759 673.343 C
S
U
U
u
u
0.000 0.000 0.000 1.000 K
0 j
0 J
0.215 w
[]0 d
826.991 643.823 m
833.831 652.391 838.727 659.303 840.167 673.343 C
S
U
U
u
u
0.000 0.000 0.000 1.000 K
0 j
0 J
0.215 w
[]0 d
638.279 673.271 m
626.975 673.271 L
S
U
U
u
u
0.000 0.000 0.000 1.000 K
0 j
0 J
0.215 w
[]0 d
827.207 673.271 m
839.951 673.343 L
S
U
U
u
u
0.000 0.000 0.000 1.000 K
0 j
0 J
0.215 w
[]0 d
637.127 643.535 m
625.463 660.815 L
S
U
U
u
u
0.000 0.000 0.000 1.000 K
0 j
0 J
0.215 w
[]0 d
829.727 643.535 m
842.687 660.815 L
S
U
U
u
u
0.000 0.000 0.000 1.000 K
0 j
0 J
0.504 w
[]0 d
665.783 643.535 m
713.951 644.039 762.119 644.039 810.359 643.535 C
S
U
U
u
u
0.000 0.000 0.000 1.000 K
0 j
0 J
0.215 w
[]0 d
632.807 619.991 m
633.239 614.951 L
S
U
U
u
u
0.000 0.000 0.000 1.000 K
0 j
0 J
1.008 w
[]0 d
628.199 614.807 m
627.839 624.599 626.831 630.431 625.103 636.335 C
S
U
U
u
u
0.000 0.000 0.000 1.000 K
0 j
0 J
1.008 w
[]0 d
842.615 614.807 m
844.055 622.511 844.271 631.079 846.287 636.911 C
S
U
U
0.000 0.000 0.000 1.000 K
0 j
0 J
0.504 w
[]0 d
0.000 0.000 0.000 0.498 k
793.655 643.607 m
773.639 643.607 753.623 643.679 733.823 643.679 c
713.879 643.679 694.007 643.679 674.207 643.607 C
674.495 639.431 675.072 635.183 675.503 631.007 c
675.863 626.831 676.367 622.511 676.943 618.264 C
695.807 618.264 714.743 618.264 733.823 618.264 c
752.759 618.264 771.767 618.264 790.919 618.264 C
791.279 622.511 791.855 626.831 792.215 631.007 c
792.575 635.183 793.151 639.431 793.655 643.607 C
b
0.000 0.000 0.000 1.000 K
0 j
0 J
0.215 w
[]0 d
0.000 0.000 0.000 0.200 k
674.495 641.447 m
793.367 641.447 L
793.223 639.719 L
674.639 639.719 L
674.495 641.447 L
b
0.000 0.000 0.000 1.000 K
0 j
0 J
0.215 w
[]0 d
0.000 0.000 0.000 0.200 k
674.783 637.703 m
793.007 637.631 L
792.791 635.903 L
675.000 635.903 L
674.783 637.703 L
b
0.000 0.000 0.000 1.000 K
0 j
0 J
0.215 w
[]0 d
0.000 0.000 0.000 0.200 k
675.072 633.671 m
792.503 633.671 L
792.503 631.943 L
675.359 631.943 L
675.072 633.671 L
b
0.000 0.000 0.000 1.000 K
0 j
0 J
0.215 w
[]0 d
0.000 0.000 0.000 0.200 k
675.503 629.711 m
792.287 629.711 L
792.071 627.983 L
675.719 627.983 L
675.503 629.711 L
b
0.000 0.000 0.000 1.000 K
0 j
0 J
0.215 w
[]0 d
0.000 0.000 0.000 0.200 k
676.007 625.823 m
791.855 625.823 L
791.639 624.096 L
676.295 624.096 L
676.007 625.823 L
b
0.000 0.000 0.000 1.000 K
0 j
0 J
0.215 w
[]0 d
0.000 0.000 0.000 0.200 k
676.439 621.863 m
791.279 621.863 L
791.207 620.135 L
676.655 620.135 L
676.439 621.863 L
b
0.000 0.000 0.000 1.000 k
733.895 623.303 m
730.295 623.303 727.415 626.255 727.415 629.855 c
727.415 633.383 730.295 636.335 733.895 636.335 c
737.495 636.335 740.447 633.383 740.447 629.855 c
740.447 626.255 737.495 623.303 733.895 623.303 c
f
0.000 0.000 0.000 0.000 k
733.895 623.735 m
730.583 623.735 727.847 626.471 727.847 629.783 c
727.847 633.168 730.583 635.831 733.895 635.831 c
737.279 635.831 739.943 633.168 739.943 629.783 c
739.943 626.471 737.279 623.735 733.895 623.735 c
f
0.000 0.000 0.000 1.000 k
733.319 629.927 m
734.687 629.927 L
736.487 634.031 L
737.063 633.671 737.351 633.383 737.855 632.879 C
735.551 627.335 L
734.615 629.495 L
733.319 629.495 L
732.311 627.407 L
730.079 632.735 L
730.295 633.096 731.087 633.815 731.519 634.031 C
733.319 629.927 L
f
0.000 0.000 0.000 1.000 k
734.039 631.295 m
732.815 634.535 L
733.175 634.751 734.831 634.823 735.479 634.535 C
734.039 631.295 L
f
0.000 0.000 0.000 1.000 k
731.951 625.247 m
729.719 626.399 728.711 628.487 729.287 631.223 C
731.951 625.247 L
f
0.000 0.000 0.000 1.000 k
735.263 624.887 m
734.399 624.671 733.391 624.671 732.671 624.959 C
734.039 628.127 L
735.263 624.887 L
f
0.000 0.000 0.000 1.000 k
735.983 625.175 m
738.575 631.583 L
739.655 628.919 738.359 626.255 735.983 625.175 C
f
u
u
0.000 0.000 0.000 1.000 K
0 j
0 J
0.215 w
[]0 d
848.591 609.767 m
622.151 609.767 L
S
U
U
u
u
0.000 0.000 0.000 1.000 K
0 j
0 J
1.008 w
[]0 d
622.151 608.255 m
848.591 608.255 L
S
U
U
0.000 0.000 0.000 1.000 K
0 j
0 J
0.215 w
[]0 d
0.000 0.000 0.000 0.498 k
847.871 676.511 m
865.151 676.511 l
866.663 676.511 867.887 677.735 867.887 679.247 c
867.887 689.399 l
867.887 690.839 866.663 692.135 865.151 692.135 c
847.871 692.135 l
846.359 692.135 845.135 690.839 845.135 689.399 c
845.135 679.247 l
845.135 677.735 846.359 676.511 847.871 676.511 c
b
0.000 0.000 0.000 1.000 K
0 j
0 J
0.215 w
[]0 d
0.000 0.000 0.000 0.498 k
847.439 391.247 m
864.719 391.247 l
866.231 391.247 867.383 392.471 867.383 393.911 c
867.383 404.135 l
867.383 405.575 866.231 406.871 864.719 406.871 c
847.439 406.871 l
845.927 406.871 844.703 405.575 844.703 404.135 c
844.703 393.911 l
844.703 392.471 845.927 391.247 847.439 391.247 c
b
0.000 0.000 0.000 1.000 K
0 j
0 J
0.215 w
[]0 d
0.000 0.000 0.000 0.498 k
618.983 676.511 m
601.703 676.511 l
600.192 676.511 598.967 677.735 598.967 679.247 c
598.967 689.399 l
598.967 690.839 600.192 692.135 601.703 692.135 c
618.983 692.135 l
620.495 692.135 621.719 690.839 621.719 689.399 c
621.719 679.247 l
621.719 677.735 620.495 676.511 618.983 676.511 c
b
0.000 0.000 0.000 1.000 K
0 j
0 J
0.215 w
[]0 d
0.000 0.000 0.000 0.498 k
618.551 391.247 m
601.199 391.247 l
599.759 391.247 598.535 392.471 598.535 393.911 c
598.535 404.135 l
598.535 405.575 599.759 406.871 601.199 406.871 c
618.551 406.871 l
619.991 406.871 621.216 405.575 621.216 404.135 c
621.216 393.911 l
621.216 392.471 619.991 391.247 618.551 391.247 c
b
0.000 0.000 0.000 1.000 K
0 j
0 J
0.215 w
[]0 d
0.000 0.000 0.000 0.498 k
840.095 673.055 m
846.863 673.055 L
847.799 673.055 848.015 673.487 848.015 674.063 C
848.015 676.511 L
849.671 676.439 L
849.671 672.767 L
849.671 672.048 849.455 671.471 848.159 671.471 C
840.239 671.471 L
840.095 673.055 L
b
0.000 0.000 0.000 1.000 K
0 j
0 J
0.215 w
[]0 d
0.000 0.000 0.000 0.498 k
839.663 387.719 m
846.359 387.719 L
847.367 387.791 847.583 388.223 847.583 388.799 C
847.583 391.247 L
849.239 391.175 L
849.239 387.503 L
849.239 386.783 848.951 386.207 847.727 386.207 C
839.807 386.207 L
839.663 387.719 L
b
0.000 0.000 0.000 1.000 K
0 j
0 J
0.215 w
[]0 d
0.000 0.000 0.000 0.498 k
626.687 673.055 m
619.991 673.055 L
618.983 673.055 618.767 673.487 618.767 674.063 C
618.767 676.511 L
617.111 676.439 L
617.111 672.767 L
617.111 672.048 617.399 671.471 618.695 671.471 C
626.543 671.471 L
626.687 673.055 L
b
0.000 0.000 0.000 1.000 K
0 j
0 J
0.215 w
[]0 d
0.000 0.000 0.000 0.498 k
626.255 387.719 m
619.559 387.719 L
618.551 387.791 618.335 388.223 618.335 388.799 C
618.335 391.247 L
616.679 391.175 L
616.679 387.503 L
616.679 386.783 616.967 386.207 618.192 386.207 C
626.111 386.207 L
626.255 387.719 L
b
u
u
0.000 0.000 0.000 1.000 K
0 j
0 J
0.215 w
[]0 d
795.455 650.951 m
795.455 659.447 796.895 666.863 798.191 673.271 C
S
U
U
u
u
0.000 0.000 0.000 1.000 K
0 j
0 J
0.215 w
[]0 d
673.847 650.951 m
673.847 659.447 672.479 666.863 671.111 673.271 C
S
U
U
0.000 0.000 0.000 1.000 K
0 j
0 J
0.215 w
[]0 d
0.000 0.000 0.000 0.498 k
344.087 406.079 m
345.599 406.439 347.039 406.799 348.479 406.799 c
349.919 406.799 351.359 406.439 352.727 406.079 C
355.319 403.631 357.191 401.111 357.191 398.807 c
357.191 396.431 355.319 393.983 352.727 391.751 C
351.359 391.247 349.919 390.887 348.479 390.887 c
347.039 390.887 345.599 391.247 344.087 391.751 C
343.439 393.983 342.935 396.431 342.935 398.807 c
342.935 401.111 343.439 403.631 344.087 406.079 C
b
0.000 0.000 0.000 1.000 K
0 j
0 J
0.215 w
[]0 d
0.000 0.000 0.000 0.498 k
353.879 392.687 m
356.615 395.927 L
356.615 390.167 L
362.447 390.167 L
362.447 387.431 L
356.615 387.431 L
353.879 387.431 L
353.879 392.687 L
b
u
u
U
u
0.000 0.000 0.000 1.000 K
0 j
0 J
0.215 w
[]0 d
25.919 233.495 m
266.255 233.495 L
S
U
U
u
u
U
u
0.000 0.000 0.000 1.000 K
0 j
0 J
0.215 w
[]0 d
348.335 233.495 m
552.384 233.495 L
S
U
U
u
u
U
u
0.000 0.000 0.000 1.000 K
0 j
0 J
0.215 w
[]0 d
25.703 246.671 m
25.703 217.295 L
S
U
U
0.000 0.000 0.000 1.000 k
25.487 233.567 m
35.207 230.687 L
35.207 236.447 L
25.487 233.567 L
f
u
u
U
u
0.000 0.000 0.000 1.000 K
0 j
0 J
0.215 w
[]0 d
551.591 244.727 m
551.591 215.711 L
S
U
U
0.000 0.000 0.000 1.000 k
551.735 233.567 m
542.015 230.687 L
542.015 236.447 L
551.735 233.567 L
f
0.000 0.000 0.000 1.000 k
324.215 229.607 m
325.079 229.607 L
325.079 233.207 L
325.079 234.575 325.584 235.511 326.951 235.511 C
327.959 235.511 328.319 234.791 328.319 233.927 C
328.319 229.607 L
329.111 229.607 L
329.111 233.207 L
329.111 234.359 329.471 235.511 330.767 235.511 C
331.991 235.511 332.351 235.007 332.351 233.927 C
332.351 229.607 L
333.143 229.607 L
333.143 233.927 L
333.143 235.439 332.423 236.159 330.983 236.159 C
330.191 236.159 329.399 235.799 328.895 234.935 C
328.751 235.799 327.959 236.159 327.096 236.159 C
326.015 236.159 325.439 235.727 324.935 234.935 C
324.935 234.935 L
324.935 236.015 L
324.215 236.015 L
324.215 229.607 L
324.215 229.607 L
f
0.000 0.000 0.000 1.000 k
313.847 229.607 m
314.639 229.607 L
314.639 233.207 L
314.639 234.575 315.143 235.511 316.512 235.511 C
317.519 235.511 317.879 234.791 317.879 233.927 C
317.879 229.607 L
318.671 229.607 L
318.671 233.207 L
318.671 234.359 319.031 235.511 320.399 235.511 C
321.551 235.511 321.911 235.007 321.911 233.927 C
321.911 229.607 L
322.703 229.607 L
322.703 233.927 L
322.703 235.439 321.983 236.159 320.543 236.159 C
319.751 236.159 318.959 235.799 318.527 234.935 C
318.311 235.799 317.519 236.159 316.727 236.159 C
315.647 236.159 315.000 235.727 314.567 234.935 C
314.567 234.935 L
314.567 236.015 L
313.847 236.015 L
313.847 229.607 L
313.847 229.607 L
f
0.000 0.000 0.000 1.000 k
300.096 232.055 m
300.096 230.399 301.247 229.391 302.975 229.391 C
304.560 229.391 305.927 230.615 305.927 232.271 C
305.927 234.071 304.847 235.367 303.048 235.367 C
302.327 235.367 301.608 235.079 301.175 234.575 C
301.175 234.575 L
301.679 237.527 L
305.567 237.527 L
305.567 238.247 L
301.175 238.247 L
300.239 233.639 L
300.959 233.639 L
301.463 234.359 302.183 234.719 302.975 234.719 C
304.199 234.719 305.207 233.711 305.207 232.415 C
305.207 231.119 304.271 230.039 302.975 230.039 C
301.823 230.039 300.887 230.831 300.815 232.055 C
300.096 232.055 L
f
0.000 0.000 0.000 1.000 k
298.943 230.327 m
294.048 230.327 L
294.263 231.479 295.775 232.199 296.639 232.847 C
297.719 233.567 298.799 234.431 298.799 235.871 C
298.799 237.527 297.647 238.391 296.135 238.391 C
294.263 238.391 293.255 237.095 293.327 235.295 C
294.191 235.295 L
294.048 236.591 294.695 237.671 296.135 237.671 C
297.144 237.671 298.007 237.095 298.007 235.871 C
298.007 235.295 297.863 234.791 297.287 234.287 C
295.847 232.847 293.183 232.127 293.183 229.607 C
298.943 229.607 L
298.943 230.327 L
f
0.000 0.000 0.000 1.000 k
286.415 237.527 m
291.168 237.527 L
288.791 234.719 287.855 232.487 287.567 229.607 C
288.503 229.607 L
288.647 233.639 290.951 236.375 292.031 237.527 C
292.031 238.247 L
286.415 238.247 L
286.415 237.527 L
f
0.000 0.000 0.000 1.000 k
279.215 232.415 m
279.144 230.471 280.439 229.391 282.239 229.391 C
283.823 229.391 285.263 230.327 285.263 232.055 C
285.263 233.207 284.543 233.999 283.463 234.215 C
283.463 234.215 L
284.399 234.431 284.903 235.151 284.903 236.159 C
284.903 237.671 283.536 238.391 282.239 238.391 C
280.512 238.391 279.431 237.167 279.431 235.511 C
280.223 235.511 L
280.223 236.807 280.943 237.671 282.239 237.671 C
283.319 237.671 284.111 237.239 284.111 236.087 C
284.111 235.007 283.175 234.431 282.383 234.431 C
281.663 234.431 L
281.663 233.855 L
282.383 233.855 L
283.536 233.855 284.471 233.207 284.471 231.911 C
284.471 230.687 283.391 230.039 282.239 230.039 C
280.799 230.039 279.935 230.975 280.079 232.415 C
279.215 232.415 L
f
u
u
0.000 0.000 0.000 1.000 K
0 j
0 J
0.215 w
[]0 d
626.831 385.559 m
631.223 391.823 L
835.343 391.823 L
839.663 385.559 L
S
U
U
0.000 0.000 0.000 1.000 K
0 j
0 J
0.215 w
[]0 d
0.000 0.000 0.000 0.498 k
662.903 448.919 m
686.159 449.855 709.415 450.575 732.671 450.575 c
755.855 450.575 779.111 449.783 802.511 448.991 C
805.103 448.919 808.775 447.983 810.863 446.831 c
812.807 445.679 814.535 442.007 815.615 439.847 C
813.959 441.143 812.519 442.079 811.079 442.799 c
809.783 443.447 806.903 443.447 805.175 443.663 C
780.911 444.671 756.647 445.319 732.527 445.319 c
708.263 445.319 684.000 444.599 659.879 443.591 C
658.223 443.087 655.703 442.223 654.335 441.359 c
653.111 440.423 651.887 439.847 651.168 438.479 C
652.103 441.359 653.759 445.175 655.559 446.471 c
657.359 447.623 660.455 448.415 662.903 448.919 C
b
0.000 0.000 0.000 1.000 K
0 j
0 J
0.215 w
[]0 d
0.000 0.000 0.000 0.200 k
255.743 731.159 m
257.903 732.815 259.991 734.615 257.687 735.623 C
232.703 721.007 200.519 697.679 178.703 678.599 C
180.503 675.935 184.175 674.063 188.711 676.799 C
211.607 697.031 232.199 712.871 255.743 731.159 c
b
0.000 0.000 0.000 1.000 K
0 j
0 J
0.215 w
[]0 d
0.000 0.000 0.000 0.498 k
231.983 692.639 m
230.471 693.000 229.031 693.359 227.591 693.359 c
226.151 693.359 224.711 693.000 223.343 692.639 C
220.751 690.263 218.879 687.743 218.879 685.367 c
218.879 683.063 220.751 680.615 223.343 678.383 C
224.711 677.807 226.151 677.519 227.591 677.519 c
229.031 677.519 230.471 677.807 231.983 678.383 C
232.631 680.615 233.135 683.063 233.135 685.367 c
233.135 687.743 232.631 690.263 231.983 692.639 C
b
0.000 0.000 0.000 1.000 K
0 j
0 J
0.215 w
[]0 d
0.000 0.000 0.000 0.498 k
222.191 679.247 m
219.527 682.487 L
219.527 676.799 L
213.695 676.799 L
213.695 674.063 L
219.527 674.063 L
222.191 674.063 L
222.191 679.247 L
b
0.000 0.000 0.000 1.000 K
0 j
0 J
0.215 w
[]0 d
0.000 0.000 0.000 0.200 k
824.327 675.287 m
794.159 675.575 763.703 675.863 733.319 675.863 c
702.863 675.863 672.407 675.575 642.239 675.215 c
638.423 675.215 634.895 679.103 635.687 682.703 c
636.551 685.943 637.703 689.831 638.495 693.287 c
639.287 696.959 640.871 700.631 641.951 704.087 c
643.103 707.471 644.183 711.431 645.192 714.815 c
646.127 718.343 647.783 722.159 648.863 725.543 c
650.375 729.863 656.279 733.247 659.015 733.247 c
670.967 733.391 684.143 734.615 696.024 734.615 c
708.263 734.687 720.719 735.191 733.247 735.191 c
745.055 735.191 757.583 734.759 769.607 734.615 c
781.631 734.543 794.591 733.391 806.903 733.247 c
809.855 733.247 815.975 729.647 817.343 725.543 c
818.495 722.231 820.079 718.343 821.159 714.815 c
822.311 711.287 823.751 707.471 824.759 704.231 c
825.839 700.559 827.495 696.815 828.503 693.359 c
829.511 689.831 830.735 685.943 831.599 682.559 c
832.535 678.959 827.855 675.287 824.327 675.287 c
b
0.000 0.000 0.000 1.000 K
0 j
0 J
0.215 w
[]0 d
0.000 0.000 0.000 0.200 k
818.711 398.663 m
804.455 398.663 790.199 398.015 776.015 398.015 c
762.263 398.015 747.863 397.943 733.679 397.943 c
719.495 397.943 705.024 397.799 690.983 397.943 c
677.015 397.943 662.903 398.663 648.719 398.663 c
645.192 398.663 641.735 401.687 642.527 404.351 c
643.319 407.087 644.255 409.967 645.048 412.775 c
645.911 415.511 646.847 418.391 647.639 421.127 c
648.359 423.863 649.367 426.671 650.159 429.479 c
650.879 432.215 651.887 435.167 652.679 437.903 c
653.687 441.215 658.943 443.735 661.751 443.735 c
673.415 443.951 685.799 444.671 697.607 444.743 c
709.631 444.815 721.727 445.247 733.895 445.247 c
745.559 445.247 757.583 444.815 769.679 444.743 c
781.199 444.671 793.655 443.951 805.607 443.735 c
808.559 443.663 813.887 440.855 814.823 437.903 c
815.687 435.167 816.551 432.143 817.415 429.407 c
818.207 426.527 819.071 423.647 819.935 421.055 c
820.727 418.319 821.735 415.511 822.671 412.775 c
823.679 409.967 824.687 407.087 825.479 404.351 c
826.343 401.615 822.095 398.663 818.711 398.663 c
b
0.000 0.000 0.000 1.000 K
0 j
0 J
0.215 w
[]0 d
0.000 0.000 0.000 0.200 k
136.007 444.671 m
173.231 444.671 167.111 444.671 204.335 444.671 c
206.279 444.671 207.791 442.871 207.719 441.215 c
207.359 432.287 206.783 423.431 206.423 414.719 c
205.991 405.863 205.343 397.007 204.983 388.151 c
204.983 386.351 203.327 384.767 201.815 384.767 c
162.143 385.487 128.159 386.495 89.855 387.359 C
79.559 388.295 75.167 394.631 82.727 401.903 C
99.215 417.743 119.087 434.303 129.959 441.215 c
132.695 442.943 132.623 444.671 136.007 444.671 c
b
0.000 0.000 0.000 1.000 K
0 j
0 J
0.215 w
[]0 d
0.000 0.000 0.000 0.200 k
237.743 444.887 m
296.351 442.151 l
302.183 441.863 302.831 442.655 307.943 438.623 c
362.447 395.423 L
362.519 381.599 L
237.743 383.831 l
236.015 383.831 234.215 385.487 234.215 387.359 c
234.215 441.359 l
234.215 443.159 236.447 444.887 237.743 444.887 c
b
0.000 0.000 0.000 1.000 K
0 j
0 J
0.215 w
[]0 d
0.000 0.000 0.000 0.200 k
320.255 444.527 m
318.096 446.183 316.007 447.983 318.311 448.991 C
343.295 434.447 375.479 411.119 397.295 392.039 C
395.495 389.303 391.823 387.431 387.287 390.167 C
364.391 410.399 343.799 426.239 320.255 444.527 c
b
%%Trailer
_E end