%!PS-Adobe-2.0 EPSF-1.2
%%Creator: Adobe Illustrator exported from Corel Draw 3.0
%%Title:6
%%BoundingBox:-38 296 941 807
%%CreationDate:(Unknown)
%%ColorUsage:
%%TemplateBox:-38 296 941 807
%%EndComments
%%BeginProcSet:Adobe_Illustrator_1.1 0 0
% Version 1.0 3/27/1990 $nokeywords$
% Copyright (C) 1990,1991,1992
% Corel Corporation
% All Rights Reserved

/wPmsDict 150 dict def 
wPmsDict begin 

/$debug 25 string def 

/bd {bind def} bind def 
/ld {load def} bd 
/xd {exch def} bd 
/_ null def 

/$c 0 def 
/$m 0 def 
/$y 0 def 
/$k 0 def 
/$t 1 def 
/$n _ def 
/$o 0 def 
/$pf false def 

/$C 0 def 
/$M 0 def 
/$Y 0 def 
/$K 0 def 
/$T 1 def 
/$N _ def 
/$O 0 def 
/$PF false def 

/$h false def 

/$al 0 def 
/$tr 0 def 
/$le 0 def 
/$lx 0 def 
/$ly 0 def 

/$ctm matrix currentmatrix def 
/$ptm matrix def 

/$pn () def 
/$pm matrix def 
/$px 0 def 
/$py 0 def 
/$pxf 0 def 
/$pyf 0 def 
/$psx 10 def 
/$psy 0 def 

/$llx 0 def 
/$lly 0 def 
/$urx 0 def 
/$ury 0 def 


/$Bbllx 0 def 
/$Bblly 0 def 
/$Bburx 0 def 
/$Bbury 0 def 

/$tllx 0 def 
/$tlly 0 def 
/$turx 0 def 
/$tury 0 def 

/$pd [] def 
/$tx 0 def 
/$ty 0 def 

/$sv 0 def 
/@cp /closepath ld 
/@gs /gsave ld 
/@gr /grestore ld 
/@np /newpath ld 
/@sv {/$sv save def}bd 
/@rs {$sv restore}bd 

/@MN { 
2 copy le{pop}{exch pop}ifelse 
}bd 

/setcmykcolor where {pop} 
{ 
/setcmykcolor 
{ 
4 1 roll 
3 {3 index add 1 @MN 1 exch sub 3 1 roll} repeat 
setrgbcolor 
pop 
}bd 
}ifelse 

/@tc 
{ 
dup 1 ge 
{pop} 
{ 
4 { 
dup 
6 -1 roll 
mul 
exch 
}repeat 
pop 
}ifelse 
}bd 

/@scc 
{ 
$c $m $y $k $t @tc 
setcmykcolor 
true 
}bd 
/@SCC 
{ 
$C $M $Y $K $T @tc 
setcmykcolor 
true 
}bd 

/@sft 
{ 
(setfirsttile sft )print 
/$tx $tllx $pxf add dup $tllx gt {$pwid $psx add sub}if def 
/$ty $tury $pyf sub dup $tury lt {$phei $psy add add}if def 
(setfirsttile exit )print 
}bd 

/@stb 
{ 
pathbbox /$ury xd /$urx xd /$lly xd /$llx xd 
}bd 

/@ep 
{ 
{ 
cvx exec 
}forall 
}bd 

/@tp 
{ 

(tile pattern tp )print 
@sv 
/$in true def 
2 copy 
dup $lly le {/$in false def}if 
$phei sub $ury ge {/$in false def}if 
dup $urx ge {/$in false def}if 
$pwid add $llx le {/$in false def}if 
$in 
{ 
@np 
2 copy moveto 
$pwid 0 rlineto 
0 $phei neg rlineto 
$pwid neg 0 rlineto 
0 $phei rlineto 
clip @np 

$pn cvlit load aload pop 
7 -1 roll 
5 index sub 
7 -1 roll 
3 index sub 
translate 
@ep 
pop pop pop pop 
} 
{pop pop}ifelse 
@rs 
(tile pattern exit )print 
}bd 

/@th 
{ 
(tile horizontal th)print 
@sft 
0 1 $tly 1 sub 
{ 
dup $psx mul $tx add 
{ 
dup $llx gt {$pwid sub}{exit}ifelse 
}loop 
exch $phei mul $ty exch sub 

0 1 $tlx 1 sub 
{ 
$pwid mul 
3 copy 
3 -1 roll add exch 
@tp 
pop 
}for 
pop pop 
} for 
(tile horizontal exiting )print 
}bd 

/@tv 
{ 
(tile vertical tv)print 
@sft 
0 1 $tlx 1 sub 
{ 
dup $pwid mul $tx add 
exch $psy mul $ty exch sub 
{ 
dup $ury lt {$phei add}{exit}ifelse 
}loop 

0 1 $tly 1 sub 
{ 
$phei mul 
3 copy sub 
@tp 
pop 
}for 
pop pop 
} for 
(tile vertical exit )print 
}bd 

/@pf 
{ 
(pattern fill pf)print 
@gs 
$pm concat 
@stb 
@gs 1 setgray eofill @gr 
eoclip 
$Bburx $Bbury $pm itransform /$tury xd /$turx xd 
$Bbllx $Bblly $pm itransform /$tlly xd /$tllx xd 
/$wid $turx $tllx sub def 
/$hei $tury $tlly sub def 
$wid 0 gt $hei 0 gt and 
{ 
$pn cvlit load aload pop 
$pd xd 
3 -1 roll sub /$phei xd 
exch sub /$pwid xd 
/$tlx $wid $pwid div ceiling 1 add def 
/$tly $hei $phei div ceiling 1 add def 
$psx 0 eq 
{ 
@tv 
} 
{ 
@th 
}ifelse 
}if 

@gr 
@np 
(pattern fill exit)print 
}bd 

/@xp 
{ 
{ 
dup (text Character is:) print == 
usertime (time before is:)print == 
(0) dup 3 -1 roll 0 exch put 
@gs 
true charpath currentpoint 
$ctm setmatrix 
@pf 
@gr 
@np 
moveto $tr 0 rmoveto 
usertime (time after is:)print == 
}forall 
pop 
}bd 

/@sm 
{ 
/$ctm $ctm currentmatrix def 
}bd 

%--@lorg  move to line origin   length string @torg length string
/@lorg    % moves currentpoint to line origin according to current alignment
  {      
  $lx $ly moveto    
  /$ly $ly $le sub def      % - prepare for next line(tracking)
  $al 0 ne
    {dup      % ->len str len str
    stringwidth   % ->len str len dx dy
    exch 3 index  % ->len str dy len dx
    1 sub         % ->len str dy len dx (len-1)
    $tr mul add   % ->len str dy len dx+(len-1)*$tr
    neg
    exch neg      % ->len str -dx_total dy len
    $al 1 eq      % check for centered alignment
    {2 div exch 2 div exch} if  
    rmoveto} if
  }bd

/@ft 
{ 
$pf 
{@xp} 
{ 
@scc 
{$tr exch 0 exch ashow pop} 
{pop pop}ifelse 
}ifelse 
}bd 

/@st 
{ 
$PF 
{} 
{ 
@SCC 
{ 
{ 
(0) dup 3 -1 roll 0 exch put 
@gs 
true charpath currentpoint 
$ctm setmatrix $ptm concat 
stroke 
@gr 
moveto $tr 0 rmoveto 
}forall 
pop 
} 
{pop pop}ifelse 
}ifelse 
}bd 
/@pt 
{ 
dup length exch 
}bd 
/@te 
{ 
@pt 
@lorg 
@ft 
}bd 

/@tr 
{ 
@pt 
@lorg 
@st 
}bd 
/@ta 
{ 
@pt 
@lorg 
2 copy 
@gs @ft @gr 
/$lx 0 def 
/$ly 0 def 
@st 
}bd 















/g { 
1 exch sub /$k xd 
/$c 0 def /$m 0 def /$y 0 def /$t 1 def /$n _ def /$pf false def 
}bd 

/G { 
1 exch sub /$K xd 
/$C 0 def /$M 0 def /$Y 0 def /$T 1 def /$N _ def /$PF false def 
}bd 

/k { 
/$k xd /$y xd /$m xd /$c xd 
/$t 1 def /$n _ def /$pf false def 
}bd 

/K { 
/$K xd /$Y xd /$M xd /$C xd 
/$T 1 def /$N _ def /$PF false def 
}bd 

/x { 
/$t xd /$n xd 
/$k xd /$y xd /$m xd /$c xd /$pf false def 
}bd 

/X { 
/$T xd /$N xd 
/$K xd /$Y xd /$M xd /$C xd /$PF false def 
}bd 

/d /setdash ld 

/i { 
dup 0 ne {setflat} {pop} ifelse 
}bd 

/j /setlinejoin ld 

/J /setlinecap ld 

/M /setmiterlimit ld 

/w /setlinewidth ld 

/O { 
/$o xd 
}bd 

/R { 
/$O xd 
}bd 


/c /curveto ld 

/C /c ld 

/v { 
currentpoint
6 2 roll 
curveto 
}bd

/V /v ld 

/y { 
2 copy curveto 
}bd 

/Y /y ld 

/l /lineto ld 

/L /l ld 

/m /moveto ld 



/n /newpath ld 

/N /newpath ld 

/F { 
$pf 
{@pf} 
{ 
@scc 
{eofill}if 
}ifelse 
}bd 

/f { 
@cp F 
}bd 
/S { 
$PF 
{} 
{ 
@SCC 
{ 
@sm 
$ptm concat 
stroke 
$ctm setmatrix 
}if 
}ifelse 
}bd 
/s { 
@cp 
S 
}bd 

/B { 
@gs F @gr 
S 
}bd 
/b { 
@cp 
B 
}bd 

/W { 
oeclip 
@np 
}bd 

/p { 
/$pm xd 
7 {pop} repeat 
/$pyf xd /$pxf xd 
/$pn xd 
/$pf true def 
}bd 

/P { 
11 {pop} repeat 
}bd 

/@p { 
/$pm xd 
/$psy xd 
/$psx xd 
/$pyf xd /$pxf xd 
/$pn xd 
/$pf true def 
}bd 

/@b { 
/$Bbury xd /$Bburx xd 
/$Bblly xd /$Bbllx xd 
}bd 


/z { 
/$al xd 
/$tr xd 
/$le xd 
exch findfont exch scalefont setfont 
}bd 

/Z { 
dup type 0 type eq { /$bDir xd } if
findfont 
dup maxlength 1 add dict exch 



dup 
{1 index /FID ne 
{ 
3 index 
3 1 roll put 
} 
{pop pop}ifelse 
} forall 



pop 
dup dup /Encoding get 
256 array copy 
dup /$fe xd
/Encoding exch put 

dup /Fontname 3 index put 

}bd 

/e { 
@sm 
concat 
[ 
/t {@te}def 
}bd 

/r { 
@sm 
concat 
[ 
/t {@tr}def 
}bd 

/o { 
@sm 
concat 
[ 
/t {pop}def 
}bd 

/a { 
@sm 
concat 
[ 
/t {@ta}def 
}bd 

/@o{
@sm 
concat 
[ 
/t {@t@a}def 
}bd 

/I { 
@sm 
concat 
[ 
/t {pop}def 
}bd 

/t {@te}def 

/T { 
cleartomark 
/$lx 0 def 
/$ly 0 def 
$ctm setmatrix 
}bd 


/u {}bd 

/U {}bd 

/A {pop}bd 

/h { 
$h true def 
}bd 

/h { 
$h true def 
}bd 

/q /@gs ld 

/Q /@gr ld 



/E { 
5 array astore 
exch cvlit exch def 
}bd 

/` {}bd 

/~ {}bd 

/@ {}bd 

/& {}bd 

/CorelDrawRencodeVect [ 
16#80/grave 
16#81/circumflex 
16#82/tilde 
16#83/dotlessi 
16#84/florin 
16#85/quotedblleft 
16#86/quotedblright 
16#87/guilsinglleft 
16#88/guilsinglright 
16#89/fi 
16#8a/fl 
16#8b/dagger 
16#8c/daggerdbl 
16#8d/endash 
16#8e/periodcentered 
16#8f/breve 
16#90/quotedblbase 
16#91/ellipsis 
16#92/perthousand 
16#a1/exclamdown 
16#a2/cent 
16#a3/sterling 
16#a4/currency 
16#a5/yen 
16#a6/bar 
16#a7/section 
16#a8/dieresis 
16#a9/copyright 
16#aa/ordfeminine 
16#ab/guillemotleft 
16#ac/logicalnot 
16#ad/emdash 
16#ae/registered 
16#af/spac 
16#b0/ring 
16#b1/spac 
16#b2/spac 
16#b3/spac 
16#b4/acute 
16#b5/spac 
16#b6/paragraph 
16#b7/bullet 
16#b8/cedilla 
16#b9/spac 
16#ba/ordmasculine 
16#bb/guillemotright 
16#bc/spac 
16#bd/spac 
16#be/spac 
16#bf/questiondown 
16#c0/Agrave 
16#c1/Aacute 
16#c2/Acircumflex 
16#c3/Atilde 
16#c4/Adieresis 
16#c5/Aring 
16#c6/AE 
16#c7/Ccedilla 
16#c8/Egrave 
16#c9/Eacute 
16#ca/Ecircumflex 
16#cb/Edieresis 
16#cc/Igrave 
16#cd/Iacute 
16#ce/Icircumflex 
16#cf/Idieresis 
16#d0/spac 
16#d1/Ntilde 
16#d2/Ograve 
16#d3/Oacute 
16#d4/Ocircumflex 
16#d5/Otilde 
16#d6/Odieresis 
16#d7/OE 
16#d8/Oslash 
16#d9/Ugrave 
16#da/Uacute 
16#db/Ucircumflex 
16#dc/Udieresis 
16#dd/space 
16#de/spac 
16#df/germandbls 
16#e0/agrave 
16#e1/aacute 
16#e2/acircumflex 
16#e3/atilde 
16#e4/adieresis 
16#e5/aring 
16#e6/ae 
16#e7/ccedilla 
16#e8/egrave 
16#e9/eacute 
16#ea/ecircumflex 
16#eb/edieresis 
16#ec/igrave 
16#ed/iacute 
16#ee/icircumflex 
16#ef/idieresis 
16#f0/space 
16#f1/ntilde 
16#f2/ograve 
16#f3/oacute 
16#f4/ocircumflex 
16#f5/otilde 
16#f6/odieresis 
16#f7/oe 
16#f8/oslash 
16#f9/ugrave 
16#fa/uacute 
16#fb/ucircumflex 
16#fc/udieresis 
16#fd/spac 
16#fe/spac 
16#ff/ydieresis 
] def
%%EndProlog
%%BeginSetup
%%BeginEncoding:_Times-Bold Times-Bold
[
]/_Times-Bold/Times-Bold Z
%%EndEncoding
%%EndSetup
0.000 0.000 0.000 1.000 K
0 j
0 J
0.863 w
[]0 d
0.000 0.000 0.000 0.000 k
-21.455 622.871 m
-4.895 623.735 L
-4.032 642.096 2.016 660.815 12.311 674.423 C
29.303 694.079 60.623 696.815 83.663 684.287 C
103.031 673.631 112.679 656.783 116.783 633.455 C
397.439 633.527 L
399.383 650.231 407.303 664.703 420.695 676.439 C
441.935 690.767 466.703 690.335 488.375 681.191 C
506.375 672.048 512.063 663.839 515.159 647.207 C
541.295 645.767 569.231 647.279 594.503 651.743 C
601.127 658.583 603.935 668.159 602.639 678.096 C
602.783 714.527 L
602.495 719.639 600.911 723.815 590.255 723.815 C
334.439 723.815 L
334.439 639.431 L
328.751 638.927 L
328.536 721.151 L
324.359 796.751 L
323.135 803.447 318.599 807.911 308.447 806.543 C
228.887 806.543 L
220.679 806.687 216.431 805.535 211.103 801.431 C
186.119 779.543 163.512 760.751 138.959 738.287 C
130.679 739.367 L
87.335 735.479 9.863 722.663 -19.295 716.615 C
-25.415 715.103 -33.192 701.639 -31.463 689.399 C
-29.663 678.096 -27.575 667.295 -37.943 666.359 C
-38.807 652.967 -39.743 637.631 -33.623 626.759 C
-31.463 623.303 -27.575 622.439 -21.455 622.871 C
b
0.000 0.000 0.000 1.000 K
0 j
0 J
0.863 w
[]0 d
0.000 0.000 0.000 0.000 k
585.719 376.199 m
569.159 377.063 L
568.295 395.423 562.247 414.143 551.951 427.751 C
534.959 447.407 503.639 450.143 480.527 437.615 C
461.159 426.959 451.583 410.111 447.479 386.783 C
166.751 386.855 L
164.879 403.559 156.959 418.031 143.567 429.767 C
122.255 444.095 97.559 443.663 75.815 434.519 C
57.887 425.375 52.199 417.167 49.103 400.535 C
22.967 399.095 -4.967 400.607 -30.239 405.071 C
-36.863 411.911 -39.671 421.487 -38.375 431.423 C
-38.519 467.855 L
-38.231 472.967 -36.647 477.143 -25.991 477.143 C
229.751 477.143 L
229.751 392.759 L
235.511 392.255 L
235.727 474.479 L
239.903 550.079 L
241.055 556.775 245.591 561.240 255.815 559.871 C
335.303 559.871 L
343.512 560.015 347.759 558.863 353.159 554.759 C
378.071 532.871 400.751 514.079 425.303 491.615 C
433.511 492.695 L
476.855 488.807 554.399 475.991 583.559 469.943 C
589.679 468.431 597.455 454.967 595.727 442.727 C
593.927 431.423 591.839 420.623 602.207 419.687 C
603.072 406.295 604.007 390.959 597.887 380.087 C
595.727 376.631 591.839 375.767 585.719 376.199 C
b
0.000 0.000 0.000 1.000 K
0 j
0 J
0.287 w
[]0 d
141.263 639.431 m
304.847 639.431 L
306.719 693.215 306.287 750.815 302.039 801.071 C
221.183 799.415 L
195.695 778.391 164.231 752.975 139.391 731.303 C
137.663 701.711 136.367 669.599 141.263 639.431 C
s
0.000 0.000 0.000 1.000 K
0 j
0 J
0.287 w
[]0 d
422.999 392.759 m
259.343 392.759 L
257.543 446.543 257.975 504.143 262.223 554.399 C
343.007 552.743 L
368.567 531.719 400.031 506.303 424.799 484.631 C
426.599 455.039 427.895 422.927 422.999 392.759 C
s
0.000 0.000 0.000 1.000 K
0 j
0 J
0.287 w
[]0 d
0.000 0.000 0.000 0.498 k
163.799 723.959 m
291.959 723.959 L
294.695 723.959 296.783 726.048 296.783 728.711 C
293.831 787.391 L
293.831 790.055 291.671 792.143 289.007 792.143 C
234.575 792.143 L
231.911 792.143 224.855 790.415 221.255 787.391 C
201.887 770.975 177.119 750.311 158.975 728.711 C
158.975 726.048 161.135 723.959 163.799 723.959 C
b
0.000 0.000 0.000 1.000 K
0 j
0 J
0.287 w
[]0 d
0.000 0.000 0.000 0.498 k
400.463 477.287 m
272.231 477.287 L
269.567 477.287 267.407 479.375 267.407 482.039 C
270.431 540.719 L
270.431 543.384 272.519 545.471 275.183 545.471 C
329.687 545.471 L
332.351 545.471 339.335 543.743 342.935 540.719 C
362.303 524.303 387.143 503.639 405.215 482.039 C
405.215 479.375 403.127 477.287 400.463 477.287 C
b
0.000 0.000 0.000 1.000 K
0 j
0 J
0.287 w
[]0 d
0.000 0.000 0.000 0.200 k
293.903 725.903 m
294.911 726.767 295.271 727.415 295.415 728.783 C
292.391 787.247 L
292.247 789.407 291.096 790.559 288.935 790.775 C
234.575 790.775 L
230.255 790.487 225.575 788.831 222.119 786.239 C
206.639 773.207 191.015 759.815 176.543 745.631 C
171.000 740.087 165.527 734.255 160.487 728.279 C
160.487 726.479 162.359 725.471 163.871 725.327 C
291.887 725.327 L
292.679 725.399 293.183 725.543 293.903 725.903 C
b
0.000 0.000 0.000 1.000 K
0 j
0 J
0.287 w
[]0 d
0.000 0.000 0.000 0.200 k
270.359 479.231 m
269.279 480.095 268.919 480.743 268.847 482.111 C
271.799 540.575 L
272.015 542.735 273.096 543.887 275.255 544.103 C
329.615 544.103 L
333.935 543.815 338.615 542.159 342.071 539.567 C
357.623 526.535 373.175 513.144 387.647 498.959 C
393.191 493.415 398.663 487.583 403.775 481.607 C
403.775 479.807 401.831 478.799 400.391 478.655 C
272.303 478.655 L
271.512 478.727 271.007 478.871 270.359 479.231 C
b
0.000 0.000 0.000 1.000 K
0 j
0 J
0.287 w
[]0 d
0.000 0.000 0.000 0.498 k
9.503 620.207 m
3.023 653.327 27.575 678.815 54.647 679.535 c
86.471 680.399 110.087 650.303 103.247 620.567 C
106.847 616.463 L
354.815 628.559 L
361.943 616.895 369.071 626.183 377.423 626.327 C
380.447 625.463 382.247 623.735 383.615 620.351 C
388.439 621.431 393.335 619.559 397.655 617.615 C
396.431 622.727 396.575 628.271 397.367 633.599 C
116.567 633.599 L
114.767 645.695 111.671 654.407 106.919 662.039 c
101.735 670.391 94.103 677.231 83.879 683.855 c
63.791 696.743 30.599 693.647 15.263 677.375 c
3.167 664.487 -3.455 644.687 -5.183 623.663 C
9.503 620.207 L
b
0.000 0.000 0.000 1.000 K
0 j
0 J
0.287 w
[]0 d
0.000 0.000 0.000 0.498 k
554.759 373.535 m
561.240 406.655 536.687 432.143 509.615 432.863 c
477.719 433.727 454.103 403.631 461.015 373.895 C
457.415 369.791 L
209.447 381.887 L
202.247 370.223 195.119 379.511 186.767 379.655 C
183.743 378.791 181.943 377.063 180.647 373.679 C
175.751 374.759 170.855 372.887 166.536 370.943 C
167.759 376.055 167.615 381.599 166.823 386.927 C
447.623 386.927 L
449.495 399.023 452.591 407.735 457.343 415.367 c
462.455 423.719 470.087 430.559 480.383 437.183 c
500.471 450.071 533.663 446.975 549.000 430.703 c
561.096 417.815 567.719 398.015 569.447 376.991 C
554.759 373.535 L
b
0.000 0.000 0.000 1.000 K
0 j
0 J
0.287 w
[]0 d
0.000 0.000 0.000 0.498 k
410.759 620.207 m
404.351 653.327 428.903 678.815 455.975 679.535 c
487.799 680.399 511.415 650.303 504.575 620.567 C
505.943 627.551 L
525.312 633.096 564.551 623.303 571.823 644.327 C
590.615 634.103 589.895 641.159 588.959 646.991 C
593.351 648.359 594.863 651.743 593.783 651.527 C
577.007 647.423 518.831 645.407 515.159 647.351 C
511.703 663.623 507.887 671.111 489.311 680.327 c
467.135 691.415 431.423 688.679 416.231 672.191 c
401.543 656.207 395.063 641.951 397.511 617.399 C
410.759 620.207 L
b
0.000 0.000 0.000 1.000 K
0 j
0 J
0.287 w
[]0 d
0.000 0.000 0.000 0.498 k
153.431 373.535 m
159.911 406.655 135.359 432.143 108.287 432.863 c
76.463 433.727 52.847 403.631 59.687 373.895 C
58.319 380.879 L
38.951 386.423 -0.287 376.631 -7.559 397.655 C
-26.351 387.431 -25.631 394.487 -24.695 400.319 C
-29.087 401.687 -30.599 405.071 -29.519 404.855 C
-12.743 400.751 45.431 398.735 49.103 400.679 C
52.559 416.951 56.375 424.439 74.879 433.655 c
97.127 444.743 132.840 442.007 148.031 425.519 c
162.647 409.535 169.127 395.279 166.679 370.727 C
153.431 373.535 L
b
0.000 0.000 0.000 1.000 K
0 j
0 J
0.287 w
[]0 d
0.000 0.000 0.000 0.000 k
-16.919 681.983 m
-17.135 677.807 -26.639 677.807 -30.095 677.663 C
-29.807 685.367 -34.199 692.207 -29.591 703.511 C
-25.271 703.439 -15.767 703.943 -15.551 699.407 C
-16.919 681.983 L
b
0.000 0.000 0.000 1.000 K
0 j
0 J
0.287 w
[]0 d
0.000 0.000 0.000 0.000 k
581.183 435.311 m
581.399 431.135 590.903 431.135 594.359 430.991 C
594.072 438.695 598.463 445.535 593.855 456.839 C
589.535 456.767 580.031 457.271 579.815 452.735 C
581.183 435.311 L
b
0.000 0.000 0.000 1.000 K
0 j
0 J
0.287 w
[]0 d
0.000 0.000 0.000 0.298 k
-19.224 679.607 m
-22.175 678.527 -25.631 679.103 -28.727 679.103 C
-28.799 682.703 -29.519 686.519 -29.951 690.120 C
-30.239 695.015 -30.023 698.759 -28.511 703.511 C
-26.423 703.511 -19.367 703.799 -18.431 701.207 C
-18.359 700.631 L
-18.359 680.687 L
-18.431 680.039 -18.647 679.967 -19.224 679.607 C
b
0.000 0.000 0.000 1.000 K
0 j
0 J
0.287 w
[]0 d
0.000 0.000 0.000 0.298 k
583.487 432.935 m
586.439 431.855 589.895 432.431 592.991 432.431 C
593.063 436.031 593.783 439.847 594.216 443.447 C
594.503 448.343 594.288 452.087 592.775 456.839 C
590.687 456.839 583.631 457.127 582.695 454.535 C
582.623 453.959 L
582.623 434.015 L
582.695 433.367 582.911 433.295 583.487 432.935 C
b
0.000 0.000 0.000 1.000 K
0 j
0 J
0.287 w
[]0 d
0.000 0.000 0.000 1.000 k
56.447 583.199 m
82.943 583.199 104.543 604.799 104.543 631.367 c
104.543 657.863 82.943 679.463 56.447 679.463 c
29.879 679.463 8.279 657.863 8.279 631.367 c
8.279 604.799 29.879 583.199 56.447 583.199 c
b
0.000 0.000 0.000 1.000 K
0 j
0 J
0.287 w
[]0 d
0.000 0.000 0.000 1.000 k
507.815 336.527 m
481.319 336.527 459.647 358.127 459.647 384.695 c
459.647 411.191 481.319 432.791 507.815 432.791 c
534.384 432.791 555.983 411.191 555.983 384.695 c
555.983 358.127 534.384 336.527 507.815 336.527 c
b
0.000 0.000 0.000 1.000 K
0 j
0 J
0.287 w
[]0 d
0.000 0.000 0.000 1.000 k
457.703 583.199 m
484.199 583.199 505.871 604.799 505.871 631.367 c
505.871 657.863 484.199 679.463 457.703 679.463 c
431.207 679.463 409.535 657.863 409.535 631.367 c
409.535 604.799 431.207 583.199 457.703 583.199 c
b
0.000 0.000 0.000 1.000 K
0 j
0 J
0.287 w
[]0 d
0.000 0.000 0.000 1.000 k
106.487 336.527 m
79.991 336.527 58.391 358.127 58.391 384.695 c
58.391 411.191 79.991 432.791 106.487 432.791 c
133.055 432.791 154.655 411.191 154.655 384.695 c
154.655 358.127 133.055 336.527 106.487 336.527 c
b
u
u
0.000 0.000 0.000 1.000 K
0 j
0 J
0.287 w
[]0 d
-30.095 673.487 m
5.543 673.487 L
S
U
U
u
u
0.000 0.000 0.000 1.000 K
0 j
0 J
0.287 w
[]0 d
594.359 426.815 m
558.719 426.815 L
S
U
U
0.000 0.000 0.000 1.000 K
0 j
0 J
0.287 w
[]0 d
0.000 0.000 0.000 0.000 k
56.015 662.471 m
73.152 662.471 87.263 648.287 87.263 631.223 C
87.263 613.943 73.152 600.048 56.015 600.048 C
38.735 600.048 24.839 613.943 24.839 631.223 C
24.839 648.287 38.735 662.471 56.015 662.471 C
b
0.000 0.000 0.000 1.000 K
0 j
0 J
0.287 w
[]0 d
0.000 0.000 0.000 0.000 k
508.247 415.799 m
491.111 415.799 476.927 401.615 476.927 384.551 C
476.927 367.271 491.111 353.375 508.247 353.375 C
525.527 353.375 539.423 367.271 539.423 384.551 C
539.423 401.615 525.527 415.799 508.247 415.799 C
b
0.000 0.000 0.000 1.000 K
0 j
0 J
0.287 w
[]0 d
56.015 602.711 m
71.640 602.711 84.384 615.599 84.384 631.223 C
84.384 646.847 71.640 659.519 56.015 659.519 C
40.391 659.519 27.503 646.847 27.503 631.223 C
27.503 615.599 40.391 602.711 56.015 602.711 C
s
0.000 0.000 0.000 1.000 K
0 j
0 J
0.287 w
[]0 d
508.247 356.039 m
492.623 356.039 479.879 368.927 479.879 384.551 C
479.879 400.175 492.623 412.847 508.247 412.847 C
523.871 412.847 536.759 400.175 536.759 384.551 C
536.759 368.927 523.871 356.039 508.247 356.039 C
s
0.000 0.000 0.000 1.000 K
0 j
0 J
0.287 w
[]0 d
0.000 0.000 0.000 0.498 k
66.384 655.343 m
61.415 651.599 L
66.167 650.807 70.991 646.559 71.783 645.048 C
77.256 646.847 L
74.447 651.096 70.055 654.335 66.384 655.343 C
b
0.000 0.000 0.000 1.000 K
0 j
0 J
0.287 w
[]0 d
0.000 0.000 0.000 0.498 k
497.879 408.671 m
502.847 404.927 L
498.095 404.135 493.271 399.887 492.479 398.375 C
487.007 400.175 L
489.815 404.423 494.207 407.663 497.879 408.671 C
b
0.000 0.000 0.000 1.000 K
0 j
0 J
0.287 w
[]0 d
0.000 0.000 0.000 0.498 k
78.623 644.543 m
72.359 644.399 L
75.743 641.159 77.183 634.823 76.896 633.096 C
82.367 631.223 L
82.583 636.263 81.000 641.663 78.623 644.543 C
b
0.000 0.000 0.000 1.000 K
0 j
0 J
0.287 w
[]0 d
0.000 0.000 0.000 0.498 k
485.567 397.871 m
491.903 397.727 L
488.447 394.487 487.079 388.151 487.367 386.423 C
481.823 384.551 L
481.607 389.591 483.263 394.991 485.567 397.871 C
b
0.000 0.000 0.000 1.000 K
0 j
0 J
0.287 w
[]0 d
0.000 0.000 0.000 0.498 k
82.079 628.559 m
77.039 632.159 L
77.759 627.623 75.239 621.575 74.015 620.423 C
77.399 615.743 L
80.640 619.631 82.367 625.031 82.079 628.559 C
b
0.000 0.000 0.000 1.000 K
0 j
0 J
0.287 w
[]0 d
0.000 0.000 0.000 0.498 k
482.111 381.887 m
487.223 385.487 L
486.503 380.951 488.951 374.903 490.247 373.751 C
486.863 369.071 L
483.623 372.959 481.823 378.359 482.111 381.887 C
b
0.000 0.000 0.000 1.000 K
0 j
0 J
0.287 w
[]0 d
0.000 0.000 0.000 0.498 k
75.743 613.727 m
73.655 619.775 L
71.640 615.527 66.024 612.144 64.295 611.783 C
64.295 605.951 L
69.119 607.247 73.799 610.631 75.743 613.727 C
b
0.000 0.000 0.000 1.000 K
0 j
0 J
0.287 w
[]0 d
0.000 0.000 0.000 0.498 k
488.447 367.055 m
490.607 373.103 L
492.623 368.855 498.239 365.471 499.967 365.111 C
499.967 359.279 L
495.143 360.575 490.463 363.959 488.447 367.055 C
b
0.000 0.000 0.000 1.000 K
0 j
0 J
0.287 w
[]0 d
0.000 0.000 0.000 0.498 k
61.703 605.303 m
63.503 611.351 L
59.399 609.335 52.919 609.839 51.263 610.631 C
47.879 605.879 L
52.559 604.151 58.319 604.151 61.703 605.303 C
b
0.000 0.000 0.000 1.000 K
0 j
0 J
0.287 w
[]0 d
0.000 0.000 0.000 0.498 k
502.559 358.631 m
500.759 364.679 L
504.863 362.663 511.343 363.167 513.000 363.959 C
516.384 359.207 L
511.703 357.479 505.943 357.479 502.559 358.631 C
b
0.000 0.000 0.000 1.000 K
0 j
0 J
0.287 w
[]0 d
0.000 0.000 0.000 0.498 k
45.575 606.959 m
50.543 610.703 L
45.791 611.495 40.895 615.599 40.175 617.183 C
34.704 615.527 L
37.295 611.207 41.903 607.895 45.575 606.959 C
b
0.000 0.000 0.000 1.000 K
0 j
0 J
0.287 w
[]0 d
0.000 0.000 0.000 0.498 k
518.687 360.287 m
513.719 364.031 L
518.471 364.823 523.367 368.927 524.087 370.511 C
529.559 368.855 L
526.967 364.535 522.360 361.223 518.687 360.287 C
b
0.000 0.000 0.000 1.000 K
0 j
0 J
0.287 w
[]0 d
0.000 0.000 0.000 0.498 k
33.335 617.687 m
39.527 617.831 L
36.143 621.072 34.847 627.479 34.991 629.207 C
29.591 631.079 L
29.159 625.967 30.887 620.567 33.335 617.687 C
b
0.000 0.000 0.000 1.000 K
0 j
0 J
0.287 w
[]0 d
0.000 0.000 0.000 0.498 k
530.927 371.015 m
524.735 371.159 L
528.120 374.399 529.415 380.807 529.271 382.535 C
534.671 384.407 L
535.103 379.295 533.375 373.895 530.927 371.015 C
b
0.000 0.000 0.000 1.000 K
0 j
0 J
0.287 w
[]0 d
0.000 0.000 0.000 0.498 k
29.807 633.671 m
34.919 630.072 L
34.199 634.679 36.576 640.655 37.943 641.807 C
34.559 646.703 L
31.175 642.743 29.591 637.199 29.807 633.671 C
b
0.000 0.000 0.000 1.000 K
0 j
0 J
0.287 w
[]0 d
0.000 0.000 0.000 0.498 k
534.455 386.999 m
529.343 383.399 L
530.063 388.007 527.687 393.983 526.319 395.135 C
529.703 400.031 L
533.087 396.071 534.671 390.527 534.455 386.999 C
b
0.000 0.000 0.000 1.000 K
0 j
0 J
0.287 w
[]0 d
0.000 0.000 0.000 0.498 k
36.143 648.575 m
38.303 642.743 L
40.391 646.847 45.935 650.303 47.663 650.591 C
47.663 656.279 L
42.767 655.055 38.159 651.671 36.143 648.575 C
b
0.000 0.000 0.000 1.000 K
0 j
0 J
0.287 w
[]0 d
0.000 0.000 0.000 0.498 k
528.120 401.903 m
525.959 396.071 L
523.871 400.175 518.327 403.631 516.599 403.919 C
516.599 409.607 L
521.495 408.383 526.103 404.999 528.120 401.903 C
b
0.000 0.000 0.000 1.000 K
0 j
0 J
0.287 w
[]0 d
0.000 0.000 0.000 0.498 k
50.327 656.927 m
53.639 658.223 59.399 658.223 64.007 656.423 C
60.623 651.743 L
59.111 652.391 52.559 652.895 48.383 650.951 C
50.327 656.927 L
b
0.000 0.000 0.000 1.000 K
0 j
0 J
0.287 w
[]0 d
0.000 0.000 0.000 0.498 k
513.935 410.255 m
510.623 411.551 504.863 411.551 500.255 409.751 C
503.639 405.071 L
505.151 405.719 511.703 406.223 515.879 404.279 C
513.935 410.255 L
b
0.000 0.000 0.000 1.000 K
0 j
0 J
0.287 w
[]0 d
0.000 0.000 0.000 0.498 k
56.159 617.327 m
63.791 617.327 70.055 623.591 70.055 631.223 C
70.055 638.711 63.791 644.903 56.159 644.903 C
48.671 644.903 42.479 638.711 42.479 631.223 C
42.479 623.591 48.671 617.327 56.159 617.327 C
b
0.000 0.000 0.000 1.000 K
0 j
0 J
0.287 w
[]0 d
0.000 0.000 0.000 0.498 k
508.103 370.655 m
500.471 370.655 494.207 376.919 494.207 384.551 C
494.207 392.039 500.471 398.231 508.103 398.231 C
515.591 398.231 521.783 392.039 521.783 384.551 C
521.783 376.919 515.591 370.655 508.103 370.655 C
b
0.000 0.000 0.000 1.000 K
0 j
0 J
0.287 w
[]0 d
0.000 0.000 0.000 0.000 k
432.215 613.295 m
422.423 627.335 425.879 646.991 439.919 656.783 C
454.031 666.719 473.543 663.120 483.407 649.079 C
493.343 634.967 489.887 615.599 475.703 605.663 C
461.735 595.871 442.151 599.183 432.215 613.295 C
b
0.000 0.000 0.000 1.000 K
0 j
0 J
0.287 w
[]0 d
0.000 0.000 0.000 0.000 k
131.975 366.623 m
141.768 380.663 138.311 400.319 124.271 410.111 C
110.159 420.047 90.647 416.447 80.855 402.407 C
70.920 388.295 74.375 368.927 88.487 358.991 C
102.527 349.199 122.111 352.512 131.975 366.623 C
b
0.000 0.000 0.000 1.000 K
0 j
0 J
0.287 w
[]0 d
481.175 647.567 m
472.247 660.383 454.391 663.407 441.575 654.407 C
428.759 645.479 425.663 627.767 434.591 614.951 C
443.591 602.135 461.375 598.895 474.191 607.895 C
487.007 616.823 490.175 634.751 481.175 647.567 C
s
0.000 0.000 0.000 1.000 K
0 j
0 J
0.287 w
[]0 d
83.015 400.895 m
92.015 413.711 109.871 416.735 122.615 407.735 C
135.431 398.807 138.599 381.095 129.599 368.279 C
120.671 355.463 102.815 352.223 90.071 361.223 C
77.256 370.151 74.087 388.079 83.015 400.895 C
s
0.000 0.000 0.000 1.000 K
0 j
0 J
0.287 w
[]0 d
0.000 0.000 0.000 0.498 k
432.143 625.895 m
438.119 623.951 L
436.031 628.271 436.679 634.679 437.471 636.192 C
432.863 639.647 L
430.991 634.967 430.847 629.423 432.143 625.895 C
b
0.000 0.000 0.000 1.000 K
0 j
0 J
0.287 w
[]0 d
0.000 0.000 0.000 0.498 k
132.119 379.223 m
126.143 377.279 L
128.231 381.599 127.511 388.007 126.791 389.519 C
131.328 392.975 L
133.271 388.295 133.343 382.751 132.119 379.223 C
b
0.000 0.000 0.000 1.000 K
0 j
0 J
0.287 w
[]0 d
0.000 0.000 0.000 0.498 k
433.943 642.096 m
437.615 636.983 L
438.335 641.663 442.799 646.487 444.311 647.207 C
442.727 652.823 L
438.407 650.087 434.951 645.623 433.943 642.096 C
b
0.000 0.000 0.000 1.000 K
0 j
0 J
0.287 w
[]0 d
0.000 0.000 0.000 0.498 k
130.319 395.423 m
126.575 390.311 L
125.855 394.991 121.463 399.815 119.879 400.535 C
121.535 406.151 L
125.783 403.415 129.239 398.951 130.319 395.423 C
b
0.000 0.000 0.000 1.000 K
0 j
0 J
0.287 w
[]0 d
0.000 0.000 0.000 0.498 k
445.031 654.048 m
444.959 647.855 L
448.343 651.096 454.679 652.463 456.335 652.103 C
458.279 657.575 L
453.239 658.007 447.767 656.351 445.031 654.048 C
b
0.000 0.000 0.000 1.000 K
0 j
0 J
0.287 w
[]0 d
0.000 0.000 0.000 0.498 k
119.231 407.375 m
119.231 401.183 L
115.847 404.423 109.511 405.791 107.855 405.431 C
105.911 410.903 L
111.023 411.335 116.495 409.679 119.231 407.375 C
b
0.000 0.000 0.000 1.000 K
0 j
0 J
0.287 w
[]0 d
0.000 0.000 0.000 0.498 k
460.871 657.359 m
457.127 652.175 L
461.735 653.039 467.783 650.303 469.007 649.151 C
473.759 652.463 L
469.943 655.703 464.543 657.575 460.871 657.359 C
b
0.000 0.000 0.000 1.000 K
0 j
0 J
0.287 w
[]0 d
0.000 0.000 0.000 0.498 k
103.391 410.687 m
107.063 405.503 L
102.455 406.367 96.479 403.631 95.183 402.479 C
90.431 405.791 L
94.247 409.031 99.719 410.903 103.391 410.687 C
b
0.000 0.000 0.000 1.000 K
0 j
0 J
0.287 w
[]0 d
0.000 0.000 0.000 0.498 k
475.775 650.663 m
469.799 648.719 L
473.831 646.487 477.143 640.943 477.431 639.144 C
483.263 639.072 L
482.039 643.895 478.727 648.575 475.775 650.663 C
b
0.000 0.000 0.000 1.000 K
0 j
0 J
0.287 w
[]0 d
0.000 0.000 0.000 0.498 k
88.415 403.991 m
94.391 402.047 L
90.431 399.815 87.119 394.271 86.831 392.471 C
81.000 392.399 L
82.223 397.223 85.463 401.903 88.415 403.991 C
b
0.000 0.000 0.000 1.000 K
0 j
0 J
0.287 w
[]0 d
0.000 0.000 0.000 0.498 k
483.695 636.551 m
477.791 638.423 L
479.879 634.103 479.303 627.767 478.367 626.255 C
482.975 622.727 L
484.991 627.335 485.063 633.024 483.695 636.551 C
b
0.000 0.000 0.000 1.000 K
0 j
0 J
0.287 w
[]0 d
0.000 0.000 0.000 0.498 k
80.495 389.879 m
86.399 391.751 L
84.311 387.431 84.887 381.095 85.823 379.583 C
81.287 376.055 L
79.271 380.663 79.128 386.351 80.495 389.879 C
b
0.000 0.000 0.000 1.000 K
0 j
0 J
0.287 w
[]0 d
0.000 0.000 0.000 0.498 k
481.895 620.351 m
478.223 625.391 L
477.503 620.711 473.111 615.959 471.527 615.168 C
473.111 609.623 L
477.575 612.216 480.959 616.751 481.895 620.351 C
b
0.000 0.000 0.000 1.000 K
0 j
0 J
0.287 w
[]0 d
0.000 0.000 0.000 0.498 k
82.295 373.679 m
85.967 378.719 L
86.687 374.039 91.151 369.287 92.735 368.495 C
91.079 362.951 L
86.687 365.543 83.303 370.079 82.295 373.679 C
b
0.000 0.000 0.000 1.000 K
0 j
0 J
0.287 w
[]0 d
0.000 0.000 0.000 0.498 k
470.879 608.327 m
470.879 614.591 L
467.567 611.351 461.231 609.839 459.503 610.271 C
457.487 604.727 L
462.671 604.295 468.071 606.096 470.879 608.327 C
b
0.000 0.000 0.000 1.000 K
0 j
0 J
0.287 w
[]0 d
0.000 0.000 0.000 0.498 k
93.383 361.655 m
93.383 367.919 L
96.695 364.679 102.959 363.167 104.687 363.599 C
106.703 358.055 L
101.591 357.623 96.119 359.423 93.383 361.655 C
b
0.000 0.000 0.000 1.000 K
0 j
0 J
0.287 w
[]0 d
0.000 0.000 0.000 0.498 k
454.967 604.943 m
458.567 610.055 L
454.031 609.479 447.983 612.000 446.759 613.295 C
442.079 609.983 L
445.895 606.743 451.295 604.799 454.967 604.943 C
b
0.000 0.000 0.000 1.000 K
0 j
0 J
0.287 w
[]0 d
0.000 0.000 0.000 0.498 k
109.223 358.271 m
105.623 363.383 L
110.231 362.807 116.207 365.327 117.431 366.623 C
122.183 363.311 L
118.295 360.071 112.895 358.127 109.223 358.271 C
b
0.000 0.000 0.000 1.000 K
0 j
0 J
0.287 w
[]0 d
0.000 0.000 0.000 0.498 k
440.063 611.783 m
437.111 613.727 433.799 618.479 432.575 623.303 C
438.335 623.159 L
438.695 621.575 442.079 615.959 446.039 613.655 C
440.063 611.783 L
b
0.000 0.000 0.000 1.000 K
0 j
0 J
0.287 w
[]0 d
0.000 0.000 0.000 0.498 k
124.199 365.111 m
127.151 367.055 130.463 371.807 131.615 376.631 C
125.855 376.487 L
125.567 374.903 122.183 369.287 118.151 366.983 C
124.199 365.111 L
b
0.000 0.000 0.000 1.000 K
0 j
0 J
0.287 w
[]0 d
0.000 0.000 0.000 0.498 k
469.151 639.287 m
464.759 645.551 456.047 647.063 449.783 642.671 C
443.663 638.351 442.151 629.711 446.543 623.447 C
450.863 617.327 459.503 615.815 465.623 620.063 C
471.887 624.455 473.399 633.168 469.151 639.287 C
b
0.000 0.000 0.000 1.000 K
0 j
0 J
0.287 w
[]0 d
0.000 0.000 0.000 0.498 k
95.111 392.615 m
99.503 398.879 108.143 400.391 114.407 395.999 C
120.527 391.679 122.111 383.039 117.719 376.775 C
113.399 370.655 104.759 369.143 98.567 373.391 C
92.375 377.783 90.791 386.495 95.111 392.615 C
b
0.000 0.000 0.000 1.000 K
0 j
0 J
0.287 w
[]0 d
0.000 0.000 0.000 0.298 k
590.327 714.024 m
602.711 714.024 L
602.567 677.879 L
590.111 677.879 L
590.327 714.024 L
b
0.000 0.000 0.000 1.000 K
0 j
0 J
0.287 w
[]0 d
0.000 0.000 0.000 0.298 k
-26.063 467.351 m
-38.448 467.351 L
-38.303 431.207 L
-25.847 431.207 L
-26.063 467.351 L
b
u
u
0.000 0.000 0.000 1.000 K
0 j
0 J
0.287 w
[]0 d
513.216 655.487 m
541.223 655.487 L
S
U
U
u
u
0.000 0.000 0.000 1.000 K
0 j
0 J
0.287 w
[]0 d
51.047 408.815 m
23.039 408.815 L
S
U
U
u
u
0.000 0.000 0.000 1.000 K
0 j
0 J
0.287 w
[]0 d
590.903 705.455 m
602.567 705.455 L
S
U
U
u
u
0.000 0.000 0.000 1.000 K
0 j
0 J
0.287 w
[]0 d
-26.639 458.783 m
-38.303 458.783 L
S
U
U
u
u
0.000 0.000 0.000 1.000 K
0 j
0 J
0.287 w
[]0 d
590.111 686.447 m
601.703 686.447 L
S
U
U
u
u
0.000 0.000 0.000 1.000 K
0 j
0 J
0.287 w
[]0 d
-25.847 439.775 m
-37.439 439.775 L
S
U
U
0.000 0.000 0.000 1.000 K
0 j
0 J
0.287 w
[]0 d
503.711 677.807 m
602.711 677.807 L
602.783 673.919 603.575 669.887 601.847 666.647 C
519.264 666.647 L
511.415 668.375 506.807 673.343 503.711 677.807 C
s
0.000 0.000 0.000 1.000 K
0 j
0 J
0.287 w
[]0 d
60.551 431.135 m
-38.448 431.135 L
-38.519 427.247 -39.311 423.215 -37.583 419.975 C
45.000 419.975 L
52.847 421.703 57.455 426.671 60.551 431.135 C
s
u
u
0.000 0.000 0.000 1.000 K
0 j
0 J
0.287 w
[]0 d
430.487 688.895 m
458.495 697.103 484.775 694.367 503.783 677.951 C
S
U
U
u
u
0.000 0.000 0.000 1.000 K
0 j
0 J
0.287 w
[]0 d
133.703 442.223 m
105.695 450.431 79.415 447.695 60.479 431.279 C
S
U
U
0.000 0.000 0.000 1.000 K
0 j
0 J
0.287 w
[]0 d
523.367 698.687 m
383.255 698.687 L
395.639 701.567 441.143 702.503 460.799 702.215 c
485.999 701.855 502.199 701.279 523.367 698.687 C
s
0.000 0.000 0.000 1.000 K
0 j
0 J
0.287 w
[]0 d
40.895 452.015 m
181.007 452.015 L
168.623 454.895 123.047 455.831 103.463 455.543 c
78.191 455.183 62.063 454.607 40.895 452.015 C
s
0.000 0.000 0.000 1.000 K
0 j
0 J
0.287 w
[]0 d
276.623 716.399 m
294.407 716.399 L
296.351 716.399 297.791 714.959 297.791 713.015 C
297.791 706.967 L
297.791 705.024 296.351 703.511 294.407 703.511 C
276.623 703.511 L
274.680 703.511 273.239 705.024 273.239 706.967 C
273.239 713.015 L
273.239 714.959 274.680 716.399 276.623 716.399 C
s
0.000 0.000 0.000 1.000 K
0 j
0 J
0.287 w
[]0 d
287.639 469.727 m
269.783 469.727 L
267.911 469.727 266.399 468.287 266.399 466.343 C
266.399 460.295 L
266.399 458.351 267.911 456.839 269.783 456.839 C
287.639 456.839 L
289.512 456.839 291.024 458.351 291.024 460.295 C
291.024 466.343 L
291.024 468.287 289.512 469.727 287.639 469.727 C
s
0.000 0.000 0.000 1.000 K
0 j
0 J
0.287 w
[]0 d
276.623 716.399 m
294.407 716.399 L
296.351 716.399 297.791 714.959 297.791 713.015 C
297.791 710.783 L
273.239 710.783 L
273.239 713.015 L
273.239 714.959 274.680 716.399 276.623 716.399 C
s
0.000 0.000 0.000 1.000 K
0 j
0 J
0.287 w
[]0 d
287.639 469.727 m
269.783 469.727 L
267.911 469.727 266.399 468.287 266.399 466.343 C
266.399 464.111 L
291.024 464.111 L
291.024 466.343 L
291.024 468.287 289.512 469.727 287.639 469.727 C
s
u
u
0.000 0.000 0.000 1.000 K
0 j
0 J
0.287 w
[]0 d
328.247 677.807 m
100.655 677.807 L
73.007 704.879 22.679 702.863 5.255 673.487 C
S
U
U
u
u
0.000 0.000 0.000 1.000 K
0 j
0 J
0.287 w
[]0 d
236.015 431.135 m
463.607 431.135 L
491.255 458.207 541.583 456.191 559.007 426.815 C
S
U
U
u
u
0.000 0.000 0.000 1.000 K
0 j
0 J
0.287 w
[]0 d
328.391 667.151 m
103.607 667.151 L
S
U
U
u
u
0.000 0.000 0.000 1.000 K
0 j
0 J
0.287 w
[]0 d
235.871 420.479 m
460.655 420.479 L
S
U
U
u
u
0.000 0.000 0.000 1.000 K
0 j
0 J
0.287 w
[]0 d
-0.287 646.703 m
-38.015 646.703 L
S
U
U
u
u
0.000 0.000 0.000 1.000 K
0 j
0 J
0.287 w
[]0 d
564.551 400.031 m
602.279 400.031 L
S
U
U
0.000 0.000 0.000 1.000 K
0 j
0 J
0.287 w
[]0 d
-1.655 700.055 m
120.671 705.311 L
101.375 707.687 81.287 708.983 58.031 708.048 c
37.007 707.111 17.639 704.375 -1.655 700.055 C
s
0.000 0.000 0.000 1.000 K
0 j
0 J
0.287 w
[]0 d
565.919 453.383 m
443.519 458.639 L
462.815 461.015 482.903 462.311 506.231 461.375 c
527.255 460.439 546.623 457.703 565.919 453.383 C
s
u
u
0.000 0.000 0.000 1.000 K
0 j
0 J
0.287 w
[]0 d
132.911 639.431 m
115.559 639.431 L
S
U
U
u
u
0.000 0.000 0.000 1.000 K
0 j
0 J
0.287 w
[]0 d
431.279 392.759 m
448.703 392.759 L
S
U
U
u
u
0.000 0.000 0.000 1.000 K
0 j
0 J
0.287 w
[]0 d
130.823 739.223 m
129.455 735.623 120.887 735.983 109.439 734.543 C
77.759 731.519 21.383 721.223 -10.295 715.751 C
-20.951 713.735 -25.271 710.855 -27.359 704.879 C
S
U
U
u
u
0.000 0.000 0.000 1.000 K
0 j
0 J
0.287 w
[]0 d
433.439 492.551 m
434.735 488.951 443.303 489.311 454.751 487.871 C
486.431 484.847 542.879 474.551 574.559 469.079 C
585.216 467.063 589.535 464.183 591.623 458.207 C
S
U
U
0.000 0.000 0.000 1.000 K
0 j
0 J
0.287 w
[]0 d
0.000 0.000 0.000 1.000 k
56.015 624.959 m
52.559 624.959 49.823 627.767 49.823 631.223 C
49.823 634.607 52.559 637.343 56.015 637.343 C
59.399 637.343 62.207 634.607 62.207 631.223 C
62.207 627.767 59.399 624.959 56.015 624.959 C
b
0.000 0.000 0.000 1.000 K
0 j
0 J
0.287 w
[]0 d
0.000 0.000 0.000 1.000 k
508.247 378.287 m
511.703 378.287 514.439 381.095 514.439 384.551 C
514.439 387.935 511.703 390.671 508.247 390.671 C
504.863 390.671 502.055 387.935 502.055 384.551 C
502.055 381.095 504.863 378.287 508.247 378.287 C
b
0.000 0.000 0.000 1.000 K
0 j
0 J
0.287 w
[]0 d
0.000 0.000 0.000 1.000 k
462.959 634.751 m
464.903 631.943 464.255 628.127 461.447 626.111 C
458.639 624.168 454.823 624.815 452.807 627.695 C
450.863 630.431 451.511 634.319 454.319 636.263 C
457.127 638.207 461.015 637.559 462.959 634.751 C
b
0.000 0.000 0.000 1.000 K
0 j
0 J
0.287 w
[]0 d
0.000 0.000 0.000 1.000 k
101.303 388.079 m
99.287 385.271 100.007 381.455 102.815 379.439 C
105.623 377.495 109.439 378.143 111.383 381.023 C
113.399 383.759 112.679 387.647 109.943 389.591 C
107.063 391.535 103.247 390.887 101.303 388.079 C
b
u
u
0.000 0.000 0.000 1.000 K
0 j
0 J
0.287 w
[]0 d
754.271 594.791 m
754.271 594.791 754.271 594.791 754.271 594.791 C
S
U
U
u
u
0.000 0.000 0.000 1.000 K
0 j
0 J
0.287 w
[]0 d
311.759 639.000 m
388.871 639.000 L
393.911 665.927 411.047 685.079 432.071 689.039 C
S
U
U
u
u
0.000 0.000 0.000 1.000 K
0 j
0 J
0.287 w
[]0 d
252.431 392.327 m
175.319 392.327 L
170.280 419.255 153.215 438.407 132.119 442.367 C
S
U
U
u
u
0.000 0.000 0.000 1.000 K
0 j
0 J
0.287 w
[]0 d
335.951 718.919 m
601.343 718.919 L
S
U
U
u
u
0.000 0.000 0.000 1.000 K
0 j
0 J
0.287 w
[]0 d
228.311 472.247 m
-37.079 472.247 L
S
U
U
0.000 0.000 0.000 1.000 K
0 j
0 J
0.287 w
[]0 d
351.719 718.919 m
360.287 718.919 L
360.287 711.287 L
351.719 711.287 L
351.719 718.919 L
s
0.000 0.000 0.000 1.000 K
0 j
0 J
0.287 w
[]0 d
212.543 472.247 m
203.903 472.247 L
203.903 464.615 L
212.543 464.615 L
212.543 472.247 L
s
0.000 0.000 0.000 1.000 K
0 j
0 J
0.287 w
[]0 d
428.615 718.919 m
437.183 718.919 L
437.183 711.287 L
428.615 711.287 L
428.615 718.919 L
s
0.000 0.000 0.000 1.000 K
0 j
0 J
0.287 w
[]0 d
135.647 472.247 m
127.007 472.247 L
127.007 464.615 L
135.647 464.615 L
135.647 472.247 L
s
0.000 0.000 0.000 1.000 K
0 j
0 J
0.287 w
[]0 d
504.431 718.919 m
513.072 718.919 L
513.072 711.287 L
504.431 711.287 L
504.431 718.919 L
s
0.000 0.000 0.000 1.000 K
0 j
0 J
0.287 w
[]0 d
59.831 472.247 m
51.191 472.247 L
51.191 464.615 L
59.831 464.615 L
59.831 472.247 L
s
0.000 0.000 0.000 1.000 K
0 j
0 J
0.287 w
[]0 d
570.096 718.919 m
578.663 718.919 L
578.663 711.287 L
570.096 711.287 L
570.096 718.919 L
s
0.000 0.000 0.000 1.000 K
0 j
0 J
0.287 w
[]0 d
-5.831 472.247 m
-14.399 472.247 L
-14.399 464.615 L
-5.831 464.615 L
-5.831 472.247 L
s
0.000 0.000 0.000 1.000 K
0 j
0 J
0.287 w
[]0 d
155.591 448.055 m
169.055 448.055 L
170.855 448.055 172.223 446.615 172.223 444.815 C
172.223 437.183 L
172.223 435.383 170.855 433.943 169.055 433.943 C
156.815 433.943 L
155.807 435.671 154.079 436.751 152.423 437.327 C
152.423 444.815 L
152.423 446.615 153.792 448.055 155.591 448.055 C
s
u
u
0.000 0.000 0.000 1.000 K
0 j
0 J
0.287 w
[]0 d
371.519 639.216 m
278.495 639.216 L
S
U
U
u
u
0.000 0.000 0.000 1.000 K
0 j
0 J
0.287 w
[]0 d
192.743 392.543 m
285.767 392.543 L
S
U
U
0.000 0.000 0.000 1.000 K
0 j
0 J
0.863 w
[]0 d
0.000 0.000 0.000 0.000 k
931.391 670.103 m
931.607 680.759 932.183 695.159 929.663 705.887 C
926.495 710.063 921.815 714.311 920.663 719.639 C
913.967 745.847 903.599 780.047 889.703 800.351 C
886.175 803.879 881.495 805.463 875.951 805.463 C
854.063 806.255 832.175 806.615 811.655 806.615 C
791.135 806.615 769.247 806.255 747.287 805.463 C
741.815 805.463 737.063 803.879 733.535 800.351 C
719.711 780.047 709.343 745.847 702.575 719.639 C
701.495 714.311 696.743 710.063 693.647 705.887 C
691.055 695.159 691.703 680.759 691.847 670.103 C
931.391 670.103 L
b
0.000 0.000 0.000 1.000 K
0 j
0 J
0.863 w
[]0 d
0.000 0.000 0.000 0.000 k
931.391 422.495 m
933.263 432.935 932.183 447.551 929.663 458.279 C
926.495 462.455 921.815 466.703 920.663 472.031 C
913.967 498.239 903.599 532.439 889.703 552.743 C
886.175 556.271 881.495 557.855 875.951 557.855 C
854.063 558.647 832.175 559.007 811.655 559.007 C
791.135 559.007 769.247 558.647 747.287 557.855 C
741.815 557.855 737.063 556.271 733.535 552.743 C
719.711 532.439 709.343 498.239 702.575 472.031 C
701.495 466.703 696.743 462.455 693.647 458.279 C
691.055 447.551 689.831 432.935 691.847 422.495 c
694.007 411.479 692.567 390.887 703.799 390.887 c
920.591 390.887 l
931.751 390.887 929.447 411.551 931.391 422.495 c
b
0.000 0.000 0.000 1.000 K
0 j
0 J
0.287 w
[]0 d
0.000 0.000 0.000 0.498 k
811.655 621.719 m
926.351 621.719 L
929.807 622.079 931.823 638.495 932.111 646.415 c
932.543 659.159 932.759 669.959 927.935 670.103 C
811.655 669.239 L
695.303 670.103 L
690.551 669.959 690.767 659.159 691.199 646.415 c
691.487 638.495 693.431 622.079 696.887 621.719 C
811.655 621.719 L
b
0.000 0.000 0.000 1.000 K
0 j
0 J
0.287 w
[]0 d
0.000 0.000 0.000 0.200 k
762.839 640.799 m
851.975 640.799 L
856.583 625.535 L
758.519 625.535 L
762.839 640.799 L
b
0.000 0.000 0.000 1.000 K
0 j
0 J
0.287 w
[]0 d
0.000 0.000 0.000 0.498 k
723.959 621.935 m
897.623 621.935 L
897.623 616.967 L
879.695 614.735 849.743 606.240 842.111 616.967 C
769.103 615.671 L
763.271 610.703 741.815 610.703 731.519 615.671 C
723.959 615.671 L
723.959 621.935 L
b
u
u
0.000 0.000 0.000 0.200 k
758.375 625.535 m
770.039 632.231 L
843.911 632.231 L
856.439 625.535 L
S
U
u
0.000 0.000 0.000 1.000 K
0 j
0 J
0.287 w
[]0 d
758.375 625.535 m
770.039 632.231 L
843.911 632.231 L
856.439 625.535 L
S
U
U
u
u
U
u
0.000 0.000 0.000 1.000 K
0 j
0 J
0.287 w
[]0 d
772.775 632.231 m
772.775 640.799 L
S
U
U
u
u
U
u
0.000 0.000 0.000 1.000 K
0 j
0 J
0.287 w
[]0 d
841.031 632.231 m
841.031 640.799 L
S
U
U
0.000 0.000 0.000 1.000 K
0 j
0 J
0.287 w
[]0 d
692.063 678.815 m
930.383 678.815 L
930.311 676.583 L
930.383 672.767 L
691.631 672.983 L
691.631 675.647 L
692.063 678.815 L
s
u
u
0.000 0.000 0.000 1.000 K
0 j
0 J
0.287 w
[]0 d
691.487 646.631 m
930.383 646.631 L
S
U
U
0.000 0.000 0.000 1.000 K
0 j
0 J
0.287 w
[]0 d
712.439 733.679 m
778.823 735.407 845.279 735.767 911.735 733.679 C
911.735 725.759 911.735 716.831 909.647 708.048 C
844.343 705.959 778.967 705.959 713.663 708.048 C
711.575 715.103 711.575 726.191 712.439 733.679 C
s
u
u
0.000 0.000 0.000 1.000 K
0 j
0 J
0.287 w
[]0 d
713.231 707.975 m
706.103 713.807 705.959 718.415 705.527 727.631 C
S
U
U
u
u
0.000 0.000 0.000 1.000 K
0 j
0 J
0.287 w
[]0 d
909.503 707.975 m
913.967 713.159 915.767 716.975 916.199 726.191 C
S
U
U
u
u
0.000 0.000 0.000 1.000 K
0 j
0 J
0.287 w
[]0 d
708.335 646.703 m
708.335 664.631 L
S
U
U
u
u
0.000 0.000 0.000 1.000 K
0 j
0 J
0.287 w
[]0 d
914.255 646.703 m
914.255 664.631 L
S
U
U
0.000 0.000 0.000 1.000 K
0 j
0 J
0.287 w
[]0 d
0.000 0.000 0.000 0.498 k
918.503 747.575 m
935.207 746.711 l
936.719 746.711 938.231 745.559 938.231 743.903 c
938.231 733.535 l
938.231 732.024 936.863 730.727 935.207 730.727 c
918.503 730.727 l
916.847 730.727 915.479 732.024 915.479 733.535 c
915.479 744.839 l
915.479 746.423 916.991 747.575 918.503 747.575 c
b
0.000 0.000 0.000 1.000 K
0 j
0 J
0.287 w
[]0 d
0.000 0.000 0.000 0.498 k
705.383 747.791 m
688.463 746.927 l
686.951 746.927 685.367 745.775 685.367 744.119 c
685.367 733.607 l
685.367 732.024 686.807 730.799 688.463 730.799 c
705.383 730.799 l
707.039 730.799 708.407 732.024 708.407 733.607 c
708.407 744.983 l
708.407 746.639 706.895 747.791 705.383 747.791 c
b
0.000 0.000 0.000 1.000 K
0 j
0 J
0.287 w
[]0 d
0.000 0.000 0.000 0.498 k
898.847 390.311 m
724.391 390.311 L
724.391 387.287 L
742.607 386.855 772.991 385.055 780.695 387.287 C
854.711 386.999 L
860.615 385.991 879.335 385.991 889.775 386.999 C
898.847 386.999 L
898.847 390.311 L
b
0.000 0.000 0.000 1.000 K
0 j
0 J
0.287 w
[]0 d
0.000 0.000 0.000 0.298 k
711.863 466.415 m
699.263 466.415 L
696.383 451.079 697.319 428.975 697.247 422.927 C
711.863 422.999 L
711.863 466.415 L
b
0.000 0.000 0.000 1.000 K
0 j
0 J
0.287 w
[]0 d
0.000 0.000 0.000 0.298 k
911.303 466.415 m
923.903 466.415 L
925.703 451.871 926.495 432.287 924.983 422.927 C
911.303 422.999 L
911.303 466.415 L
b
u
u
0.000 0.000 0.000 1.000 K
0 j
0 J
0.287 w
[]0 d
711.935 457.343 m
697.031 457.343 L
S
U
U
u
u
0.000 0.000 0.000 1.000 K
0 j
0 J
0.287 w
[]0 d
911.231 457.343 m
926.135 457.343 L
S
U
U
u
u
0.000 0.000 0.000 1.000 K
0 j
0 J
0.287 w
[]0 d
711.935 439.559 m
697.103 439.559 L
S
U
U
u
u
0.000 0.000 0.000 1.000 K
0 j
0 J
0.287 w
[]0 d
911.231 439.559 m
924.551 439.559 L
S
U
U
0.000 0.000 0.000 1.000 K
0 j
0 J
0.287 w
[]0 d
0.000 0.000 0.000 0.498 k
921.095 496.295 m
937.871 495.359 l
939.383 495.359 940.895 494.279 940.895 492.623 c
940.895 482.183 l
940.895 480.671 939.455 479.447 937.871 479.447 c
921.095 479.447 l
919.439 479.447 918.071 480.671 918.071 482.183 c
918.071 493.487 l
918.071 495.143 919.583 496.295 921.095 496.295 c
b
0.000 0.000 0.000 1.000 K
0 j
0 J
0.287 w
[]0 d
0.000 0.000 0.000 0.498 k
702.431 496.439 m
685.511 495.575 l
684.000 495.575 682.487 494.423 682.487 492.767 c
682.487 482.255 l
682.487 480.671 683.855 479.447 685.511 479.447 c
702.431 479.447 l
704.087 479.447 705.527 480.671 705.527 482.255 c
705.527 493.631 l
705.527 495.287 704.015 496.439 702.431 496.439 c
b
0.000 0.000 0.000 1.000 K
0 j
0 J
0.287 w
[]0 d
885.383 471.239 m
876.743 471.239 L
876.743 463.607 L
885.383 463.607 L
885.383 471.239 L
s
0.000 0.000 0.000 1.000 K
0 j
0 J
0.287 w
[]0 d
754.055 471.239 m
745.415 471.239 L
745.415 463.607 L
754.055 463.607 L
754.055 471.239 L
s
0.000 0.000 0.000 1.000 K
0 j
0 J
0.287 w
[]0 d
816.479 471.239 m
807.911 471.239 L
807.911 463.607 L
816.479 463.607 L
816.479 471.239 L
s
u
u
0.000 0.000 0.000 1.000 K
0 j
0 J
0.287 w
[]0 d
702.647 471.023 m
920.591 471.023 L
S
U
U
u
u
0.000 0.000 0.000 1.000 K
0 j
0 J
0.287 w
[]0 d
703.511 475.055 m
919.511 475.055 L
S
U
U
u
u
0.000 0.000 0.000 1.000 K
0 j
0 J
0.287 w
[]0 d
712.223 423.287 m
911.519 423.287 L
S
U
U
u
u
0.000 0.000 0.000 1.000 K
0 j
0 J
0.287 w
[]0 d
694.079 413.207 m
930.887 413.207 L
S
U
U
0.000 0.000 0.000 1.000 K
0 j
0 J
0.287 w
[]0 d
0.000 0.000 0.000 0.298 k
802.439 463.967 m
821.879 463.967 l
822.743 463.967 823.391 463.319 823.391 462.455 c
823.391 456.263 l
823.391 455.399 822.743 454.751 821.879 454.751 c
802.439 454.751 l
801.575 454.751 800.927 455.399 800.927 456.263 c
800.927 462.455 l
800.927 463.319 801.575 463.967 802.439 463.967 c
b
0.000 0.000 0.000 1.000 K
0 j
0 J
0.287 w
[]0 d
0.000 0.000 0.000 0.498 k
208.727 799.199 m
217.799 798.407 L
145.295 735.695 L
139.031 738.431 L
208.727 799.199 L
b
0.000 0.000 0.000 1.000 K
0 j
0 J
0.287 w
[]0 d
0.000 0.000 0.000 0.498 k
355.463 552.527 m
346.463 551.735 L
418.895 489.023 L
425.159 491.759 L
355.463 552.527 L
b
0.000 0.000 0.000 1.000 K
0 j
0 J
0.287 w
[]0 d
0.000 0.000 0.000 0.200 k
214.343 797.327 m
145.079 737.351 L
141.623 738.791 L
209.231 797.759 L
214.343 797.327 L
b
0.000 0.000 0.000 1.000 K
0 j
0 J
0.287 w
[]0 d
0.000 0.000 0.000 0.200 k
349.847 550.655 m
419.183 490.679 L
422.567 492.119 L
355.031 551.087 L
349.847 550.655 L
b
0.000 0.000 0.000 1.000 K
0 j
0 J
0.287 w
[]0 d
0.000 0.000 0.000 0.498 k
717.839 737.495 m
903.743 737.495 l
906.551 737.495 909.359 739.943 908.783 742.535 c
904.463 761.615 897.839 779.831 887.039 796.319 c
885.599 798.551 884.807 801.359 881.999 801.359 c
739.583 801.359 l
736.775 801.359 735.767 798.623 734.543 796.319 c
724.607 778.103 717.839 760.103 712.799 742.535 c
712.079 740.015 715.031 737.495 717.839 737.495 c
b
0.000 0.000 0.000 1.000 K
0 j
0 J
0.287 w
[]0 d
0.000 0.000 0.000 0.200 k
905.255 739.223 m
906.551 739.943 907.559 740.735 907.415 742.319 C
904.967 752.903 901.799 763.199 897.695 773.207 C
894.311 780.983 890.423 788.471 885.887 795.599 C
885.095 796.895 884.087 799.343 882.575 799.847 C
881.927 799.991 L
739.655 799.991 L
737.783 799.775 736.919 798.047 736.271 796.535 C
731.879 788.687 727.991 780.335 724.463 771.983 C
720.503 762.263 716.975 752.039 714.095 741.959 C
714.095 740.015 716.255 739.079 717.839 738.935 C
903.671 738.935 L
904.535 739.007 L
905.255 739.223 L
b
0.000 0.000 0.000 1.000 K
0 j
0 J
0.287 w
[]0 d
925.919 678.599 m
927.719 678.599 929.447 680.111 929.159 681.767 c
925.487 701.207 l
925.199 702.863 924.047 704.375 922.247 704.375 c
700.991 704.375 l
699.263 704.375 698.111 702.863 697.823 701.207 c
694.151 681.767 l
693.863 680.111 695.591 678.599 697.319 678.599 c
925.919 678.599 l
s
0.000 0.000 0.000 1.000 K
0 j
0 J
0.287 w
[]0 d
0.000 0.000 0.000 0.498 k
810.719 682.775 m
769.607 682.775 l
760.391 682.775 758.591 693.000 758.591 700.199 C
810.719 700.199 L
862.847 700.199 L
862.775 693.000 861.047 682.775 851.831 682.775 c
810.719 682.775 L
b
u
u
0.000 0.000 0.000 0.298 k
712.151 683.063 m
712.511 704.519 L
743.975 704.519 l
746.063 704.519 747.791 702.791 747.791 700.631 c
747.791 686.879 l
747.791 684.791 746.063 682.991 743.975 682.991 c
695.159 682.991 L
S
U
u
0.000 0.000 0.000 1.000 K
0 j
0 J
0.287 w
[]0 d
712.151 683.063 m
712.511 704.519 L
743.975 704.519 l
746.063 704.519 747.791 702.791 747.791 700.631 c
747.791 686.879 l
747.791 684.791 746.063 682.991 743.975 682.991 c
695.159 682.991 L
S
U
U
u
u
0.000 0.000 0.000 0.298 k
909.215 683.063 m
908.927 704.519 L
877.463 704.519 l
875.303 704.519 873.575 702.791 873.575 700.631 c
873.575 686.879 l
873.575 684.791 875.303 682.991 877.463 682.991 c
928.511 682.991 L
S
U
u
0.000 0.000 0.000 1.000 K
0 j
0 J
0.287 w
[]0 d
909.215 683.063 m
908.927 704.519 L
877.463 704.519 l
875.303 704.519 873.575 702.791 873.575 700.631 c
873.575 686.879 l
873.575 684.791 875.303 682.991 877.463 682.991 c
928.511 682.991 L
S
U
U
0.000 0.000 0.000 1.000 K
0 j
0 J
0.287 w
[]0 d
0.000 0.000 0.000 0.000 k
740.735 685.655 m
717.119 685.655 l
715.391 685.655 714.024 687.096 714.024 688.823 c
714.024 699.048 l
714.024 700.775 715.391 702.143 717.119 702.143 c
740.735 702.143 l
742.463 702.143 743.831 700.775 743.831 699.048 c
743.831 688.823 l
743.831 687.096 742.463 685.655 740.735 685.655 c
b
0.000 0.000 0.000 1.000 K
0 j
0 J
0.287 w
[]0 d
0.000 0.000 0.000 0.000 k
880.703 685.655 m
904.247 685.655 l
905.975 685.655 907.415 687.096 907.415 688.823 c
907.415 699.048 l
907.415 700.775 905.975 702.143 904.247 702.143 c
880.703 702.143 l
878.975 702.143 877.535 700.775 877.535 699.048 c
877.535 688.823 l
877.535 687.096 878.975 685.655 880.703 685.655 c
b
0.000 0.000 0.000 1.000 K
0 j
0 J
0.287 w
[]0 d
0.000 0.000 0.000 0.298 k
710.423 685.583 m
696.455 685.583 L
699.839 702.143 L
710.423 702.143 L
710.423 685.583 L
b
0.000 0.000 0.000 1.000 K
0 j
0 J
0.287 w
[]0 d
0.000 0.000 0.000 0.298 k
911.015 685.583 m
924.983 685.583 L
921.527 702.143 L
911.015 702.143 L
911.015 685.583 L
b
0.000 0.000 0.000 0.000 k
800.279 692.711 m
794.663 692.711 L
794.375 692.423 794.375 692.423 794.591 692.279 C
798.191 690.911 l
799.415 690.479 800.279 690.263 800.351 688.967 C
800.423 688.319 800.207 687.527 799.415 687.455 C
792.071 687.455 L
792.071 688.967 L
797.399 688.967 L
797.615 688.967 797.615 689.183 797.183 689.327 C
793.943 690.551 L
793.295 690.839 792.287 690.911 791.999 691.703 c
791.639 692.639 792.287 694.295 793.511 694.295 C
800.279 694.295 L
800.279 692.711 L
f
0.000 0.000 0.000 0.000 k
812.159 692.711 m
817.775 692.711 L
818.063 692.423 818.063 692.423 817.847 692.279 C
814.247 690.911 l
813.023 690.479 812.159 690.263 812.087 688.967 C
812.015 688.319 812.231 687.527 813.023 687.455 C
820.367 687.455 L
820.367 688.967 L
815.039 688.967 L
814.823 688.967 814.823 689.183 815.255 689.327 C
818.495 690.551 L
819.143 690.839 820.151 690.911 820.439 691.703 c
820.799 692.639 820.151 694.295 818.927 694.295 C
812.159 694.295 L
812.159 692.711 L
f
0.000 0.000 0.000 0.000 k
804.527 694.295 m
804.527 689.615 L
804.527 689.255 804.599 688.967 805.031 688.967 C
807.407 688.967 L
807.839 688.967 808.055 689.255 808.055 689.615 C
808.055 694.295 L
810.431 694.295 L
810.431 688.679 L
810.143 687.743 808.847 687.455 808.055 687.455 C
804.743 687.455 L
803.591 687.455 802.367 687.887 802.295 688.751 C
802.295 694.295 L
804.527 694.295 L
f
0.000 0.000 0.000 0.000 k
824.903 694.295 m
824.903 689.615 L
824.903 689.255 824.975 688.967 825.407 688.967 C
827.783 688.967 L
828.143 688.967 828.359 689.255 828.359 689.615 C
828.359 694.295 L
830.807 694.295 L
830.807 688.679 L
830.519 687.743 829.151 687.455 828.359 687.455 C
825.119 687.455 L
823.895 687.455 822.743 687.887 822.599 688.751 C
822.599 694.295 L
824.903 694.295 L
f
0.000 0.000 0.000 0.000 k
789.983 687.455 m
787.607 687.455 L
787.607 694.295 L
789.983 694.295 L
789.983 687.455 L
f
0.000 0.000 0.000 1.000 K
0 j
0 J
0.287 w
[]0 d
0.000 0.000 0.000 0.000 k
711.287 644.039 m
735.407 644.039 l
736.991 644.039 738.287 642.743 738.287 641.159 c
738.287 638.207 l
738.287 636.623 736.991 635.399 735.407 635.399 c
711.287 635.399 l
709.703 635.399 708.407 636.623 708.407 638.207 c
708.407 641.159 l
708.407 642.743 709.703 644.039 711.287 644.039 c
b
0.000 0.000 0.000 1.000 K
0 j
0 J
0.287 w
[]0 d
0.000 0.000 0.000 0.498 k
-32.975 668.159 m
-34.415 666.935 -36.359 666.431 -38.015 666.215 C
-38.735 654.623 -39.599 644.255 -36.000 632.015 C
-33.911 625.103 -30.311 621.935 -23.543 623.015 C
-5.327 623.663 L
-3.959 642.239 1.295 656.279 7.991 668.159 C
-32.975 668.159 L
b
0.000 0.000 0.000 1.000 K
0 j
0 J
0.287 w
[]0 d
0.000 0.000 0.000 0.498 k
597.240 421.487 m
598.679 420.263 600.623 419.759 602.279 419.543 C
603.000 407.951 603.863 397.583 600.264 385.343 C
598.175 378.431 594.575 375.263 587.807 376.343 C
569.591 376.991 L
568.223 395.567 562.967 409.607 556.271 421.487 C
597.240 421.487 L
b
u
u
0.000 0.000 0.000 1.000 K
0 j
0 J
0.287 w
[]0 d
712.151 475.055 m
712.151 391.031 L
S
U
U
u
u
0.000 0.000 0.000 1.000 K
0 j
0 J
0.287 w
[]0 d
910.943 475.055 m
910.943 391.031 L
S
U
U
0.000 0.000 0.000 1.000 K
0 j
0 J
0.287 w
[]0 d
0.000 0.000 0.000 1.000 k
696.743 395.567 m
696.743 340.560 l
696.743 338.255 698.615 336.383 700.919 336.383 c
720.431 336.383 l
722.735 336.383 724.607 338.255 724.607 340.560 c
724.607 390.887 L
703.799 390.887 l
700.415 390.887 698.255 392.687 696.743 395.567 C
b
0.000 0.000 0.000 1.000 K
0 j
0 J
0.287 w
[]0 d
0.000 0.000 0.000 1.000 k
898.775 390.887 m
898.775 340.560 l
898.775 338.255 900.647 336.383 902.951 336.383 c
922.463 336.383 l
924.767 336.383 926.639 338.255 926.639 340.560 c
926.639 394.199 L
925.271 392.183 923.327 390.887 920.591 390.887 c
898.775 390.887 L
b
0.000 0.000 0.000 1.000 K
0 j
0 J
0.287 w
[]0 d
0.000 0.000 0.000 1.000 k
898.775 621.719 m
898.775 588.671 l
898.775 586.367 900.647 584.495 902.951 584.495 c
922.463 584.495 l
924.767 584.495 926.639 586.367 926.639 588.671 c
926.639 621.863 L
926.567 621.719 926.495 621.719 926.351 621.719 C
898.775 621.719 L
b
0.000 0.000 0.000 1.000 K
0 j
0 J
0.287 w
[]0 d
0.000 0.000 0.000 1.000 k
696.743 621.719 m
696.743 588.671 l
696.743 586.367 698.615 584.495 700.919 584.495 c
720.431 584.495 l
722.735 584.495 724.607 586.367 724.607 588.671 c
724.607 621.719 L
696.887 621.719 L
696.815 621.719 696.743 621.719 696.743 621.719 C
b
0.000 0.000 0.000 1.000 K
0 j
0 J
0.287 w
[]0 d
0.000 0.000 0.000 0.498 k
720.000 494.063 m
902.879 494.063 l
905.399 494.063 908.351 496.367 907.487 498.671 c
888.551 546.551 l
887.687 548.855 886.535 551.159 883.943 551.159 c
739.439 551.159 l
736.919 551.159 735.767 548.855 734.831 546.551 c
715.391 498.671 l
714.455 496.367 717.479 494.063 720.000 494.063 c
b
0.000 0.000 0.000 1.000 K
0 j
0 J
0.287 w
[]0 d
0.000 0.000 0.000 0.200 k
719.855 498.383 m
720.215 498.311 L
902.591 498.311 L
903.023 498.383 L
884.663 544.967 L
884.375 545.615 884.015 546.336 883.655 546.911 C
739.727 546.911 L
739.367 546.336 739.007 545.543 738.791 544.895 C
719.855 498.383 L
b
u
u
0.000 0.000 0.000 1.000 K
0 j
0 J
0.215 w
[]0 d
334.583 677.447 m
422.423 677.447 L
S
U
U
u
u
0.000 0.000 0.000 1.000 K
0 j
0 J
0.215 w
[]0 d
229.679 430.775 m
141.768 430.775 L
S
U
U
u
u
0.000 0.000 0.000 1.000 K
0 j
0 J
0.215 w
[]0 d
334.583 667.223 m
411.551 667.223 L
S
U
U
u
u
0.000 0.000 0.000 1.000 K
0 j
0 J
0.215 w
[]0 d
229.679 420.551 m
152.639 420.551 L
S
U
U
u
u
U
u
0.000 0.000 0.000 1.000 K
0 j
0 J
0.215 w
[]0 d
-38.087 314.927 m
229.679 314.927 L
S
U
U
u
u
U
u
0.000 0.000 0.000 1.000 K
0 j
0 J
0.215 w
[]0 d
378.287 314.927 m
604.583 314.927 L
S
U
U
u
u
U
u
0.000 0.000 0.000 1.000 K
0 j
0 J
0.215 w
[]0 d
-37.871 328.679 m
-37.871 298.151 L
S
U
U
0.000 0.000 0.000 1.000 k
-38.087 315.000 m
-28.007 312.048 L
-28.007 318.024 L
-38.087 315.000 L
f
u
u
U
u
0.000 0.000 0.000 1.000 K
0 j
0 J
0.215 w
[]0 d
603.216 326.591 m
603.216 296.423 L
S
U
U
0.000 0.000 0.000 1.000 k
603.288 315.000 m
593.207 312.048 L
593.207 318.024 L
603.288 315.000 L
f
0.000 0.000 0.000 1.000 k
345.599 322.199 m
346.536 320.615 347.183 318.455 347.183 316.584 C
347.183 314.279 346.751 312.191 345.599 310.319 C
346.175 310.319 L
347.327 312.120 348.048 314.063 348.048 316.223 C
348.048 318.527 347.399 320.255 346.175 322.199 C
345.599 322.199 L
f
0.000 0.000 0.000 1.000 k
335.591 312.767 m
336.455 312.767 L
336.455 316.512 L
336.455 317.879 337.031 318.887 338.399 318.887 C
339.479 318.887 339.839 318.167 339.839 317.231 C
339.839 312.767 L
340.631 312.767 L
340.631 316.512 L
340.631 317.735 341.063 318.887 342.431 318.887 C
343.655 318.887 344.015 318.383 344.015 317.231 C
344.015 312.767 L
344.879 312.767 L
344.879 317.231 L
344.879 318.815 344.087 319.608 342.647 319.608 C
341.783 319.608 340.919 319.175 340.487 318.239 C
340.271 319.175 339.479 319.608 338.615 319.608 C
337.463 319.608 336.815 319.103 336.383 318.239 C
336.383 318.239 L
336.383 319.391 L
335.591 319.391 L
335.591 312.767 L
335.591 312.767 L
f
0.000 0.000 0.000 1.000 k
324.863 312.767 m
325.727 312.767 L
325.727 316.512 L
325.727 317.879 326.303 318.887 327.671 318.887 C
328.751 318.887 329.111 318.167 329.111 317.231 C
329.111 312.767 L
329.903 312.767 L
329.903 316.512 L
329.903 317.735 330.335 318.887 331.703 318.887 C
332.927 318.887 333.287 318.383 333.287 317.231 C
333.287 312.767 L
334.151 312.767 L
334.151 317.231 L
334.151 318.815 333.359 319.608 331.919 319.608 C
331.055 319.608 330.191 319.175 329.759 318.239 C
329.543 319.175 328.751 319.608 327.887 319.608 C
326.735 319.608 326.087 319.103 325.655 318.239 C
325.655 318.239 L
325.655 319.391 L
324.863 319.391 L
324.863 312.767 L
324.863 312.767 L
f
0.000 0.000 0.000 1.000 k
313.775 321.911 m
311.183 321.911 310.608 319.319 310.608 317.159 C
310.608 315.072 311.183 312.551 313.775 312.551 C
316.512 312.551 316.943 315.072 316.943 317.231 C
316.943 319.319 316.512 321.911 313.775 321.911 C
f
0.000 0.000 0.000 1.000 k
306.575 321.911 m
303.983 321.911 303.407 319.319 303.407 317.159 C
303.407 315.072 303.983 312.551 306.575 312.551 C
309.311 312.551 309.743 315.072 309.743 317.231 C
309.743 319.319 309.311 321.911 306.575 321.911 C
f
0.000 0.000 0.000 1.000 k
296.351 315.287 m
296.351 313.631 297.503 312.551 299.303 312.551 C
300.959 312.551 302.399 313.775 302.399 315.575 C
302.399 317.447 301.247 318.743 299.375 318.743 C
298.655 318.743 297.935 318.455 297.431 317.879 C
297.431 317.879 L
298.007 320.975 L
302.039 320.975 L
302.039 321.695 L
297.431 321.695 L
296.495 316.943 L
297.287 316.943 L
297.719 317.735 298.439 318.096 299.303 318.096 C
300.599 318.096 301.679 317.087 301.679 315.647 C
301.679 314.351 300.743 313.199 299.303 313.199 C
298.079 313.199 297.144 314.063 297.072 315.287 C
296.351 315.287 L
f
0.000 0.000 0.000 1.000 k
289.007 315.000 m
293.255 315.000 L
293.255 312.767 L
293.975 312.767 L
293.975 315.000 L
295.271 315.000 L
295.271 315.647 L
293.975 315.647 L
293.975 321.839 L
293.255 321.839 L
289.007 315.719 L
289.007 315.000 L
f
0.000 0.000 0.000 1.000 k
288.647 310.319 m
287.711 311.903 286.991 313.991 286.991 315.863 C
286.991 318.167 287.567 320.327 288.647 322.199 C
288.000 322.199 L
286.919 320.399 286.271 318.383 286.271 316.223 C
286.271 313.847 286.919 312.191 288.000 310.319 C
288.647 310.319 L
f
0.000 0.000 0.000 1.000 k
276.911 318.815 m
277.775 318.815 L
277.775 321.983 L
276.911 321.983 L
276.911 318.815 L
f
0.000 0.000 0.000 1.000 k
275.255 318.815 m
275.975 318.815 L
275.975 321.983 L
275.255 321.983 L
275.255 318.815 L
f
0.000 0.000 0.000 1.000 k
267.263 315.647 m
267.192 313.703 268.487 312.551 270.359 312.551 C
272.087 312.551 273.527 313.487 273.527 315.287 C
273.527 316.512 272.807 317.303 271.656 317.519 C
271.656 317.519 L
272.591 317.807 273.168 318.527 273.168 319.608 C
273.168 321.191 271.799 321.911 270.359 321.911 C
268.632 321.911 267.479 320.615 267.479 318.887 C
268.343 318.887 L
268.343 320.255 269.063 321.191 270.359 321.191 C
271.512 321.191 272.303 320.687 272.303 319.463 C
272.303 318.383 271.367 317.807 270.575 317.807 C
269.783 317.807 L
269.783 317.159 L
270.575 317.159 L
271.799 317.159 272.735 316.512 272.735 315.215 C
272.735 313.847 271.584 313.199 270.359 313.199 C
268.847 313.199 268.055 314.135 268.127 315.647 C
267.263 315.647 L
f
0.000 0.000 0.000 1.000 k
264.599 314.063 m
264.599 312.767 L
265.175 312.767 L
265.175 312.407 264.959 311.759 264.527 311.543 C
264.527 310.967 L
265.319 311.255 265.680 312.048 265.680 312.767 C
265.680 314.063 L
264.599 314.063 L
f
0.000 0.000 0.000 1.000 k
256.823 320.975 m
261.791 320.975 L
259.271 318.096 258.335 315.719 258.048 312.767 C
258.983 312.767 L
259.199 316.943 261.503 319.751 262.656 320.975 C
262.656 321.695 L
256.823 321.695 L
256.823 320.975 L
f
0.000 0.000 0.000 1.000 k
249.623 320.975 m
254.591 320.975 L
252.071 318.096 251.135 315.719 250.847 312.767 C
251.783 312.767 L
251.999 316.943 254.303 319.751 255.455 320.975 C
255.455 321.695 L
249.623 321.695 L
249.623 320.975 L
f
0.000 0.000 0.000 1.000 k
242.999 319.463 m
245.447 319.463 L
245.447 312.839 L
245.447 312.767 L
246.167 312.767 L
246.167 319.391 L
246.167 321.839 L
245.519 321.839 L
245.375 320.111 244.439 320.111 242.999 320.039 C
242.999 319.463 L
f
0.000 0.000 0.000 0.000 k
313.775 321.191 m
315.863 321.191 316.079 318.743 316.079 317.231 C
316.079 315.647 315.863 313.199 313.775 313.199 C
311.759 313.199 311.471 315.647 311.471 317.231 C
311.471 318.743 311.759 321.191 313.775 321.191 C
f
0.000 0.000 0.000 0.000 k
306.575 321.191 m
308.663 321.191 308.951 318.743 308.951 317.231 C
308.951 315.647 308.663 313.199 306.575 313.199 C
304.560 313.199 304.271 315.647 304.271 317.231 C
304.271 318.743 304.560 321.191 306.575 321.191 C
f
0.000 0.000 0.000 0.000 k
289.799 315.647 m
293.183 320.615 L
293.255 320.615 L
293.255 315.647 L
289.799 315.647 L
f
0.000 0.000 0.000 1.000 K
0 j
0 J
0.287 w
[]0 d
0.000 0.000 0.000 0.098 k
832.967 552.527 m
832.463 554.975 L
832.463 555.839 831.743 556.559 830.879 556.559 C
792.503 556.559 L
791.567 556.559 790.919 555.839 790.919 554.975 C
790.343 552.527 L
832.967 552.527 L
b
0.000 0.000 0.000 1.000 K
0 j
0 J
0.287 w
[]0 d
0.000 0.000 0.000 0.298 k
797.255 556.199 m
826.055 556.199 l
826.487 556.199 826.775 555.839 826.775 555.407 c
826.775 553.607 l
826.775 553.175 826.487 552.887 826.055 552.887 c
797.255 552.887 l
796.823 552.887 796.463 553.175 796.463 553.607 c
796.463 555.407 l
796.463 555.839 796.823 556.199 797.255 556.199 c
b
%%Trailer
_E end