%!PS-Adobe-2.0 EPSF-1.2
%%Creator: Adobe Illustrator exported from Corel Draw 3.0
%%Title:6
%%BoundingBox:3 227 1045 946
%%CreationDate:(Unknown)
%%ColorUsage:
%%TemplateBox:3 227 1045 946
%%EndComments
%%BeginProcSet:Adobe_Illustrator_1.1 0 0
% Version 1.0 3/27/1990 $nokeywords$
% Copyright (C) 1990,1991,1992
% Corel Corporation
% All Rights Reserved

/wPmsDict 150 dict def 
wPmsDict begin 

/$debug 25 string def 

/bd {bind def} bind def 
/ld {load def} bd 
/xd {exch def} bd 
/_ null def 

/$c 0 def 
/$m 0 def 
/$y 0 def 
/$k 0 def 
/$t 1 def 
/$n _ def 
/$o 0 def 
/$pf false def 

/$C 0 def 
/$M 0 def 
/$Y 0 def 
/$K 0 def 
/$T 1 def 
/$N _ def 
/$O 0 def 
/$PF false def 

/$h false def 

/$al 0 def 
/$tr 0 def 
/$le 0 def 
/$lx 0 def 
/$ly 0 def 

/$ctm matrix currentmatrix def 
/$ptm matrix def 

/$pn () def 
/$pm matrix def 
/$px 0 def 
/$py 0 def 
/$pxf 0 def 
/$pyf 0 def 
/$psx 10 def 
/$psy 0 def 

/$llx 0 def 
/$lly 0 def 
/$urx 0 def 
/$ury 0 def 


/$Bbllx 0 def 
/$Bblly 0 def 
/$Bburx 0 def 
/$Bbury 0 def 

/$tllx 0 def 
/$tlly 0 def 
/$turx 0 def 
/$tury 0 def 

/$pd [] def 
/$tx 0 def 
/$ty 0 def 

/$sv 0 def 
/@cp /closepath ld 
/@gs /gsave ld 
/@gr /grestore ld 
/@np /newpath ld 
/@sv {/$sv save def}bd 
/@rs {$sv restore}bd 

/@MN { 
2 copy le{pop}{exch pop}ifelse 
}bd 

/setcmykcolor where {pop} 
{ 
/setcmykcolor 
{ 
4 1 roll 
3 {3 index add 1 @MN 1 exch sub 3 1 roll} repeat 
setrgbcolor 
pop 
}bd 
}ifelse 

/@tc 
{ 
dup 1 ge 
{pop} 
{ 
4 { 
dup 
6 -1 roll 
mul 
exch 
}repeat 
pop 
}ifelse 
}bd 

/@scc 
{ 
$c $m $y $k $t @tc 
setcmykcolor 
true 
}bd 
/@SCC 
{ 
$C $M $Y $K $T @tc 
setcmykcolor 
true 
}bd 

/@sft 
{ 
(setfirsttile sft )print 
/$tx $tllx $pxf add dup $tllx gt {$pwid $psx add sub}if def 
/$ty $tury $pyf sub dup $tury lt {$phei $psy add add}if def 
(setfirsttile exit )print 
}bd 

/@stb 
{ 
pathbbox /$ury xd /$urx xd /$lly xd /$llx xd 
}bd 

/@ep 
{ 
{ 
cvx exec 
}forall 
}bd 

/@tp 
{ 

(tile pattern tp )print 
@sv 
/$in true def 
2 copy 
dup $lly le {/$in false def}if 
$phei sub $ury ge {/$in false def}if 
dup $urx ge {/$in false def}if 
$pwid add $llx le {/$in false def}if 
$in 
{ 
@np 
2 copy moveto 
$pwid 0 rlineto 
0 $phei neg rlineto 
$pwid neg 0 rlineto 
0 $phei rlineto 
clip @np 

$pn cvlit load aload pop 
7 -1 roll 
5 index sub 
7 -1 roll 
3 index sub 
translate 
@ep 
pop pop pop pop 
} 
{pop pop}ifelse 
@rs 
(tile pattern exit )print 
}bd 

/@th 
{ 
(tile horizontal th)print 
@sft 
0 1 $tly 1 sub 
{ 
dup $psx mul $tx add 
{ 
dup $llx gt {$pwid sub}{exit}ifelse 
}loop 
exch $phei mul $ty exch sub 

0 1 $tlx 1 sub 
{ 
$pwid mul 
3 copy 
3 -1 roll add exch 
@tp 
pop 
}for 
pop pop 
} for 
(tile horizontal exiting )print 
}bd 

/@tv 
{ 
(tile vertical tv)print 
@sft 
0 1 $tlx 1 sub 
{ 
dup $pwid mul $tx add 
exch $psy mul $ty exch sub 
{ 
dup $ury lt {$phei add}{exit}ifelse 
}loop 

0 1 $tly 1 sub 
{ 
$phei mul 
3 copy sub 
@tp 
pop 
}for 
pop pop 
} for 
(tile vertical exit )print 
}bd 

/@pf 
{ 
(pattern fill pf)print 
@gs 
$pm concat 
@stb 
@gs 1 setgray eofill @gr 
eoclip 
$Bburx $Bbury $pm itransform /$tury xd /$turx xd 
$Bbllx $Bblly $pm itransform /$tlly xd /$tllx xd 
/$wid $turx $tllx sub def 
/$hei $tury $tlly sub def 
$wid 0 gt $hei 0 gt and 
{ 
$pn cvlit load aload pop 
$pd xd 
3 -1 roll sub /$phei xd 
exch sub /$pwid xd 
/$tlx $wid $pwid div ceiling 1 add def 
/$tly $hei $phei div ceiling 1 add def 
$psx 0 eq 
{ 
@tv 
} 
{ 
@th 
}ifelse 
}if 

@gr 
@np 
(pattern fill exit)print 
}bd 

/@xp 
{ 
{ 
dup (text Character is:) print == 
usertime (time before is:)print == 
(0) dup 3 -1 roll 0 exch put 
@gs 
true charpath currentpoint 
$ctm setmatrix 
@pf 
@gr 
@np 
moveto $tr 0 rmoveto 
usertime (time after is:)print == 
}forall 
pop 
}bd 

/@sm 
{ 
/$ctm $ctm currentmatrix def 
}bd 

%--@lorg  move to line origin   length string @torg length string
/@lorg    % moves currentpoint to line origin according to current alignment
  {      
  $lx $ly moveto    
  /$ly $ly $le sub def      % - prepare for next line(tracking)
  $al 0 ne
    {dup      % ->len str len str
    stringwidth   % ->len str len dx dy
    exch 3 index  % ->len str dy len dx
    1 sub         % ->len str dy len dx (len-1)
    $tr mul add   % ->len str dy len dx+(len-1)*$tr
    neg
    exch neg      % ->len str -dx_total dy len
    $al 1 eq      % check for centered alignment
    {2 div exch 2 div exch} if  
    rmoveto} if
  }bd

/@ft 
{ 
$pf 
{@xp} 
{ 
@scc 
{$tr exch 0 exch ashow pop} 
{pop pop}ifelse 
}ifelse 
}bd 

/@st 
{ 
$PF 
{} 
{ 
@SCC 
{ 
{ 
(0) dup 3 -1 roll 0 exch put 
@gs 
true charpath currentpoint 
$ctm setmatrix $ptm concat 
stroke 
@gr 
moveto $tr 0 rmoveto 
}forall 
pop 
} 
{pop pop}ifelse 
}ifelse 
}bd 
/@pt 
{ 
dup length exch 
}bd 
/@te 
{ 
@pt 
@lorg 
@ft 
}bd 

/@tr 
{ 
@pt 
@lorg 
@st 
}bd 
/@ta 
{ 
@pt 
@lorg 
2 copy 
@gs @ft @gr 
/$lx 0 def 
/$ly 0 def 
@st 
}bd 















/g { 
1 exch sub /$k xd 
/$c 0 def /$m 0 def /$y 0 def /$t 1 def /$n _ def /$pf false def 
}bd 

/G { 
1 exch sub /$K xd 
/$C 0 def /$M 0 def /$Y 0 def /$T 1 def /$N _ def /$PF false def 
}bd 

/k { 
/$k xd /$y xd /$m xd /$c xd 
/$t 1 def /$n _ def /$pf false def 
}bd 

/K { 
/$K xd /$Y xd /$M xd /$C xd 
/$T 1 def /$N _ def /$PF false def 
}bd 

/x { 
/$t xd /$n xd 
/$k xd /$y xd /$m xd /$c xd /$pf false def 
}bd 

/X { 
/$T xd /$N xd 
/$K xd /$Y xd /$M xd /$C xd /$PF false def 
}bd 

/d /setdash ld 

/i { 
dup 0 ne {setflat} {pop} ifelse 
}bd 

/j /setlinejoin ld 

/J /setlinecap ld 

/M /setmiterlimit ld 

/w /setlinewidth ld 

/O { 
/$o xd 
}bd 

/R { 
/$O xd 
}bd 


/c /curveto ld 

/C /c ld 

/v { 
currentpoint
6 2 roll 
curveto 
}bd

/V /v ld 

/y { 
2 copy curveto 
}bd 

/Y /y ld 

/l /lineto ld 

/L /l ld 

/m /moveto ld 



/n /newpath ld 

/N /newpath ld 

/F { 
$pf 
{@pf} 
{ 
@scc 
{eofill}if 
}ifelse 
}bd 

/f { 
@cp F 
}bd 
/S { 
$PF 
{} 
{ 
@SCC 
{ 
@sm 
$ptm concat 
stroke 
$ctm setmatrix 
}if 
}ifelse 
}bd 
/s { 
@cp 
S 
}bd 

/B { 
@gs F @gr 
S 
}bd 
/b { 
@cp 
B 
}bd 

/W { 
oeclip 
@np 
}bd 

/p { 
/$pm xd 
7 {pop} repeat 
/$pyf xd /$pxf xd 
/$pn xd 
/$pf true def 
}bd 

/P { 
11 {pop} repeat 
}bd 

/@p { 
/$pm xd 
/$psy xd 
/$psx xd 
/$pyf xd /$pxf xd 
/$pn xd 
/$pf true def 
}bd 

/@b { 
/$Bbury xd /$Bburx xd 
/$Bblly xd /$Bbllx xd 
}bd 


/z { 
/$al xd 
/$tr xd 
/$le xd 
exch findfont exch scalefont setfont 
}bd 

/Z { 
dup type 0 type eq { /$bDir xd } if
findfont 
dup maxlength 1 add dict exch 



dup 
{1 index /FID ne 
{ 
3 index 
3 1 roll put 
} 
{pop pop}ifelse 
} forall 



pop 
dup dup /Encoding get 
256 array copy 
dup /$fe xd
/Encoding exch put 

dup /Fontname 3 index put 

}bd 

/e { 
@sm 
concat 
[ 
/t {@te}def 
}bd 

/r { 
@sm 
concat 
[ 
/t {@tr}def 
}bd 

/o { 
@sm 
concat 
[ 
/t {pop}def 
}bd 

/a { 
@sm 
concat 
[ 
/t {@ta}def 
}bd 

/@o{
@sm 
concat 
[ 
/t {@t@a}def 
}bd 

/I { 
@sm 
concat 
[ 
/t {pop}def 
}bd 

/t {@te}def 

/T { 
cleartomark 
/$lx 0 def 
/$ly 0 def 
$ctm setmatrix 
}bd 


/u {}bd 

/U {}bd 

/A {pop}bd 

/h { 
$h true def 
}bd 

/h { 
$h true def 
}bd 

/q /@gs ld 

/Q /@gr ld 



/E { 
5 array astore 
exch cvlit exch def 
}bd 

/` {}bd 

/~ {}bd 

/@ {}bd 

/& {}bd 

/CorelDrawRencodeVect [ 
16#80/grave 
16#81/circumflex 
16#82/tilde 
16#83/dotlessi 
16#84/florin 
16#85/quotedblleft 
16#86/quotedblright 
16#87/guilsinglleft 
16#88/guilsinglright 
16#89/fi 
16#8a/fl 
16#8b/dagger 
16#8c/daggerdbl 
16#8d/endash 
16#8e/periodcentered 
16#8f/breve 
16#90/quotedblbase 
16#91/ellipsis 
16#92/perthousand 
16#a1/exclamdown 
16#a2/cent 
16#a3/sterling 
16#a4/currency 
16#a5/yen 
16#a6/bar 
16#a7/section 
16#a8/dieresis 
16#a9/copyright 
16#aa/ordfeminine 
16#ab/guillemotleft 
16#ac/logicalnot 
16#ad/emdash 
16#ae/registered 
16#af/spac 
16#b0/ring 
16#b1/spac 
16#b2/spac 
16#b3/spac 
16#b4/acute 
16#b5/spac 
16#b6/paragraph 
16#b7/bullet 
16#b8/cedilla 
16#b9/spac 
16#ba/ordmasculine 
16#bb/guillemotright 
16#bc/spac 
16#bd/spac 
16#be/spac 
16#bf/questiondown 
16#c0/Agrave 
16#c1/Aacute 
16#c2/Acircumflex 
16#c3/Atilde 
16#c4/Adieresis 
16#c5/Aring 
16#c6/AE 
16#c7/Ccedilla 
16#c8/Egrave 
16#c9/Eacute 
16#ca/Ecircumflex 
16#cb/Edieresis 
16#cc/Igrave 
16#cd/Iacute 
16#ce/Icircumflex 
16#cf/Idieresis 
16#d0/spac 
16#d1/Ntilde 
16#d2/Ograve 
16#d3/Oacute 
16#d4/Ocircumflex 
16#d5/Otilde 
16#d6/Odieresis 
16#d7/OE 
16#d8/Oslash 
16#d9/Ugrave 
16#da/Uacute 
16#db/Ucircumflex 
16#dc/Udieresis 
16#dd/space 
16#de/spac 
16#df/germandbls 
16#e0/agrave 
16#e1/aacute 
16#e2/acircumflex 
16#e3/atilde 
16#e4/adieresis 
16#e5/aring 
16#e6/ae 
16#e7/ccedilla 
16#e8/egrave 
16#e9/eacute 
16#ea/ecircumflex 
16#eb/edieresis 
16#ec/igrave 
16#ed/iacute 
16#ee/icircumflex 
16#ef/idieresis 
16#f0/space 
16#f1/ntilde 
16#f2/ograve 
16#f3/oacute 
16#f4/ocircumflex 
16#f5/otilde 
16#f6/odieresis 
16#f7/oe 
16#f8/oslash 
16#f9/ugrave 
16#fa/uacute 
16#fb/ucircumflex 
16#fc/udieresis 
16#fd/spac 
16#fe/spac 
16#ff/ydieresis 
] def
%%EndProlog
%%BeginSetup
%%BeginEncoding:_Times-Bold Times-Bold
[
]/_Times-Bold/Times-Bold Z
%%EndEncoding
%%EndSetup
0.000 0.000 0.000 1.000 k
1015.415 334.295 m
1013.111 328.463 1009.007 323.279 1003.679 321.263 C
985.391 321.263 L
985.391 279.000 L
985.319 273.527 1015.415 273.239 1015.415 279.000 C
1015.415 334.295 L
f
0.000 0.000 0.000 1.000 k
807.263 321.263 m
788.831 321.263 L
783.215 324.143 779.471 329.975 777.239 336.311 C
777.239 279.000 L
777.167 273.527 807.263 273.239 807.263 279.000 C
807.263 321.263 L
f
0.000 0.000 0.000 1.000 K
0 j
0 J
0.215 w
[]0 d
0.000 0.000 0.000 0.498 k
437.471 703.439 m
435.167 781.271 534.024 792.719 547.847 714.959 C
541.511 710.855 L
534.096 788.183 437.039 770.903 445.679 703.439 C
437.471 703.439 L
b
0.000 0.000 0.000 1.000 K
0 j
0 J
0.215 w
[]0 d
0.000 0.000 0.000 0.498 k
220.679 313.631 m
222.407 398.375 119.087 396.647 109.943 322.415 C
117.359 322.847 L
121.391 392.615 217.871 385.703 212.687 313.487 C
220.679 313.631 L
b
0.000 0.000 0.000 1.000 K
0 j
0 J
0.215 w
[]0 d
0.000 0.000 0.000 0.498 k
106.415 709.847 m
101.735 769.823 205.631 804.239 217.151 708.623 C
210.167 704.879 L
218.879 771.407 118.511 788.111 114.983 709.055 C
106.415 709.847 L
b
0.000 0.000 0.000 1.000 K
0 j
0 J
0.215 w
[]0 d
0.000 0.000 0.000 0.498 k
551.735 322.991 m
543.671 405.935 438.623 390.311 440.855 317.087 C
447.767 314.855 L
440.999 387.575 544.103 392.759 543.024 319.103 C
551.735 322.991 L
b
0.000 0.000 0.000 1.000 K
0 j
0 J
0.863 w
[]0 d
0.000 0.000 0.000 0.000 k
49.607 844.271 m
70.128 873.647 97.199 898.919 122.111 924.119 C
125.711 928.367 128.159 931.103 136.367 932.327 C
173.519 938.879 210.023 944.855 253.583 944.135 C
364.391 946.439 473.327 946.439 584.063 944.135 C
600.983 944.711 614.159 942.695 622.367 932.039 C
636.048 905.111 649.295 843.983 647.063 796.679 C
642.455 796.679 L
642.599 772.991 L
648.287 770.039 L
648.287 741.527 L
652.967 734.039 L
650.447 716.831 L
632.591 714.743 L
564.407 711.143 L
560.447 705.815 L
561.168 698.615 558.288 686.879 553.247 688.319 C
548.423 712.799 L
535.463 792.287 434.951 782.639 437.255 703.439 C
233.495 703.295 L
222.839 686.879 L
217.583 704.879 L
215.999 789.119 109.007 786.743 105.839 709.199 C
105.407 704.231 104.543 700.991 98.999 700.847 C
56.879 706.103 L
57.167 707.615 L
16.919 710.495 L
14.975 711.072 13.175 711.503 12.815 713.735 C
11.951 726.839 L
16.487 733.391 11.016 741.815 10.583 749.087 C
9.935 751.679 8.567 751.679 5.183 752.687 C
5.183 763.703 L
16.343 773.063 L
14.687 775.799 16.199 776.375 18.575 777.671 C
21.311 787.679 L
18.000 786.815 18.215 787.319 18.288 789.263 c
18.575 794.159 19.151 794.591 20.807 800.423 C
20.951 801.287 21.311 802.007 22.319 802.007 C
25.343 802.007 L
22.823 803.447 24.335 806.039 26.351 806.039 C
26.351 807.767 27.143 809.639 28.295 811.007 C
33.551 823.391 40.751 835.199 49.607 844.271 C
b
0.000 0.000 0.000 1.000 K
0 j
0 J
0.863 w
[]0 d
0.000 0.000 0.000 0.000 k
608.615 454.319 m
588.096 483.695 561.024 508.967 536.111 534.168 C
532.511 538.415 530.063 541.151 521.855 542.375 C
484.703 549.000 448.127 554.903 404.567 554.183 C
293.759 556.487 184.895 556.487 74.159 554.183 C
57.311 554.759 44.064 552.743 35.855 542.087 C
22.175 515.159 8.927 454.031 11.159 406.727 C
15.767 406.727 L
15.695 383.039 L
9.935 380.087 L
9.935 351.575 L
5.255 344.015 L
7.775 326.879 L
25.703 324.719 L
93.887 321.119 L
97.775 315.791 L
97.055 308.663 99.935 296.927 104.975 298.367 C
109.871 322.775 L
122.831 402.335 223.199 392.687 220.895 313.415 C
424.727 313.343 L
435.383 296.927 L
440.639 314.927 L
439.127 394.415 548.351 402.335 552.384 319.247 C
552.815 314.279 553.679 311.039 559.295 310.895 C
601.343 316.079 L
601.055 317.663 L
641.303 320.543 L
643.247 321.048 645.120 321.551 645.479 323.711 C
646.271 336.887 L
641.807 343.367 647.207 351.863 647.639 359.135 C
648.287 361.727 649.655 361.727 653.111 362.735 C
653.111 373.751 L
641.879 383.111 L
643.535 385.847 642.024 386.423 639.647 387.719 C
636.911 397.727 L
640.223 396.935 640.007 397.367 639.935 399.311 c
639.647 404.279 639.144 404.639 637.487 410.471 C
637.271 411.335 636.911 412.055 635.903 412.055 C
632.879 412.055 L
635.471 413.567 633.887 416.087 631.871 416.087 C
631.871 417.815 631.151 419.687 629.927 421.055 C
624.671 433.439 617.543 445.247 608.615 454.319 C
b
0.000 0.000 0.000 1.000 K
0 j
0 J
0.215 w
[]0 d
248.831 926.639 m
425.303 927.359 L
425.879 708.191 L
248.759 708.191 L
248.831 926.639 L
s
0.000 0.000 0.000 1.000 K
0 j
0 J
0.215 w
[]0 d
409.391 536.687 m
232.847 537.408 L
232.343 318.239 L
409.463 318.239 L
409.391 536.687 L
s
0.000 0.000 0.000 1.000 K
0 j
0 J
0.215 w
[]0 d
145.367 922.823 m
175.535 925.919 198.719 927.215 230.471 926.351 C
230.615 854.351 238.319 772.631 194.399 761.759 C
148.031 791.855 101.663 754.343 103.391 710.279 C
68.759 713.591 L
65.591 713.879 64.152 714.887 64.295 718.271 C
64.295 811.655 L
62.783 834.407 68.615 842.471 72.143 846.071 C
134.063 914.975 L
137.304 918.143 139.319 922.679 145.367 922.823 C
s
0.000 0.000 0.000 1.000 K
0 j
0 J
0.215 w
[]0 d
512.711 532.871 m
482.543 535.967 459.359 537.264 427.607 536.471 C
427.463 464.399 419.759 382.751 463.679 371.807 C
510.047 401.903 556.487 364.463 554.759 320.327 C
589.391 323.639 L
592.487 323.855 594.000 324.863 593.783 328.319 C
593.783 421.703 L
595.367 444.455 589.463 452.519 586.007 456.119 C
524.015 525.024 L
520.775 528.192 518.759 532.727 512.711 532.871 C
s
0.000 0.000 0.000 1.000 K
0 j
0 J
0.215 w
[]0 d
0.000 0.000 0.000 0.498 k
146.159 916.703 m
170.063 919.295 194.111 920.951 218.303 921.239 C
224.567 922.247 228.527 918.647 229.103 915.047 C
218.951 862.775 L
217.583 856.439 214.559 854.639 206.423 852.263 C
166.391 845.351 117.431 843.623 77.543 842.615 C
140.543 913.823 L
142.055 915.695 143.711 916.703 146.159 916.703 C
b
0.000 0.000 0.000 1.000 K
0 j
0 J
0.215 w
[]0 d
0.000 0.000 0.000 0.498 k
511.919 526.823 m
488.015 529.343 463.967 531.000 439.775 531.288 C
433.511 532.295 429.623 528.695 428.975 525.168 C
439.127 472.823 L
440.495 466.487 443.519 464.687 451.655 462.311 C
491.687 455.399 540.719 453.671 580.607 452.663 C
517.535 523.871 L
516.024 525.743 514.367 526.823 511.919 526.823 C
b
0.000 0.000 0.000 1.000 K
0 j
0 J
0.215 w
[]0 d
0.000 0.000 0.000 0.498 k
267.911 828.287 m
278.279 828.287 l
281.447 828.287 283.967 825.767 283.967 822.527 c
283.967 807.695 l
283.967 804.455 281.447 802.007 278.279 802.007 c
267.911 802.007 l
264.671 802.007 262.151 804.455 262.151 807.695 c
262.151 822.527 l
262.151 825.767 264.671 828.287 267.911 828.287 c
b
0.000 0.000 0.000 1.000 K
0 j
0 J
0.215 w
[]0 d
0.000 0.000 0.000 0.498 k
390.167 438.335 m
379.799 438.335 l
376.631 438.335 374.111 435.815 374.111 432.647 c
374.111 417.743 l
374.111 414.503 376.631 412.055 379.799 412.055 c
390.167 412.055 l
393.407 412.055 395.927 414.503 395.927 417.743 c
395.927 432.647 l
395.927 435.815 393.407 438.335 390.167 438.335 c
b
0.000 0.000 0.000 1.000 K
0 j
0 J
0.215 w
[]0 d
25.343 802.151 m
62.855 802.223 L
62.855 773.207 L
16.343 773.135 L
14.399 774.935 16.416 777.167 18.431 777.815 C
25.343 802.151 L
s
0.000 0.000 0.000 1.000 K
0 j
0 J
0.215 w
[]0 d
632.807 412.199 m
595.295 412.271 L
595.295 383.255 L
641.807 383.183 L
643.679 384.983 641.663 387.215 639.647 387.863 C
632.807 412.199 L
s
u
u
0.000 0.000 0.000 1.000 K
0 j
0 J
0.215 w
[]0 d
78.191 842.327 m
76.535 840.311 77.543 838.727 80.495 838.727 C
124.271 838.727 170.927 841.175 211.607 849.527 C
216.575 850.175 220.175 853.487 220.823 856.007 C
228.167 912.527 L
S
U
U
u
u
0.000 0.000 0.000 1.000 K
0 j
0 J
0.215 w
[]0 d
580.031 452.375 m
581.687 450.359 580.679 448.847 577.727 448.847 C
534.024 448.847 487.295 451.223 446.615 459.575 C
441.647 460.223 438.047 463.535 437.399 466.055 C
430.055 522.575 L
S
U
U
u
u
0.000 0.000 0.000 1.000 K
0 j
0 J
0.215 w
[]0 d
582.983 918.359 m
597.024 918.359 604.223 912.455 606.599 905.615 C
613.007 853.991 L
614.087 841.679 602.423 841.319 588.887 841.319 C
S
U
U
u
u
0.000 0.000 0.000 1.000 K
0 j
0 J
0.215 w
[]0 d
75.384 528.408 m
61.343 528.408 54.143 522.503 51.767 515.735 C
45.359 464.039 L
44.207 451.727 55.943 451.367 69.479 451.367 C
S
U
U
u
u
0.000 0.000 0.000 1.000 K
0 j
0 J
0.215 w
[]0 d
269.351 825.407 m
269.351 804.743 L
S
U
U
u
u
0.000 0.000 0.000 1.000 K
0 j
0 J
0.215 w
[]0 d
388.871 435.455 m
388.871 414.791 L
S
U
U
u
u
0.000 0.000 0.000 1.000 K
0 j
0 J
0.215 w
[]0 d
275.903 825.407 m
275.903 804.743 L
S
U
U
u
u
0.000 0.000 0.000 1.000 K
0 j
0 J
0.215 w
[]0 d
382.175 435.455 m
382.175 414.791 L
S
U
U
u
u
0.000 0.000 0.000 1.000 K
0 j
0 J
0.215 w
[]0 d
235.511 926.351 m
244.799 926.639 L
S
U
U
u
u
0.000 0.000 0.000 1.000 K
0 j
0 J
0.215 w
[]0 d
422.567 536.471 m
413.279 536.687 L
S
U
U
0.000 0.000 0.000 1.000 K
0 j
0 J
0.215 w
[]0 d
0.000 0.000 0.000 0.098 k
18.431 777.743 m
56.087 777.743 l
58.319 777.743 59.327 776.231 59.327 780.335 c
59.255 802.223 L
25.343 802.151 L
18.431 777.743 l
b
0.000 0.000 0.000 1.000 K
0 j
0 J
0.215 w
[]0 d
0.000 0.000 0.000 0.098 k
639.647 387.863 m
601.991 387.863 l
599.759 387.863 598.751 386.279 598.751 390.383 c
598.895 412.271 L
632.807 412.199 L
639.647 387.863 l
b
0.000 0.000 0.000 1.000 K
0 j
0 J
0.215 w
[]0 d
0.000 0.000 0.000 0.498 k
129.167 930.671 m
134.423 923.399 L
65.519 845.207 L
60.911 842.615 48.815 839.807 49.103 843.551 C
70.055 874.079 104.183 905.975 129.167 930.671 C
b
u
u
0.000 0.000 0.000 1.000 K
0 j
0 J
0.215 w
[]0 d
134.207 923.327 m
142.560 922.391 L
S
U
U
u
u
0.000 0.000 0.000 1.000 K
0 j
0 J
0.215 w
[]0 d
523.943 533.375 m
515.519 532.439 L
S
U
U
u
u
0.000 0.000 0.000 1.000 K
0 j
0 J
0.215 w
[]0 d
67.319 847.007 m
61.055 839.663 55.079 836.135 43.128 837.071 C
S
U
U
u
u
0.000 0.000 0.000 0.498 k
590.831 457.055 m
597.096 449.711 603.000 446.183 614.951 447.119 C
S
U
u
0.000 0.000 0.000 1.000 K
0 j
0 J
0.215 w
[]0 d
590.831 457.055 m
597.096 449.711 603.000 446.183 614.951 447.119 C
S
U
U
u
u
0.000 0.000 0.000 1.000 K
0 j
0 J
0.215 w
[]0 d
64.223 810.863 m
28.295 810.863 L
S
U
U
u
u
0.000 0.000 0.000 1.000 K
0 j
0 J
0.215 w
[]0 d
593.855 420.911 m
629.783 420.911 L
S
U
U
u
u
0.000 0.000 0.000 1.000 K
0 j
0 J
0.215 w
[]0 d
64.223 806.111 m
26.279 806.111 L
S
U
U
u
u
0.000 0.000 0.000 1.000 K
0 j
0 J
0.215 w
[]0 d
593.855 416.159 m
631.799 416.159 L
S
U
U
0.000 0.000 0.000 1.000 k
493.055 665.711 m
519.408 665.711 541.079 687.311 541.079 713.735 c
541.079 740.087 519.408 761.687 493.055 761.687 c
466.559 761.687 444.959 740.087 444.959 713.735 c
444.959 687.311 466.559 665.711 493.055 665.711 c
f
0.000 0.000 0.000 1.000 k
165.167 275.687 m
138.816 275.687 117.215 297.287 117.215 323.783 c
117.215 350.135 138.816 371.735 165.167 371.735 c
191.591 371.735 213.191 350.135 213.191 323.783 c
213.191 297.287 191.591 275.687 165.167 275.687 c
f
0.000 0.000 0.000 1.000 k
163.151 665.711 m
189.503 665.711 211.103 687.311 211.103 713.735 c
211.103 740.087 189.503 761.687 163.151 761.687 c
136.655 761.687 115.055 740.087 115.055 713.735 c
115.055 687.311 136.655 665.711 163.151 665.711 c
f
0.000 0.000 0.000 1.000 k
494.927 275.687 m
468.575 275.687 446.975 297.287 446.975 323.783 c
446.975 350.135 468.575 371.735 494.927 371.735 c
521.423 371.735 543.024 350.135 543.024 323.783 c
543.024 297.287 521.423 275.687 494.927 275.687 c
f
0.000 0.000 0.000 1.000 K
0 j
0 J
0.215 w
[]0 d
0.000 0.000 0.000 0.200 k
492.911 742.607 m
508.823 742.607 522.000 729.503 522.000 713.591 C
522.000 697.535 508.823 684.503 492.911 684.503 C
476.927 684.503 463.895 697.535 463.895 713.591 C
463.895 729.503 476.927 742.607 492.911 742.607 C
b
0.000 0.000 0.000 1.000 K
0 j
0 J
0.215 w
[]0 d
0.000 0.000 0.000 0.200 k
165.383 352.655 m
149.471 352.655 136.367 339.479 136.367 323.567 C
136.367 307.584 149.471 294.551 165.383 294.551 C
181.439 294.551 194.399 307.584 194.399 323.567 C
194.399 339.479 181.439 352.655 165.383 352.655 C
b
0.000 0.000 0.000 1.000 K
0 j
0 J
0.215 w
[]0 d
492.911 687.671 m
478.511 687.671 466.991 699.191 466.991 713.591 C
466.991 727.847 478.511 739.367 492.911 739.367 C
507.239 739.367 518.687 727.847 518.687 713.591 C
518.687 699.191 507.239 687.671 492.911 687.671 C
s
0.000 0.000 0.000 1.000 K
0 j
0 J
0.215 w
[]0 d
165.383 297.719 m
179.783 297.719 191.303 309.167 191.303 323.567 C
191.303 337.895 179.783 349.343 165.383 349.343 C
151.127 349.343 139.607 337.895 139.607 323.567 C
139.607 309.167 151.127 297.719 165.383 297.719 C
s
0.000 0.000 0.000 1.000 k
492.911 695.807 m
502.559 695.807 510.551 703.799 510.551 713.591 C
510.551 723.239 502.559 731.231 492.911 731.231 C
483.191 731.231 475.127 723.239 475.127 713.591 C
475.127 703.799 483.191 695.807 492.911 695.807 C
f
0.000 0.000 0.000 1.000 k
165.383 305.783 m
155.735 305.783 147.743 313.847 147.743 323.567 C
147.743 333.215 155.735 341.207 165.383 341.207 C
175.175 341.207 183.167 333.215 183.167 323.567 C
183.167 313.847 175.175 305.783 165.383 305.783 C
f
0.000 0.000 0.000 1.000 K
0 j
0 J
0.215 w
[]0 d
0.000 0.000 0.000 0.200 k
492.911 699.048 m
484.775 699.048 478.439 705.527 478.439 713.591 C
478.439 721.439 484.775 728.063 492.911 728.063 C
500.903 728.063 507.455 721.439 507.455 713.591 C
507.455 705.527 500.903 699.048 492.911 699.048 C
b
0.000 0.000 0.000 1.000 K
0 j
0 J
0.215 w
[]0 d
0.000 0.000 0.000 0.200 k
165.383 309.096 m
173.519 309.096 179.927 315.575 179.927 323.567 C
179.927 331.487 173.519 338.111 165.383 338.111 C
157.391 338.111 150.911 331.487 150.911 323.567 C
150.911 315.575 157.391 309.096 165.383 309.096 C
b
0.000 0.000 0.000 1.000 k
503.639 717.839 m
503.351 718.343 502.775 718.559 502.415 718.343 C
501.839 718.199 501.623 717.623 501.839 717.191 C
502.127 716.687 502.559 716.471 503.063 716.615 C
503.639 716.831 503.855 717.407 503.639 717.839 C
f
0.000 0.000 0.000 1.000 k
154.727 327.887 m
154.943 328.319 155.519 328.607 155.879 328.319 C
156.455 328.247 156.671 327.671 156.455 327.167 C
156.239 326.735 155.735 326.519 155.304 326.591 C
154.727 326.807 154.512 327.383 154.727 327.887 C
f
0.000 0.000 0.000 1.000 k
500.255 704.519 m
500.615 704.735 500.687 705.455 500.327 705.887 C
500.039 706.247 499.319 706.391 498.959 706.031 C
498.527 705.671 498.527 705.095 498.815 704.591 C
499.175 704.159 499.751 704.159 500.255 704.519 C
f
0.000 0.000 0.000 1.000 k
158.111 314.495 m
157.751 314.783 157.607 315.431 157.967 315.935 C
158.327 316.295 159.048 316.367 159.335 316.007 C
159.839 315.719 159.839 315.143 159.479 314.639 C
159.119 314.207 158.543 314.207 158.111 314.495 C
f
0.000 0.000 0.000 1.000 k
486.431 703.799 m
486.863 703.583 487.439 703.727 487.799 704.015 C
488.015 704.519 487.943 705.167 487.439 705.455 C
487.007 705.815 486.431 705.671 486.215 705.167 C
485.855 704.735 485.927 704.159 486.431 703.799 C
f
0.000 0.000 0.000 1.000 k
171.935 313.847 m
171.431 313.631 170.855 313.703 170.495 314.063 C
170.280 314.495 170.423 315.215 170.855 315.431 C
171.287 315.791 171.935 315.719 172.151 315.215 C
172.512 314.783 172.367 314.207 171.935 313.847 C
f
0.000 0.000 0.000 1.000 k
481.751 716.903 m
481.679 716.327 481.895 715.895 482.471 715.679 C
482.903 715.535 483.407 715.751 483.551 716.327 C
483.767 716.831 483.407 717.407 483.047 717.479 C
482.471 717.767 481.895 717.407 481.751 716.903 C
f
0.000 0.000 0.000 1.000 k
176.543 326.951 m
176.687 326.375 176.399 325.943 175.823 325.655 C
175.391 325.584 174.959 325.799 174.815 326.375 C
174.599 326.807 174.959 327.383 175.247 327.527 C
175.823 327.743 176.399 327.383 176.543 326.951 C
f
0.000 0.000 0.000 1.000 k
492.911 725.039 m
492.335 725.039 491.903 724.679 491.903 724.103 C
491.903 723.527 492.335 723.239 492.911 723.239 C
493.415 723.239 493.847 723.527 493.847 724.103 C
493.847 724.679 493.415 725.039 492.911 725.039 C
f
0.000 0.000 0.000 1.000 k
165.383 335.087 m
165.959 335.087 166.463 334.727 166.463 334.151 C
166.463 333.575 165.959 333.215 165.383 333.215 C
164.951 333.215 164.447 333.575 164.447 334.151 C
164.447 334.727 164.951 335.087 165.383 335.087 C
f
0.000 0.000 0.000 1.000 k
492.911 707.759 m
496.079 707.759 498.599 710.279 498.599 713.591 C
498.599 716.687 496.079 719.279 492.911 719.279 C
489.671 719.279 487.151 716.687 487.151 713.591 C
487.151 710.279 489.671 707.759 492.911 707.759 C
f
0.000 0.000 0.000 1.000 k
165.383 317.807 m
162.287 317.807 159.695 320.327 159.695 323.567 C
159.695 326.735 162.287 329.255 165.383 329.255 C
168.623 329.255 171.215 326.735 171.215 323.567 C
171.215 320.327 168.623 317.807 165.383 317.807 C
f
0.000 0.000 0.000 1.000 K
0 j
0 J
0.215 w
[]0 d
0.000 0.000 0.000 0.200 k
163.223 742.607 m
179.135 742.607 192.311 729.503 192.311 713.591 C
192.311 697.535 179.135 684.503 163.223 684.503 C
147.239 684.503 134.207 697.535 134.207 713.591 C
134.207 729.503 147.239 742.607 163.223 742.607 C
b
0.000 0.000 0.000 1.000 K
0 j
0 J
0.215 w
[]0 d
0.000 0.000 0.000 0.200 k
495.071 352.655 m
479.159 352.655 466.055 339.479 466.055 323.567 C
466.055 307.584 479.159 294.551 495.071 294.551 C
511.127 294.551 524.159 307.584 524.159 323.567 C
524.159 339.479 511.127 352.655 495.071 352.655 C
b
0.000 0.000 0.000 1.000 K
0 j
0 J
0.215 w
[]0 d
163.223 687.671 m
148.823 687.671 137.375 699.191 137.375 713.591 C
137.375 727.847 148.823 739.367 163.223 739.367 C
177.551 739.367 189.071 727.847 189.071 713.591 C
189.071 699.191 177.551 687.671 163.223 687.671 C
s
0.000 0.000 0.000 1.000 K
0 j
0 J
0.215 w
[]0 d
495.071 297.719 m
509.471 297.719 520.991 309.167 520.991 323.567 C
520.991 337.895 509.471 349.343 495.071 349.343 C
480.815 349.343 469.295 337.895 469.295 323.567 C
469.295 309.167 480.815 297.719 495.071 297.719 C
s
0.000 0.000 0.000 1.000 k
163.223 695.807 m
172.871 695.807 180.935 703.799 180.935 713.591 C
180.935 723.239 172.871 731.231 163.223 731.231 C
153.503 731.231 145.512 723.239 145.512 713.591 C
145.512 703.799 153.503 695.807 163.223 695.807 C
f
0.000 0.000 0.000 1.000 k
495.071 305.783 m
485.423 305.783 477.431 313.847 477.431 323.567 C
477.431 333.215 485.423 341.207 495.071 341.207 C
504.791 341.207 512.855 333.215 512.855 323.567 C
512.855 313.847 504.791 305.783 495.071 305.783 C
f
0.000 0.000 0.000 1.000 K
0 j
0 J
0.215 w
[]0 d
0.000 0.000 0.000 0.200 k
163.223 699.048 m
155.159 699.048 148.751 705.527 148.751 713.591 C
148.751 721.439 155.159 728.063 163.223 728.063 C
171.287 728.063 177.768 721.439 177.768 713.591 C
177.768 705.527 171.287 699.048 163.223 699.048 C
b
0.000 0.000 0.000 1.000 K
0 j
0 J
0.215 w
[]0 d
0.000 0.000 0.000 0.200 k
495.071 309.096 m
503.207 309.096 509.615 315.575 509.615 323.567 C
509.615 331.487 503.207 338.111 495.071 338.111 C
487.079 338.111 480.527 331.487 480.527 323.567 C
480.527 315.575 487.079 309.096 495.071 309.096 C
b
0.000 0.000 0.000 1.000 k
173.951 717.839 m
173.735 718.343 173.159 718.559 172.799 718.343 C
172.223 718.199 171.935 717.623 172.223 717.191 C
172.439 716.687 172.871 716.471 173.375 716.615 C
173.951 716.831 174.167 717.407 173.951 717.839 C
f
0.000 0.000 0.000 1.000 k
484.415 327.887 m
484.631 328.319 485.207 328.607 485.567 328.319 C
486.143 328.247 486.359 327.671 486.143 327.167 C
485.927 326.735 485.423 326.519 484.991 326.591 C
484.415 326.807 484.127 327.383 484.415 327.887 C
f
0.000 0.000 0.000 1.000 k
170.567 704.519 m
170.927 704.735 171.071 705.455 170.711 705.887 C
170.351 706.247 169.631 706.391 169.271 706.031 C
168.839 705.671 168.839 705.095 169.199 704.591 C
169.559 704.159 170.135 704.159 170.567 704.519 C
f
0.000 0.000 0.000 1.000 k
487.727 314.495 m
487.439 314.783 487.295 315.431 487.655 315.935 C
488.015 316.295 488.663 316.367 489.023 316.007 C
489.527 315.719 489.527 315.143 489.167 314.639 C
488.807 314.207 488.231 314.207 487.727 314.495 C
f
0.000 0.000 0.000 1.000 k
156.743 703.799 m
157.247 703.583 157.823 703.727 158.111 704.015 C
158.399 704.519 158.256 705.167 157.823 705.455 C
157.319 705.815 156.743 705.671 156.527 705.167 C
156.167 704.735 156.311 704.159 156.743 703.799 C
f
0.000 0.000 0.000 1.000 k
501.551 313.847 m
501.119 313.631 500.543 313.703 500.183 314.063 C
499.967 314.495 500.039 315.215 500.543 315.431 C
500.975 315.791 501.551 315.719 501.839 315.215 C
502.127 314.783 502.055 314.207 501.551 313.847 C
f
0.000 0.000 0.000 1.000 k
152.135 716.903 m
151.991 716.327 152.207 715.895 152.783 715.679 C
153.287 715.535 153.719 715.751 153.863 716.327 C
154.079 716.831 153.719 717.407 153.359 717.479 C
152.783 717.767 152.207 717.407 152.135 716.903 C
f
0.000 0.000 0.000 1.000 k
506.231 326.951 m
506.303 326.375 506.087 325.943 505.511 325.655 C
505.079 325.584 504.575 325.799 504.503 326.375 C
504.215 326.807 504.575 327.383 504.935 327.527 C
505.511 327.743 506.087 327.383 506.231 326.951 C
f
0.000 0.000 0.000 1.000 k
163.223 725.039 m
162.647 725.039 162.215 724.679 162.215 724.103 C
162.215 723.527 162.647 723.239 163.223 723.239 C
163.727 723.239 164.159 723.527 164.159 724.103 C
164.159 724.679 163.727 725.039 163.223 725.039 C
f
0.000 0.000 0.000 1.000 k
495.071 335.087 m
495.647 335.087 496.079 334.727 496.079 334.151 C
496.079 333.575 495.647 333.215 495.071 333.215 C
494.639 333.215 494.135 333.575 494.135 334.151 C
494.135 334.727 494.639 335.087 495.071 335.087 C
f
0.000 0.000 0.000 1.000 k
163.223 707.759 m
166.391 707.759 168.911 710.279 168.911 713.591 C
168.911 716.687 166.391 719.279 163.223 719.279 C
159.983 719.279 157.463 716.687 157.463 713.591 C
157.463 710.279 159.983 707.759 163.223 707.759 C
f
0.000 0.000 0.000 1.000 k
495.071 317.807 m
491.903 317.807 489.383 320.327 489.383 323.567 C
489.383 326.735 491.903 329.255 495.071 329.255 C
498.311 329.255 500.903 326.735 500.903 323.567 C
500.903 320.327 498.311 317.807 495.071 317.807 C
f
u
u
0.000 0.000 0.000 1.000 K
0 j
0 J
0.215 w
[]0 d
62.999 796.895 m
647.351 796.895 L
S
U
U
u
u
0.000 0.000 0.000 1.000 K
0 j
0 J
0.215 w
[]0 d
595.079 406.943 m
10.799 406.943 L
S
U
U
0.000 0.000 0.000 1.000 K
0 j
0 J
0.215 w
[]0 d
0.000 0.000 0.000 0.200 k
620.207 925.847 m
619.631 927.215 622.583 927.935 624.527 928.007 C
635.831 898.919 643.031 867.671 646.127 833.111 C
641.519 833.111 L
635.903 864.359 629.207 895.967 620.207 925.847 C
b
0.000 0.000 0.000 1.000 K
0 j
0 J
0.215 w
[]0 d
0.000 0.000 0.000 0.200 k
38.159 535.895 m
38.663 537.264 35.783 537.983 33.839 538.127 C
22.535 508.967 15.335 477.719 12.239 443.159 C
16.847 443.159 L
22.463 474.407 29.159 506.015 38.159 535.895 C
b
u
u
0.000 0.000 0.000 1.000 K
0 j
0 J
0.215 w
[]0 d
607.607 942.191 m
616.607 902.015 625.319 860.975 625.319 821.519 c
625.319 778.607 L
625.031 774.071 626.039 773.063 629.351 773.063 C
642.599 773.063 L
S
U
U
u
u
0.000 0.000 0.000 1.000 K
0 j
0 J
0.215 w
[]0 d
50.759 552.240 m
41.759 512.063 33.047 471.023 33.047 431.567 c
33.047 388.727 L
33.335 384.119 32.327 383.111 29.015 383.111 C
15.767 383.111 L
S
U
U
u
u
0.000 0.000 0.000 1.000 K
0 j
0 J
0.215 w
[]0 d
646.199 831.167 m
642.671 831.167 L
641.519 831.167 641.159 834.839 641.591 833.183 c
642.815 829.079 642.024 830.015 646.559 828.791 C
S
U
U
u
u
0.000 0.000 0.000 1.000 K
0 j
0 J
0.215 w
[]0 d
12.167 441.215 m
15.695 441.215 L
16.847 441.215 17.207 444.959 16.775 443.303 c
15.551 439.127 16.343 440.063 11.807 438.839 C
S
U
U
0.000 0.000 0.000 1.000 K
0 j
0 J
0.215 w
[]0 d
0.000 0.000 0.000 0.298 k
640.079 822.527 m
627.767 822.527 l
626.255 822.527 625.175 821.375 625.175 819.935 c
625.175 775.439 l
625.175 774.647 627.263 772.847 627.767 772.847 c
640.079 772.847 L
642.671 772.775 L
642.671 775.439 L
642.671 819.935 l
642.671 821.375 641.519 822.527 640.079 822.527 c
b
0.000 0.000 0.000 1.000 K
0 j
0 J
0.215 w
[]0 d
0.000 0.000 0.000 0.298 k
18.288 432.575 m
30.599 432.575 l
32.111 432.575 33.192 431.423 33.192 429.983 c
33.192 385.487 l
33.192 384.695 31.103 382.967 30.599 382.967 c
18.288 382.967 L
15.695 382.823 L
15.695 385.487 L
15.695 429.983 l
15.695 431.423 16.847 432.575 18.288 432.575 c
b
u
u
0.000 0.000 0.000 1.000 K
0 j
0 J
0.215 w
[]0 d
625.103 807.551 m
642.599 807.551 L
S
U
U
u
u
0.000 0.000 0.000 1.000 K
0 j
0 J
0.215 w
[]0 d
33.119 417.599 m
15.695 417.599 L
S
U
U
u
u
0.000 0.000 0.000 1.000 K
0 j
0 J
0.215 w
[]0 d
625.391 797.759 m
642.671 797.759 L
S
U
U
u
u
0.000 0.000 0.000 1.000 K
0 j
0 J
0.215 w
[]0 d
32.975 407.807 m
15.695 407.807 L
S
U
U
u
u
0.000 0.000 0.000 1.000 K
0 j
0 J
0.215 w
[]0 d
625.103 781.919 m
642.599 781.919 L
S
U
U
u
u
0.000 0.000 0.000 1.000 K
0 j
0 J
0.215 w
[]0 d
33.119 391.967 m
15.695 391.967 L
S
U
U
u
u
0.000 0.000 0.000 1.000 K
0 j
0 J
0.215 w
[]0 d
534.455 764.279 m
643.031 764.279 L
S
U
U
u
u
0.000 0.000 0.000 1.000 K
0 j
0 J
0.215 w
[]0 d
123.911 374.327 m
15.263 374.327 L
S
U
U
u
u
0.000 0.000 0.000 1.000 K
0 j
0 J
0.215 w
[]0 d
204.623 764.279 m
448.199 764.279 L
S
U
U
u
u
0.000 0.000 0.000 1.000 K
0 j
0 J
0.215 w
[]0 d
453.455 374.327 m
209.879 374.327 L
S
U
U
u
u
0.000 0.000 0.000 1.000 K
0 j
0 J
0.215 w
[]0 d
531.719 755.711 m
644.831 755.711 L
S
U
U
u
u
0.000 0.000 0.000 1.000 K
0 j
0 J
0.215 w
[]0 d
126.647 365.759 m
13.535 365.759 L
S
U
U
u
u
0.000 0.000 0.000 1.000 K
0 j
0 J
0.215 w
[]0 d
213.047 755.711 m
453.167 755.711 L
S
U
U
u
u
0.000 0.000 0.000 1.000 K
0 j
0 J
0.215 w
[]0 d
445.031 365.759 m
204.911 365.759 L
S
U
U
u
u
0.000 0.000 0.000 1.000 K
0 j
0 J
0.215 w
[]0 d
642.671 772.775 m
642.527 755.783 L
648.359 749.807 L
S
U
U
u
u
0.000 0.000 0.000 1.000 K
0 j
0 J
0.215 w
[]0 d
15.695 382.823 m
15.839 365.831 L
10.007 359.855 L
S
U
U
u
u
0.000 0.000 0.000 1.000 K
0 j
0 J
0.215 w
[]0 d
110.087 755.711 m
133.271 789.551 185.471 789.551 213.335 755.711 C
S
U
U
u
u
0.000 0.000 0.000 1.000 K
0 j
0 J
0.215 w
[]0 d
548.063 365.759 m
524.807 399.599 472.607 399.599 444.743 365.759 C
S
U
U
u
u
0.000 0.000 0.000 1.000 K
0 j
0 J
0.215 w
[]0 d
199.151 752.759 m
212.615 755.783 L
S
U
U
u
u
0.000 0.000 0.000 1.000 K
0 j
0 J
0.215 w
[]0 d
459.071 362.879 m
445.607 365.903 L
S
U
U
u
u
0.000 0.000 0.000 1.000 K
0 j
0 J
0.215 w
[]0 d
194.327 761.471 m
209.951 750.887 222.479 725.615 233.423 703.439 C
S
U
U
u
u
0.000 0.000 0.000 1.000 K
0 j
0 J
0.215 w
[]0 d
463.751 371.519 m
448.127 361.007 435.599 335.663 424.655 313.415 C
S
U
U
u
u
0.000 0.000 0.000 1.000 K
0 j
0 J
0.215 w
[]0 d
244.799 708.048 m
230.831 708.048 L
S
U
U
u
u
0.000 0.000 0.000 1.000 K
0 j
0 J
0.215 w
[]0 d
413.279 318.096 m
427.247 318.096 L
S
U
U
u
u
0.000 0.000 0.000 1.000 K
0 j
0 J
0.215 w
[]0 d
425.735 708.048 m
432.719 708.048 L
436.247 762.983 482.759 785.087 519.192 765.071 C
534.887 755.495 546.911 736.559 561.527 715.391 C
626.111 719.495 L
S
U
U
u
u
0.000 0.000 0.000 1.000 K
0 j
0 J
0.215 w
[]0 d
232.559 318.096 m
225.575 318.096 L
222.119 373.103 175.607 395.135 139.103 375.119 C
123.479 365.543 111.455 346.607 96.839 325.439 C
32.256 329.471 L
S
U
U
u
u
0.000 0.000 0.000 1.000 K
0 j
0 J
0.215 w
[]0 d
537.767 742.391 m
540.000 744.479 L
S
U
U
u
u
0.000 0.000 0.000 1.000 K
0 j
0 J
0.215 w
[]0 d
120.599 352.367 m
118.367 354.527 L
S
U
U
u
u
0.000 0.000 0.000 1.000 K
0 j
0 J
0.215 w
[]0 d
441.791 756.215 m
465.911 789.479 519.551 789.479 541.439 755.855 C
S
U
U
u
u
0.000 0.000 0.000 1.000 K
0 j
0 J
0.215 w
[]0 d
216.503 366.263 m
192.455 399.527 138.816 399.527 116.927 365.903 C
S
U
U
0.000 0.000 0.000 1.000 K
0 j
0 J
0.215 w
[]0 d
0.000 0.000 0.000 0.498 k
625.823 755.855 m
642.743 755.855 L
648.287 755.855 L
648.287 741.239 L
653.039 733.967 L
650.591 716.831 L
625.823 714.311 L
625.823 755.855 L
b
0.000 0.000 0.000 1.000 K
0 j
0 J
0.215 w
[]0 d
0.000 0.000 0.000 0.498 k
32.543 365.903 m
15.623 365.903 L
10.080 365.903 L
10.080 351.287 L
5.327 344.015 L
7.775 326.807 L
32.543 324.359 L
32.543 365.903 L
b
0.000 0.000 0.000 1.000 K
0 j
0 J
0.215 w
[]0 d
0.000 0.000 0.000 0.498 k
64.295 772.991 m
16.128 772.991 L
5.040 763.631 L
5.040 752.903 L
9.719 751.247 10.367 750.959 10.583 747.791 C
13.247 736.127 L
13.967 732.311 13.607 729.431 11.951 726.911 C
12.599 715.031 L
12.959 711.719 13.535 711.072 18.215 710.423 C
56.951 707.687 L
56.735 706.103 L
64.223 705.095 L
64.295 772.991 L
b
0.000 0.000 0.000 1.000 K
0 j
0 J
0.215 w
[]0 d
0.000 0.000 0.000 0.498 k
593.783 383.039 m
642.024 383.039 L
653.039 373.679 L
653.039 362.951 L
648.359 361.295 647.711 361.007 647.567 357.839 C
644.903 346.175 L
644.111 342.287 644.471 339.479 646.127 336.887 C
645.479 325.079 L
645.120 321.767 644.615 321.119 639.935 320.471 C
601.127 317.663 L
601.415 316.151 L
593.855 315.143 L
593.783 383.039 L
b
u
u
0.000 0.000 0.000 1.000 K
0 j
0 J
0.215 w
[]0 d
57.239 707.831 m
98.567 704.303 L
100.727 704.159 102.743 704.159 103.463 705.311 C
103.679 710.063 L
S
U
U
u
u
0.000 0.000 0.000 1.000 K
0 j
0 J
0.215 w
[]0 d
600.983 317.879 m
559.655 314.351 L
557.495 314.207 555.479 314.207 554.759 315.359 C
554.615 320.039 L
S
U
U
u
u
0.000 0.000 0.000 1.000 K
0 j
0 J
0.215 w
[]0 d
64.223 719.063 m
103.535 716.255 L
S
U
U
u
u
0.000 0.000 0.000 1.000 K
0 j
0 J
0.215 w
[]0 d
593.855 329.111 m
554.543 326.303 L
S
U
U
u
u
0.000 0.000 0.000 1.000 K
0 j
0 J
0.215 w
[]0 d
67.679 713.447 m
12.239 718.991 L
S
U
U
u
u
0.000 0.000 0.000 1.000 K
0 j
0 J
0.215 w
[]0 d
590.471 323.495 m
645.839 328.967 L
S
U
U
u
u
0.000 0.000 0.000 1.000 K
0 j
0 J
0.215 w
[]0 d
5.040 764.279 m
116.495 764.279 L
S
U
U
u
u
0.000 0.000 0.000 1.000 K
0 j
0 J
0.215 w
[]0 d
653.039 374.327 m
541.583 374.327 L
S
U
U
u
u
0.000 0.000 0.000 1.000 K
0 j
0 J
0.215 w
[]0 d
5.040 755.711 m
121.751 755.711 L
S
U
U
u
u
0.000 0.000 0.000 1.000 K
0 j
0 J
0.215 w
[]0 d
653.039 365.759 m
536.327 365.759 L
S
U
U
u
u
0.000 0.000 0.000 1.000 K
0 j
0 J
0.215 w
[]0 d
645.479 752.183 m
632.879 751.895 L
632.879 723.815 L
651.455 723.815 L
S
U
U
u
u
0.000 0.000 0.000 1.000 K
0 j
0 J
0.215 w
[]0 d
12.887 362.231 m
25.487 361.943 L
25.487 333.791 L
6.911 333.791 L
S
U
U
0.000 0.000 0.000 1.000 K
0 j
0 J
0.215 w
[]0 d
0.000 0.000 0.000 0.498 k
425.159 805.823 m
599.039 805.823 L
599.039 796.895 L
425.159 796.895 L
425.159 805.823 L
b
0.000 0.000 0.000 1.000 K
0 j
0 J
0.215 w
[]0 d
0.000 0.000 0.000 0.498 k
233.063 415.871 m
59.183 415.871 L
59.183 406.943 L
233.063 406.943 L
233.063 415.871 L
b
0.000 0.000 0.000 1.000 K
0 j
0 J
0.215 w
[]0 d
219.455 827.495 m
219.455 823.103 l
219.455 822.167 218.735 821.447 217.799 821.447 c
199.727 821.447 l
198.791 821.447 198.071 822.167 198.071 823.103 c
198.071 827.495 L
219.455 827.495 l
s
0.000 0.000 0.000 1.000 K
0 j
0 J
0.215 w
[]0 d
438.623 437.543 m
438.623 433.151 l
438.623 432.215 439.343 431.495 440.279 431.495 c
458.351 431.495 l
459.287 431.495 460.007 432.215 460.007 433.151 c
460.007 437.543 L
438.623 437.543 l
s
0.000 0.000 0.000 1.000 K
0 j
0 J
0.215 w
[]0 d
0.000 0.000 0.000 0.498 k
223.847 827.495 m
223.847 831.887 l
223.847 832.895 223.055 833.543 222.191 833.543 c
199.727 833.543 l
198.935 833.543 198.071 832.895 198.071 831.887 c
198.071 827.495 L
223.847 827.495 l
b
0.000 0.000 0.000 1.000 K
0 j
0 J
0.215 w
[]0 d
0.000 0.000 0.000 0.298 k
434.231 437.543 m
434.231 441.935 l
434.231 442.943 435.023 443.663 435.887 443.663 c
458.351 443.663 l
459.215 443.663 460.007 442.943 460.007 441.935 c
460.007 437.543 L
434.231 437.543 l
b
0.000 0.000 0.000 1.000 k
221.831 828.719 m
222.551 828.719 223.271 829.439 223.271 830.303 c
223.271 831.023 222.551 831.743 221.831 831.743 c
221.039 831.743 220.319 831.023 220.319 830.303 c
220.319 829.439 221.039 828.719 221.831 828.719 c
f
0.000 0.000 0.000 1.000 k
436.247 438.767 m
435.527 438.767 434.807 439.487 434.807 440.351 c
434.807 441.071 435.527 441.791 436.247 441.791 c
437.039 441.791 437.759 441.071 437.759 440.351 c
437.759 439.487 437.039 438.767 436.247 438.767 c
f
0.000 0.000 0.000 1.000 K
0 j
0 J
0.215 w
[]0 d
0.000 0.000 0.000 0.498 k
93.527 873.071 m
99.503 873.719 l
101.159 873.791 102.599 872.351 102.599 870.623 c
102.599 848.951 l
102.599 847.151 101.159 845.639 99.503 845.783 c
93.527 846.503 l
91.871 846.719 90.359 847.943 90.359 849.671 c
90.359 869.975 l
90.359 871.703 91.871 872.927 93.527 873.071 c
b
0.000 0.000 0.000 1.000 K
0 j
0 J
0.215 w
[]0 d
0.000 0.000 0.000 0.498 k
564.623 483.119 m
558.647 483.767 l
556.991 483.911 555.479 482.399 555.479 480.671 c
555.479 458.999 l
555.479 457.271 556.991 455.687 558.647 455.831 c
564.623 456.623 l
566.279 456.767 567.719 457.991 567.719 459.719 c
567.719 480.023 l
567.719 481.751 566.279 482.975 564.623 483.119 c
b
0.000 0.000 0.000 1.000 K
0 j
0 J
0.863 w
[]0 d
0.000 0.000 0.000 0.000 k
978.191 929.303 m
965.087 936.791 L
912.311 941.759 871.343 941.543 799.991 935.855 C
794.375 935.135 791.063 933.191 787.535 928.295 C
780.335 919.151 766.871 851.039 760.895 809.135 C
758.735 769.751 L
755.207 761.903 L
755.207 748.943 759.527 732.815 761.255 718.487 C
756.863 716.255 759.023 711.000 763.055 710.639 C
1006.271 710.639 L
1011.023 710.207 1012.751 715.679 1008.503 720.215 C
1016.063 736.343 1014.407 752.759 1012.967 770.183 C
1008.503 808.199 L
1004.327 856.079 996.479 885.527 978.191 929.303 C
b
0.000 0.000 0.000 1.000 K
0 j
0 J
0.863 w
[]0 d
0.000 0.000 0.000 0.000 k
797.975 535.823 m
800.855 540.072 809.063 542.231 814.607 543.240 C
867.383 548.207 908.351 548.063 979.775 542.375 C
985.319 541.583 988.631 539.711 992.159 534.815 C
999.431 525.599 1020.095 459.287 1022.543 416.231 C
1022.039 375.335 L
1022.039 362.375 1021.031 354.815 1017.503 340.847 C
1016.063 331.919 1009.583 322.991 1003.607 321.335 C
788.327 321.335 L
782.279 324.863 779.327 330.911 775.295 340.847 C
772.343 352.295 772.343 356.327 771.335 375.839 C
771.191 414.719 L
777.167 462.311 781.847 490.319 797.975 535.823 C
b
0.000 0.000 0.000 1.000 K
0 j
0 J
0.215 w
[]0 d
0.000 0.000 0.000 0.498 k
798.839 927.287 m
854.927 934.847 911.015 934.343 967.103 927.143 C
971.495 926.351 975.383 924.911 978.191 915.047 c
997.991 847.799 l
999.647 841.967 993.023 836.711 986.831 836.711 c
785.015 836.711 l
778.823 836.711 772.703 841.823 773.855 847.799 c
787.751 915.047 l
789.119 921.959 791.063 925.991 798.839 927.287 C
b
0.000 0.000 0.000 1.000 K
0 j
0 J
0.215 w
[]0 d
0.000 0.000 0.000 0.498 k
975.455 526.463 m
919.439 534.024 868.535 533.231 812.519 525.959 C
808.055 525.240 803.591 523.799 801.359 513.935 c
787.679 454.319 l
786.383 448.559 792.647 443.231 798.767 443.231 c
989.351 443.231 l
995.543 443.231 1001.735 448.631 1000.511 454.319 c
986.615 514.223 l
985.031 520.919 983.303 525.168 975.455 526.463 C
b
0.000 0.000 0.000 1.000 K
0 j
0 J
0.215 w
[]0 d
0.000 0.000 0.000 0.200 k
803.159 925.127 m
857.087 930.455 910.223 930.455 964.223 925.127 c
970.199 924.551 973.583 919.871 975.095 914.255 c
991.583 851.255 l
993.095 845.639 986.759 840.383 980.783 840.383 c
788.255 840.383 l
782.279 840.383 776.159 845.495 777.455 851.255 c
792.287 914.255 l
793.583 919.943 797.183 924.551 803.159 925.127 c
b
0.000 0.000 0.000 1.000 K
0 j
0 J
0.215 w
[]0 d
0.000 0.000 0.000 0.200 k
970.847 522.719 m
916.919 528.048 869.399 528.048 815.399 522.719 c
809.423 522.144 805.535 517.463 804.527 511.847 c
794.159 457.703 l
793.151 452.231 798.983 446.903 804.959 446.903 c
984.527 446.903 l
990.503 446.903 996.767 452.303 995.399 457.703 c
981.647 511.847 l
980.279 517.391 976.823 522.144 970.847 522.719 c
b
0.000 0.000 0.000 1.000 K
0 j
0 J
0.215 w
[]0 d
0.000 0.000 0.000 0.498 k
744.911 871.991 m
761.111 871.847 l
766.727 871.847 766.079 869.183 766.439 866.519 c
768.167 854.495 l
767.231 848.951 l
766.871 846.287 765.575 843.623 762.911 843.623 c
746.063 843.623 l
745.271 843.623 740.951 844.055 740.735 848.951 c
739.583 866.591 l
739.511 869.327 742.535 871.991 744.911 871.991 c
b
0.000 0.000 0.000 1.000 K
0 j
0 J
0.215 w
[]0 d
0.000 0.000 0.000 0.498 k
1039.679 478.439 m
1023.551 478.367 l
1018.007 478.367 1018.583 475.631 1018.223 473.039 c
1016.495 461.015 l
1017.359 455.471 l
1017.719 452.951 1019.015 450.143 1021.679 450.143 c
1038.599 450.143 l
1039.319 450.143 1043.639 450.647 1043.927 455.471 c
1045.079 473.111 l
1045.151 475.703 1041.983 478.439 1039.679 478.439 c
b
0.000 0.000 0.000 1.000 K
0 j
0 J
0.215 w
[]0 d
0.000 0.000 0.000 0.498 k
1025.423 871.991 m
1009.223 871.847 l
1003.751 871.847 1004.255 869.111 1003.895 866.519 c
1002.167 854.495 l
1003.103 848.951 l
1003.463 846.431 1004.759 843.623 1007.423 843.623 c
1024.343 843.623 l
1025.063 843.623 1029.384 844.127 1029.672 848.951 c
1030.751 866.591 l
1030.823 869.183 1027.727 871.991 1025.423 871.991 c
b
0.000 0.000 0.000 1.000 K
0 j
0 J
0.215 w
[]0 d
0.000 0.000 0.000 0.498 k
754.271 478.439 m
770.471 478.367 l
776.015 478.367 775.439 475.631 775.799 473.039 c
777.527 461.015 l
776.663 455.471 l
776.231 452.951 775.007 450.143 772.343 450.143 c
755.423 450.143 l
754.703 450.143 750.383 450.647 750.095 455.471 c
748.943 473.111 l
748.871 475.703 752.039 478.439 754.271 478.439 c
b
0.000 0.000 0.000 1.000 K
0 j
0 J
0.215 w
[]0 d
0.000 0.000 0.000 0.498 k
760.895 808.055 m
1008.431 808.055 L
1013.039 770.111 L
1015.055 752.471 1015.055 735.191 1008.647 720.359 C
1011.599 715.391 1012.031 712.583 1007.999 710.711 C
884.375 710.711 L
760.895 710.711 L
758.447 713.375 758.231 716.687 761.183 718.847 C
759.239 733.247 755.495 747.503 755.207 762.119 C
758.879 770.255 L
760.895 808.055 L
b
0.000 0.000 0.000 1.000 K
0 j
0 J
0.215 w
[]0 d
0.000 0.000 0.000 0.200 k
760.535 803.231 m
806.471 803.231 l
809.423 803.231 811.799 800.855 811.799 797.903 c
811.799 775.223 l
811.799 772.271 809.423 769.895 806.471 769.895 c
758.807 769.895 L
760.535 803.231 l
b
0.000 0.000 0.000 1.000 K
0 j
0 J
0.215 w
[]0 d
0.000 0.000 0.000 0.200 k
1009.511 803.231 m
963.575 803.231 l
960.623 803.231 958.247 800.855 958.247 797.903 c
958.247 775.223 l
958.247 772.271 960.623 769.895 963.575 769.895 c
1012.967 769.895 L
1009.511 803.231 l
b
0.000 0.000 0.000 1.000 K
0 j
0 J
0.215 w
[]0 d
0.000 0.000 0.000 0.000 k
781.559 798.695 m
799.919 798.623 l
802.439 798.623 804.887 796.463 804.887 793.655 c
804.887 779.831 l
804.887 777.023 802.439 774.863 799.919 774.863 c
781.559 774.719 l
779.111 774.719 776.591 776.951 776.591 779.687 c
776.591 793.799 l
776.591 796.535 778.967 798.695 781.559 798.695 c
b
0.000 0.000 0.000 1.000 K
0 j
0 J
0.215 w
[]0 d
0.000 0.000 0.000 0.000 k
988.343 798.695 m
969.983 798.695 l
967.319 798.695 965.015 796.535 965.015 793.799 c
965.015 779.687 l
965.015 776.951 967.319 774.719 969.983 774.719 c
988.343 774.719 l
991.007 774.719 993.311 776.951 993.311 779.687 c
993.311 793.799 l
993.311 796.535 991.007 798.695 988.343 798.695 c
b
0.000 0.000 0.000 1.000 k
806.831 750.599 m
961.127 750.599 l
962.567 750.599 964.007 749.375 963.647 748.079 c
961.919 742.895 l
961.559 741.599 960.767 740.375 959.399 740.375 c
808.199 740.375 l
806.831 740.375 805.967 741.671 805.679 742.895 c
804.311 748.079 l
804.023 749.375 805.391 750.599 806.831 750.599 c
f
0.000 0.000 0.000 1.000 k
811.295 737.207 m
956.807 737.207 l
958.031 737.207 959.687 735.839 959.327 734.759 c
957.599 729.503 l
957.239 728.423 956.375 727.055 955.079 727.055 c
812.663 727.055 l
811.367 727.055 810.503 728.495 810.215 729.503 c
808.847 734.759 l
808.559 735.839 810.071 737.207 811.295 737.207 c
f
0.000 0.000 0.000 1.000 k
764.135 710.783 m
794.231 710.783 L
794.231 672.551 L
794.303 667.007 764.135 666.791 764.135 672.551 C
764.135 710.783 L
f
0.000 0.000 0.000 1.000 k
972.431 710.783 m
1002.455 710.783 L
1002.455 672.551 L
1002.599 667.007 972.431 666.791 972.431 672.551 C
972.431 710.783 L
f
u
u
0.000 0.000 0.000 1.000 K
0 j
0 J
0.215 w
[]0 d
760.751 718.487 m
1008.935 718.487 L
S
U
U
u
u
0.000 0.000 0.000 1.000 K
0 j
0 J
0.215 w
[]0 d
755.351 754.775 m
1013.687 754.775 L
S
U
U
u
u
0.000 0.000 0.000 1.000 K
0 j
0 J
0.215 w
[]0 d
756.791 765.503 m
1013.255 765.503 L
S
U
U
0.000 0.000 0.000 1.000 k
820.367 785.879 m
949.751 785.879 l
952.055 785.879 953.999 784.007 953.999 781.631 c
953.999 774.719 l
953.999 772.343 952.055 770.543 949.751 770.543 c
820.367 770.543 l
818.063 770.543 816.191 772.343 816.191 774.719 c
816.191 781.631 l
816.191 784.007 818.063 785.879 820.367 785.879 c
f
u
u
0.000 0.000 0.000 1.000 K
0 j
0 J
0.215 w
[]0 d
818.567 790.487 m
949.751 790.487 L
S
U
U
u
u
0.000 0.000 0.000 1.000 K
0 j
0 J
0.215 w
[]0 d
818.567 802.655 m
949.751 802.655 L
S
U
U
u
u
0.000 0.000 0.000 1.000 K
0 j
0 J
0.215 w
[]0 d
818.207 799.127 m
940.391 799.127 L
S
U
U
u
u
0.000 0.000 0.000 1.000 K
0 j
0 J
0.215 w
[]0 d
920.087 799.127 m
950.039 799.127 L
S
U
U
u
u
0.000 0.000 0.000 1.000 K
0 j
0 J
0.215 w
[]0 d
818.207 794.447 m
935.135 794.447 L
S
U
U
u
u
0.000 0.000 0.000 1.000 K
0 j
0 J
0.215 w
[]0 d
920.087 794.447 m
950.039 794.447 L
S
U
U
0.000 0.000 0.000 1.000 K
0 j
0 J
0.215 w
[]0 d
0.000 0.000 0.000 0.498 k
794.087 710.639 m
972.863 710.639 L
972.863 705.383 L
794.087 705.383 L
794.087 710.639 L
b
0.000 0.000 0.000 1.000 K
0 j
0 J
0.215 w
[]0 d
0.000 0.000 0.000 0.498 k
978.767 321.263 m
813.815 321.263 L
813.815 311.903 L
978.767 311.903 L
978.767 321.263 L
b
u
u
0.000 0.000 0.000 1.000 K
0 j
0 J
0.215 w
[]0 d
768.815 836.567 m
768.815 833.975 770.183 831.815 774.071 831.815 C
996.767 831.815 L
1000.295 831.815 1001.159 833.543 1002.023 837.071 C
S
U
U
u
u
0.000 0.000 0.000 1.000 K
0 j
0 J
0.215 w
[]0 d
1010.807 443.087 m
1010.807 440.495 1009.367 438.335 1005.551 438.335 C
782.783 438.335 L
779.327 438.335 778.391 440.063 777.599 443.519 C
S
U
U
0.000 0.000 0.000 0.498 k
834.695 750.455 m
836.207 750.455 L
836.207 740.015 L
834.695 740.015 L
834.695 750.455 L
f
0.000 0.000 0.000 0.498 k
834.695 737.351 m
836.207 737.351 L
836.207 726.911 L
834.695 726.911 L
834.695 737.351 L
f
0.000 0.000 0.000 0.498 k
857.663 750.455 m
859.103 750.455 L
859.103 740.015 L
857.663 740.015 L
857.663 750.455 L
f
0.000 0.000 0.000 0.498 k
857.663 737.351 m
859.103 737.351 L
859.103 726.911 L
857.663 726.911 L
857.663 737.351 L
f
0.000 0.000 0.000 0.498 k
881.639 750.455 m
883.151 750.455 L
883.151 740.015 L
881.639 740.015 L
881.639 750.455 L
f
0.000 0.000 0.000 0.498 k
881.639 737.351 m
883.151 737.351 L
883.151 726.911 L
881.639 726.911 L
881.639 737.351 L
f
0.000 0.000 0.000 0.498 k
905.759 750.455 m
907.271 750.455 L
907.271 740.015 L
905.759 740.015 L
905.759 750.455 L
f
0.000 0.000 0.000 0.498 k
905.759 737.351 m
907.271 737.351 L
907.271 726.911 L
905.759 726.911 L
905.759 737.351 L
f
0.000 0.000 0.000 0.498 k
930.023 750.455 m
931.535 750.455 L
931.535 740.015 L
930.023 740.015 L
930.023 750.455 L
f
0.000 0.000 0.000 0.498 k
930.023 737.351 m
931.535 737.351 L
931.535 726.911 L
930.023 726.911 L
930.023 737.351 L
f
0.000 0.000 0.000 0.498 k
816.119 778.607 m
953.927 778.607 L
953.927 777.383 L
816.119 777.383 L
816.119 778.607 L
f
0.000 0.000 0.000 0.498 k
834.695 785.879 m
836.207 785.879 L
836.207 770.255 L
834.695 770.255 L
834.695 785.879 L
f
0.000 0.000 0.000 0.498 k
857.663 785.879 m
859.103 785.879 L
859.103 770.255 L
857.663 770.255 L
857.663 785.879 L
f
0.000 0.000 0.000 0.498 k
881.639 785.879 m
883.151 785.879 L
883.151 770.255 L
881.639 770.255 L
881.639 785.879 L
f
0.000 0.000 0.000 0.498 k
905.759 785.879 m
907.271 785.879 L
907.271 770.255 L
905.759 770.255 L
905.759 785.879 L
f
0.000 0.000 0.000 0.498 k
930.023 785.879 m
931.535 785.879 L
931.535 770.255 L
930.023 770.255 L
930.023 785.879 L
f
u
u
0.000 0.000 0.000 1.000 K
0 j
0 J
0.215 w
[]0 d
769.679 803.231 m
766.007 770.111 L
S
U
U
u
u
0.000 0.000 0.000 1.000 K
0 j
0 J
0.215 w
[]0 d
1000.511 803.231 m
1004.183 770.111 L
S
U
U
0.000 0.000 0.000 1.000 K
0 j
0 J
0.215 w
[]0 d
0.000 0.000 0.000 0.498 k
789.191 321.263 m
814.103 321.263 L
814.103 303.048 l
814.103 299.663 811.439 297.000 808.055 297.000 c
780.911 297.000 l
777.527 297.000 774.863 299.663 774.863 303.048 c
774.863 341.495 L
778.751 333.719 781.343 324.287 789.191 321.263 C
b
0.000 0.000 0.000 1.000 K
0 j
0 J
0.215 w
[]0 d
0.000 0.000 0.000 0.498 k
1003.247 321.263 m
978.335 321.263 L
978.335 303.048 l
978.335 299.663 980.999 297.000 984.383 297.000 c
1011.527 297.000 l
1014.911 297.000 1017.575 299.663 1017.575 303.048 c
1017.575 341.495 L
1015.919 332.567 1010.879 323.351 1003.247 321.263 C
b
0.000 0.000 0.000 1.000 K
0 j
0 J
0.215 w
[]0 d
799.415 525.599 m
803.519 533.519 810.503 534.887 820.223 536.183 C
869.759 542.375 919.223 542.375 968.903 536.183 C
978.119 533.951 986.039 531.288 988.271 526.031 C
1000.871 493.559 1007.207 459.143 1011.959 425.807 C
999.647 426.887 1001.303 417.671 1001.303 401.759 C
1001.015 357.695 L
1001.591 348.479 996.047 343.151 986.903 340.415 C
805.175 340.415 L
797.399 342.719 793.583 349.487 792.071 357.695 C
792.071 402.191 L
792.863 416.591 794.015 426.527 781.559 425.735 C
784.367 459.503 788.759 494.567 799.415 525.599 C
s
u
u
0.000 0.000 0.000 1.000 K
0 j
0 J
0.215 w
[]0 d
792.071 355.319 m
796.967 346.607 801.863 344.663 810.935 344.663 C
982.439 344.663 L
991.223 344.663 996.551 347.615 999.935 355.823 C
S
U
U
0.000 0.000 0.000 1.000 K
0 j
0 J
0.215 w
[]0 d
937.511 399.167 m
937.511 380.519 l
937.511 377.207 934.991 374.615 931.679 374.615 c
857.879 374.615 l
854.567 374.615 851.975 377.207 851.975 380.519 c
851.975 399.167 L
937.511 399.167 l
s
0.000 0.000 0.000 1.000 K
0 j
0 J
0.215 w
[]0 d
942.119 399.167 m
942.119 374.903 l
942.119 371.591 939.599 369.000 936.287 369.000 c
853.775 369.000 l
850.463 369.000 847.871 371.591 847.871 374.903 c
847.871 399.167 L
942.119 399.167 l
s
0.000 0.000 0.000 1.000 K
0 j
0 J
0.215 w
[]0 d
0.000 0.000 0.000 0.298 k
842.903 399.095 m
946.583 399.095 L
946.583 407.663 943.991 408.671 937.583 408.671 C
852.047 408.671 L
845.351 408.671 843.191 407.951 842.903 399.095 C
b
0.000 0.000 0.000 1.000 K
0 j
0 J
0.215 w
[]0 d
0.000 0.000 0.000 0.298 k
772.775 425.663 m
784.007 425.663 L
788.903 425.663 792.071 421.559 792.359 416.519 C
792.287 362.591 L
792.359 357.551 L
772.271 357.551 L
771.983 373.967 769.607 409.031 772.775 425.663 C
b
0.000 0.000 0.000 1.000 K
0 j
0 J
0.215 w
[]0 d
0.000 0.000 0.000 0.298 k
1020.887 425.663 m
1009.655 425.663 L
1004.831 425.663 1001.591 421.559 1001.303 416.519 C
1001.375 362.591 L
1001.303 357.551 L
1021.463 357.551 L
1021.679 373.967 1024.127 409.031 1020.887 425.663 C
b
u
u
0.000 0.000 0.000 1.000 K
0 j
0 J
0.215 w
[]0 d
771.119 412.199 m
792.359 412.199 L
S
U
U
u
u
0.000 0.000 0.000 1.000 K
0 j
0 J
0.215 w
[]0 d
1022.543 412.199 m
1001.303 412.199 L
S
U
U
u
u
0.000 0.000 0.000 1.000 K
0 j
0 J
0.215 w
[]0 d
770.903 402.263 m
792.431 402.263 L
S
U
U
u
u
0.000 0.000 0.000 1.000 K
0 j
0 J
0.215 w
[]0 d
1022.759 402.263 m
1001.303 402.263 L
S
U
U
u
u
0.000 0.000 0.000 1.000 K
0 j
0 J
0.215 w
[]0 d
771.407 386.711 m
792.431 386.711 L
S
U
U
u
u
0.000 0.000 0.000 1.000 K
0 j
0 J
0.215 w
[]0 d
1022.255 386.711 m
1001.231 386.711 L
S
U
U
u
u
0.000 0.000 0.000 1.000 K
0 j
0 J
0.215 w
[]0 d
771.407 375.191 m
792.215 375.191 L
S
U
U
u
u
0.000 0.000 0.000 1.000 K
0 j
0 J
0.215 w
[]0 d
1022.255 375.191 m
1001.447 375.191 L
S
U
U
u
u
0.000 0.000 0.000 1.000 K
0 j
0 J
0.215 w
[]0 d
771.983 363.311 m
792.215 363.311 L
S
U
U
u
u
0.000 0.000 0.000 1.000 K
0 j
0 J
0.215 w
[]0 d
1021.679 363.311 m
1001.447 363.311 L
S
U
U
u
u
0.000 0.000 0.000 1.000 K
0 j
0 J
0.215 w
[]0 d
792.071 401.831 m
843.335 401.831 L
S
U
U
u
u
0.000 0.000 0.000 1.000 K
0 j
0 J
0.215 w
[]0 d
791.711 375.551 m
847.871 375.551 L
S
U
U
u
u
0.000 0.000 0.000 1.000 K
0 j
0 J
0.215 w
[]0 d
946.367 401.831 m
1001.447 401.831 L
S
U
U
u
u
0.000 0.000 0.000 1.000 K
0 j
0 J
0.215 w
[]0 d
942.263 375.551 m
1001.015 375.551 L
S
U
U
0.000 0.000 0.000 1.000 K
0 j
0 J
0.215 w
[]0 d
0.000 0.000 0.000 0.000 k
779.687 382.967 m
787.751 382.967 L
787.751 377.999 L
779.687 377.999 L
779.687 382.967 L
b
0.000 0.000 0.000 1.000 K
0 j
0 J
0.215 w
[]0 d
0.000 0.000 0.000 0.000 k
1006.343 382.967 m
1014.335 382.967 L
1014.335 377.999 L
1006.343 377.999 L
1006.343 382.967 L
b
0.000 0.000 0.000 1.000 K
0 j
0 J
0.215 w
[]0 d
0.000 0.000 0.000 0.200 k
1006.343 397.871 m
1014.335 397.871 L
1014.335 389.447 L
1006.343 389.447 L
1006.343 397.871 L
b
u
u
0.000 0.000 0.000 1.000 K
0 j
0 J
0.504 w
[]0 d
421.847 695.591 m
421.847 695.591 421.847 695.591 421.847 695.591 C
S
U
U
u
u
0.000 0.000 0.000 1.000 K
0 j
0 J
0.504 w
[]0 d
236.663 305.711 m
236.663 305.711 236.663 305.711 236.663 305.711 C
S
U
U
u
u
0.000 0.000 0.000 1.000 K
0 j
0 J
0.504 w
[]0 d
426.599 693.719 m
426.599 693.719 426.599 693.719 426.599 693.719 C
S
U
U
u
u
0.000 0.000 0.000 1.000 K
0 j
0 J
0.504 w
[]0 d
231.839 303.983 m
231.839 303.983 231.839 303.983 231.839 303.983 C
S
U
U
u
u
U
u
0.000 0.000 0.000 1.000 K
0 j
0 J
0.215 w
[]0 d
424.079 927.719 m
609.695 927.719 L
S
U
U
u
u
U
u
0.000 0.000 0.000 1.000 K
0 j
0 J
0.215 w
[]0 d
234.143 537.767 m
48.527 537.767 L
S
U
U
0.000 0.000 0.000 1.000 K
0 j
0 J
0.215 w
[]0 d
230.831 815.903 m
240.911 815.903 l
242.711 815.903 244.223 814.391 244.223 812.591 c
244.223 802.511 l
244.223 800.711 242.711 799.199 240.911 799.199 c
230.831 799.199 l
219.959 799.199 225.719 801.071 225.935 802.511 c
228.023 813.815 l
228.311 815.255 227.159 815.903 230.831 815.903 c
s
0.000 0.000 0.000 1.000 K
0 j
0 J
0.215 w
[]0 d
427.319 425.951 m
417.311 425.951 l
415.439 425.951 413.999 424.439 413.999 422.639 c
413.999 412.559 l
413.999 410.759 415.439 409.247 417.311 409.247 c
427.319 409.247 l
438.263 409.247 432.503 411.119 432.287 412.559 c
430.199 423.863 l
429.911 425.303 431.063 425.951 427.319 425.951 c
s
0.000 0.000 0.000 1.000 K
0 j
0 J
0.215 w
[]0 d
591.407 792.143 m
607.319 792.143 l
609.839 792.143 611.639 790.271 611.639 787.823 c
611.639 771.911 l
611.639 769.463 609.839 767.591 607.319 767.591 c
591.407 767.591 l
588.959 767.591 587.159 769.463 587.159 771.911 c
587.159 787.823 l
587.159 790.271 588.959 792.143 591.407 792.143 c
s
0.000 0.000 0.000 1.000 K
0 j
0 J
0.215 w
[]0 d
0.000 0.000 0.000 0.498 k
772.415 357.551 m
792.215 357.551 L
793.727 348.623 799.343 341.351 805.319 340.415 C
986.399 340.415 L
995.543 342.287 1001.375 348.048 1001.519 357.551 C
1021.175 357.623 L
1018.799 342.287 1014.623 322.991 1002.527 321.335 C
789.119 321.335 L
779.255 325.584 773.279 343.295 772.415 357.551 C
b
u
u
0.000 0.000 0.000 1.000 K
0 j
0 J
0.215 w
[]0 d
781.199 329.255 m
1013.399 329.255 L
S
U
U
u
u
0.000 0.000 0.000 1.000 K
0 j
0 J
0.215 w
[]0 d
804.599 340.631 m
804.599 321.119 L
S
U
U
u
u
0.000 0.000 0.000 1.000 K
0 j
0 J
0.215 w
[]0 d
986.543 340.631 m
986.543 321.119 L
S
U
U
0.000 0.000 0.000 1.000 k
363.887 248.111 m
364.967 248.111 L
364.967 253.007 L
364.967 254.879 365.759 256.247 367.559 256.247 C
368.927 256.247 369.431 255.239 369.431 254.015 C
369.431 248.111 L
370.511 248.111 L
370.511 253.007 L
370.511 254.663 371.015 256.247 372.815 256.247 C
374.399 256.247 374.903 255.455 374.903 254.015 C
374.903 248.111 L
376.055 248.111 L
376.055 254.015 L
376.055 256.103 375.047 257.111 373.103 257.111 C
371.951 257.111 370.871 256.608 370.295 255.383 C
370.007 256.608 368.927 257.111 367.847 257.111 C
366.335 257.111 365.471 256.463 364.895 255.383 C
364.895 255.383 L
364.895 256.823 L
363.887 256.823 L
363.887 248.111 L
363.887 248.111 L
f
0.000 0.000 0.000 1.000 k
349.703 248.111 m
350.783 248.111 L
350.783 253.007 L
350.783 254.879 351.503 256.247 353.375 256.247 C
354.671 256.247 355.175 255.239 355.175 254.015 C
355.175 248.111 L
356.327 248.111 L
356.327 253.007 L
356.327 254.663 356.759 256.247 358.631 256.247 C
360.215 256.247 360.719 255.455 360.719 254.015 C
360.719 248.111 L
361.799 248.111 L
361.799 254.015 L
361.799 256.103 360.863 257.111 358.847 257.111 C
357.767 257.111 356.687 256.608 356.039 255.383 C
355.823 256.608 354.671 257.111 353.591 257.111 C
352.151 257.111 351.287 256.463 350.639 255.383 C
350.639 255.383 L
350.639 256.823 L
349.703 256.823 L
349.703 248.111 L
349.703 248.111 L
f
0.000 0.000 0.000 1.000 k
339.479 260.135 m
336.095 260.135 335.375 256.751 335.375 253.871 C
335.375 251.207 336.095 247.895 339.479 247.895 C
343.079 247.895 343.655 251.207 343.655 254.015 C
343.655 256.751 343.079 260.135 339.479 260.135 C
f
0.000 0.000 0.000 1.000 k
326.303 258.911 m
332.783 258.911 L
329.471 255.095 328.247 252.071 327.887 248.111 C
329.111 248.111 L
329.327 253.655 332.423 257.327 333.863 258.911 C
333.863 259.919 L
326.303 259.919 L
326.303 258.911 L
f
0.000 0.000 0.000 1.000 k
316.584 251.423 m
316.584 249.263 318.167 247.895 320.543 247.895 C
322.703 247.895 324.575 249.479 324.575 251.783 C
324.575 254.231 323.063 255.959 320.615 255.959 C
319.679 255.959 318.671 255.599 318.096 254.879 C
318.096 254.879 L
318.815 258.911 L
324.072 258.911 L
324.072 259.919 L
318.096 259.919 L
316.871 253.655 L
317.807 253.655 L
318.455 254.663 319.391 255.095 320.543 255.095 C
322.271 255.095 323.567 253.799 323.567 251.927 C
323.567 250.199 322.343 248.759 320.543 248.759 C
318.959 248.759 317.735 249.839 317.591 251.423 C
316.584 251.423 L
f
0.000 0.000 0.000 1.000 k
307.079 251.063 m
312.551 251.063 L
312.551 248.111 L
313.560 248.111 L
313.560 251.063 L
315.287 251.063 L
315.287 251.927 L
313.560 251.927 L
313.560 259.991 L
312.551 259.991 L
307.079 252.071 L
307.079 251.063 L
f
u
u
U
u
0.000 0.000 0.000 1.000 K
0 j
0 J
0.215 w
[]0 d
13.895 251.711 m
289.223 251.711 L
S
U
U
u
u
U
u
0.000 0.000 0.000 1.000 K
0 j
0 J
0.215 w
[]0 d
387.143 251.711 m
637.559 251.711 L
S
U
U
u
u
U
u
0.000 0.000 0.000 1.000 K
0 j
0 J
0.215 w
[]0 d
2.879 269.711 m
2.879 229.607 L
S
U
U
0.000 0.000 0.000 1.000 k
2.591 251.783 m
15.839 247.895 L
15.839 255.743 L
2.591 251.783 L
f
u
u
U
u
0.000 0.000 0.000 1.000 K
0 j
0 J
0.215 w
[]0 d
650.447 266.975 m
650.447 227.447 L
S
U
U
0.000 0.000 0.000 1.000 k
650.591 251.783 m
637.343 247.895 L
637.343 255.743 L
650.591 251.783 L
f
0.000 0.000 0.000 0.000 k
339.479 259.199 m
342.215 259.199 342.575 255.959 342.575 254.015 C
342.575 251.927 342.215 248.759 339.479 248.759 C
336.815 248.759 336.455 251.927 336.455 254.015 C
336.455 255.959 336.815 259.199 339.479 259.199 C
f
0.000 0.000 0.000 0.000 k
308.015 251.927 m
312.407 258.407 L
312.551 258.407 L
312.551 251.927 L
308.015 251.927 L
f
0.000 0.000 0.000 1.000 K
0 j
0 J
0.215 w
[]0 d
0.000 0.000 0.000 0.200 k
147.816 914.471 m
215.351 916.991 L
221.615 917.999 224.567 915.335 225.215 911.807 C
216.359 863.567 L
213.407 857.951 208.583 855.935 199.727 854.639 C
167.327 849.167 133.919 847.799 102.311 847.151 C
102.095 866.735 L
142.919 911.663 L
144.431 913.607 145.871 914.255 147.816 914.471 C
b
0.000 0.000 0.000 1.000 K
0 j
0 J
0.215 w
[]0 d
0.000 0.000 0.000 0.200 k
125.783 927.143 m
128.375 922.319 L
62.855 848.735 L
58.247 846.143 53.495 846.287 53.783 850.103 C
75.384 879.407 100.799 902.447 125.783 927.143 C
b
0.000 0.000 0.000 1.000 K
0 j
0 J
0.215 w
[]0 d
0.000 0.000 0.000 0.200 k
510.263 524.519 m
442.727 527.039 L
436.463 528.048 433.511 525.384 432.863 521.855 C
441.719 473.615 L
444.671 467.999 449.495 465.983 458.351 464.687 C
490.751 459.287 524.159 457.847 555.767 457.271 C
556.055 476.783 L
515.159 521.711 L
513.647 523.655 512.207 524.303 510.263 524.519 C
b
0.000 0.000 0.000 1.000 K
0 j
0 J
0.215 w
[]0 d
0.000 0.000 0.000 0.498 k
529.055 540.719 m
523.799 533.447 L
592.703 455.255 L
597.311 452.735 609.407 449.855 609.192 453.599 C
588.240 484.127 554.039 516.024 529.055 540.719 C
b
0.000 0.000 0.000 1.000 K
0 j
0 J
0.215 w
[]0 d
0.000 0.000 0.000 0.200 k
532.439 537.264 m
529.847 532.367 L
595.367 458.783 L
599.975 456.191 604.727 456.407 604.439 460.151 C
582.911 489.455 557.423 512.495 532.439 537.264 C
b
0.000 0.000 0.000 1.000 K
0 j
0 J
0.215 w
[]0 d
0.000 0.000 0.000 0.498 k
264.168 919.799 m
409.535 919.799 l
414.575 919.799 418.607 915.695 418.607 910.655 c
418.607 849.959 l
418.607 844.847 414.575 840.815 409.535 840.815 c
263.591 840.815 l
258.551 840.815 254.519 845.351 254.519 849.959 c
253.943 910.295 l
253.943 918.359 259.127 919.799 264.168 919.799 c
b
0.000 0.000 0.000 1.000 K
0 j
0 J
0.215 w
[]0 d
0.000 0.000 0.000 0.498 k
394.055 529.847 m
248.687 529.847 l
243.647 529.847 239.543 525.743 239.543 520.703 c
239.543 460.007 l
239.543 454.967 243.647 450.863 248.687 450.863 c
394.559 450.863 l
399.671 450.863 403.703 455.399 403.703 460.007 c
404.207 520.343 l
404.207 528.479 399.095 529.847 394.055 529.847 c
b
0.000 0.000 0.000 1.000 K
0 j
0 J
0.215 w
[]0 d
0.000 0.000 0.000 0.498 k
442.079 918.431 m
583.415 918.431 l
588.527 918.431 592.127 914.039 592.703 909.143 c
599.831 850.607 l
600.407 845.711 595.727 841.319 590.543 841.319 c
442.079 841.319 l
436.895 841.319 432.791 845.495 432.791 850.607 c
432.791 909.143 l
432.791 914.255 436.895 918.431 442.079 918.431 c
b
0.000 0.000 0.000 1.000 K
0 j
0 J
0.215 w
[]0 d
0.000 0.000 0.000 0.498 k
216.287 528.479 m
74.951 528.479 l
69.839 528.479 66.239 524.087 65.664 519.192 c
58.535 460.655 l
57.959 455.831 62.639 451.367 67.823 451.367 c
216.287 451.367 l
221.399 451.367 225.575 455.543 225.575 460.655 c
225.575 519.192 l
225.575 524.375 221.399 528.479 216.287 528.479 c
b
0.000 0.000 0.000 1.000 K
0 j
0 J
0.215 w
[]0 d
0.000 0.000 0.000 0.200 k
270.144 913.391 m
402.767 913.391 l
407.807 913.391 411.839 909.359 411.839 904.319 c
411.839 856.583 l
411.839 851.543 407.807 847.511 402.767 847.511 c
270.287 847.511 l
265.247 847.511 261.144 850.463 261.144 855.359 c
261.072 904.319 l
261.072 909.287 265.103 913.391 270.144 913.391 c
b
0.000 0.000 0.000 1.000 K
0 j
0 J
0.215 w
[]0 d
0.000 0.000 0.000 0.200 k
387.935 523.439 m
255.311 523.439 l
250.271 523.439 246.239 519.408 246.239 514.367 c
246.239 466.703 l
246.239 461.591 250.271 457.559 255.311 457.559 c
387.791 457.559 l
392.831 457.559 396.935 460.511 396.935 465.407 c
397.007 514.367 l
397.007 519.336 392.975 523.439 387.935 523.439 c
b
0.000 0.000 0.000 1.000 K
0 j
0 J
0.215 w
[]0 d
0.000 0.000 0.000 0.200 k
449.927 913.751 m
576.647 913.751 l
581.687 913.751 585.359 909.503 585.791 904.607 c
590.615 856.439 l
591.048 851.471 586.439 847.223 581.399 847.223 c
449.927 847.223 l
444.815 847.223 440.711 851.399 440.711 856.439 c
440.711 904.607 l
440.711 909.647 444.815 913.751 449.927 913.751 c
b
0.000 0.000 0.000 1.000 K
0 j
0 J
0.215 w
[]0 d
0.000 0.000 0.000 0.200 k
208.439 523.799 m
81.719 523.799 l
76.679 523.799 73.007 519.623 72.503 514.655 c
67.751 466.487 l
67.319 461.519 71.927 457.271 76.967 457.271 c
208.439 457.271 l
213.479 457.271 217.583 461.447 217.583 466.487 c
217.583 514.655 l
217.583 519.695 213.479 523.799 208.439 523.799 c
b
%%Trailer
_E end