%!PS-Adobe-2.0 EPSF-1.2
%%Creator: Adobe Illustrator exported from Corel Draw 3.0
%%Title:6
%%BoundingBox:6 607 860 1141
%%CreationDate:(Unknown)
%%ColorUsage:
%%TemplateBox:6 607 860 1141
%%EndComments
%%BeginProcSet:Adobe_Illustrator_1.1 0 0
% Version 1.0 3/27/1990 $nokeywords$
% Copyright (C) 1990,1991,1992
% Corel Corporation
% All Rights Reserved

/wPmsDict 150 dict def 
wPmsDict begin 

/$debug 25 string def 

/bd {bind def} bind def 
/ld {load def} bd 
/xd {exch def} bd 
/_ null def 

/$c 0 def 
/$m 0 def 
/$y 0 def 
/$k 0 def 
/$t 1 def 
/$n _ def 
/$o 0 def 
/$pf false def 

/$C 0 def 
/$M 0 def 
/$Y 0 def 
/$K 0 def 
/$T 1 def 
/$N _ def 
/$O 0 def 
/$PF false def 

/$h false def 

/$al 0 def 
/$tr 0 def 
/$le 0 def 
/$lx 0 def 
/$ly 0 def 

/$ctm matrix currentmatrix def 
/$ptm matrix def 

/$pn () def 
/$pm matrix def 
/$px 0 def 
/$py 0 def 
/$pxf 0 def 
/$pyf 0 def 
/$psx 10 def 
/$psy 0 def 

/$llx 0 def 
/$lly 0 def 
/$urx 0 def 
/$ury 0 def 


/$Bbllx 0 def 
/$Bblly 0 def 
/$Bburx 0 def 
/$Bbury 0 def 

/$tllx 0 def 
/$tlly 0 def 
/$turx 0 def 
/$tury 0 def 

/$pd [] def 
/$tx 0 def 
/$ty 0 def 

/$sv 0 def 
/@cp /closepath ld 
/@gs /gsave ld 
/@gr /grestore ld 
/@np /newpath ld 
/@sv {/$sv save def}bd 
/@rs {$sv restore}bd 

/@MN { 
2 copy le{pop}{exch pop}ifelse 
}bd 

/setcmykcolor where {pop} 
{ 
/setcmykcolor 
{ 
4 1 roll 
3 {3 index add 1 @MN 1 exch sub 3 1 roll} repeat 
setrgbcolor 
pop 
}bd 
}ifelse 

/@tc 
{ 
dup 1 ge 
{pop} 
{ 
4 { 
dup 
6 -1 roll 
mul 
exch 
}repeat 
pop 
}ifelse 
}bd 

/@scc 
{ 
$c $m $y $k $t @tc 
setcmykcolor 
true 
}bd 
/@SCC 
{ 
$C $M $Y $K $T @tc 
setcmykcolor 
true 
}bd 

/@sft 
{ 
(setfirsttile sft )print 
/$tx $tllx $pxf add dup $tllx gt {$pwid $psx add sub}if def 
/$ty $tury $pyf sub dup $tury lt {$phei $psy add add}if def 
(setfirsttile exit )print 
}bd 

/@stb 
{ 
pathbbox /$ury xd /$urx xd /$lly xd /$llx xd 
}bd 

/@ep 
{ 
{ 
cvx exec 
}forall 
}bd 

/@tp 
{ 

(tile pattern tp )print 
@sv 
/$in true def 
2 copy 
dup $lly le {/$in false def}if 
$phei sub $ury ge {/$in false def}if 
dup $urx ge {/$in false def}if 
$pwid add $llx le {/$in false def}if 
$in 
{ 
@np 
2 copy moveto 
$pwid 0 rlineto 
0 $phei neg rlineto 
$pwid neg 0 rlineto 
0 $phei rlineto 
clip @np 

$pn cvlit load aload pop 
7 -1 roll 
5 index sub 
7 -1 roll 
3 index sub 
translate 
@ep 
pop pop pop pop 
} 
{pop pop}ifelse 
@rs 
(tile pattern exit )print 
}bd 

/@th 
{ 
(tile horizontal th)print 
@sft 
0 1 $tly 1 sub 
{ 
dup $psx mul $tx add 
{ 
dup $llx gt {$pwid sub}{exit}ifelse 
}loop 
exch $phei mul $ty exch sub 

0 1 $tlx 1 sub 
{ 
$pwid mul 
3 copy 
3 -1 roll add exch 
@tp 
pop 
}for 
pop pop 
} for 
(tile horizontal exiting )print 
}bd 

/@tv 
{ 
(tile vertical tv)print 
@sft 
0 1 $tlx 1 sub 
{ 
dup $pwid mul $tx add 
exch $psy mul $ty exch sub 
{ 
dup $ury lt {$phei add}{exit}ifelse 
}loop 

0 1 $tly 1 sub 
{ 
$phei mul 
3 copy sub 
@tp 
pop 
}for 
pop pop 
} for 
(tile vertical exit )print 
}bd 

/@pf 
{ 
(pattern fill pf)print 
@gs 
$pm concat 
@stb 
@gs 1 setgray eofill @gr 
eoclip 
$Bburx $Bbury $pm itransform /$tury xd /$turx xd 
$Bbllx $Bblly $pm itransform /$tlly xd /$tllx xd 
/$wid $turx $tllx sub def 
/$hei $tury $tlly sub def 
$wid 0 gt $hei 0 gt and 
{ 
$pn cvlit load aload pop 
$pd xd 
3 -1 roll sub /$phei xd 
exch sub /$pwid xd 
/$tlx $wid $pwid div ceiling 1 add def 
/$tly $hei $phei div ceiling 1 add def 
$psx 0 eq 
{ 
@tv 
} 
{ 
@th 
}ifelse 
}if 

@gr 
@np 
(pattern fill exit)print 
}bd 

/@xp 
{ 
{ 
dup (text Character is:) print == 
usertime (time before is:)print == 
(0) dup 3 -1 roll 0 exch put 
@gs 
true charpath currentpoint 
$ctm setmatrix 
@pf 
@gr 
@np 
moveto $tr 0 rmoveto 
usertime (time after is:)print == 
}forall 
pop 
}bd 

/@sm 
{ 
/$ctm $ctm currentmatrix def 
}bd 

%--@lorg  move to line origin   length string @torg length string
/@lorg    % moves currentpoint to line origin according to current alignment
  {      
  $lx $ly moveto    
  /$ly $ly $le sub def      % - prepare for next line(tracking)
  $al 0 ne
    {dup      % ->len str len str
    stringwidth   % ->len str len dx dy
    exch 3 index  % ->len str dy len dx
    1 sub         % ->len str dy len dx (len-1)
    $tr mul add   % ->len str dy len dx+(len-1)*$tr
    neg
    exch neg      % ->len str -dx_total dy len
    $al 1 eq      % check for centered alignment
    {2 div exch 2 div exch} if  
    rmoveto} if
  }bd

/@ft 
{ 
$pf 
{@xp} 
{ 
@scc 
{$tr exch 0 exch ashow pop} 
{pop pop}ifelse 
}ifelse 
}bd 

/@st 
{ 
$PF 
{} 
{ 
@SCC 
{ 
{ 
(0) dup 3 -1 roll 0 exch put 
@gs 
true charpath currentpoint 
$ctm setmatrix $ptm concat 
stroke 
@gr 
moveto $tr 0 rmoveto 
}forall 
pop 
} 
{pop pop}ifelse 
}ifelse 
}bd 
/@pt 
{ 
dup length exch 
}bd 
/@te 
{ 
@pt 
@lorg 
@ft 
}bd 

/@tr 
{ 
@pt 
@lorg 
@st 
}bd 
/@ta 
{ 
@pt 
@lorg 
2 copy 
@gs @ft @gr 
/$lx 0 def 
/$ly 0 def 
@st 
}bd 















/g { 
1 exch sub /$k xd 
/$c 0 def /$m 0 def /$y 0 def /$t 1 def /$n _ def /$pf false def 
}bd 

/G { 
1 exch sub /$K xd 
/$C 0 def /$M 0 def /$Y 0 def /$T 1 def /$N _ def /$PF false def 
}bd 

/k { 
/$k xd /$y xd /$m xd /$c xd 
/$t 1 def /$n _ def /$pf false def 
}bd 

/K { 
/$K xd /$Y xd /$M xd /$C xd 
/$T 1 def /$N _ def /$PF false def 
}bd 

/x { 
/$t xd /$n xd 
/$k xd /$y xd /$m xd /$c xd /$pf false def 
}bd 

/X { 
/$T xd /$N xd 
/$K xd /$Y xd /$M xd /$C xd /$PF false def 
}bd 

/d /setdash ld 

/i { 
dup 0 ne {setflat} {pop} ifelse 
}bd 

/j /setlinejoin ld 

/J /setlinecap ld 

/M /setmiterlimit ld 

/w /setlinewidth ld 

/O { 
/$o xd 
}bd 

/R { 
/$O xd 
}bd 


/c /curveto ld 

/C /c ld 

/v { 
currentpoint
6 2 roll 
curveto 
}bd

/V /v ld 

/y { 
2 copy curveto 
}bd 

/Y /y ld 

/l /lineto ld 

/L /l ld 

/m /moveto ld 



/n /newpath ld 

/N /newpath ld 

/F { 
$pf 
{@pf} 
{ 
@scc 
{eofill}if 
}ifelse 
}bd 

/f { 
@cp F 
}bd 
/S { 
$PF 
{} 
{ 
@SCC 
{ 
@sm 
$ptm concat 
stroke 
$ctm setmatrix 
}if 
}ifelse 
}bd 
/s { 
@cp 
S 
}bd 

/B { 
@gs F @gr 
S 
}bd 
/b { 
@cp 
B 
}bd 

/W { 
oeclip 
@np 
}bd 

/p { 
/$pm xd 
7 {pop} repeat 
/$pyf xd /$pxf xd 
/$pn xd 
/$pf true def 
}bd 

/P { 
11 {pop} repeat 
}bd 

/@p { 
/$pm xd 
/$psy xd 
/$psx xd 
/$pyf xd /$pxf xd 
/$pn xd 
/$pf true def 
}bd 

/@b { 
/$Bbury xd /$Bburx xd 
/$Bblly xd /$Bbllx xd 
}bd 


/z { 
/$al xd 
/$tr xd 
/$le xd 
exch findfont exch scalefont setfont 
}bd 

/Z { 
dup type 0 type eq { /$bDir xd } if
findfont 
dup maxlength 1 add dict exch 



dup 
{1 index /FID ne 
{ 
3 index 
3 1 roll put 
} 
{pop pop}ifelse 
} forall 



pop 
dup dup /Encoding get 
256 array copy 
dup /$fe xd
/Encoding exch put 

dup /Fontname 3 index put 

}bd 

/e { 
@sm 
concat 
[ 
/t {@te}def 
}bd 

/r { 
@sm 
concat 
[ 
/t {@tr}def 
}bd 

/o { 
@sm 
concat 
[ 
/t {pop}def 
}bd 

/a { 
@sm 
concat 
[ 
/t {@ta}def 
}bd 

/@o{
@sm 
concat 
[ 
/t {@t@a}def 
}bd 

/I { 
@sm 
concat 
[ 
/t {pop}def 
}bd 

/t {@te}def 

/T { 
cleartomark 
/$lx 0 def 
/$ly 0 def 
$ctm setmatrix 
}bd 


/u {}bd 

/U {}bd 

/A {pop}bd 

/h { 
$h true def 
}bd 

/h { 
$h true def 
}bd 

/q /@gs ld 

/Q /@gr ld 



/E { 
5 array astore 
exch cvlit exch def 
}bd 

/` {}bd 

/~ {}bd 

/@ {}bd 

/& {}bd 

/CorelDrawRencodeVect [ 
16#80/grave 
16#81/circumflex 
16#82/tilde 
16#83/dotlessi 
16#84/florin 
16#85/quotedblleft 
16#86/quotedblright 
16#87/guilsinglleft 
16#88/guilsinglright 
16#89/fi 
16#8a/fl 
16#8b/dagger 
16#8c/daggerdbl 
16#8d/endash 
16#8e/periodcentered 
16#8f/breve 
16#90/quotedblbase 
16#91/ellipsis 
16#92/perthousand 
16#a1/exclamdown 
16#a2/cent 
16#a3/sterling 
16#a4/currency 
16#a5/yen 
16#a6/bar 
16#a7/section 
16#a8/dieresis 
16#a9/copyright 
16#aa/ordfeminine 
16#ab/guillemotleft 
16#ac/logicalnot 
16#ad/emdash 
16#ae/registered 
16#af/spac 
16#b0/ring 
16#b1/spac 
16#b2/spac 
16#b3/spac 
16#b4/acute 
16#b5/spac 
16#b6/paragraph 
16#b7/bullet 
16#b8/cedilla 
16#b9/spac 
16#ba/ordmasculine 
16#bb/guillemotright 
16#bc/spac 
16#bd/spac 
16#be/spac 
16#bf/questiondown 
16#c0/Agrave 
16#c1/Aacute 
16#c2/Acircumflex 
16#c3/Atilde 
16#c4/Adieresis 
16#c5/Aring 
16#c6/AE 
16#c7/Ccedilla 
16#c8/Egrave 
16#c9/Eacute 
16#ca/Ecircumflex 
16#cb/Edieresis 
16#cc/Igrave 
16#cd/Iacute 
16#ce/Icircumflex 
16#cf/Idieresis 
16#d0/spac 
16#d1/Ntilde 
16#d2/Ograve 
16#d3/Oacute 
16#d4/Ocircumflex 
16#d5/Otilde 
16#d6/Odieresis 
16#d7/OE 
16#d8/Oslash 
16#d9/Ugrave 
16#da/Uacute 
16#db/Ucircumflex 
16#dc/Udieresis 
16#dd/space 
16#de/spac 
16#df/germandbls 
16#e0/agrave 
16#e1/aacute 
16#e2/acircumflex 
16#e3/atilde 
16#e4/adieresis 
16#e5/aring 
16#e6/ae 
16#e7/ccedilla 
16#e8/egrave 
16#e9/eacute 
16#ea/ecircumflex 
16#eb/edieresis 
16#ec/igrave 
16#ed/iacute 
16#ee/icircumflex 
16#ef/idieresis 
16#f0/space 
16#f1/ntilde 
16#f2/ograve 
16#f3/oacute 
16#f4/ocircumflex 
16#f5/otilde 
16#f6/odieresis 
16#f7/oe 
16#f8/oslash 
16#f9/ugrave 
16#fa/uacute 
16#fb/ucircumflex 
16#fc/udieresis 
16#fd/spac 
16#fe/spac 
16#ff/ydieresis 
] def
%%EndProlog
%%BeginSetup
%%BeginEncoding:_Times-Bold Times-Bold
[
]/_Times-Bold/Times-Bold Z
%%EndEncoding
%%EndSetup
0.498 0.498 0.000 0.400 K
0 j
0 J
0.504 w
[]0 d
0.000 0.000 0.000 1.000 k
802.799 690.191 m
824.327 690.120 L
823.967 696.455 829.727 702.863 834.407 710.063 C
834.407 654.479 L
830.159 643.823 807.335 643.319 802.799 654.479 C
802.799 690.191 L
b
0.000 0.000 0.000 0.000 K
0 j
0 J
0.504 w
[]0 d
0.000 0.000 0.000 1.000 k
611.927 709.415 m
615.455 703.151 620.351 696.743 621.287 690.048 C
643.535 690.120 L
643.535 654.407 L
639.287 643.823 616.463 643.319 611.927 654.407 C
611.927 709.415 L
b
0.000 0.000 0.000 0.000 K
0 j
0 J
0.504 w
[]0 d
0.000 0.000 0.000 1.000 k
614.447 993.455 m
616.031 988.631 617.903 983.807 618.264 978.551 C
618.695 976.463 620.639 975.959 621.935 974.951 C
646.055 975.023 L
646.055 943.127 L
641.807 932.543 618.983 932.039 614.447 943.127 C
614.447 993.455 L
b
0.000 0.000 0.000 0.000 K
0 j
0 J
0.504 w
[]0 d
0.000 0.000 0.000 1.000 k
836.999 993.959 m
835.415 989.351 834.263 983.303 832.895 977.903 C
832.103 975.959 831.239 975.527 828.719 974.951 C
804.959 975.023 L
804.959 943.127 L
809.207 932.543 832.535 933.479 836.999 944.495 C
836.999 993.959 L
b
0.000 0.000 0.000 1.000 K
0 j
0 J
0.863 w
[]0 d
0.000 0.000 0.000 0.000 k
53.927 845.927 m
56.087 850.103 60.335 851.111 64.079 851.255 C
140.903 851.255 211.391 852.911 288.000 847.079 C
292.319 846.431 298.079 845.639 301.536 843.767 C
328.319 828.719 357.191 807.551 380.807 787.535 C
385.559 782.135 391.679 780.263 395.279 779.975 C
436.823 776.303 470.447 772.487 511.631 764.279 C
522.360 761.759 527.831 761.111 529.991 757.295 c
535.463 747.863 534.455 734.111 532.871 721.439 C
481.967 721.367 L
470.231 732.311 447.623 739.223 427.391 732.024 C
410.903 725.615 396.791 707.831 393.911 682.343 C
157.391 682.343 L
149.759 682.343 146.519 686.663 145.295 692.423 C
142.271 707.687 131.975 722.951 117.503 731.015 C
109.943 734.543 102.455 736.487 94.031 736.487 c
15.839 736.487 L
14.759 740.879 L
12.239 752.831 12.527 765.287 15.407 779.183 C
16.055 781.271 16.487 783.503 17.352 785.375 c
27.575 807.191 41.111 826.703 53.927 845.927 C
b
0.000 0.000 0.000 1.000 K
0 j
0 J
0.863 w
[]0 d
0.000 0.000 0.000 0.000 k
491.615 1135.727 m
489.455 1139.831 485.207 1140.839 481.463 1141.055 C
404.567 1141.055 334.079 1142.711 257.471 1136.807 C
253.151 1136.231 247.391 1135.439 243.935 1133.567 C
217.151 1118.519 188.279 1097.351 164.663 1077.336 C
159.839 1071.935 153.792 1070.063 150.191 1069.775 C
108.719 1066.103 75.024 1062.288 33.911 1054.007 C
23.111 1051.559 17.711 1050.839 15.551 1047.096 c
10.080 1037.591 11.016 1023.911 12.599 1011.239 C
63.575 1011.167 L
75.239 1022.111 97.847 1029.023 118.079 1021.823 C
134.567 1015.415 148.679 997.631 151.560 972.071 C
388.079 972.071 L
395.711 972.071 398.951 976.463 400.175 982.223 C
403.199 997.487 413.495 1012.751 428.039 1020.815 C
435.527 1024.271 443.015 1026.288 451.439 1026.288 c
529.631 1026.288 L
530.711 1030.679 L
533.303 1042.631 532.943 1055.087 530.063 1068.983 C
529.487 1071.071 528.983 1073.303 528.120 1075.175 c
517.967 1096.919 504.359 1116.503 491.615 1135.727 C
b
0.000 0.000 0.000 1.000 K
0 j
0 J
0.215 w
[]0 d
0.000 0.000 0.000 0.498 k
72.215 840.383 m
91.871 840.383 111.671 840.383 131.399 840.383 c
151.055 840.383 170.783 840.383 190.511 840.383 c
192.095 840.383 193.967 836.927 193.967 836.927 c
193.535 827.207 192.959 817.631 192.599 808.055 c
192.167 798.623 191.591 788.975 191.231 779.399 c
191.231 779.255 187.847 776.159 187.775 776.159 c
164.375 776.447 140.903 777.095 117.359 777.455 c
93.887 777.887 70.343 778.463 46.871 778.895 c
43.415 778.967 42.623 780.767 43.271 782.423 c
46.943 791.351 50.687 800.495 54.503 809.495 c
58.319 818.495 62.207 827.711 66.167 836.855 c
66.887 838.439 68.975 840.383 72.215 840.383 c
b
0.000 0.000 0.000 1.000 K
0 j
0 J
0.215 w
[]0 d
0.000 0.000 0.000 0.498 k
473.255 1130.183 m
453.599 1130.183 433.871 1130.183 414.071 1130.183 c
394.415 1130.183 374.687 1130.183 354.959 1130.183 c
353.375 1130.183 351.503 1126.727 351.503 1126.727 c
351.935 1117.007 352.512 1107.432 352.871 1097.855 c
353.303 1088.423 353.879 1078.775 354.239 1069.199 c
354.239 1068.983 357.623 1065.959 357.695 1065.959 c
381.095 1066.247 404.567 1066.895 428.111 1067.255 c
451.583 1067.687 475.127 1068.263 498.599 1068.695 c
502.127 1068.768 502.847 1070.567 502.271 1072.151 c
498.527 1081.151 494.783 1090.295 491.039 1099.295 c
487.151 1108.295 483.263 1117.511 479.303 1126.655 c
478.655 1128.240 476.567 1130.183 473.255 1130.183 c
b
0.000 0.000 0.000 1.000 K
0 j
0 J
0.215 w
[]0 d
0.000 0.000 0.000 0.200 k
470.591 1128.384 m
451.727 1128.384 432.863 1128.384 413.999 1128.384 c
395.135 1128.384 376.271 1128.384 357.407 1128.384 c
355.463 1128.384 353.879 1126.583 353.951 1124.927 c
354.383 1115.927 354.887 1106.855 355.319 1098.071 c
355.679 1089.144 356.399 1080.215 356.687 1071.215 c
356.759 1069.415 358.343 1067.831 359.927 1067.831 c
382.535 1068.263 405.143 1068.911 427.679 1069.271 c
450.143 1069.703 472.823 1070.351 495.359 1070.783 c
498.959 1070.855 499.823 1072.007 498.959 1074.167 c
495.359 1082.519 491.759 1091.087 488.087 1099.583 c
484.415 1108.007 480.383 1116.432 476.711 1124.927 c
475.343 1128.023 473.975 1128.384 470.591 1128.384 c
b
0.000 0.000 0.000 1.000 K
0 j
0 J
0.215 w
[]0 d
0.000 0.000 0.000 0.498 k
219.959 840.887 m
282.383 838.151 l
288.719 837.863 290.519 837.431 294.048 834.551 c
363.239 779.111 l
369.359 774.215 365.183 772.703 363.239 772.703 c
219.959 775.367 l
218.015 775.367 216.359 777.095 216.359 778.967 c
216.359 837.359 l
216.359 839.303 218.231 840.959 219.959 840.887 c
b
0.000 0.000 0.000 1.000 K
0 j
0 J
0.215 w
[]0 d
0.000 0.000 0.000 0.498 k
325.512 1130.687 m
263.087 1127.951 l
256.751 1127.663 254.951 1127.231 251.423 1124.351 c
182.231 1068.911 l
176.111 1064.015 180.287 1062.503 182.231 1062.503 c
325.512 1065.167 l
327.455 1065.167 329.111 1066.823 329.111 1068.768 c
329.111 1127.087 l
329.111 1129.103 327.239 1130.759 325.512 1130.687 c
b
0.000 0.000 0.000 1.000 K
0 j
0 J
0.215 w
[]0 d
0.000 0.000 0.000 0.200 k
323.567 1128.599 m
264.239 1125.863 l
258.407 1125.576 257.759 1126.367 252.575 1122.263 c
197.423 1078.559 L
197.351 1064.591 L
323.567 1066.823 l
325.367 1066.823 327.167 1068.551 327.167 1070.423 c
327.167 1125.000 l
327.167 1126.943 324.935 1128.599 323.567 1128.599 c
b
0.000 0.000 0.000 1.000 K
0 j
0 J
0.215 w
[]0 d
207.791 844.919 m
235.151 845.279 262.512 844.055 289.871 841.535 C
294.120 841.175 298.439 839.735 301.823 836.927 c
365.687 784.727 L
374.111 773.855 375.335 759.311 375.191 743.543 c
375.047 725.183 374.615 703.583 367.991 688.751 C
212.111 688.823 L
203.903 709.415 202.967 747.575 207.791 777.527 C
207.791 844.919 L
s
0.000 0.000 0.000 1.000 K
0 j
0 J
0.215 w
[]0 d
337.679 1134.720 m
310.319 1135.079 282.959 1133.855 255.599 1131.336 C
251.351 1130.975 247.031 1129.463 243.647 1126.727 c
179.783 1074.528 L
171.359 1063.655 170.135 1049.111 170.280 1033.271 c
170.423 1014.911 170.855 993.311 177.479 978.551 C
333.359 978.623 L
341.567 999.215 342.503 1037.303 337.679 1067.327 C
337.679 1134.720 L
s
0.000 0.000 0.000 1.000 K
0 j
0 J
0.215 w
[]0 d
0.000 0.000 0.000 0.298 k
21.383 773.063 m
21.383 776.951 19.295 778.679 15.407 779.039 C
12.743 766.223 12.023 756.215 14.183 743.903 C
21.455 743.903 L
20.087 756.863 20.375 760.391 21.383 773.063 C
b
0.000 0.000 0.000 1.000 K
0 j
0 J
0.215 w
[]0 d
0.000 0.000 0.000 0.298 k
524.159 1062.864 m
524.159 1066.751 526.247 1068.480 530.135 1068.839 C
532.727 1056.023 533.447 1046.015 531.360 1033.703 C
524.087 1033.703 L
525.384 1046.663 525.168 1050.192 524.159 1062.864 C
b
0.000 0.000 0.000 1.000 K
0 j
0 J
1.008 w
[]0 d
0.000 0.000 0.000 0.498 k
6.191 728.711 m
5.759 731.807 8.208 732.743 10.080 732.239 C
13.319 732.239 L
16.487 732.743 15.479 735.623 15.695 736.415 C
92.951 736.415 L
62.495 735.983 50.039 719.135 47.447 706.607 C
45.719 701.783 45.359 696.599 46.079 691.703 C
38.159 697.319 30.959 702.143 28.871 708.983 C
12.599 711.072 L
8.135 717.191 6.479 720.287 6.191 728.711 C
b
0.000 0.000 0.000 1.000 K
0 j
0 J
1.008 w
[]0 d
0.000 0.000 0.000 0.498 k
539.351 1018.511 m
539.711 1021.607 537.336 1022.543 535.463 1022.039 C
532.223 1022.039 L
529.055 1022.543 530.063 1025.351 529.775 1026.215 C
452.591 1026.215 L
483.047 1025.783 495.503 1008.863 498.023 996.407 C
499.751 991.511 500.111 986.399 499.463 981.503 C
507.383 987.119 514.583 991.943 516.671 998.783 C
532.871 1000.871 L
537.408 1006.919 538.991 1010.087 539.351 1018.511 C
b
0.000 0.000 0.000 1.000 K
0 j
0 J
0.215 w
[]0 d
0.000 0.000 0.000 0.498 k
45.719 691.415 m
51.263 688.967 L
53.783 713.951 68.183 729.719 94.895 730.439 C
116.639 730.079 133.919 711.431 134.639 691.055 C
145.512 692.135 L
142.055 707.903 132.407 721.655 120.599 729.071 C
104.399 739.223 83.951 737.783 66.455 730.799 C
54.863 723.383 44.639 709.343 45.719 691.415 C
b
0.000 0.000 0.000 1.000 K
0 j
0 J
0.215 w
[]0 d
0.000 0.000 0.000 0.498 k
499.823 981.215 m
494.207 978.767 L
491.759 1003.679 477.359 1019.519 450.647 1020.239 C
428.831 1019.879 411.551 1001.231 410.831 980.855 C
399.959 981.935 L
403.415 997.703 413.063 1011.455 424.871 1018.871 C
441.071 1029.023 461.519 1027.583 479.087 1020.599 C
490.679 1013.183 500.903 999.143 499.823 981.215 C
b
0.000 0.000 0.000 1.000 K
0 j
0 J
0.215 w
[]0 d
0.000 0.000 0.000 0.498 k
393.623 683.279 m
404.495 684.287 L
402.119 712.439 424.943 730.151 446.615 730.511 C
468.719 729.863 489.383 712.511 488.015 685.007 C
495.791 686.375 L
494.135 699.695 488.879 712.367 481.895 721.295 C
468.719 732.887 446.327 739.655 425.159 731.159 C
406.223 721.943 398.087 705.024 393.623 683.279 C
b
0.000 0.000 0.000 1.000 K
0 j
0 J
0.215 w
[]0 d
0.000 0.000 0.000 0.498 k
151.919 973.079 m
141.048 974.087 L
143.423 1002.239 120.671 1019.951 98.999 1020.311 C
76.896 1019.663 56.231 1002.311 57.527 974.735 C
49.823 976.175 L
51.407 989.495 56.735 1002.167 63.647 1011.095 C
76.896 1022.687 99.287 1029.455 120.383 1020.959 C
139.319 1011.743 147.455 994.823 151.919 973.079 C
b
0.000 0.000 0.000 1.000 K
0 j
0 J
0.215 w
[]0 d
0.000 0.000 0.000 0.498 k
480.095 722.951 m
533.231 723.167 L
533.015 721.367 L
534.887 721.367 L
538.559 721.367 539.711 720.215 539.279 715.319 C
537.264 707.975 534.887 705.887 527.039 703.367 C
518.255 702.215 L
516.743 699.839 514.583 698.543 512.135 697.607 C
509.615 695.663 513.144 691.055 512.135 688.751 C
511.991 687.167 511.055 686.447 509.327 686.375 C
495.863 686.375 L
494.783 697.247 488.951 714.095 480.095 722.951 C
b
0.000 0.000 0.000 1.000 K
0 j
0 J
0.215 w
[]0 d
0.000 0.000 0.000 0.498 k
65.519 1012.751 m
12.383 1012.967 L
12.599 1011.167 L
10.655 1011.167 L
7.055 1011.167 5.903 1009.943 6.335 1005.119 C
8.351 997.703 10.655 995.687 18.575 993.167 C
27.359 992.015 L
28.871 989.639 31.031 988.343 33.479 987.335 C
36.000 985.391 32.471 980.855 33.479 978.551 C
33.623 976.967 34.559 976.175 36.215 976.103 C
49.751 976.103 L
50.831 987.047 56.591 1003.895 65.519 1012.751 C
b
0.000 0.000 0.000 1.000 K
0 j
0 J
0.215 w
[]0 d
222.983 762.119 m
236.519 762.119 l
237.743 762.119 238.607 761.183 238.607 760.031 c
238.607 752.759 l
238.607 751.535 237.743 750.671 236.519 750.671 c
222.983 750.671 l
221.759 750.671 220.895 751.535 220.895 752.759 c
220.895 760.031 l
220.895 761.183 221.759 762.119 222.983 762.119 c
s
0.000 0.000 0.000 1.000 K
0 j
0 J
0.215 w
[]0 d
322.487 1051.847 m
308.951 1051.847 l
307.727 1051.847 306.863 1050.983 306.863 1049.759 c
306.863 1042.559 l
306.863 1041.336 307.727 1040.471 308.951 1040.471 c
322.487 1040.471 l
323.711 1040.471 324.575 1041.336 324.575 1042.559 c
324.575 1049.759 l
324.575 1050.983 323.711 1051.847 322.487 1051.847 c
s
0.000 0.000 0.000 1.000 K
0 j
0 J
0.215 w
[]0 d
0.000 0.000 0.000 0.498 k
215.207 758.375 m
244.007 757.871 L
245.663 757.871 247.895 754.775 243.791 754.703 c
215.279 754.127 L
212.615 754.127 209.087 758.447 215.207 758.375 c
b
0.000 0.000 0.000 1.000 K
0 j
0 J
0.215 w
[]0 d
0.000 0.000 0.000 0.498 k
330.263 1048.175 m
301.463 1047.672 L
299.807 1047.672 297.575 1044.576 301.679 1044.503 c
330.191 1043.927 L
332.855 1043.927 336.383 1048.247 330.263 1048.175 c
b
0.000 0.000 0.000 1.000 K
0 j
0 J
0.215 w
[]0 d
0.000 0.000 0.000 0.498 k
302.039 838.439 m
299.879 840.167 299.087 842.831 301.391 843.839 C
324.647 831.383 363.959 802.295 385.487 783.791 C
381.887 778.895 375.047 779.111 370.727 782.855 C
347.543 803.375 325.584 820.007 302.039 838.439 c
b
0.000 0.000 0.000 1.000 K
0 j
0 J
0.215 w
[]0 d
0.000 0.000 0.000 0.498 k
243.431 1128.240 m
245.591 1129.967 246.383 1132.631 244.079 1133.639 C
220.823 1121.183 181.512 1092.096 159.983 1073.591 C
163.583 1068.695 170.423 1068.911 174.743 1072.655 C
197.927 1093.175 219.887 1109.735 243.431 1128.240 c
b
0.000 0.000 0.000 1.000 K
0 j
0 J
0.504 w
[]0 d
0.000 0.000 0.000 1.000 k
93.023 645.623 m
116.063 645.623 134.783 664.415 134.783 687.383 c
134.783 710.423 116.063 729.215 93.023 729.215 c
70.055 729.215 51.263 710.423 51.263 687.383 c
51.263 664.415 70.055 645.623 93.023 645.623 c
b
0.000 0.000 0.000 1.000 K
0 j
0 J
0.504 w
[]0 d
0.000 0.000 0.000 1.000 k
452.447 935.423 m
429.479 935.423 410.687 954.215 410.687 977.183 c
410.687 1000.223 429.479 1018.943 452.447 1018.943 c
475.487 1018.943 494.279 1000.223 494.279 977.183 c
494.279 954.215 475.487 935.423 452.447 935.423 c
b
0.000 0.000 0.000 1.000 K
0 j
0 J
0.504 w
[]0 d
0.000 0.000 0.000 1.000 k
446.183 646.919 m
469.223 646.919 488.015 665.711 488.015 688.679 c
488.015 711.719 469.223 730.439 446.183 730.439 c
423.143 730.439 404.423 711.719 404.423 688.679 c
404.423 665.711 423.143 646.919 446.183 646.919 c
b
0.000 0.000 0.000 1.000 K
0 j
0 J
0.504 w
[]0 d
0.000 0.000 0.000 1.000 k
99.359 936.719 m
76.391 936.719 57.599 955.439 57.599 978.479 c
57.599 1001.447 76.391 1020.239 99.359 1020.239 c
122.399 1020.239 141.191 1001.447 141.191 978.479 c
141.191 955.439 122.399 936.719 99.359 936.719 c
b
0.000 0.000 0.000 1.000 K
0 j
0 J
0.215 w
[]0 d
0.000 0.000 0.000 0.000 k
217.007 754.847 m
217.727 754.847 218.375 755.495 218.375 756.287 c
218.375 757.007 217.727 757.727 217.007 757.727 c
216.215 757.727 215.495 757.007 215.495 756.287 c
215.495 755.495 216.215 754.847 217.007 754.847 c
b
0.000 0.000 0.000 1.000 K
0 j
0 J
0.215 w
[]0 d
0.000 0.000 0.000 0.000 k
328.463 1044.576 m
327.743 1044.576 327.096 1045.295 327.096 1046.087 c
327.096 1046.807 327.743 1047.528 328.463 1047.528 c
329.255 1047.528 329.975 1046.807 329.975 1046.087 c
329.975 1045.295 329.255 1044.576 328.463 1044.576 c
b
u
u
0.000 0.000 0.000 1.000 K
0 j
0 J
0.504 w
[]0 d
216.863 757.151 m
216.863 755.279 L
S
U
U
u
u
0.000 0.000 0.000 1.000 K
0 j
0 J
0.504 w
[]0 d
328.607 1046.951 m
328.607 1045.079 L
S
U
U
u
u
0.000 0.000 0.000 1.000 K
0 j
0 J
0.215 w
[]0 d
13.247 764.711 m
20.591 764.711 L
S
U
U
u
u
0.000 0.000 0.000 1.000 K
0 j
0 J
0.215 w
[]0 d
532.295 1054.511 m
524.951 1054.511 L
S
U
U
0.000 0.000 0.000 1.000 K
0 j
0 J
0.215 w
[]0 d
0.000 0.000 0.000 0.098 k
522.647 749.303 m
532.151 750.887 L
534.743 744.695 534.743 734.111 533.159 725.687 C
523.655 726.479 L
520.631 726.479 519.120 727.847 518.831 730.367 C
518.831 745.415 L
518.831 748.079 520.127 748.511 522.647 749.303 C
b
0.000 0.000 0.000 1.000 K
0 j
0 J
0.215 w
[]0 d
0.000 0.000 0.000 0.098 k
22.895 1039.103 m
13.463 1040.687 L
10.871 1034.495 10.871 1023.911 12.455 1015.415 C
21.887 1016.279 L
24.911 1016.279 26.495 1017.575 26.783 1020.167 C
26.783 1035.215 L
26.783 1037.879 25.487 1038.311 22.895 1039.103 C
b
0.000 0.000 0.000 1.000 K
0 j
0 J
0.215 w
[]0 d
0.000 0.000 0.000 0.098 k
521.927 750.023 m
532.007 751.679 L
534.671 745.055 534.671 733.823 533.087 724.823 C
522.935 725.687 L
519.767 725.687 518.111 727.127 517.823 729.791 C
517.823 745.847 L
517.823 748.655 519.192 749.159 521.927 750.023 C
b
0.000 0.000 0.000 1.000 K
0 j
0 J
0.215 w
[]0 d
0.000 0.000 0.000 0.098 k
23.687 1039.823 m
13.607 1041.480 L
10.871 1034.855 10.871 1023.623 12.527 1014.623 C
22.607 1015.487 L
25.847 1015.487 27.503 1016.927 27.791 1019.591 C
27.791 1035.647 L
27.791 1038.455 26.423 1038.959 23.687 1039.823 C
b
u
u
0.000 0.000 0.000 1.000 K
0 j
0 J
0.215 w
[]0 d
207.575 844.991 m
157.823 846.647 113.039 847.007 63.071 845.855 C
S
U
U
u
u
0.000 0.000 0.000 1.000 K
0 j
0 J
0.215 w
[]0 d
337.895 1134.791 m
387.647 1136.447 432.503 1136.807 482.471 1135.655 C
S
U
U
u
u
0.000 0.000 0.000 1.000 K
0 j
0 J
0.215 w
[]0 d
66.384 851.399 m
54.935 836.423 35.279 809.423 24.839 779.831 C
21.167 766.295 22.895 747.647 23.327 736.487 C
S
U
U
u
u
0.000 0.000 0.000 1.000 K
0 j
0 J
0.215 w
[]0 d
479.087 1141.199 m
490.535 1126.223 510.191 1099.223 520.703 1069.631 C
524.303 1056.096 522.647 1037.375 522.144 1026.215 C
S
U
U
0.000 0.000 0.000 1.000 K
0 j
0 J
0.215 w
[]0 d
0.000 0.000 0.000 0.498 k
51.479 842.111 m
53.207 842.111 54.431 840.815 54.287 840.023 C
43.775 823.535 31.823 804.311 23.327 786.959 C
22.463 786.167 18.647 785.303 17.567 785.591 C
25.847 803.879 40.679 826.127 51.479 842.111 C
b
0.000 0.000 0.000 1.000 K
0 j
0 J
0.215 w
[]0 d
0.000 0.000 0.000 0.498 k
493.991 1131.911 m
492.335 1131.911 491.039 1130.615 491.183 1129.823 C
501.767 1113.336 513.647 1094.111 522.216 1076.759 C
523.079 1075.967 526.823 1075.103 527.903 1075.391 C
519.623 1093.607 504.863 1115.927 493.991 1131.911 C
b
u
u
0.000 0.000 0.000 1.000 K
0 j
0 J
0.504 w
[]0 d
70.343 732.239 m
12.959 732.239 L
S
U
U
u
u
0.000 0.000 0.000 1.000 K
0 j
0 J
0.504 w
[]0 d
475.127 1021.967 m
532.583 1021.967 L
S
U
U
u
u
0.000 0.000 0.000 1.000 K
0 j
0 J
1.008 w
[]0 d
64.152 729.431 m
5.831 729.431 L
6.479 727.271 L
60.767 727.271 L
S
U
U
u
u
0.000 0.000 0.000 1.000 K
0 j
0 J
1.008 w
[]0 d
481.319 1019.231 m
539.639 1019.231 L
539.063 1017.071 L
484.703 1017.071 L
S
U
U
u
u
0.000 0.000 0.000 1.000 K
0 j
0 J
1.008 w
[]0 d
47.807 706.535 m
28.943 709.055 L
S
U
U
u
u
0.000 0.000 0.000 1.000 K
0 j
0 J
1.008 w
[]0 d
497.735 996.335 m
516.527 998.855 L
S
U
U
0.000 0.000 0.000 1.000 K
0 j
0 J
0.215 w
[]0 d
0.000 0.000 0.000 0.098 k
107.711 667.439 m
96.767 659.519 81.215 661.895 73.223 672.767 C
65.159 683.639 67.536 699.191 78.263 707.255 C
89.207 715.319 104.759 712.943 112.823 702.000 C
120.959 691.127 118.583 675.575 107.711 667.439 C
b
0.000 0.000 0.000 1.000 K
0 j
0 J
0.215 w
[]0 d
0.000 0.000 0.000 0.098 k
437.975 957.095 m
448.919 949.175 464.471 951.479 472.463 962.351 C
480.527 973.223 478.151 988.775 467.423 996.911 C
456.479 1004.903 440.927 1002.527 432.863 991.583 C
424.727 980.783 427.103 965.231 437.975 957.095 C
b
0.000 0.000 0.000 1.000 K
0 j
0 J
0.215 w
[]0 d
0.000 0.000 0.000 0.098 k
467.351 671.903 m
458.855 661.391 443.231 659.663 432.647 668.087 C
422.063 676.511 420.335 692.135 428.615 702.719 C
437.183 713.303 452.807 715.103 463.391 706.535 C
474.047 698.183 475.775 682.559 467.351 671.903 C
b
0.000 0.000 0.000 1.000 K
0 j
0 J
0.215 w
[]0 d
0.000 0.000 0.000 0.098 k
78.191 961.631 m
86.759 951.119 102.383 949.391 112.895 957.743 C
123.479 966.167 125.207 981.791 116.927 992.447 C
108.431 1003.031 92.807 1004.759 82.223 996.263 C
71.567 987.911 69.839 972.215 78.191 961.631 C
b
0.000 0.000 0.000 1.000 k
105.047 671.111 m
96.047 664.559 83.447 666.503 76.751 675.431 C
70.199 684.287 72.143 697.031 80.927 703.655 C
89.927 710.207 102.527 708.263 109.295 699.335 C
115.847 690.479 113.903 677.735 105.047 671.111 C
f
0.000 0.000 0.000 1.000 k
440.639 960.695 m
449.567 954.143 462.239 956.087 468.935 965.015 C
475.487 973.871 473.543 986.615 464.759 993.239 C
455.759 999.791 443.159 997.847 436.391 988.991 C
429.839 980.063 431.783 967.319 440.639 960.695 C
f
0.000 0.000 0.000 1.000 k
463.895 674.711 m
456.911 666.072 444.239 664.703 435.383 671.543 C
426.743 678.455 425.303 691.199 432.143 699.911 C
439.127 708.551 451.799 709.919 460.655 703.079 C
469.295 696.167 470.663 683.423 463.895 674.711 C
f
0.000 0.000 0.000 1.000 k
81.719 964.439 m
88.703 955.727 101.375 954.359 110.231 961.199 C
118.871 968.111 120.239 980.927 113.471 989.639 C
106.487 998.279 93.743 999.647 84.959 992.807 C
76.319 985.895 74.951 973.079 81.719 964.439 C
f
0.000 0.000 0.000 1.000 K
0 j
0 J
0.215 w
[]0 d
0.000 0.000 0.000 0.098 k
103.679 672.983 m
95.759 667.079 84.527 668.735 78.551 676.655 C
72.719 684.575 74.375 695.807 82.295 701.783 C
90.215 707.687 101.447 705.887 107.423 697.967 C
113.327 690.048 111.599 678.815 103.679 672.983 C
b
0.000 0.000 0.000 1.000 K
0 j
0 J
0.215 w
[]0 d
0.000 0.000 0.000 0.098 k
442.007 962.567 m
449.927 956.663 461.159 958.319 467.135 966.311 C
472.967 974.231 471.311 985.463 463.391 991.439 C
455.471 997.271 444.239 995.543 438.263 987.623 C
432.359 979.703 434.087 968.399 442.007 962.567 C
b
0.000 0.000 0.000 1.000 K
0 j
0 J
0.215 w
[]0 d
0.000 0.000 0.000 0.098 k
462.095 676.151 m
455.975 668.447 444.671 667.151 436.823 673.271 C
429.119 679.391 427.823 690.695 433.943 698.471 C
440.063 706.175 451.367 707.399 459.215 701.279 C
466.919 695.159 468.215 683.855 462.095 676.151 C
b
0.000 0.000 0.000 1.000 K
0 j
0 J
0.215 w
[]0 d
0.000 0.000 0.000 0.098 k
83.519 965.879 m
89.639 958.103 100.943 956.807 108.719 962.927 C
116.423 969.047 117.791 980.351 111.671 988.199 C
105.551 995.903 94.175 997.127 86.399 991.007 C
78.695 984.887 77.399 973.583 83.519 965.879 C
b
0.000 0.000 0.000 1.000 K
0 j
0 J
0.215 w
[]0 d
0.000 0.000 0.000 1.000 k
106.343 693.287 m
106.919 691.847 L
101.735 687.455 L
99.719 693.072 L
106.343 693.287 L
b
0.000 0.000 0.000 1.000 K
0 j
0 J
0.215 w
[]0 d
0.000 0.000 0.000 1.000 k
439.343 982.871 m
438.767 981.431 L
443.951 977.039 L
445.967 982.727 L
439.343 982.871 L
b
0.000 0.000 0.000 1.000 K
0 j
0 J
0.215 w
[]0 d
0.000 0.000 0.000 1.000 k
459.359 696.455 m
460.295 695.231 L
456.479 689.615 L
453.023 694.583 L
459.359 696.455 L
b
0.000 0.000 0.000 1.000 K
0 j
0 J
0.215 w
[]0 d
0.000 0.000 0.000 1.000 k
86.183 986.183 m
85.247 984.887 L
89.135 979.343 L
92.591 984.239 L
86.183 986.183 L
b
0.000 0.000 0.000 1.000 K
0 j
0 J
0.215 w
[]0 d
0.000 0.000 0.000 1.000 k
102.815 676.151 m
101.663 675.287 L
95.903 679.103 L
100.655 682.631 L
102.815 676.151 L
b
0.000 0.000 0.000 1.000 K
0 j
0 J
0.215 w
[]0 d
0.000 0.000 0.000 1.000 k
442.871 965.807 m
444.023 964.871 L
449.783 968.687 L
445.031 972.215 L
442.871 965.807 L
b
0.000 0.000 0.000 1.000 K
0 j
0 J
0.215 w
[]0 d
0.000 0.000 0.000 1.000 k
460.439 679.031 m
459.503 677.879 L
452.951 680.111 L
456.695 684.719 L
460.439 679.031 L
b
0.000 0.000 0.000 1.000 K
0 j
0 J
0.215 w
[]0 d
0.000 0.000 0.000 1.000 k
85.175 968.759 m
86.111 967.607 L
92.663 969.767 L
88.919 974.447 L
85.175 968.759 L
b
0.000 0.000 0.000 1.000 K
0 j
0 J
0.215 w
[]0 d
0.000 0.000 0.000 1.000 k
85.247 674.711 m
84.023 675.575 L
85.823 682.271 L
90.575 678.743 L
85.247 674.711 L
b
0.000 0.000 0.000 1.000 K
0 j
0 J
0.215 w
[]0 d
0.000 0.000 0.000 1.000 k
460.439 964.295 m
461.663 965.231 L
459.863 971.855 L
455.111 968.327 L
460.439 964.295 L
b
0.000 0.000 0.000 1.000 K
0 j
0 J
0.215 w
[]0 d
0.000 0.000 0.000 1.000 k
443.807 673.055 m
442.439 673.631 L
442.367 680.471 L
447.911 678.311 L
443.807 673.055 L
b
0.000 0.000 0.000 1.000 K
0 j
0 J
0.215 w
[]0 d
0.000 0.000 0.000 1.000 k
101.807 962.783 m
103.175 963.287 L
103.175 970.199 L
97.631 968.039 L
101.807 962.783 L
b
0.000 0.000 0.000 1.000 K
0 j
0 J
0.215 w
[]0 d
0.000 0.000 0.000 1.000 k
78.551 691.055 m
79.055 692.423 L
85.895 692.639 L
84.023 687.024 L
78.551 691.055 L
b
0.000 0.000 0.000 1.000 K
0 j
0 J
0.215 w
[]0 d
0.000 0.000 0.000 1.000 k
467.135 980.639 m
466.631 982.007 L
459.791 982.223 L
461.663 976.607 L
467.135 980.639 L
b
0.000 0.000 0.000 1.000 K
0 j
0 J
0.215 w
[]0 d
0.000 0.000 0.000 1.000 k
433.151 687.096 m
433.223 688.607 L
439.847 690.551 L
439.487 684.647 L
433.151 687.096 L
b
0.000 0.000 0.000 1.000 K
0 j
0 J
0.215 w
[]0 d
0.000 0.000 0.000 1.000 k
112.463 976.823 m
112.319 978.263 L
105.767 980.207 L
106.127 974.375 L
112.463 976.823 L
b
0.000 0.000 0.000 1.000 K
0 j
0 J
0.215 w
[]0 d
0.000 0.000 0.000 1.000 k
91.655 702.215 m
93.167 702.215 L
95.687 695.735 L
89.711 695.735 L
91.655 702.215 L
b
0.000 0.000 0.000 1.000 K
0 j
0 J
0.215 w
[]0 d
0.000 0.000 0.000 1.000 k
454.031 991.799 m
452.519 991.799 L
449.999 985.319 L
455.975 985.319 L
454.031 991.799 L
b
0.000 0.000 0.000 1.000 K
0 j
0 J
0.215 w
[]0 d
0.000 0.000 0.000 1.000 k
442.943 701.279 m
444.311 701.639 L
448.487 696.096 L
442.655 694.511 L
442.943 701.279 L
b
0.000 0.000 0.000 1.000 K
0 j
0 J
0.215 w
[]0 d
0.000 0.000 0.000 1.000 k
102.671 991.007 m
101.303 991.367 L
97.127 985.823 L
102.887 984.239 L
102.671 991.007 L
b
0.000 0.000 0.000 1.000 K
0 j
0 J
0.215 w
[]0 d
0.000 0.000 0.000 1.000 k
93.959 703.079 m
99.215 703.007 103.823 700.343 106.847 695.159 C
97.343 694.583 L
93.959 703.079 L
b
0.000 0.000 0.000 1.000 K
0 j
0 J
0.215 w
[]0 d
0.000 0.000 0.000 1.000 k
451.727 992.663 m
446.471 992.591 441.863 989.927 438.839 984.743 C
448.343 984.167 L
451.727 992.663 L
b
0.000 0.000 0.000 1.000 K
0 j
0 J
0.215 w
[]0 d
0.000 0.000 0.000 1.000 k
444.887 702.719 m
449.999 704.015 455.111 702.647 459.359 698.399 C
450.359 695.375 L
444.887 702.719 L
b
0.000 0.000 0.000 1.000 K
0 j
0 J
0.215 w
[]0 d
0.000 0.000 0.000 1.000 k
100.727 992.447 m
95.615 993.671 90.503 992.303 86.256 988.127 C
95.255 985.103 L
100.727 992.447 L
b
0.000 0.000 0.000 1.000 K
0 j
0 J
0.215 w
[]0 d
0.000 0.000 0.000 1.000 k
108.503 690.983 m
109.871 685.943 108.791 680.759 104.687 676.367 C
101.231 685.295 L
108.503 690.983 L
b
0.000 0.000 0.000 1.000 K
0 j
0 J
0.215 w
[]0 d
0.000 0.000 0.000 1.000 k
437.183 980.567 m
435.815 975.599 436.895 970.415 440.999 965.951 C
444.455 974.879 L
437.183 980.567 L
b
0.000 0.000 0.000 1.000 K
0 j
0 J
0.215 w
[]0 d
0.000 0.000 0.000 1.000 k
462.095 694.799 m
464.687 690.335 464.975 685.007 462.167 679.679 C
456.551 687.455 L
462.095 694.799 L
b
0.000 0.000 0.000 1.000 K
0 j
0 J
0.215 w
[]0 d
0.000 0.000 0.000 1.000 k
83.519 984.455 m
80.927 979.991 80.640 974.735 83.447 969.407 C
89.063 977.111 L
83.519 984.455 L
b
0.000 0.000 0.000 1.000 K
0 j
0 J
0.215 w
[]0 d
0.000 0.000 0.000 1.000 k
100.943 673.631 m
96.695 670.895 91.295 670.391 85.895 672.983 C
93.311 678.815 L
100.943 673.631 L
b
0.000 0.000 0.000 1.000 K
0 j
0 J
0.215 w
[]0 d
0.000 0.000 0.000 1.000 k
444.743 963.215 m
448.991 960.479 454.391 960.047 459.791 962.567 C
452.375 968.399 L
444.743 963.215 L
b
0.000 0.000 0.000 1.000 K
0 j
0 J
0.215 w
[]0 d
0.000 0.000 0.000 1.000 k
459.287 676.079 m
455.831 672.335 450.791 670.463 444.887 671.543 C
450.575 679.175 L
459.287 676.079 L
b
0.000 0.000 0.000 1.000 K
0 j
0 J
0.215 w
[]0 d
0.000 0.000 0.000 1.000 k
86.327 965.807 m
89.783 962.063 94.823 960.191 100.727 961.271 C
95.039 968.831 L
86.327 965.807 L
b
0.000 0.000 0.000 1.000 K
0 j
0 J
0.215 w
[]0 d
0.000 0.000 0.000 1.000 k
82.223 675.719 m
78.191 679.103 76.319 684.000 77.111 689.975 C
84.959 684.503 L
82.223 675.719 L
b
0.000 0.000 0.000 1.000 K
0 j
0 J
0.215 w
[]0 d
0.000 0.000 0.000 1.000 k
463.463 965.303 m
467.495 968.687 469.367 973.583 468.575 979.559 C
460.727 974.087 L
463.463 965.303 L
b
0.000 0.000 0.000 1.000 K
0 j
0 J
0.215 w
[]0 d
0.000 0.000 0.000 1.000 k
440.639 673.199 m
435.815 675.503 432.791 679.751 431.999 685.727 C
440.999 682.415 L
440.639 673.199 L
b
0.000 0.000 0.000 1.000 K
0 j
0 J
0.215 w
[]0 d
0.000 0.000 0.000 1.000 k
104.975 962.927 m
109.727 965.231 112.823 969.407 113.615 975.383 C
104.615 972.143 L
104.975 962.927 L
b
0.000 0.000 0.000 1.000 K
0 j
0 J
0.215 w
[]0 d
0.000 0.000 0.000 1.000 k
78.768 694.367 m
80.855 699.191 84.815 702.503 90.791 703.295 C
87.983 694.295 L
78.768 694.367 L
b
0.000 0.000 0.000 1.000 K
0 j
0 J
0.215 w
[]0 d
0.000 0.000 0.000 1.000 k
466.919 983.951 m
464.831 988.775 460.871 992.087 454.895 992.879 C
457.703 983.879 L
466.919 983.951 L
b
0.000 0.000 0.000 1.000 K
0 j
0 J
0.215 w
[]0 d
0.000 0.000 0.000 1.000 k
432.431 690.407 m
433.223 695.519 436.247 699.767 441.791 702.072 C
441.359 692.639 L
432.431 690.407 L
b
0.000 0.000 0.000 1.000 K
0 j
0 J
0.215 w
[]0 d
0.000 0.000 0.000 1.000 k
113.111 980.063 m
112.391 985.247 109.367 989.495 103.823 991.799 C
104.255 982.367 L
113.111 980.063 L
b
u
u
0.000 0.000 0.000 1.000 K
0 j
0 J
0.215 w
[]0 d
215.999 688.535 m
162.287 688.535 L
152.711 688.535 149.039 691.487 147.383 697.103 C
145.584 704.303 144.000 708.191 140.039 714.455 c
128.304 732.743 119.591 743.111 96.191 742.967 C
16.199 742.967 L
S
U
U
u
u
0.000 0.000 0.000 1.000 K
0 j
0 J
0.215 w
[]0 d
329.471 978.335 m
383.183 978.335 L
392.759 978.335 396.431 981.287 398.087 986.903 C
399.887 994.103 401.471 997.991 405.431 1004.255 c
417.167 1022.543 425.879 1032.912 449.351 1032.768 C
529.343 1032.768 L
S
U
U
u
u
0.000 0.000 0.000 1.000 K
0 j
0 J
0.215 w
[]0 d
13.175 752.543 m
20.735 752.543 L
426.455 742.751 L
S
0.000 0.000 0.000 1.000 K
0 j
0 J
0.215 w
[]0 d
466.199 742.463 m
517.751 740.735 L
S
U
U
u
u
0.000 0.000 0.000 1.000 K
0 j
0 J
0.215 w
[]0 d
532.367 1042.343 m
524.735 1042.343 L
119.015 1032.480 L
S
0.000 0.000 0.000 1.000 K
0 j
0 J
0.215 w
[]0 d
79.271 1032.263 m
27.719 1030.463 L
S
U
U
u
u
0.000 0.000 0.000 1.000 K
0 j
0 J
0.215 w
[]0 d
367.127 688.823 m
383.543 688.823 L
388.439 688.823 390.743 691.343 391.751 694.439 C
399.167 722.807 413.495 747.000 446.255 745.847 C
465.767 746.423 483.623 735.479 487.079 722.807 C
S
U
U
u
u
0.000 0.000 0.000 1.000 K
0 j
0 J
0.215 w
[]0 d
178.415 978.623 m
162.000 978.623 L
157.103 978.623 154.799 981.143 153.792 984.239 C
146.375 1012.607 132.048 1036.799 99.287 1035.647 C
79.847 1036.151 61.991 1025.279 58.463 1012.607 C
S
U
U
u
u
0.000 0.000 0.000 1.000 K
0 j
0 J
0.215 w
[]0 d
44.927 786.455 m
42.551 781.415 41.831 776.663 47.231 776.519 C
372.383 770.975 L
423.071 769.463 467.063 766.511 516.599 758.879 C
526.175 758.879 526.175 754.487 527.255 750.095 C
529.055 742.463 530.279 732.527 529.415 723.167 C
S
U
U
u
u
0.000 0.000 0.000 1.000 K
0 j
0 J
0.215 w
[]0 d
500.615 1076.255 m
502.991 1071.215 503.711 1066.463 498.239 1066.247 C
173.087 1060.775 L
122.399 1059.263 78.407 1056.311 28.943 1048.679 C
19.367 1048.679 19.367 1044.288 18.288 1039.895 C
16.487 1032.263 15.263 1022.255 16.055 1012.967 C
S
U
U
u
u
0.000 0.000 0.000 1.000 K
0 j
0 J
0.215 w
[]0 d
485.063 716.759 m
539.279 716.759 L
S
U
U
u
u
0.000 0.000 0.000 1.000 K
0 j
0 J
0.215 w
[]0 d
60.551 1006.487 m
6.335 1006.487 L
S
U
U
u
u
0.000 0.000 0.000 1.000 K
0 j
0 J
0.215 w
[]0 d
486.359 715.247 m
539.279 715.247 L
S
U
U
u
u
0.000 0.000 0.000 1.000 K
0 j
0 J
0.215 w
[]0 d
59.255 1005.047 m
6.335 1005.047 L
S
U
U
u
u
0.000 0.000 0.000 1.000 K
0 j
0 J
1.008 w
[]0 d
519.264 702.575 m
510.407 700.703 501.263 700.991 492.695 701.279 C
S
U
U
u
u
0.000 0.000 0.000 1.000 K
0 j
0 J
1.008 w
[]0 d
26.351 992.303 m
35.207 990.503 44.279 990.791 52.919 991.079 C
S
U
U
0.000 0.000 0.000 1.000 K
0 j
0 J
0.215 w
[]0 d
143.855 740.663 m
158.975 740.663 l
160.775 740.663 162.143 739.223 162.143 737.495 c
162.143 725.183 l
162.143 723.383 160.775 722.015 158.975 722.015 c
143.855 722.015 l
142.127 722.015 140.687 723.383 140.687 725.183 c
140.687 737.495 l
140.687 739.223 142.127 740.663 143.855 740.663 c
s
0.000 0.000 0.000 1.000 K
0 j
0 J
0.215 w
[]0 d
0.000 0.000 0.000 0.098 k
378.647 741.383 m
383.471 741.383 l
383.903 741.383 384.119 741.095 384.119 740.663 c
384.119 738.935 l
384.119 738.503 383.903 738.287 383.471 738.287 c
378.647 738.287 l
378.215 738.287 377.927 738.503 377.927 738.935 c
377.927 740.663 l
377.927 741.095 378.215 741.383 378.647 741.383 c
b
0.000 0.000 0.000 1.000 K
0 j
0 J
0.215 w
[]0 d
0.000 0.000 0.000 0.098 k
166.967 1031.183 m
162.071 1031.183 l
161.711 1031.183 161.423 1030.895 161.423 1030.463 c
161.423 1028.735 l
161.423 1028.303 161.711 1028.087 162.071 1028.087 c
166.967 1028.087 l
167.327 1028.087 167.615 1028.303 167.615 1028.735 c
167.615 1030.463 l
167.615 1030.895 167.327 1031.183 166.967 1031.183 c
b
0.000 0.000 0.000 1.000 K
0 j
0 J
0.863 w
[]0 d
835.199 736.487 m
834.335 750.527 833.903 764.567 830.447 778.607 C
826.127 800.639 820.799 822.167 811.727 840.167 C
810.071 843.047 804.095 847.583 799.559 847.943 c
753.551 852.335 685.511 852.335 643.103 847.943 c
638.927 847.511 636.983 843.119 635.543 840.167 c
627.479 823.607 620.783 800.711 615.599 779.039 c
612.216 765.143 611.783 750.383 610.919 736.487 C
835.199 736.487 L
s
0.000 0.000 0.000 1.000 K
0 j
0 J
0.863 w
[]0 d
838.511 1010.447 m
838.583 1015.775 839.159 1022.831 840.671 1027.223 C
840.671 1029.096 838.295 1030.103 838.079 1032.119 c
836.783 1044.791 833.903 1059.119 831.887 1067.327 C
827.567 1089.288 820.439 1110.815 811.367 1128.887 C
809.711 1131.767 803.735 1136.303 799.199 1136.663 c
753.191 1141.055 685.151 1141.055 642.743 1136.591 c
638.567 1136.231 636.623 1131.839 635.183 1128.887 c
627.120 1112.327 620.279 1089.288 615.240 1067.759 c
613.799 1061.639 614.303 1044.935 613.223 1032.192 c
613.151 1030.679 611.639 1028.807 610.631 1027.511 C
612.216 1022.831 612.791 1017.143 612.719 1010.591 C
838.511 1010.447 L
s
0.000 0.000 0.000 1.000 K
0 j
0 J
0.215 w
[]0 d
0.000 0.000 0.000 0.298 k
621.144 778.607 m
615.743 778.607 L
612.431 767.015 612.144 756.575 611.351 743.903 C
632.303 743.903 L
632.231 773.135 631.151 778.391 621.144 778.607 C
b
0.000 0.000 0.000 1.000 K
0 j
0 J
0.215 w
[]0 d
0.000 0.000 0.000 0.298 k
825.047 778.607 m
830.447 778.607 L
833.255 765.719 833.975 757.223 834.839 743.903 C
813.887 743.903 L
813.959 773.135 815.039 778.391 825.047 778.607 C
b
0.000 0.000 0.000 1.000 K
0 j
0 J
0.215 w
[]0 d
0.000 0.000 0.000 0.498 k
811.943 790.127 m
797.327 790.055 782.423 789.479 767.663 789.407 c
753.335 789.335 738.359 789.263 723.887 789.263 c
708.983 789.263 694.007 789.263 679.751 789.263 c
664.991 789.263 650.231 789.839 635.759 790.127 c
631.871 790.199 627.767 793.727 628.703 796.895 c
630.719 803.735 632.807 810.647 634.751 817.487 c
636.695 824.327 638.711 831.311 640.655 838.151 c
641.663 841.679 646.991 845.279 650.447 845.351 c
662.471 845.855 675.215 846.431 687.311 846.647 c
699.407 846.791 711.503 847.439 723.887 847.439 c
735.839 847.439 748.583 846.863 760.535 846.719 c
772.703 846.431 785.087 845.639 797.615 845.279 c
800.783 845.207 806.255 841.607 807.191 838.079 c
809.207 831.383 811.223 824.399 813.167 817.631 c
815.183 810.935 817.271 804.023 819.359 797.255 c
820.367 793.943 815.975 790.127 811.943 790.127 c
b
0.000 0.000 0.000 1.000 K
0 j
0 J
0.215 w
[]0 d
0.000 0.000 0.000 0.498 k
817.631 1069.775 m
786.167 1069.847 754.703 1070.063 723.239 1069.991 c
691.847 1069.919 660.311 1069.775 628.775 1069.775 c
625.031 1069.775 620.783 1073.951 621.575 1077.192 c
622.583 1081.079 623.879 1085.327 624.959 1089.000 c
626.039 1092.816 627.407 1097.063 628.631 1100.879 c
629.783 1104.624 631.295 1108.727 632.447 1112.759 c
633.527 1116.503 635.399 1120.967 636.767 1124.711 c
637.991 1128.311 644.399 1132.703 647.927 1132.775 c
660.239 1133.135 673.343 1134.288 685.655 1134.359 c
697.823 1134.359 710.495 1135.799 723.239 1135.799 c
735.263 1135.799 748.295 1134.647 760.319 1134.503 c
772.703 1134.359 785.735 1132.991 798.335 1132.775 c
801.575 1132.775 807.839 1128.311 809.423 1124.423 c
810.791 1120.751 812.375 1116.720 813.743 1112.759 c
815.039 1109.015 816.911 1105.055 818.135 1101.384 c
819.431 1097.351 820.727 1093.175 821.951 1089.288 c
823.103 1085.471 824.399 1081.367 825.695 1077.624 c
826.847 1074.240 821.879 1069.775 817.631 1069.775 c
b
0.000 0.000 0.000 1.000 K
0 j
0 J
1.008 w
[]0 d
0.000 0.000 0.000 0.498 k
837.791 732.455 m
836.207 732.815 836.207 734.039 835.919 735.407 C
835.919 736.055 835.199 736.415 834.479 736.415 C
612.216 736.415 L
611.423 736.415 610.919 736.199 610.631 735.479 C
609.839 733.463 609.839 732.455 607.895 732.455 C
606.887 732.167 605.663 731.375 605.519 730.079 C
604.079 723.815 606.096 714.024 610.127 711.359 C
614.951 704.015 620.423 696.455 621.431 690.191 C
824.327 690.191 L
824.327 696.743 828.215 700.343 834.551 710.207 C
839.087 714.167 841.319 723.599 839.807 730.223 c
839.591 731.087 839.303 732.239 837.791 732.455 C
b
0.000 0.000 0.000 1.000 K
0 j
0 J
1.008 w
[]0 d
0.000 0.000 0.000 0.498 k
838.151 1010.591 m
611.567 1010.591 L
609.407 1002.023 617.975 987.839 617.759 979.991 C
618.767 976.967 619.127 976.679 621.000 975.023 C
828.575 975.023 L
835.055 974.591 833.399 988.415 836.927 992.951 C
837.431 993.959 843.119 1010.303 838.151 1010.591 C
b
u
u
0.000 0.000 0.000 1.000 K
0 j
0 J
0.504 w
[]0 d
830.591 778.535 m
615.455 778.535 L
S
U
U
u
u
0.000 0.000 0.000 1.000 K
0 j
0 J
0.215 w
[]0 d
607.967 732.527 m
837.719 732.527 L
S
U
U
u
u
0.000 0.000 0.000 1.000 K
0 j
0 J
0.215 w
[]0 d
611.351 1008.359 m
840.095 1008.359 L
S
U
U
u
u
0.000 0.000 0.000 1.000 K
0 j
0 J
0.215 w
[]0 d
605.231 729.431 m
839.951 729.503 L
S
U
U
u
u
0.000 0.000 0.000 1.000 K
0 j
0 J
1.008 w
[]0 d
604.943 727.343 m
840.167 727.343 L
S
U
U
u
u
0.000 0.000 0.000 1.000 K
0 j
0 J
0.504 w
[]0 d
642.743 1013.831 m
802.583 1013.831 L
S
U
U
u
u
0.000 0.000 0.000 1.000 K
0 j
0 J
1.008 w
[]0 d
622.439 710.135 m
821.159 710.135 L
S
U
U
u
u
0.000 0.000 0.000 1.000 K
0 j
0 J
1.008 w
[]0 d
615.815 990.575 m
835.847 990.143 L
S
U
U
u
u
0.000 0.000 0.000 1.000 K
0 j
0 J
1.008 w
[]0 d
619.271 695.951 m
629.639 694.151 L
813.527 694.151 L
825.767 696.671 L
S
U
U
u
u
0.000 0.000 0.000 1.000 K
0 j
0 J
1.008 w
[]0 d
618.192 980.855 m
634.895 979.055 L
819.143 979.055 L
833.543 981.575 L
S
U
U
u
u
0.000 0.000 0.000 1.000 K
0 j
0 J
0.215 w
[]0 d
631.151 764.711 m
613.583 764.711 L
S
U
U
u
u
0.000 0.000 0.000 1.000 K
0 j
0 J
0.215 w
[]0 d
814.967 764.711 m
832.463 764.711 L
S
U
U
u
u
0.000 0.000 0.000 1.000 K
0 j
0 J
0.215 w
[]0 d
631.943 752.471 m
612.072 752.471 L
S
U
U
u
u
0.000 0.000 0.000 1.000 K
0 j
0 J
0.215 w
[]0 d
814.103 752.471 m
834.047 752.471 L
S
U
U
u
u
0.000 0.000 0.000 1.000 K
0 j
0 J
0.504 w
[]0 d
634.679 736.415 m
634.535 774.359 635.399 778.103 618.695 778.463 C
622.799 798.551 631.223 820.799 637.415 838.583 C
639.575 844.847 642.743 846.791 661.679 847.583 c
701.279 849.311 743.903 849.311 783.503 847.583 C
795.023 847.007 806.255 846.503 809.783 838.511 c
817.559 821.087 824.615 799.271 827.495 778.607 C
810.791 777.383 812.663 775.007 812.663 736.415 C
S
U
U
u
u
0.000 0.000 0.000 1.000 K
0 j
0 J
0.215 w
[]0 d
632.159 743.903 m
692.711 744.695 753.263 744.695 813.815 743.903 C
S
U
U
u
u
0.000 0.000 0.000 1.000 K
0 j
0 J
0.215 w
[]0 d
611.207 739.655 m
834.839 739.655 L
S
U
U
u
u
0.000 0.000 0.000 1.000 K
0 j
0 J
0.215 w
[]0 d
623.663 1045.943 m
690.120 1047.743 756.575 1047.743 823.103 1045.943 C
S
U
U
0.000 0.000 0.000 1.000 K
0 j
0 J
0.215 w
[]0 d
674.135 772.703 m
689.759 772.703 705.311 772.703 720.791 772.703 c
736.343 772.703 751.823 772.703 767.447 772.703 c
770.039 772.703 771.767 770.831 771.407 768.455 c
771.047 765.575 770.543 762.767 770.111 759.959 c
769.823 757.151 769.247 754.199 768.815 751.463 c
768.527 749.087 766.295 747.215 763.919 747.215 c
749.519 747.215 735.119 747.215 720.791 747.215 c
706.463 747.215 692.063 747.215 677.735 747.215 c
675.287 747.215 673.127 749.015 672.695 751.463 c
672.335 754.127 671.831 757.151 671.543 759.959 c
671.111 762.767 670.607 765.575 670.247 768.455 c
669.887 770.831 671.615 772.703 674.135 772.703 c
s
0.000 0.000 0.000 1.000 K
0 j
0 J
0.215 w
[]0 d
0.000 0.000 0.000 0.498 k
674.207 772.631 m
689.687 772.631 705.239 772.631 720.791 772.631 c
736.343 772.631 751.823 772.631 767.447 772.631 c
770.039 772.631 771.695 770.831 771.335 768.311 C
670.247 768.311 L
669.887 770.831 671.543 772.631 674.207 772.631 c
b
0.000 0.000 0.000 1.000 K
0 j
0 J
0.215 w
[]0 d
0.000 0.000 0.000 0.000 k
683.135 766.367 m
758.735 766.367 l
760.895 766.367 762.623 764.639 762.623 762.551 c
762.623 753.119 l
762.623 750.959 760.895 749.303 758.735 749.303 c
683.135 749.303 l
680.975 749.303 679.319 750.959 679.319 753.119 c
679.319 762.551 l
679.319 764.639 680.975 766.367 683.135 766.367 c
b
0.000 0.000 0.000 1.000 K
0 j
0 J
0.215 w
[]0 d
0.000 0.000 0.000 0.000 k
723.024 769.247 m
722.375 769.247 721.727 769.895 721.727 770.543 c
721.727 771.191 722.375 771.839 723.024 771.839 c
723.743 771.839 724.319 771.191 724.319 770.543 c
724.319 769.895 723.743 769.247 723.024 769.247 c
b
u
u
0.000 0.000 0.000 1.000 K
0 j
0 J
1.008 w
[]0 d
834.623 727.343 m
824.759 717.407 821.231 709.631 814.895 694.151 C
S
U
U
u
u
0.000 0.000 0.000 1.000 K
0 j
0 J
1.008 w
[]0 d
610.631 727.343 m
616.823 716.687 624.599 708.911 631.727 694.151 C
S
U
U
0.000 0.000 0.000 1.000 k
723.095 777.095 m
720.647 777.095 718.703 779.039 718.703 781.415 c
718.703 783.791 720.647 785.735 723.095 785.735 c
725.471 785.735 727.415 783.791 727.415 781.415 c
727.415 779.039 725.471 777.095 723.095 777.095 c
f
0.000 0.000 0.000 0.000 k
723.095 777.455 m
720.863 777.455 719.063 779.255 719.063 781.487 c
719.063 783.719 720.863 785.519 723.095 785.519 c
725.327 785.519 727.127 783.719 727.127 781.487 c
727.127 779.255 725.327 777.455 723.095 777.455 c
f
0.000 0.000 0.000 1.000 k
722.663 781.487 m
723.527 781.487 L
724.751 784.295 L
725.111 784.007 725.327 783.863 725.615 783.503 C
724.103 779.831 L
723.527 781.271 L
722.663 781.271 L
722.015 779.831 L
720.503 783.359 L
720.647 783.647 721.151 784.079 721.439 784.295 C
722.663 781.487 L
f
0.000 0.000 0.000 1.000 k
723.167 782.423 m
722.303 784.583 L
722.591 784.799 723.671 784.799 724.103 784.583 C
723.167 782.423 L
f
0.000 0.000 0.000 1.000 k
721.727 778.463 m
720.287 779.183 719.567 780.623 720.000 782.423 C
721.727 778.463 L
f
0.000 0.000 0.000 1.000 k
723.959 778.247 m
723.383 778.103 722.735 778.103 722.231 778.247 C
723.167 780.335 L
723.959 778.247 L
f
0.000 0.000 0.000 1.000 k
724.463 778.319 m
726.263 782.639 L
726.911 780.839 726.119 779.039 724.463 778.319 C
f
0.000 0.000 0.000 1.000 K
0 j
0 J
0.215 w
[]0 d
0.000 0.000 0.000 0.498 k
139.536 715.031 m
405.863 715.031 L
403.199 710.927 L
142.055 710.927 L
139.536 715.031 L
b
0.000 0.000 0.000 1.000 K
0 j
0 J
0.215 w
[]0 d
0.000 0.000 0.000 0.498 k
405.935 1004.759 m
139.607 1004.759 L
142.271 1000.727 L
403.415 1000.727 L
405.935 1004.759 L
b
0.000 0.000 0.000 1.000 K
0 j
0 J
0.215 w
[]0 d
0.000 0.000 0.000 0.498 k
661.895 1039.679 m
652.391 1039.679 633.959 1039.679 624.455 1039.679 c
623.159 1039.679 622.007 1038.672 621.791 1037.303 c
620.567 1029.528 620.783 1023.767 621.863 1015.991 c
622.007 1014.839 623.375 1013.831 624.599 1013.831 c
634.751 1013.831 654.048 1013.831 664.271 1013.831 c
665.423 1013.831 666.287 1014.767 666.215 1015.991 c
665.567 1023.119 664.631 1030.247 663.983 1037.303 c
663.911 1038.599 662.975 1039.679 661.895 1039.679 c
b
0.000 0.000 0.000 1.000 K
0 j
0 J
0.215 w
[]0 d
0.000 0.000 0.000 0.498 k
786.527 1039.679 m
796.031 1039.679 814.535 1039.679 824.039 1039.679 c
825.263 1039.679 826.415 1038.672 826.703 1037.303 c
827.855 1029.528 827.711 1023.767 826.559 1015.991 c
826.415 1014.839 825.119 1013.831 823.823 1013.831 c
813.671 1013.831 794.375 1013.831 784.223 1013.831 c
782.999 1013.831 782.135 1014.767 782.207 1015.991 c
782.855 1023.119 783.791 1030.247 784.439 1037.303 c
784.511 1038.599 785.447 1039.679 786.527 1039.679 c
b
0.000 0.000 0.000 1.000 K
0 j
0 J
0.215 w
[]0 d
0.000 0.000 0.000 0.000 k
660.743 1038.528 m
656.639 1038.528 652.679 1038.528 648.647 1038.528 c
644.471 1038.528 640.511 1038.528 636.407 1038.528 c
635.543 1038.528 635.111 1037.951 635.111 1037.015 c
635.327 1033.775 635.759 1030.247 636.048 1026.791 c
636.335 1023.407 636.623 1019.879 636.911 1016.639 c
636.983 1015.703 637.703 1015.127 638.495 1015.127 c
642.527 1015.127 646.631 1015.127 650.663 1015.127 c
654.695 1015.127 658.799 1015.127 662.831 1015.127 c
663.623 1015.127 664.271 1015.919 664.199 1016.711 c
663.911 1020.095 663.479 1023.479 663.263 1026.935 c
662.903 1030.319 662.615 1033.703 662.399 1037.087 c
662.327 1037.951 661.535 1038.528 660.743 1038.528 c
b
0.000 0.000 0.000 1.000 K
0 j
0 J
0.215 w
[]0 d
0.000 0.000 0.000 0.000 k
787.751 1038.528 m
791.783 1038.528 795.815 1038.528 799.775 1038.528 c
803.951 1038.528 807.911 1038.528 812.015 1038.528 c
812.879 1038.528 813.383 1037.951 813.383 1037.015 c
813.095 1033.775 812.735 1030.247 812.375 1026.791 c
812.087 1023.407 811.871 1019.879 811.511 1016.639 c
811.439 1015.703 810.791 1015.127 809.999 1015.127 c
805.895 1015.127 801.863 1015.127 797.759 1015.127 c
793.727 1015.127 789.695 1015.127 785.591 1015.127 c
784.799 1015.127 784.223 1015.919 784.295 1016.711 c
784.511 1020.095 785.015 1023.479 785.231 1026.935 c
785.519 1030.319 785.879 1033.703 786.095 1037.087 c
786.167 1037.951 786.959 1038.528 787.751 1038.528 c
b
0.000 0.000 0.000 1.000 K
0 j
0 J
0.215 w
[]0 d
0.000 0.000 0.000 0.098 k
632.015 1038.599 m
627.983 1038.599 628.271 1038.599 628.703 1038.599 c
628.991 1038.599 629.351 1038.599 625.247 1038.599 c
624.311 1038.599 623.591 1038.023 623.519 1037.159 c
623.375 1035.576 623.015 1033.775 622.943 1032.119 c
622.871 1030.535 622.799 1028.735 622.799 1027.079 c
622.799 1025.351 622.871 1023.407 623.015 1021.823 c
623.231 1020.167 623.303 1018.295 623.519 1016.783 c
623.591 1015.919 624.527 1015.199 625.751 1015.199 c
630.719 1015.199 630.359 1015.199 629.855 1015.199 c
629.423 1015.199 628.991 1015.199 633.887 1015.199 c
634.895 1015.199 635.399 1015.919 635.399 1016.783 c
635.327 1018.367 635.111 1020.167 634.895 1021.823 c
634.679 1023.479 634.319 1025.351 634.247 1027.079 c
634.175 1028.663 633.959 1030.463 633.887 1032.119 c
633.743 1033.775 633.527 1035.503 633.527 1037.159 c
633.527 1038.167 632.735 1038.599 632.015 1038.599 c
b
0.000 0.000 0.000 1.000 K
0 j
0 J
0.215 w
[]0 d
0.000 0.000 0.000 0.098 k
816.479 1038.599 m
820.439 1038.599 820.151 1038.599 819.791 1038.599 c
819.431 1038.599 819.143 1038.599 823.175 1038.599 c
824.111 1038.599 824.831 1038.023 824.903 1037.159 c
825.119 1035.576 825.407 1033.775 825.479 1032.119 c
825.551 1030.535 825.623 1028.735 825.623 1027.079 c
825.623 1025.351 825.551 1023.407 825.407 1021.823 c
825.263 1020.167 825.191 1018.295 824.903 1016.783 c
824.831 1015.919 823.895 1015.199 822.743 1015.199 c
817.703 1015.199 818.135 1015.199 818.567 1015.199 c
819.071 1015.199 819.431 1015.199 814.607 1015.199 c
813.599 1015.199 813.023 1015.919 813.023 1016.783 c
813.095 1018.367 813.311 1020.167 813.599 1021.823 c
813.815 1023.479 814.103 1025.351 814.175 1027.079 c
814.247 1028.663 814.535 1030.463 814.607 1032.119 c
814.751 1033.775 814.895 1035.503 814.895 1037.159 c
814.895 1038.167 815.687 1038.599 816.479 1038.599 c
b
u
u
0.000 0.000 0.000 1.000 K
0 j
0 J
0.215 w
[]0 d
627.407 1070.135 m
626.111 1063.727 L
626.039 1054.727 630.647 1049.327 634.391 1039.607 C
S
U
U
u
u
0.000 0.000 0.000 1.000 K
0 j
0 J
0.215 w
[]0 d
821.663 1069.703 m
822.959 1063.727 L
823.103 1054.727 818.423 1049.327 814.679 1039.607 C
S
U
U
u
u
0.000 0.000 0.000 1.000 K
0 j
0 J
0.215 w
[]0 d
628.847 1039.895 m
621.935 1048.535 617.039 1055.519 615.527 1069.775 C
S
U
U
u
u
0.000 0.000 0.000 1.000 K
0 j
0 J
0.215 w
[]0 d
818.207 1039.895 m
825.119 1048.535 830.087 1055.519 831.527 1069.775 C
S
U
U
u
u
0.000 0.000 0.000 1.000 K
0 j
0 J
0.215 w
[]0 d
627.263 1069.703 m
615.815 1069.703 L
S
U
U
u
u
0.000 0.000 0.000 1.000 K
0 j
0 J
0.215 w
[]0 d
818.423 1069.703 m
831.311 1069.775 L
S
U
U
u
u
0.000 0.000 0.000 1.000 K
0 j
0 J
0.215 w
[]0 d
626.039 1039.607 m
614.231 1057.103 L
S
U
U
u
u
0.000 0.000 0.000 1.000 K
0 j
0 J
0.215 w
[]0 d
820.943 1039.607 m
834.047 1057.103 L
S
U
U
u
u
0.000 0.000 0.000 1.000 K
0 j
0 J
0.504 w
[]0 d
655.055 1039.607 m
703.799 1040.111 752.615 1040.111 801.359 1039.607 C
S
U
U
u
u
0.000 0.000 0.000 1.000 K
0 j
0 J
0.215 w
[]0 d
621.719 1015.775 m
622.079 1010.663 L
S
U
U
u
u
0.000 0.000 0.000 1.000 K
0 j
0 J
1.008 w
[]0 d
617.039 1010.519 m
616.679 1020.455 615.671 1026.288 613.871 1032.336 C
S
U
U
u
u
0.000 0.000 0.000 1.000 K
0 j
0 J
1.008 w
[]0 d
834.047 1010.519 m
835.487 1018.295 835.631 1027.007 837.719 1032.912 C
S
U
U
0.000 0.000 0.000 1.000 K
0 j
0 J
0.504 w
[]0 d
0.000 0.000 0.000 0.498 k
784.511 1039.679 m
764.207 1039.679 743.975 1039.751 723.887 1039.751 c
703.727 1039.751 683.639 1039.751 663.551 1039.679 C
663.911 1035.432 664.487 1031.183 664.847 1026.935 c
665.279 1022.687 665.783 1018.295 666.359 1013.975 C
685.439 1014.047 704.663 1014.047 723.887 1014.047 c
743.039 1014.047 762.263 1014.047 781.703 1013.975 C
782.063 1018.295 782.639 1022.687 783.071 1026.935 c
783.359 1031.183 783.935 1035.432 784.511 1039.679 C
b
0.000 0.000 0.000 1.000 K
0 j
0 J
0.215 w
[]0 d
0.000 0.000 0.000 0.200 k
663.839 1037.519 m
784.223 1037.519 L
784.007 1035.791 L
663.983 1035.791 L
663.839 1037.519 L
b
0.000 0.000 0.000 1.000 K
0 j
0 J
0.215 w
[]0 d
0.000 0.000 0.000 0.200 k
664.127 1033.703 m
783.791 1033.631 L
783.575 1031.831 L
664.415 1031.831 L
664.127 1033.703 L
b
0.000 0.000 0.000 1.000 K
0 j
0 J
0.215 w
[]0 d
0.000 0.000 0.000 0.200 k
664.487 1029.599 m
783.359 1029.599 L
783.287 1027.871 L
664.775 1027.871 L
664.487 1029.599 L
b
0.000 0.000 0.000 1.000 K
0 j
0 J
0.215 w
[]0 d
0.000 0.000 0.000 0.200 k
664.847 1025.639 m
783.071 1025.639 L
782.855 1023.839 L
665.135 1023.839 L
664.847 1025.639 L
b
0.000 0.000 0.000 1.000 K
0 j
0 J
0.215 w
[]0 d
0.000 0.000 0.000 0.200 k
665.423 1021.679 m
782.639 1021.679 L
782.423 1019.951 L
665.711 1019.951 L
665.423 1021.679 L
b
0.000 0.000 0.000 1.000 K
0 j
0 J
0.215 w
[]0 d
0.000 0.000 0.000 0.200 k
665.783 1017.719 m
782.063 1017.719 L
781.991 1015.919 L
666.072 1015.919 L
665.783 1017.719 L
b
0.000 0.000 0.000 1.000 k
724.031 1019.159 m
720.359 1019.159 717.407 1022.111 717.407 1025.711 c
717.407 1029.384 720.359 1032.336 724.031 1032.336 c
727.631 1032.336 730.583 1029.384 730.583 1025.711 c
730.583 1022.111 727.631 1019.159 724.031 1019.159 c
f
0.000 0.000 0.000 0.000 k
724.031 1019.591 m
720.647 1019.591 717.911 1022.327 717.911 1025.711 c
717.911 1029.096 720.647 1031.831 724.031 1031.831 c
727.415 1031.831 730.151 1029.096 730.151 1025.711 c
730.151 1022.327 727.415 1019.591 724.031 1019.591 c
f
0.000 0.000 0.000 1.000 k
723.383 1025.855 m
724.751 1025.855 L
726.551 1030.031 L
727.199 1029.599 727.487 1029.311 727.991 1028.807 C
725.687 1023.191 L
724.751 1025.423 L
723.455 1025.423 L
722.375 1023.263 L
720.143 1028.663 L
720.359 1029.096 721.151 1029.743 721.583 1029.959 C
723.383 1025.855 L
f
0.000 0.000 0.000 1.000 k
724.175 1027.223 m
722.879 1030.463 L
723.239 1030.751 724.967 1030.823 725.543 1030.463 C
724.175 1027.223 L
f
0.000 0.000 0.000 1.000 k
722.015 1021.103 m
719.783 1022.255 718.703 1024.415 719.351 1027.079 C
722.015 1021.103 L
f
0.000 0.000 0.000 1.000 k
725.399 1020.743 m
724.463 1020.527 723.527 1020.527 722.735 1020.815 C
724.103 1023.983 L
725.399 1020.743 L
f
0.000 0.000 0.000 1.000 k
726.048 1021.031 m
728.783 1027.511 L
729.791 1024.847 728.495 1022.183 726.048 1021.031 C
f
u
u
0.000 0.000 0.000 1.000 K
0 j
0 J
0.215 w
[]0 d
840.023 1005.407 m
610.847 1005.407 L
S
U
U
u
u
0.000 0.000 0.000 1.000 K
0 j
0 J
1.008 w
[]0 d
610.847 1003.895 m
840.023 1003.895 L
S
U
U
0.000 0.000 0.000 1.000 K
0 j
0 J
0.215 w
[]0 d
0.000 0.000 0.000 0.498 k
839.303 1072.943 m
856.799 1072.943 l
858.311 1072.943 859.535 1074.240 859.535 1075.679 c
859.535 1086.048 l
859.535 1087.487 858.311 1088.783 856.799 1088.783 c
839.303 1088.783 l
837.791 1088.783 836.567 1087.487 836.567 1086.048 c
836.567 1075.679 l
836.567 1074.240 837.791 1072.943 839.303 1072.943 c
b
0.000 0.000 0.000 1.000 K
0 j
0 J
0.215 w
[]0 d
0.000 0.000 0.000 0.498 k
838.871 784.295 m
856.367 784.295 l
857.879 784.295 859.103 785.519 859.103 787.031 c
859.103 797.327 l
859.103 798.767 857.879 800.063 856.367 800.063 c
838.871 800.063 l
837.359 800.063 836.135 798.767 836.135 797.327 c
836.135 787.031 l
836.135 785.519 837.359 784.295 838.871 784.295 c
b
0.000 0.000 0.000 1.000 K
0 j
0 J
0.215 w
[]0 d
0.000 0.000 0.000 0.498 k
607.679 1072.943 m
590.183 1072.943 l
588.671 1072.943 587.447 1074.240 587.447 1075.679 c
587.447 1086.048 l
587.447 1087.487 588.671 1088.783 590.183 1088.783 c
607.679 1088.783 l
609.192 1088.783 610.415 1087.487 610.415 1086.048 c
610.415 1075.679 l
610.415 1074.240 609.192 1072.943 607.679 1072.943 c
b
0.000 0.000 0.000 1.000 K
0 j
0 J
0.215 w
[]0 d
0.000 0.000 0.000 0.498 k
607.247 784.295 m
589.751 784.295 l
588.240 784.295 586.943 785.519 586.943 787.031 c
586.943 797.327 l
586.943 798.767 588.240 800.063 589.751 800.063 c
607.247 800.063 l
608.759 800.063 609.983 798.767 609.983 797.327 c
609.983 787.031 l
609.983 785.519 608.759 784.295 607.247 784.295 c
b
0.000 0.000 0.000 1.000 K
0 j
0 J
0.215 w
[]0 d
0.000 0.000 0.000 0.498 k
831.455 1069.415 m
838.295 1069.415 L
839.303 1069.487 839.519 1069.919 839.519 1070.495 C
839.519 1073.015 L
841.175 1072.871 L
841.175 1069.199 L
841.175 1068.407 840.887 1067.903 839.591 1067.903 C
831.599 1067.903 L
831.455 1069.415 L
b
0.000 0.000 0.000 1.000 K
0 j
0 J
0.215 w
[]0 d
0.000 0.000 0.000 0.498 k
831.023 780.767 m
837.791 780.767 L
838.799 780.839 839.015 781.199 839.015 781.847 C
839.015 784.295 L
840.743 784.151 L
840.743 780.479 L
840.743 779.759 840.455 779.183 839.159 779.183 C
831.167 779.183 L
831.023 780.767 L
b
0.000 0.000 0.000 1.000 K
0 j
0 J
0.215 w
[]0 d
0.000 0.000 0.000 0.498 k
615.527 1069.415 m
608.687 1069.415 L
607.679 1069.487 607.535 1069.919 607.535 1070.495 C
607.535 1073.015 L
605.807 1072.871 L
605.807 1069.199 L
605.807 1068.407 606.096 1067.903 607.391 1067.903 C
615.383 1067.903 L
615.527 1069.415 L
b
0.000 0.000 0.000 1.000 K
0 j
0 J
0.215 w
[]0 d
0.000 0.000 0.000 0.498 k
615.024 780.767 m
608.255 780.767 L
607.247 780.839 607.031 781.199 607.031 781.847 C
607.031 784.295 L
605.375 784.151 L
605.375 780.479 L
605.375 779.759 605.663 779.183 606.887 779.183 C
614.951 779.183 L
615.024 780.767 L
b
u
u
0.000 0.000 0.000 1.000 K
0 j
0 J
0.215 w
[]0 d
786.311 1047.167 m
786.311 1055.663 787.751 1063.223 789.047 1069.703 C
S
U
U
u
u
0.000 0.000 0.000 1.000 K
0 j
0 J
0.215 w
[]0 d
663.263 1047.167 m
663.263 1055.663 661.823 1063.223 660.455 1069.703 C
S
U
U
0.000 0.000 0.000 1.000 K
0 j
0 J
0.215 w
[]0 d
0.000 0.000 0.000 0.498 k
216.071 1089.359 m
214.487 1089.720 213.047 1090.079 211.607 1090.079 c
210.167 1090.079 208.727 1089.720 207.359 1089.359 C
204.695 1086.839 202.751 1084.319 202.751 1081.943 c
202.751 1079.567 204.695 1077.119 207.359 1074.887 C
208.727 1074.311 210.167 1073.951 211.607 1073.951 c
213.047 1073.951 214.487 1074.311 216.071 1074.887 C
216.719 1077.119 217.223 1079.567 217.223 1081.943 c
217.223 1084.319 216.719 1086.839 216.071 1089.359 C
b
0.000 0.000 0.000 1.000 K
0 j
0 J
0.215 w
[]0 d
0.000 0.000 0.000 0.498 k
206.135 1075.751 m
203.399 1079.063 L
203.399 1073.231 L
197.495 1073.231 L
197.495 1070.495 L
203.399 1070.495 L
206.135 1070.495 L
206.135 1075.751 L
b
u
u
U
u
0.000 0.000 0.000 1.000 K
0 j
0 J
0.215 w
[]0 d
6.623 624.671 m
248.543 624.671 L
S
U
U
u
u
U
u
0.000 0.000 0.000 1.000 K
0 j
0 J
0.215 w
[]0 d
338.039 624.671 m
539.351 624.671 L
S
U
U
u
u
U
u
0.000 0.000 0.000 1.000 K
0 j
0 J
0.215 w
[]0 d
7.271 637.991 m
7.271 608.255 L
S
U
U
0.000 0.000 0.000 1.000 k
7.055 624.743 m
16.919 621.791 L
16.919 627.623 L
7.055 624.743 L
f
u
u
U
u
0.000 0.000 0.000 1.000 K
0 j
0 J
0.215 w
[]0 d
539.495 635.975 m
539.495 606.671 L
S
U
U
0.000 0.000 0.000 1.000 k
539.639 624.743 m
529.775 621.791 L
529.775 627.623 L
539.639 624.743 L
f
0.000 0.000 0.000 1.000 k
308.447 621.000 m
309.239 621.000 L
309.239 624.671 L
309.239 626.039 309.743 626.975 311.111 626.975 C
312.120 626.975 312.479 626.255 312.479 625.391 C
312.479 621.000 L
313.343 621.000 L
313.343 624.671 L
313.343 625.823 313.703 626.975 315.072 626.975 C
316.223 626.975 316.584 626.471 316.584 625.391 C
316.584 621.000 L
317.375 621.000 L
317.375 625.391 L
317.375 626.903 316.655 627.623 315.215 627.623 C
314.423 627.623 313.560 627.263 313.127 626.399 C
312.983 627.263 312.120 627.623 311.327 627.623 C
310.247 627.623 309.599 627.192 309.167 626.399 C
309.167 626.399 L
309.167 627.479 L
308.447 627.479 L
308.447 621.000 L
308.447 621.000 L
f
0.000 0.000 0.000 1.000 k
297.863 621.000 m
298.655 621.000 L
298.655 624.671 L
298.655 626.039 299.231 626.975 300.599 626.975 C
301.608 626.975 301.967 626.255 301.967 625.391 C
301.967 621.000 L
302.759 621.000 L
302.759 624.671 L
302.759 625.823 303.120 626.975 304.487 626.975 C
305.711 626.975 306.072 626.471 306.072 625.391 C
306.072 621.000 L
306.863 621.000 L
306.863 625.391 L
306.863 626.903 306.143 627.623 304.703 627.623 C
303.839 627.623 303.048 627.263 302.615 626.399 C
302.399 627.263 301.608 627.623 300.743 627.623 C
299.663 627.623 299.015 627.192 298.584 626.399 C
298.584 626.399 L
298.584 627.479 L
297.863 627.479 L
297.863 621.000 L
297.863 621.000 L
f
0.000 0.000 0.000 1.000 k
283.967 623.447 m
283.967 621.791 285.120 620.855 286.847 620.855 C
288.503 620.855 289.871 622.007 289.871 623.735 C
289.871 625.535 288.791 626.831 286.991 626.831 C
286.199 626.831 285.479 626.543 285.048 626.039 C
285.048 626.039 L
285.623 628.991 L
289.512 628.991 L
289.512 629.711 L
285.048 629.711 L
284.111 625.103 L
284.903 625.103 L
285.335 625.823 286.055 626.183 286.847 626.183 C
288.144 626.183 289.151 625.175 289.151 623.807 C
289.151 622.583 288.215 621.431 286.847 621.431 C
285.695 621.431 284.759 622.295 284.687 623.447 C
283.967 623.447 L
f
0.000 0.000 0.000 1.000 k
282.887 627.551 m
282.671 629.063 281.663 629.927 280.151 629.927 C
277.199 629.927 276.983 626.543 276.983 625.463 C
276.983 622.007 277.847 620.855 280.079 620.855 C
281.807 620.855 283.031 622.007 283.031 623.735 C
283.031 625.463 281.879 626.759 280.151 626.759 C
279.144 626.759 278.207 626.111 277.775 625.247 C
277.775 625.247 L
277.775 626.831 278.135 629.207 280.223 629.207 C
281.231 629.207 281.879 628.559 282.024 627.551 C
282.887 627.551 L
f
0.000 0.000 0.000 1.000 k
270.144 628.991 m
274.967 628.991 L
272.519 626.183 271.584 623.951 271.295 621.000 C
272.231 621.000 L
272.447 625.103 274.680 627.839 275.759 628.991 C
275.759 629.711 L
270.144 629.711 L
270.144 628.991 L
f
0.000 0.000 0.000 1.000 k
262.871 623.807 m
262.799 621.935 264.024 620.855 265.895 620.855 C
267.479 620.855 268.991 621.719 268.991 623.447 C
268.991 624.671 268.199 625.463 267.120 625.607 C
267.120 625.607 L
268.055 625.895 268.632 626.615 268.632 627.623 C
268.632 629.207 267.263 629.927 265.895 629.927 C
264.168 629.927 263.087 628.631 263.087 626.975 C
263.879 626.975 L
263.879 628.271 264.599 629.207 265.895 629.207 C
266.975 629.207 267.767 628.703 267.767 627.551 C
267.767 626.471 266.903 625.895 266.039 625.895 C
265.319 625.895 L
265.319 625.247 L
266.039 625.247 L
267.263 625.247 268.127 624.671 268.127 623.375 C
268.127 622.079 267.048 621.431 265.895 621.431 C
264.383 621.431 263.591 622.367 263.663 623.807 C
262.871 623.807 L
f
0.000 0.000 0.000 0.000 k
280.151 626.111 m
281.519 626.111 282.239 625.031 282.239 623.735 C
282.239 622.439 281.447 621.431 280.151 621.431 C
278.567 621.431 277.991 622.439 277.991 623.735 C
277.991 625.031 278.783 626.111 280.151 626.111 C
f
0.000 0.000 0.000 1.000 K
0 j
0 J
0.215 w
[]0 d
0.000 0.000 0.000 0.200 k
240.119 1128.240 m
242.279 1129.967 244.367 1131.767 242.063 1132.775 C
216.719 1118.015 184.175 1094.399 162.143 1075.103 C
163.943 1072.367 167.615 1070.495 172.223 1073.231 C
195.407 1093.751 216.287 1109.735 240.119 1128.240 c
b
0.000 0.000 0.000 1.000 K
0 j
0 J
0.215 w
[]0 d
0.000 0.000 0.000 0.200 k
495.071 1130.399 m
493.631 1130.039 492.839 1129.607 493.415 1128.672 C
503.999 1112.183 514.871 1096.271 523.439 1078.919 C
524.231 1078.199 525.599 1078.199 526.535 1078.487 C
517.751 1096.631 505.943 1114.343 495.071 1130.399 C
b
0.000 0.000 0.000 1.000 K
0 j
0 J
0.215 w
[]0 d
0.000 0.000 0.000 0.200 k
815.543 1071.791 m
785.015 1072.007 754.127 1072.295 723.383 1072.295 c
692.567 1072.295 661.751 1072.007 631.223 1071.720 c
627.407 1071.720 623.807 1075.607 624.599 1079.207 c
625.463 1082.519 626.615 1086.480 627.479 1090.007 c
628.271 1093.679 629.783 1097.423 630.935 1100.879 c
632.087 1104.336 633.168 1108.367 634.175 1111.751 c
635.183 1115.279 636.839 1119.167 637.919 1122.624 c
639.431 1127.015 645.407 1130.399 648.144 1130.399 c
660.311 1130.543 673.703 1131.767 685.655 1131.767 c
698.039 1131.839 710.639 1132.343 723.311 1132.343 c
735.263 1132.343 747.935 1131.911 760.103 1131.767 c
772.271 1131.695 785.375 1130.543 797.831 1130.399 c
800.855 1130.399 807.047 1126.727 808.487 1122.624 c
809.639 1119.240 811.223 1115.279 812.303 1111.751 c
813.455 1108.151 814.895 1104.336 815.903 1101.023 c
816.983 1097.351 818.711 1093.535 819.719 1090.079 c
820.799 1086.480 822.023 1082.519 822.887 1079.063 c
823.823 1075.463 819.071 1071.791 815.543 1071.791 c
b
0.000 0.000 0.000 1.000 K
0 j
0 J
0.215 w
[]0 d
0.000 0.000 0.000 0.200 k
809.999 791.999 m
795.671 791.999 781.127 791.279 766.943 791.207 c
752.831 791.207 738.359 790.991 723.959 790.991 c
709.631 790.991 695.087 790.991 680.831 791.135 c
666.647 791.279 652.319 791.927 637.991 792.071 c
634.391 792.071 630.791 795.383 631.655 798.551 c
633.383 804.815 635.111 811.223 636.839 817.487 c
638.567 823.751 640.439 830.159 642.024 836.495 c
643.031 840.383 648.287 843.119 651.168 843.191 c
663.048 843.479 675.503 844.343 687.527 844.415 c
699.551 844.559 711.863 844.919 724.103 844.919 c
736.127 844.919 748.151 844.559 760.391 844.415 c
772.199 844.343 784.655 843.551 796.823 843.191 c
799.991 843.119 805.103 839.951 806.111 836.495 c
807.839 830.159 809.567 823.679 811.295 817.415 c
813.095 811.079 815.183 804.815 816.911 798.479 c
817.775 795.311 813.311 791.999 809.999 791.999 c
b
0.000 0.000 0.000 1.000 K
0 j
0 J
0.215 w
[]0 d
0.000 0.000 0.000 0.200 k
74.951 838.655 m
93.743 838.655 112.679 838.655 131.471 838.655 c
150.335 838.655 169.199 838.655 188.063 838.655 c
190.007 838.655 191.591 836.783 191.519 835.127 c
191.087 826.127 190.583 817.127 190.151 808.271 c
189.791 799.343 189.071 790.415 188.711 781.415 c
188.711 779.615 187.127 778.031 185.543 778.031 c
162.935 778.463 140.328 779.111 117.863 779.471 c
95.399 779.903 72.647 780.551 50.111 780.983 c
46.583 781.055 45.647 782.207 46.583 784.439 c
50.111 792.719 53.711 801.287 57.455 809.783 c
61.055 818.207 65.087 826.631 68.831 835.127 c
70.128 838.223 71.495 838.655 74.951 838.655 c
b
0.000 0.000 0.000 1.000 K
0 j
0 J
0.215 w
[]0 d
0.000 0.000 0.000 0.200 k
221.903 838.799 m
281.231 836.063 l
287.063 835.775 287.711 836.567 292.895 832.463 c
348.048 788.759 L
348.119 774.791 L
221.903 777.095 l
220.103 777.095 218.303 778.751 218.303 780.623 c
218.303 835.271 l
218.303 837.143 220.535 838.799 221.903 838.799 c
b
0.000 0.000 0.000 1.000 K
0 j
0 J
0.215 w
[]0 d
0.000 0.000 0.000 0.200 k
305.351 838.439 m
303.191 840.167 301.103 841.967 303.407 842.975 C
328.751 828.215 361.295 804.671 383.327 785.303 C
381.527 782.567 377.783 780.695 373.247 783.431 C
350.063 803.951 329.183 820.007 305.351 838.439 c
b
0.000 0.000 0.000 1.000 K
0 j
0 J
0.215 w
[]0 d
0.000 0.000 0.000 0.498 k
329.471 799.559 m
331.055 799.919 332.495 800.279 333.935 800.279 c
335.375 800.279 336.887 799.919 338.255 799.559 C
340.847 797.111 342.791 794.519 342.791 792.143 c
342.791 789.839 340.847 787.319 338.255 785.087 C
336.887 784.511 335.375 784.151 333.935 784.151 c
332.495 784.151 331.055 784.511 329.471 785.087 C
328.895 787.319 328.319 789.839 328.319 792.143 c
328.319 794.519 328.895 797.111 329.471 799.559 C
b
0.000 0.000 0.000 1.000 K
0 j
0 J
0.215 w
[]0 d
0.000 0.000 0.000 0.498 k
339.407 786.023 m
342.143 789.263 L
342.143 783.431 L
348.048 783.431 L
348.048 780.695 L
342.143 780.695 L
339.407 780.695 L
339.407 786.023 L
b
0.000 0.000 0.000 1.000 K
0 j
0 J
0.215 w
[]0 d
0.000 0.000 0.000 0.200 k
50.399 840.599 m
51.911 840.239 52.631 839.807 52.127 838.871 C
41.543 822.383 30.671 806.471 22.103 789.119 C
21.311 788.399 19.871 788.399 18.935 788.687 C
27.719 806.831 39.599 824.543 50.399 840.599 C
b
%%Trailer
_E end