%!PS-Adobe-2.0 EPSF-1.2
%%Creator: Adobe Illustrator exported from Corel Draw 3.0
%%Title:6
%%BoundingBox:-24 497 941 1078
%%CreationDate:(Unknown)
%%ColorUsage:
%%TemplateBox:-24 497 941 1078
%%EndComments
%%BeginProcSet:Adobe_Illustrator_1.1 0 0
% Version 1.0 3/27/1990 $nokeywords$
% Copyright (C) 1990,1991,1992
% Corel Corporation
% All Rights Reserved

/wPmsDict 150 dict def 
wPmsDict begin 

/$debug 25 string def 

/bd {bind def} bind def 
/ld {load def} bd 
/xd {exch def} bd 
/_ null def 

/$c 0 def 
/$m 0 def 
/$y 0 def 
/$k 0 def 
/$t 1 def 
/$n _ def 
/$o 0 def 
/$pf false def 

/$C 0 def 
/$M 0 def 
/$Y 0 def 
/$K 0 def 
/$T 1 def 
/$N _ def 
/$O 0 def 
/$PF false def 

/$h false def 

/$al 0 def 
/$tr 0 def 
/$le 0 def 
/$lx 0 def 
/$ly 0 def 

/$ctm matrix currentmatrix def 
/$ptm matrix def 

/$pn () def 
/$pm matrix def 
/$px 0 def 
/$py 0 def 
/$pxf 0 def 
/$pyf 0 def 
/$psx 10 def 
/$psy 0 def 

/$llx 0 def 
/$lly 0 def 
/$urx 0 def 
/$ury 0 def 


/$Bbllx 0 def 
/$Bblly 0 def 
/$Bburx 0 def 
/$Bbury 0 def 

/$tllx 0 def 
/$tlly 0 def 
/$turx 0 def 
/$tury 0 def 

/$pd [] def 
/$tx 0 def 
/$ty 0 def 

/$sv 0 def 
/@cp /closepath ld 
/@gs /gsave ld 
/@gr /grestore ld 
/@np /newpath ld 
/@sv {/$sv save def}bd 
/@rs {$sv restore}bd 

/@MN { 
2 copy le{pop}{exch pop}ifelse 
}bd 

/setcmykcolor where {pop} 
{ 
/setcmykcolor 
{ 
4 1 roll 
3 {3 index add 1 @MN 1 exch sub 3 1 roll} repeat 
setrgbcolor 
pop 
}bd 
}ifelse 

/@tc 
{ 
dup 1 ge 
{pop} 
{ 
4 { 
dup 
6 -1 roll 
mul 
exch 
}repeat 
pop 
}ifelse 
}bd 

/@scc 
{ 
$c $m $y $k $t @tc 
setcmykcolor 
true 
}bd 
/@SCC 
{ 
$C $M $Y $K $T @tc 
setcmykcolor 
true 
}bd 

/@sft 
{ 
(setfirsttile sft )print 
/$tx $tllx $pxf add dup $tllx gt {$pwid $psx add sub}if def 
/$ty $tury $pyf sub dup $tury lt {$phei $psy add add}if def 
(setfirsttile exit )print 
}bd 

/@stb 
{ 
pathbbox /$ury xd /$urx xd /$lly xd /$llx xd 
}bd 

/@ep 
{ 
{ 
cvx exec 
}forall 
}bd 

/@tp 
{ 

(tile pattern tp )print 
@sv 
/$in true def 
2 copy 
dup $lly le {/$in false def}if 
$phei sub $ury ge {/$in false def}if 
dup $urx ge {/$in false def}if 
$pwid add $llx le {/$in false def}if 
$in 
{ 
@np 
2 copy moveto 
$pwid 0 rlineto 
0 $phei neg rlineto 
$pwid neg 0 rlineto 
0 $phei rlineto 
clip @np 

$pn cvlit load aload pop 
7 -1 roll 
5 index sub 
7 -1 roll 
3 index sub 
translate 
@ep 
pop pop pop pop 
} 
{pop pop}ifelse 
@rs 
(tile pattern exit )print 
}bd 

/@th 
{ 
(tile horizontal th)print 
@sft 
0 1 $tly 1 sub 
{ 
dup $psx mul $tx add 
{ 
dup $llx gt {$pwid sub}{exit}ifelse 
}loop 
exch $phei mul $ty exch sub 

0 1 $tlx 1 sub 
{ 
$pwid mul 
3 copy 
3 -1 roll add exch 
@tp 
pop 
}for 
pop pop 
} for 
(tile horizontal exiting )print 
}bd 

/@tv 
{ 
(tile vertical tv)print 
@sft 
0 1 $tlx 1 sub 
{ 
dup $pwid mul $tx add 
exch $psy mul $ty exch sub 
{ 
dup $ury lt {$phei add}{exit}ifelse 
}loop 

0 1 $tly 1 sub 
{ 
$phei mul 
3 copy sub 
@tp 
pop 
}for 
pop pop 
} for 
(tile vertical exit )print 
}bd 

/@pf 
{ 
(pattern fill pf)print 
@gs 
$pm concat 
@stb 
@gs 1 setgray eofill @gr 
eoclip 
$Bburx $Bbury $pm itransform /$tury xd /$turx xd 
$Bbllx $Bblly $pm itransform /$tlly xd /$tllx xd 
/$wid $turx $tllx sub def 
/$hei $tury $tlly sub def 
$wid 0 gt $hei 0 gt and 
{ 
$pn cvlit load aload pop 
$pd xd 
3 -1 roll sub /$phei xd 
exch sub /$pwid xd 
/$tlx $wid $pwid div ceiling 1 add def 
/$tly $hei $phei div ceiling 1 add def 
$psx 0 eq 
{ 
@tv 
} 
{ 
@th 
}ifelse 
}if 

@gr 
@np 
(pattern fill exit)print 
}bd 

/@xp 
{ 
{ 
dup (text Character is:) print == 
usertime (time before is:)print == 
(0) dup 3 -1 roll 0 exch put 
@gs 
true charpath currentpoint 
$ctm setmatrix 
@pf 
@gr 
@np 
moveto $tr 0 rmoveto 
usertime (time after is:)print == 
}forall 
pop 
}bd 

/@sm 
{ 
/$ctm $ctm currentmatrix def 
}bd 

%--@lorg  move to line origin   length string @torg length string
/@lorg    % moves currentpoint to line origin according to current alignment
  {      
  $lx $ly moveto    
  /$ly $ly $le sub def      % - prepare for next line(tracking)
  $al 0 ne
    {dup      % ->len str len str
    stringwidth   % ->len str len dx dy
    exch 3 index  % ->len str dy len dx
    1 sub         % ->len str dy len dx (len-1)
    $tr mul add   % ->len str dy len dx+(len-1)*$tr
    neg
    exch neg      % ->len str -dx_total dy len
    $al 1 eq      % check for centered alignment
    {2 div exch 2 div exch} if  
    rmoveto} if
  }bd

/@ft 
{ 
$pf 
{@xp} 
{ 
@scc 
{$tr exch 0 exch ashow pop} 
{pop pop}ifelse 
}ifelse 
}bd 

/@st 
{ 
$PF 
{} 
{ 
@SCC 
{ 
{ 
(0) dup 3 -1 roll 0 exch put 
@gs 
true charpath currentpoint 
$ctm setmatrix $ptm concat 
stroke 
@gr 
moveto $tr 0 rmoveto 
}forall 
pop 
} 
{pop pop}ifelse 
}ifelse 
}bd 
/@pt 
{ 
dup length exch 
}bd 
/@te 
{ 
@pt 
@lorg 
@ft 
}bd 

/@tr 
{ 
@pt 
@lorg 
@st 
}bd 
/@ta 
{ 
@pt 
@lorg 
2 copy 
@gs @ft @gr 
/$lx 0 def 
/$ly 0 def 
@st 
}bd 















/g { 
1 exch sub /$k xd 
/$c 0 def /$m 0 def /$y 0 def /$t 1 def /$n _ def /$pf false def 
}bd 

/G { 
1 exch sub /$K xd 
/$C 0 def /$M 0 def /$Y 0 def /$T 1 def /$N _ def /$PF false def 
}bd 

/k { 
/$k xd /$y xd /$m xd /$c xd 
/$t 1 def /$n _ def /$pf false def 
}bd 

/K { 
/$K xd /$Y xd /$M xd /$C xd 
/$T 1 def /$N _ def /$PF false def 
}bd 

/x { 
/$t xd /$n xd 
/$k xd /$y xd /$m xd /$c xd /$pf false def 
}bd 

/X { 
/$T xd /$N xd 
/$K xd /$Y xd /$M xd /$C xd /$PF false def 
}bd 

/d /setdash ld 

/i { 
dup 0 ne {setflat} {pop} ifelse 
}bd 

/j /setlinejoin ld 

/J /setlinecap ld 

/M /setmiterlimit ld 

/w /setlinewidth ld 

/O { 
/$o xd 
}bd 

/R { 
/$O xd 
}bd 


/c /curveto ld 

/C /c ld 

/v { 
currentpoint
6 2 roll 
curveto 
}bd

/V /v ld 

/y { 
2 copy curveto 
}bd 

/Y /y ld 

/l /lineto ld 

/L /l ld 

/m /moveto ld 



/n /newpath ld 

/N /newpath ld 

/F { 
$pf 
{@pf} 
{ 
@scc 
{eofill}if 
}ifelse 
}bd 

/f { 
@cp F 
}bd 
/S { 
$PF 
{} 
{ 
@SCC 
{ 
@sm 
$ptm concat 
stroke 
$ctm setmatrix 
}if 
}ifelse 
}bd 
/s { 
@cp 
S 
}bd 

/B { 
@gs F @gr 
S 
}bd 
/b { 
@cp 
B 
}bd 

/W { 
oeclip 
@np 
}bd 

/p { 
/$pm xd 
7 {pop} repeat 
/$pyf xd /$pxf xd 
/$pn xd 
/$pf true def 
}bd 

/P { 
11 {pop} repeat 
}bd 

/@p { 
/$pm xd 
/$psy xd 
/$psx xd 
/$pyf xd /$pxf xd 
/$pn xd 
/$pf true def 
}bd 

/@b { 
/$Bbury xd /$Bburx xd 
/$Bblly xd /$Bbllx xd 
}bd 


/z { 
/$al xd 
/$tr xd 
/$le xd 
exch findfont exch scalefont setfont 
}bd 

/Z { 
dup type 0 type eq { /$bDir xd } if
findfont 
dup maxlength 1 add dict exch 



dup 
{1 index /FID ne 
{ 
3 index 
3 1 roll put 
} 
{pop pop}ifelse 
} forall 



pop 
dup dup /Encoding get 
256 array copy 
dup /$fe xd
/Encoding exch put 

dup /Fontname 3 index put 

}bd 

/e { 
@sm 
concat 
[ 
/t {@te}def 
}bd 

/r { 
@sm 
concat 
[ 
/t {@tr}def 
}bd 

/o { 
@sm 
concat 
[ 
/t {pop}def 
}bd 

/a { 
@sm 
concat 
[ 
/t {@ta}def 
}bd 

/@o{
@sm 
concat 
[ 
/t {@t@a}def 
}bd 

/I { 
@sm 
concat 
[ 
/t {pop}def 
}bd 

/t {@te}def 

/T { 
cleartomark 
/$lx 0 def 
/$ly 0 def 
$ctm setmatrix 
}bd 


/u {}bd 

/U {}bd 

/A {pop}bd 

/h { 
$h true def 
}bd 

/h { 
$h true def 
}bd 

/q /@gs ld 

/Q /@gr ld 



/E { 
5 array astore 
exch cvlit exch def 
}bd 

/` {}bd 

/~ {}bd 

/@ {}bd 

/& {}bd 

/CorelDrawRencodeVect [ 
16#80/grave 
16#81/circumflex 
16#82/tilde 
16#83/dotlessi 
16#84/florin 
16#85/quotedblleft 
16#86/quotedblright 
16#87/guilsinglleft 
16#88/guilsinglright 
16#89/fi 
16#8a/fl 
16#8b/dagger 
16#8c/daggerdbl 
16#8d/endash 
16#8e/periodcentered 
16#8f/breve 
16#90/quotedblbase 
16#91/ellipsis 
16#92/perthousand 
16#a1/exclamdown 
16#a2/cent 
16#a3/sterling 
16#a4/currency 
16#a5/yen 
16#a6/bar 
16#a7/section 
16#a8/dieresis 
16#a9/copyright 
16#aa/ordfeminine 
16#ab/guillemotleft 
16#ac/logicalnot 
16#ad/emdash 
16#ae/registered 
16#af/spac 
16#b0/ring 
16#b1/spac 
16#b2/spac 
16#b3/spac 
16#b4/acute 
16#b5/spac 
16#b6/paragraph 
16#b7/bullet 
16#b8/cedilla 
16#b9/spac 
16#ba/ordmasculine 
16#bb/guillemotright 
16#bc/spac 
16#bd/spac 
16#be/spac 
16#bf/questiondown 
16#c0/Agrave 
16#c1/Aacute 
16#c2/Acircumflex 
16#c3/Atilde 
16#c4/Adieresis 
16#c5/Aring 
16#c6/AE 
16#c7/Ccedilla 
16#c8/Egrave 
16#c9/Eacute 
16#ca/Ecircumflex 
16#cb/Edieresis 
16#cc/Igrave 
16#cd/Iacute 
16#ce/Icircumflex 
16#cf/Idieresis 
16#d0/spac 
16#d1/Ntilde 
16#d2/Ograve 
16#d3/Oacute 
16#d4/Ocircumflex 
16#d5/Otilde 
16#d6/Odieresis 
16#d7/OE 
16#d8/Oslash 
16#d9/Ugrave 
16#da/Uacute 
16#db/Ucircumflex 
16#dc/Udieresis 
16#dd/space 
16#de/spac 
16#df/germandbls 
16#e0/agrave 
16#e1/aacute 
16#e2/acircumflex 
16#e3/atilde 
16#e4/adieresis 
16#e5/aring 
16#e6/ae 
16#e7/ccedilla 
16#e8/egrave 
16#e9/eacute 
16#ea/ecircumflex 
16#eb/edieresis 
16#ec/igrave 
16#ed/iacute 
16#ee/icircumflex 
16#ef/idieresis 
16#f0/space 
16#f1/ntilde 
16#f2/ograve 
16#f3/oacute 
16#f4/ocircumflex 
16#f5/otilde 
16#f6/odieresis 
16#f7/oe 
16#f8/oslash 
16#f9/ugrave 
16#fa/uacute 
16#fb/ucircumflex 
16#fc/udieresis 
16#fd/spac 
16#fe/spac 
16#ff/ydieresis 
] def
%%EndProlog
%%BeginSetup
%%BeginEncoding:_Times-Bold Times-Bold
[
]/_Times-Bold/Times-Bold Z
%%EndEncoding
%%EndSetup
0.000 0.000 0.000 1.000 K
0 j
0 J
0.863 w
[]0 d
0.000 0.000 0.000 0.000 k
709.127 1063.295 m
712.727 1069.127 722.447 1073.591 734.183 1074.240 C
776.663 1079.711 819.215 1079.351 861.767 1074.240 C
874.871 1073.231 881.783 1069.127 885.383 1062.720 C
909.143 1009.079 L
917.639 992.447 L
920.303 988.775 922.751 983.375 923.111 977.399 C
922.967 937.439 L
922.895 927.503 922.103 915.983 919.583 907.415 C
668.879 907.415 L
666.719 916.991 665.495 926.711 665.711 937.655 C
665.711 977.399 L
665.927 984.383 669.887 988.271 673.559 992.447 C
681.407 1007.279 L
709.127 1063.295 L
b
0.000 0.000 0.000 1.000 K
0 j
0 J
0.863 w
[]0 d
0.000 0.000 0.000 0.000 k
880.487 736.055 m
876.887 741.887 867.167 746.351 855.431 747.000 C
812.951 752.471 770.399 752.111 727.847 747.000 C
714.743 745.991 707.831 741.887 704.231 735.479 C
680.471 681.839 L
671.975 665.207 L
669.311 661.535 666.863 656.135 666.503 650.159 C
666.647 610.199 L
666.719 600.264 667.511 588.743 670.031 580.175 C
674.855 584.711 680.615 588.024 687.239 589.967 C
723.959 589.967 L
731.591 597.024 748.295 595.943 753.623 589.967 C
902.087 589.967 L
911.087 589.463 915.839 585.719 920.735 580.175 C
922.895 589.751 924.119 599.471 923.903 610.415 C
923.903 650.159 L
923.687 657.144 919.727 661.031 916.055 665.207 C
908.207 680.039 L
880.487 736.055 L
b
0.000 0.000 0.000 1.000 K
0 j
0 J
0.863 w
[]0 d
0.000 0.000 0.000 0.000 k
149.903 1004.975 m
157.319 1008.863 L
183.167 1028.231 217.295 1049.975 248.903 1065.384 C
260.639 1070.927 273.096 1072.511 287.711 1073.447 C
362.087 1076.831 371.879 1077.695 429.839 1075.391 c
432.575 1075.247 435.671 1074.455 439.343 1073.015 c
469.655 1060.487 510.119 1032.695 534.959 1012.031 C
561.312 1012.031 599.111 1013.399 601.343 1005.191 c
603.647 996.911 L
608.111 983.663 609.767 969.407 609.120 955.655 C
609.120 952.991 L
616.751 952.343 622.655 949.463 621.935 941.759 C
622.655 934.487 622.439 925.631 619.343 923.183 C
526.607 915.407 L
524.519 929.375 518.543 944.639 512.351 954.647 C
496.799 970.199 459.215 969.911 443.447 957.311 C
430.127 942.983 423.503 922.031 425.159 902.519 C
164.447 902.663 L
164.447 925.343 157.031 952.199 135.143 964.295 C
104.327 973.727 79.055 967.247 68.759 953.207 C
62.783 942.263 L
58.895 932.471 56.159 922.031 55.223 910.295 C
-5.183 910.295 L
-10.151 912.599 -8.495 916.631 -5.183 920.087 C
0.287 929.735 -10.151 934.487 -20.231 935.711 C
-20.231 941.975 L
-22.823 944.567 -23.543 948.023 -22.103 951.407 C
-21.023 956.231 -15.479 956.447 -11.231 957.311 C
-8.711 959.543 -6.839 966.311 -5.471 971.135 C
-4.247 974.951 -1.295 977.399 1.799 979.055 C
32.111 993.095 98.495 998.783 149.903 1004.975 C
b
0.000 0.000 0.000 1.000 K
0 j
0 J
0.863 w
[]0 d
0.000 0.000 0.000 0.000 k
448.631 677.519 m
441.215 681.407 L
415.367 700.775 381.239 722.519 349.631 737.927 C
337.895 743.471 325.512 745.055 310.895 745.991 C
236.447 749.375 226.727 750.239 168.768 747.935 c
165.959 747.791 162.863 747.000 159.191 745.559 c
128.951 733.031 88.487 705.239 63.647 684.575 C
37.295 684.575 -0.504 685.943 -2.735 677.735 c
-5.040 669.455 L
-9.503 656.207 -11.159 641.951 -10.511 628.199 C
-10.511 625.535 L
-18.143 624.887 -24.047 622.007 -23.327 614.303 C
-24.047 607.031 -23.831 598.175 -20.735 595.727 C
72.000 587.951 L
74.087 601.919 80.063 617.183 86.256 627.192 C
101.807 642.743 139.391 642.455 155.087 629.855 C
168.407 615.527 175.031 594.575 173.375 575.063 C
434.159 575.207 L
434.159 597.887 441.575 624.743 463.391 636.839 C
494.279 646.271 519.551 639.791 529.847 625.751 C
535.823 614.807 L
539.711 605.015 542.447 594.575 543.384 582.839 C
603.791 582.839 L
608.759 585.144 607.103 589.175 603.791 592.631 C
598.319 602.279 608.759 607.031 618.839 608.255 C
618.839 614.519 L
621.431 617.111 622.151 620.567 620.711 623.951 C
619.631 628.775 614.087 628.991 609.839 629.855 C
607.319 632.087 605.447 638.855 604.079 643.679 C
602.855 647.495 599.903 649.943 596.807 651.599 C
566.495 665.639 500.111 671.327 448.631 677.519 C
b
0.000 0.000 0.000 1.000 K
0 j
0 J
0.215 w
[]0 d
0.000 0.000 0.000 0.498 k
183.311 1004.975 m
157.031 1008.863 L
172.079 1021.175 233.855 1059.768 247.823 1065.167 C
252.431 1064.087 257.111 1061.783 263.663 1061.783 c
279.287 1061.495 L
424.367 1064.735 L
440.999 1057.967 477.935 1030.967 494.927 1009.871 C
446.039 1007.207 L
446.975 1005.191 L
188.495 997.487 L
190.007 1000.007 L
184.391 1001.231 181.295 1003.535 183.311 1004.975 C
b
0.000 0.000 0.000 1.000 K
0 j
0 J
0.215 w
[]0 d
0.000 0.000 0.000 0.498 k
415.295 677.519 m
441.575 681.407 L
426.455 693.719 364.751 732.311 350.783 737.711 C
346.103 736.631 341.495 734.327 334.943 734.327 c
319.319 734.039 L
174.167 737.279 L
157.536 730.511 120.671 703.511 103.679 682.415 C
152.567 679.751 L
151.560 677.735 L
410.111 670.031 L
408.527 672.551 L
414.215 673.775 417.311 676.079 415.295 677.519 C
b
0.000 0.000 0.000 1.000 K
0 j
0 J
0.215 w
[]0 d
0.000 0.000 0.000 0.200 k
218.015 1022.183 m
231.767 1032.551 244.655 1044.000 260.711 1051.991 C
265.031 1055.303 272.087 1057.175 277.847 1057.751 C
329.111 1059.624 L
319.751 1004.543 L
225.575 1001.735 L
226.079 1010.303 226.583 1020.239 218.015 1022.183 C
b
0.000 0.000 0.000 1.000 K
0 j
0 J
0.215 w
[]0 d
0.000 0.000 0.000 0.200 k
380.519 694.727 m
366.839 705.095 353.951 716.543 337.895 724.535 C
333.575 727.847 326.447 729.719 320.687 730.295 C
269.495 732.167 L
278.783 677.087 L
373.031 674.279 L
372.455 682.847 372.023 692.783 380.519 694.727 C
b
0.000 0.000 0.000 1.000 K
0 j
0 J
0.215 w
[]0 d
0.000 0.000 0.000 0.200 k
333.647 1059.624 m
413.135 1061.495 L
440.999 1008.215 L
325.151 1004.759 L
333.647 1059.624 L
b
0.000 0.000 0.000 1.000 K
0 j
0 J
0.215 w
[]0 d
0.000 0.000 0.000 0.200 k
264.887 732.167 m
185.399 734.039 L
157.607 680.759 L
273.455 677.303 L
264.887 732.167 L
b
0.000 0.000 0.000 1.000 K
0 j
0 J
0.215 w
[]0 d
0.000 0.000 0.000 0.200 k
418.319 1062.791 m
425.735 1062.359 L
444.599 1052.351 471.527 1032.119 487.871 1012.823 C
447.047 1010.951 L
418.319 1062.791 L
b
0.000 0.000 0.000 1.000 K
0 j
0 J
0.215 w
[]0 d
0.000 0.000 0.000 0.200 k
180.215 735.335 m
172.799 734.903 L
153.935 724.895 127.007 704.663 110.735 685.367 C
151.487 683.495 L
180.215 735.335 L
b
0.000 0.000 0.000 1.000 K
0 j
0 J
0.215 w
[]0 d
0.000 0.000 0.000 0.498 k
435.167 1065.311 m
438.551 1068.911 440.711 1071.071 445.967 1070.063 C
466.343 1062.215 506.159 1036.295 528.983 1016.783 C
500.831 1015.559 L
478.439 1034.423 455.471 1052.495 435.167 1065.311 C
b
0.000 0.000 0.000 1.000 K
0 j
0 J
0.215 w
[]0 d
0.000 0.000 0.000 0.498 k
163.367 737.855 m
160.055 741.455 157.823 743.615 152.639 742.607 C
132.191 734.759 92.447 708.839 69.623 689.327 C
97.775 688.103 L
120.167 706.967 143.063 725.039 163.367 737.855 C
b
0.000 0.000 0.000 1.000 K
0 j
0 J
0.215 w
[]0 d
0.000 0.000 0.000 0.200 k
439.847 1064.519 m
443.159 1068.119 443.087 1069.631 448.271 1068.624 C
468.647 1060.775 502.775 1038.311 526.247 1018.799 C
501.551 1017.575 L
479.087 1036.367 460.151 1051.703 439.847 1064.519 C
b
0.000 0.000 0.000 1.000 K
0 j
0 J
0.215 w
[]0 d
0.000 0.000 0.000 0.200 k
158.687 737.063 m
155.375 740.663 155.519 742.175 150.263 741.167 C
129.887 733.319 95.831 710.855 72.359 691.343 C
97.055 690.120 L
119.447 708.911 138.455 724.247 158.687 737.063 C
b
0.000 0.000 0.000 1.000 K
0 j
0 J
0.215 w
[]0 d
0.000 0.000 0.000 0.200 k
243.935 1063.583 m
248.687 1061.639 254.303 1060.487 260.279 1059.480 C
232.919 1046.087 208.223 1027.727 185.183 1007.711 C
160.127 1011.527 L
187.055 1030.247 214.991 1047.959 243.935 1063.583 C
b
0.000 0.000 0.000 1.000 K
0 j
0 J
0.215 w
[]0 d
0.000 0.000 0.000 0.200 k
354.671 736.127 m
349.919 734.183 344.231 733.031 338.255 732.024 C
365.615 718.631 390.383 700.271 413.423 680.255 C
438.479 684.072 L
411.551 702.791 383.615 720.503 354.671 736.127 C
b
0.000 0.000 0.000 1.000 K
0 j
0 J
0.215 w
[]0 d
0.000 0.000 0.000 0.498 k
513.863 953.063 m
607.823 953.063 L
614.303 952.703 620.711 949.823 621.791 945.503 C
621.791 941.831 L
518.615 941.831 L
513.863 953.063 L
b
0.000 0.000 0.000 1.000 K
0 j
0 J
0.215 w
[]0 d
0.000 0.000 0.000 0.498 k
84.743 625.607 m
-9.215 625.607 L
-15.695 625.247 -22.103 622.367 -23.183 618.048 C
-23.183 614.375 L
79.991 614.375 L
84.743 625.607 L
b
0.000 0.000 0.000 1.000 K
0 j
0 J
0.215 w
[]0 d
0.000 0.000 0.000 0.498 k
425.375 902.519 m
164.375 902.591 L
153.503 901.511 L
165.527 895.175 180.719 896.255 195.119 895.535 C
217.367 898.415 244.295 899.495 261.072 896.255 C
339.335 896.255 L
396.071 898.703 L
431.351 901.511 L
430.415 905.399 L
425.375 902.519 L
b
0.000 0.000 0.000 1.000 K
0 j
0 J
0.215 w
[]0 d
0.000 0.000 0.000 0.498 k
173.231 575.063 m
434.159 575.135 L
445.031 574.055 L
433.079 567.719 417.887 568.799 403.487 568.079 C
381.167 570.959 354.239 572.039 337.536 568.799 C
259.271 568.799 L
202.463 571.247 L
167.256 574.055 L
168.119 577.943 L
173.231 575.063 L
b
0.000 0.000 0.000 1.000 K
0 j
0 J
0.215 w
[]0 d
0.000 0.000 0.000 0.498 k
68.975 953.351 m
-19.943 953.351 L
-24.047 952.127 -24.047 943.991 -19.943 942.047 C
62.495 942.047 L
68.975 953.351 L
b
0.000 0.000 0.000 1.000 K
0 j
0 J
0.215 w
[]0 d
0.000 0.000 0.000 0.498 k
529.631 625.895 m
618.551 625.895 L
622.655 624.671 622.655 616.535 618.551 614.591 C
536.111 614.591 L
529.631 625.895 L
b
0.000 0.000 0.000 1.000 K
0 j
0 J
0.215 w
[]0 d
0.000 0.000 0.000 0.098 k
33.407 975.095 m
3.023 975.095 L
-1.871 975.239 -4.391 973.583 -5.615 970.919 C
-7.631 966.383 -7.775 960.335 -11.735 957.239 C
27.287 957.239 L
33.407 975.095 L
b
0.000 0.000 0.000 1.000 K
0 j
0 J
0.215 w
[]0 d
0.000 0.000 0.000 0.098 k
565.199 647.639 m
595.583 647.639 L
600.479 647.783 603.000 646.127 604.223 643.463 C
606.240 638.927 606.383 632.879 610.343 629.783 C
571.319 629.783 L
565.199 647.639 L
b
0.000 0.000 0.000 1.000 K
0 j
0 J
0.215 w
[]0 d
0.000 0.000 0.000 0.298 k
596.159 990.719 m
605.303 990.719 L
609.120 978.767 609.120 969.839 609.120 955.439 C
588.455 955.439 L
588.455 970.271 589.391 979.919 596.159 990.719 C
b
0.000 0.000 0.000 1.000 K
0 j
0 J
0.215 w
[]0 d
0.000 0.000 0.000 0.298 k
2.447 663.263 m
-6.695 663.263 L
-10.511 651.311 -10.511 642.383 -10.511 627.983 C
10.151 627.983 L
10.151 642.815 9.215 652.463 2.447 663.263 C
b
0.000 0.000 0.000 1.000 K
0 j
0 J
0.215 w
[]0 d
0.000 0.000 0.000 0.498 k
55.223 910.295 m
62.855 909.935 L
60.911 935.855 81.071 960.191 109.799 960.191 C
139.391 960.479 161.567 931.463 153.431 901.511 C
164.447 902.735 L
163.943 928.223 155.087 958.967 127.583 967.031 C
104.543 971.495 79.055 968.255 68.975 953.639 C
62.351 941.975 L
58.895 932.255 55.799 921.239 55.223 910.295 C
b
0.000 0.000 0.000 1.000 K
0 j
0 J
0.215 w
[]0 d
0.000 0.000 0.000 0.498 k
543.384 582.839 m
535.751 582.479 L
537.695 608.399 517.535 632.735 488.807 632.735 C
459.215 633.024 437.039 604.007 445.103 574.055 C
434.159 575.279 L
434.591 600.767 443.447 631.511 470.951 639.575 C
494.063 644.039 519.551 640.799 529.631 626.183 C
536.255 614.519 L
539.711 604.799 542.807 593.783 543.384 582.839 C
b
0.000 0.000 0.000 1.000 K
0 j
0 J
0.215 w
[]0 d
0.000 0.000 0.000 0.498 k
425.015 902.375 m
430.343 905.615 L
425.807 933.479 445.751 958.535 469.943 959.039 C
491.111 965.231 520.487 944.855 521.711 915.479 C
526.247 915.047 L
525.240 924.263 522.575 933.551 518.543 941.903 C
513.647 953.279 L
497.303 968.399 477.215 968.039 458.063 964.367 C
434.447 958.967 424.655 931.319 425.015 902.375 C
b
0.000 0.000 0.000 1.000 K
0 j
0 J
0.215 w
[]0 d
0.000 0.000 0.000 0.498 k
173.519 574.919 m
168.191 578.159 L
172.799 606.024 152.783 631.079 128.663 631.583 C
107.495 637.775 78.119 617.399 76.896 588.024 C
72.359 587.591 L
73.367 596.807 76.031 606.096 80.063 614.447 C
84.959 625.823 L
101.303 640.943 121.319 640.583 140.543 636.911 C
164.159 631.511 173.879 603.863 173.519 574.919 C
b
0.000 0.000 0.000 1.000 K
0 j
0 J
0.215 w
[]0 d
0.000 0.000 0.000 1.000 k
109.295 868.103 m
134.639 868.103 155.375 888.839 155.375 914.327 c
155.375 939.671 134.639 960.407 109.295 960.407 c
83.807 960.407 63.071 939.671 63.071 914.327 c
63.071 888.839 83.807 868.103 109.295 868.103 c
b
0.000 0.000 0.000 1.000 K
0 j
0 J
0.215 w
[]0 d
0.000 0.000 0.000 1.000 k
489.311 540.647 m
463.895 540.647 443.159 561.383 443.159 586.871 c
443.159 612.216 463.895 632.951 489.311 632.951 c
514.799 632.951 535.535 612.216 535.535 586.871 c
535.535 561.383 514.799 540.647 489.311 540.647 c
b
0.000 0.000 0.000 1.000 k
475.919 868.103 m
501.335 868.103 522.072 888.839 522.072 914.327 c
522.072 939.671 501.335 960.407 475.919 960.407 c
450.431 960.407 429.695 939.671 429.695 914.327 c
429.695 888.839 450.431 868.103 475.919 868.103 c
f
0.000 0.000 0.000 1.000 k
122.687 540.647 m
97.271 540.647 76.535 561.383 76.535 586.871 c
76.535 612.216 97.271 632.951 122.687 632.951 c
148.175 632.951 168.911 612.216 168.911 586.871 c
168.911 561.383 148.175 540.647 122.687 540.647 c
f
0.000 0.000 0.000 0.000 k
109.223 941.399 m
94.103 941.399 81.791 929.087 81.791 914.111 C
81.791 899.063 94.103 886.751 109.223 886.751 C
124.127 886.751 136.439 899.063 136.439 914.111 C
136.439 929.087 124.127 941.399 109.223 941.399 C
f
0.000 0.000 0.000 0.000 k
489.383 613.943 m
504.503 613.943 516.815 601.631 516.815 586.655 C
516.815 571.607 504.503 559.295 489.383 559.295 C
474.407 559.295 462.095 571.607 462.095 586.655 C
462.095 601.631 474.407 613.943 489.383 613.943 C
f
0.000 0.000 0.000 1.000 K
0 j
0 J
0.215 w
[]0 d
109.223 889.415 m
95.471 889.415 84.455 900.431 84.455 914.111 C
84.455 927.791 95.471 938.735 109.223 938.735 C
122.831 938.735 133.775 927.791 133.775 914.111 C
133.775 900.431 122.831 889.415 109.223 889.415 C
s
0.000 0.000 0.000 1.000 K
0 j
0 J
0.215 w
[]0 d
489.383 561.959 m
503.135 561.959 514.151 572.975 514.151 586.655 C
514.151 600.335 503.135 611.279 489.383 611.279 C
475.775 611.279 464.759 600.335 464.759 586.655 C
464.759 572.975 475.775 561.959 489.383 561.959 C
s
0.000 0.000 0.000 1.000 K
0 j
0 J
0.215 w
[]0 d
0.000 0.000 0.000 0.498 k
118.367 935.567 m
113.975 932.183 L
118.151 931.535 122.471 927.791 123.191 926.423 C
128.015 928.007 L
125.567 931.751 121.607 934.631 118.367 935.567 C
b
0.000 0.000 0.000 1.000 K
0 j
0 J
0.215 w
[]0 d
0.000 0.000 0.000 0.498 k
480.167 608.111 m
484.631 604.727 L
480.383 604.079 476.063 600.335 475.415 598.967 C
470.519 600.551 L
472.967 604.295 476.999 607.175 480.167 608.111 C
b
0.000 0.000 0.000 1.000 K
0 j
0 J
0.215 w
[]0 d
0.000 0.000 0.000 0.498 k
129.239 925.991 m
123.695 925.919 L
126.719 923.039 127.943 917.351 127.727 915.839 C
132.551 914.111 L
132.840 918.719 131.328 923.471 129.239 925.991 C
b
0.000 0.000 0.000 1.000 K
0 j
0 J
0.215 w
[]0 d
0.000 0.000 0.000 0.498 k
469.295 598.535 m
474.839 598.463 L
471.887 595.583 470.663 589.895 470.879 588.383 C
465.983 586.655 L
465.767 591.264 467.207 596.015 469.295 598.535 C
b
0.000 0.000 0.000 1.000 K
0 j
0 J
0.215 w
[]0 d
0.000 0.000 0.000 0.498 k
132.335 911.807 m
127.799 915.047 L
128.447 910.943 126.287 905.615 125.135 904.607 C
128.159 900.431 L
131.039 903.815 132.551 908.711 132.335 911.807 C
b
0.000 0.000 0.000 1.000 K
0 j
0 J
0.215 w
[]0 d
0.000 0.000 0.000 0.498 k
466.199 584.351 m
470.735 587.591 L
470.087 583.487 472.319 578.159 473.399 577.151 C
470.447 572.975 L
467.567 576.359 465.983 581.255 466.199 584.351 C
b
0.000 0.000 0.000 1.000 K
0 j
0 J
0.215 w
[]0 d
0.000 0.000 0.000 0.498 k
126.719 898.631 m
124.847 903.959 L
123.047 900.143 118.079 897.191 116.495 896.831 C
116.495 891.719 L
120.815 892.871 124.919 895.823 126.719 898.631 C
b
0.000 0.000 0.000 1.000 K
0 j
0 J
0.215 w
[]0 d
0.000 0.000 0.000 0.498 k
471.887 571.175 m
473.759 576.503 L
475.487 572.687 480.527 569.735 482.039 569.375 C
482.039 564.264 L
477.719 565.415 473.615 568.367 471.887 571.175 C
b
0.000 0.000 0.000 1.000 K
0 j
0 J
0.215 w
[]0 d
0.000 0.000 0.000 0.498 k
114.191 891.215 m
115.847 896.543 L
112.175 894.743 106.415 895.175 104.975 895.823 C
101.951 891.647 L
106.055 890.063 111.167 890.063 114.191 891.215 C
b
0.000 0.000 0.000 1.000 K
0 j
0 J
0.215 w
[]0 d
0.000 0.000 0.000 0.498 k
484.415 563.759 m
482.759 569.087 L
486.431 567.288 492.191 567.719 493.631 568.367 C
496.655 564.192 L
492.551 562.607 487.439 562.607 484.415 563.759 C
b
0.000 0.000 0.000 1.000 K
0 j
0 J
0.215 w
[]0 d
0.000 0.000 0.000 0.498 k
99.863 892.655 m
104.327 895.967 L
100.079 896.615 95.759 900.287 95.111 901.727 C
90.215 900.143 L
92.591 896.399 96.695 893.447 99.863 892.655 C
b
0.000 0.000 0.000 1.000 K
0 j
0 J
0.215 w
[]0 d
0.000 0.000 0.000 0.498 k
498.743 565.199 m
494.279 568.511 L
498.527 569.159 502.847 572.831 503.495 574.271 C
508.391 572.687 L
506.015 568.943 501.911 565.991 498.743 565.199 C
b
0.000 0.000 0.000 1.000 K
0 j
0 J
0.215 w
[]0 d
0.000 0.000 0.000 0.498 k
88.991 902.159 m
94.535 902.303 L
91.583 905.183 90.359 910.799 90.575 912.383 C
85.679 914.039 L
85.391 909.503 86.903 904.751 88.991 902.159 C
b
0.000 0.000 0.000 1.000 K
0 j
0 J
0.215 w
[]0 d
0.000 0.000 0.000 0.498 k
509.615 574.703 m
504.071 574.847 L
507.023 577.727 508.247 583.343 508.031 584.927 C
512.927 586.583 L
513.216 582.048 511.703 577.295 509.615 574.703 C
b
0.000 0.000 0.000 1.000 K
0 j
0 J
0.215 w
[]0 d
0.000 0.000 0.000 0.498 k
85.895 916.343 m
90.431 913.175 L
89.783 917.279 91.871 922.535 93.095 923.543 C
90.143 927.863 L
87.119 924.335 85.679 919.439 85.895 916.343 C
b
0.000 0.000 0.000 1.000 K
0 j
0 J
0.215 w
[]0 d
0.000 0.000 0.000 0.498 k
512.711 588.887 m
508.175 585.719 L
508.823 589.823 506.735 595.079 505.511 596.087 C
508.463 600.407 L
511.487 596.879 512.927 591.983 512.711 588.887 C
b
0.000 0.000 0.000 1.000 K
0 j
0 J
0.215 w
[]0 d
0.000 0.000 0.000 0.498 k
91.583 929.519 m
93.455 924.335 L
95.327 928.007 100.223 931.103 101.735 931.319 C
101.735 936.431 L
97.415 935.279 93.311 932.327 91.583 929.519 C
b
0.000 0.000 0.000 1.000 K
0 j
0 J
0.215 w
[]0 d
0.000 0.000 0.000 0.498 k
507.023 602.063 m
505.151 596.879 L
503.279 600.551 498.383 603.647 496.871 603.863 C
496.871 608.975 L
501.191 607.823 505.295 604.871 507.023 602.063 C
b
0.000 0.000 0.000 1.000 K
0 j
0 J
0.215 w
[]0 d
0.000 0.000 0.000 0.498 k
104.111 937.007 m
107.063 938.087 112.175 938.087 116.279 936.503 C
113.327 932.399 L
111.959 932.975 106.055 933.407 102.455 931.679 C
104.111 937.007 L
b
0.000 0.000 0.000 1.000 K
0 j
0 J
0.215 w
[]0 d
0.000 0.000 0.000 0.498 k
494.495 609.551 m
491.543 610.631 486.431 610.631 482.255 609.048 C
485.279 604.943 L
486.647 605.519 492.551 605.951 496.151 604.223 C
494.495 609.551 L
b
0.000 0.000 0.000 1.000 K
0 j
0 J
0.215 w
[]0 d
109.223 908.567 m
106.055 908.567 103.679 911.015 103.679 914.111 C
103.679 917.135 106.055 919.583 109.223 919.583 C
112.175 919.583 114.623 917.135 114.623 914.111 C
114.623 911.015 112.175 908.567 109.223 908.567 C
s
0.000 0.000 0.000 1.000 K
0 j
0 J
0.215 w
[]0 d
489.383 581.111 m
492.551 581.111 494.927 583.559 494.927 586.655 C
494.927 589.679 492.551 592.127 489.383 592.127 C
486.431 592.127 483.983 589.679 483.983 586.655 C
483.983 583.559 486.431 581.111 489.383 581.111 C
s
0.000 0.000 0.000 1.000 K
0 j
0 J
0.215 w
[]0 d
109.295 901.871 m
116.063 901.871 121.607 907.415 121.607 914.111 C
121.607 920.807 116.063 926.351 109.295 926.351 C
102.671 926.351 97.127 920.807 97.127 914.111 C
97.127 907.415 102.671 901.871 109.295 901.871 C
s
0.000 0.000 0.000 1.000 K
0 j
0 J
0.215 w
[]0 d
489.311 574.415 m
482.471 574.415 476.999 579.959 476.999 586.655 C
476.999 593.351 482.471 598.895 489.311 598.895 C
495.935 598.895 501.479 593.351 501.479 586.655 C
501.479 579.959 495.935 574.415 489.311 574.415 C
s
0.000 0.000 0.000 0.000 k
475.847 941.399 m
460.727 941.399 448.415 929.087 448.415 914.111 C
448.415 899.063 460.727 886.751 475.847 886.751 C
490.823 886.751 503.135 899.063 503.135 914.111 C
503.135 929.087 490.823 941.399 475.847 941.399 C
f
0.000 0.000 0.000 0.000 k
122.687 614.159 m
137.735 614.159 150.048 601.847 150.048 586.871 C
150.048 571.823 137.735 559.511 122.687 559.511 C
107.711 559.511 95.399 571.823 95.399 586.871 C
95.399 601.847 107.711 614.159 122.687 614.159 C
f
0.000 0.000 0.000 1.000 K
0 j
0 J
0.215 w
[]0 d
475.847 889.415 m
462.095 889.415 451.079 900.431 451.079 914.111 C
451.079 927.791 462.095 938.735 475.847 938.735 C
489.455 938.735 500.471 927.791 500.471 914.111 C
500.471 900.431 489.455 889.415 475.847 889.415 C
s
0.000 0.000 0.000 1.000 K
0 j
0 J
0.215 w
[]0 d
122.759 561.959 m
136.512 561.959 147.455 572.975 147.455 586.655 C
147.455 600.335 136.512 611.279 122.759 611.279 C
109.151 611.279 98.135 600.335 98.135 586.655 C
98.135 572.975 109.151 561.959 122.759 561.959 C
s
0.000 0.000 0.000 1.000 K
0 j
0 J
0.215 w
[]0 d
0.000 0.000 0.000 0.498 k
485.063 935.567 m
480.599 932.183 L
484.847 931.535 489.167 927.791 489.815 926.423 C
494.711 928.007 L
492.263 931.751 488.231 934.631 485.063 935.567 C
b
0.000 0.000 0.000 1.000 K
0 j
0 J
0.215 w
[]0 d
0.000 0.000 0.000 0.498 k
113.543 608.111 m
118.007 604.727 L
113.759 604.079 109.439 600.335 108.791 598.967 C
103.895 600.551 L
106.343 604.295 110.375 607.175 113.543 608.111 C
b
0.000 0.000 0.000 1.000 K
0 j
0 J
0.215 w
[]0 d
0.000 0.000 0.000 0.498 k
495.935 925.991 m
490.391 925.919 L
493.343 923.039 494.567 917.351 494.351 915.839 C
499.247 914.111 L
499.463 918.719 498.023 923.471 495.935 925.991 C
b
0.000 0.000 0.000 1.000 K
0 j
0 J
0.215 w
[]0 d
0.000 0.000 0.000 0.498 k
102.671 598.535 m
108.215 598.463 L
105.263 595.583 104.039 589.895 104.255 588.383 C
99.359 586.655 L
99.143 591.264 100.583 596.015 102.671 598.535 C
b
0.000 0.000 0.000 1.000 K
0 j
0 J
0.215 w
[]0 d
0.000 0.000 0.000 0.498 k
499.031 911.807 m
494.495 915.047 L
495.143 910.943 492.911 905.615 491.831 904.607 C
494.783 900.431 L
497.663 903.815 499.247 908.711 499.031 911.807 C
b
0.000 0.000 0.000 1.000 K
0 j
0 J
0.215 w
[]0 d
0.000 0.000 0.000 0.498 k
99.575 584.351 m
104.111 587.591 L
103.463 583.487 105.695 578.159 106.775 577.151 C
103.823 572.975 L
100.943 576.359 99.359 581.255 99.575 584.351 C
b
0.000 0.000 0.000 1.000 K
0 j
0 J
0.215 w
[]0 d
0.000 0.000 0.000 0.498 k
493.343 898.631 m
491.471 903.959 L
489.743 900.143 484.703 897.191 483.191 896.831 C
483.191 891.719 L
487.511 892.871 491.615 895.823 493.343 898.631 C
b
0.000 0.000 0.000 1.000 K
0 j
0 J
0.215 w
[]0 d
0.000 0.000 0.000 0.498 k
105.263 571.175 m
107.135 576.503 L
108.863 572.687 113.903 569.735 115.415 569.375 C
115.415 564.264 L
111.095 565.415 106.991 568.367 105.263 571.175 C
b
0.000 0.000 0.000 1.000 K
0 j
0 J
0.215 w
[]0 d
0.000 0.000 0.000 0.498 k
480.815 891.215 m
482.471 896.543 L
478.799 894.743 473.039 895.175 471.599 895.823 C
468.575 891.647 L
472.679 890.063 477.791 890.063 480.815 891.215 C
b
0.000 0.000 0.000 1.000 K
0 j
0 J
0.215 w
[]0 d
0.000 0.000 0.000 0.498 k
117.791 563.759 m
116.135 569.087 L
119.735 567.288 125.495 567.719 126.935 568.367 C
129.959 564.192 L
125.855 562.607 120.743 562.607 117.791 563.759 C
b
0.000 0.000 0.000 1.000 K
0 j
0 J
0.215 w
[]0 d
0.000 0.000 0.000 0.498 k
466.487 892.655 m
470.951 895.967 L
466.703 896.615 462.383 900.287 461.735 901.727 C
456.839 900.143 L
459.215 896.399 463.319 893.447 466.487 892.655 C
b
0.000 0.000 0.000 1.000 K
0 j
0 J
0.215 w
[]0 d
0.000 0.000 0.000 0.498 k
132.048 565.199 m
127.655 568.511 L
131.831 569.159 136.151 572.831 136.799 574.271 C
141.695 572.687 L
139.391 568.943 135.287 565.991 132.048 565.199 C
b
0.000 0.000 0.000 1.000 K
0 j
0 J
0.215 w
[]0 d
0.000 0.000 0.000 0.498 k
455.615 902.159 m
461.159 902.303 L
458.207 905.183 456.983 910.799 457.199 912.383 C
452.303 914.039 L
452.015 909.503 453.527 904.751 455.615 902.159 C
b
0.000 0.000 0.000 1.000 K
0 j
0 J
0.215 w
[]0 d
0.000 0.000 0.000 0.498 k
142.919 574.703 m
137.375 574.847 L
140.399 577.727 141.623 583.343 141.407 584.927 C
146.231 586.583 L
146.591 582.048 145.007 577.295 142.919 574.703 C
b
0.000 0.000 0.000 1.000 K
0 j
0 J
0.215 w
[]0 d
0.000 0.000 0.000 0.498 k
452.519 916.343 m
457.055 913.175 L
456.407 917.279 458.495 922.535 459.719 923.543 C
456.767 927.863 L
453.743 924.335 452.303 919.439 452.519 916.343 C
b
0.000 0.000 0.000 1.000 K
0 j
0 J
0.215 w
[]0 d
0.000 0.000 0.000 0.498 k
146.015 588.887 m
141.479 585.719 L
142.127 589.823 140.039 595.079 138.816 596.087 C
141.840 600.407 L
144.792 596.879 146.231 591.983 146.015 588.887 C
b
0.000 0.000 0.000 1.000 K
0 j
0 J
0.215 w
[]0 d
0.000 0.000 0.000 0.498 k
458.207 929.519 m
460.079 924.335 L
461.951 928.007 466.847 931.103 468.359 931.319 C
468.359 936.431 L
464.039 935.279 459.935 932.327 458.207 929.519 C
b
0.000 0.000 0.000 1.000 K
0 j
0 J
0.215 w
[]0 d
0.000 0.000 0.000 0.498 k
140.399 602.063 m
138.527 596.879 L
136.584 600.551 131.759 603.647 130.175 603.863 C
130.175 608.975 L
134.495 607.823 138.599 604.871 140.399 602.063 C
b
0.000 0.000 0.000 1.000 K
0 j
0 J
0.215 w
[]0 d
0.000 0.000 0.000 0.498 k
470.735 937.007 m
473.687 938.087 478.799 938.087 482.903 936.503 C
479.951 932.399 L
478.583 932.975 472.679 933.407 469.079 931.679 C
470.735 937.007 L
b
0.000 0.000 0.000 1.000 K
0 j
0 J
0.215 w
[]0 d
0.000 0.000 0.000 0.498 k
127.871 609.551 m
124.847 610.631 119.735 610.631 115.631 609.048 C
118.655 604.943 L
119.951 605.519 125.855 605.951 129.527 604.223 C
127.871 609.551 L
b
0.000 0.000 0.000 1.000 K
0 j
0 J
0.215 w
[]0 d
475.847 908.567 m
472.679 908.567 470.303 911.015 470.303 914.111 C
470.303 917.135 472.679 919.583 475.847 919.583 C
478.799 919.583 481.247 917.135 481.247 914.111 C
481.247 911.015 478.799 908.567 475.847 908.567 C
s
0.000 0.000 0.000 1.000 K
0 j
0 J
0.215 w
[]0 d
122.759 581.111 m
125.855 581.111 128.304 583.559 128.304 586.655 C
128.304 589.679 125.855 592.127 122.759 592.127 C
119.735 592.127 117.359 589.679 117.359 586.655 C
117.359 583.559 119.735 581.111 122.759 581.111 C
s
0.000 0.000 0.000 1.000 K
0 j
0 J
0.215 w
[]0 d
475.919 901.871 m
482.687 901.871 488.231 907.415 488.231 914.111 C
488.231 920.807 482.687 926.351 475.919 926.351 C
469.295 926.351 463.751 920.807 463.751 914.111 C
463.751 907.415 469.295 901.871 475.919 901.871 C
s
0.000 0.000 0.000 1.000 K
0 j
0 J
0.215 w
[]0 d
122.615 574.415 m
115.847 574.415 110.375 579.959 110.375 586.655 C
110.375 593.351 115.847 598.895 122.615 598.895 C
129.311 598.895 134.855 593.351 134.855 586.655 C
134.855 579.959 129.311 574.415 122.615 574.415 C
s
u
u
0.000 0.000 0.000 1.000 K
0 j
0 J
0.215 w
[]0 d
0.287 975.023 m
-4.175 971.783 -4.463 961.271 -8.135 957.239 C
S
U
U
u
u
0.000 0.000 0.000 1.000 K
0 j
0 J
0.215 w
[]0 d
598.319 647.567 m
602.783 644.327 603.072 633.815 606.743 629.783 C
S
U
U
u
u
0.000 0.000 0.000 1.000 K
0 j
0 J
0.215 w
[]0 d
10.871 975.095 m
3.815 957.239 L
S
U
U
u
u
0.000 0.000 0.000 1.000 K
0 j
0 J
0.215 w
[]0 d
587.735 647.639 m
594.791 629.783 L
S
U
U
u
u
0.000 0.000 0.000 1.000 K
0 j
0 J
0.215 w
[]0 d
590.111 977.543 m
608.111 977.543 L
S
U
U
u
u
0.000 0.000 0.000 1.000 K
0 j
0 J
0.215 w
[]0 d
8.495 650.087 m
-9.503 650.087 L
S
U
U
u
u
0.000 0.000 0.000 1.000 K
0 j
0 J
0.215 w
[]0 d
589.823 968.687 m
608.831 968.687 L
S
U
U
u
u
0.000 0.000 0.000 1.000 K
0 j
0 J
0.215 w
[]0 d
8.783 641.231 m
-10.223 641.231 L
S
U
U
u
u
0.000 0.000 0.000 1.000 K
0 j
0 J
0.215 w
[]0 d
588.527 961.199 m
608.831 961.199 L
S
U
U
u
u
0.000 0.000 0.000 1.000 K
0 j
0 J
0.215 w
[]0 d
10.080 633.743 m
-10.223 633.743 L
S
U
U
u
u
0.000 0.000 0.000 1.000 K
0 j
0 J
0.215 w
[]0 d
59.471 932.975 m
-20.447 935.639 L
S
U
U
u
u
0.000 0.000 0.000 1.000 K
0 j
0 J
0.215 w
[]0 d
539.135 605.519 m
619.055 608.183 L
S
U
U
u
u
0.000 0.000 0.000 1.000 K
0 j
0 J
0.215 w
[]0 d
56.087 916.199 m
-7.559 916.199 L
S
U
U
u
u
0.000 0.000 0.000 1.000 K
0 j
0 J
0.215 w
[]0 d
542.519 588.743 m
606.168 588.743 L
S
U
U
u
u
0.000 0.000 0.000 1.000 K
0 j
0 J
0.215 w
[]0 d
10.799 975.023 m
14.543 978.767 20.519 980.999 28.655 982.007 C
78.839 993.383 130.608 998.711 184.031 1001.951 C
S
U
U
u
u
0.000 0.000 0.000 1.000 K
0 j
0 J
0.215 w
[]0 d
587.807 647.567 m
584.063 651.311 578.087 653.543 569.951 654.551 C
519.767 665.927 467.927 671.255 414.503 674.495 C
S
U
U
u
u
0.000 0.000 0.000 1.000 K
0 j
0 J
0.215 w
[]0 d
33.479 975.023 m
178.127 983.087 L
595.223 990.647 L
S
U
U
u
u
0.000 0.000 0.000 1.000 K
0 j
0 J
0.215 w
[]0 d
565.127 647.567 m
420.407 655.631 L
3.383 663.191 L
S
U
U
0.000 0.000 0.000 1.000 K
0 j
0 J
0.215 w
[]0 d
0.000 0.000 0.000 0.498 k
149.687 953.279 m
432.719 953.279 L
429.695 950.039 427.967 945.863 426.383 941.759 C
157.031 941.759 L
155.447 945.503 152.927 950.039 149.687 953.279 C
b
0.000 0.000 0.000 1.000 K
0 j
0 J
0.215 w
[]0 d
0.000 0.000 0.000 0.498 k
448.847 625.823 m
165.887 625.823 L
168.839 622.583 170.639 618.407 172.151 614.303 C
441.575 614.303 L
443.087 618.048 445.679 622.583 448.847 625.823 C
b
0.000 0.000 0.000 1.000 K
0 j
0 J
0.215 w
[]0 d
277.343 1059.551 m
331.199 1061.423 L
321.479 1000.799 L
314.711 972.647 316.655 940.463 322.991 911.735 C
181.223 911.735 L
173.447 932.687 173.447 958.967 177.335 982.295 C
188.783 1000.655 L
208.943 1020.383 231.551 1037.015 255.743 1052.423 C
262.223 1056.096 268.991 1058.327 277.343 1059.551 C
s
0.000 0.000 0.000 1.000 K
0 j
0 J
0.215 w
[]0 d
321.263 732.095 m
267.335 733.967 L
277.127 673.343 L
283.895 645.192 281.879 613.007 275.543 584.279 C
417.383 584.279 L
425.087 605.231 425.087 631.511 421.199 654.839 C
409.823 673.199 L
389.663 692.927 367.055 709.559 342.863 724.967 C
336.311 728.639 329.543 730.871 321.263 732.095 C
s
0.000 0.000 0.000 1.000 K
0 j
0 J
0.215 w
[]0 d
331.055 1061.495 m
415.799 1063.007 L
443.159 1009.799 L
457.991 981.431 L
462.023 973.007 454.895 967.679 446.903 965.447 C
432.359 957.599 423.647 938.447 421.415 911.951 C
324.287 911.663 L
315.143 942.263 316.007 971.567 321.335 1000.727 C
331.055 1061.495 L
s
0.000 0.000 0.000 1.000 K
0 j
0 J
0.215 w
[]0 d
267.479 734.039 m
182.807 735.551 L
155.447 682.343 L
140.543 653.975 L
136.584 645.551 143.639 640.223 151.631 637.991 C
166.175 630.144 174.959 610.991 177.119 584.495 C
274.247 584.207 L
283.463 614.807 282.599 644.111 277.271 673.271 C
267.479 734.039 L
s
u
u
0.000 0.000 0.000 1.000 K
0 j
0 J
0.215 w
[]0 d
522.575 930.527 m
622.367 936.863 L
S
U
U
u
u
0.000 0.000 0.000 1.000 K
0 j
0 J
0.215 w
[]0 d
76.031 603.072 m
-23.759 609.407 L
S
U
U
0.000 0.000 0.000 1.000 K
0 j
0 J
0.215 w
[]0 d
0.000 0.000 0.000 0.498 k
522.000 914.903 m
612.791 922.391 L
612.791 913.535 L
580.391 913.535 L
580.391 910.223 L
563.327 907.343 540.575 906.119 521.855 906.335 C
522.000 914.903 L
b
0.000 0.000 0.000 1.000 K
0 j
0 J
0.215 w
[]0 d
0.000 0.000 0.000 0.498 k
76.607 587.447 m
-14.183 594.935 L
-14.183 586.079 L
18.215 586.079 L
18.215 582.767 L
35.279 579.887 58.031 578.663 76.751 578.879 C
76.607 587.447 L
b
u
u
0.000 0.000 0.000 1.000 K
0 j
0 J
0.215 w
[]0 d
261.144 1061.783 m
265.680 1064.591 272.015 1066.319 280.439 1067.327 C
322.991 1071.864 366.479 1072.655 409.895 1071.864 C
417.455 1071.576 432.575 1068.695 435.887 1065.672 C
S
U
U
u
u
0.000 0.000 0.000 1.000 K
0 j
0 J
0.215 w
[]0 d
337.391 734.327 m
332.855 737.135 326.519 738.863 318.096 739.871 C
275.543 744.407 232.127 745.199 188.639 744.407 C
181.079 744.119 166.031 741.239 162.719 738.215 C
S
U
U
u
u
0.000 0.000 0.000 1.000 K
0 j
0 J
0.215 w
[]0 d
600.120 1005.767 m
586.943 1011.311 533.591 1009.655 494.495 1009.943 C
S
U
U
u
u
0.000 0.000 0.000 1.000 K
0 j
0 J
0.215 w
[]0 d
-1.511 678.311 m
11.663 683.855 65.015 682.199 104.111 682.487 C
S
U
U
0.000 0.000 0.000 1.000 K
0 j
0 J
0.215 w
[]0 d
0.000 0.000 0.000 0.098 k
718.271 1059.263 m
770.615 1061.495 823.031 1061.495 875.519 1059.263 C
883.799 1042.487 891.575 1022.183 897.191 1003.175 C
828.575 1004.831 760.103 1004.831 691.559 1003.175 C
698.687 1022.183 707.543 1042.055 718.271 1059.263 C
b
0.000 0.000 0.000 1.000 K
0 j
0 J
0.215 w
[]0 d
0.000 0.000 0.000 0.098 k
878.471 731.879 m
826.127 734.111 758.303 734.111 705.887 731.879 C
700.199 718.919 689.687 693.719 683.567 679.535 C
746.855 682.415 879.335 681.335 904.967 679.895 C
898.199 694.079 885.743 719.135 878.471 731.879 C
b
0.000 0.000 0.000 1.000 K
0 j
0 J
0.215 w
[]0 d
0.000 0.000 0.000 0.200 k
716.111 1060.703 m
768.383 1062.935 825.479 1062.935 877.895 1060.703 C
886.247 1043.927 894.023 1021.031 899.639 1001.951 C
831.023 1003.607 757.871 1003.607 689.327 1001.951 C
696.455 1021.031 705.311 1043.495 716.111 1060.703 C
b
0.000 0.000 0.000 1.000 K
0 j
0 J
0.215 w
[]0 d
0.000 0.000 0.000 0.200 k
879.911 733.319 m
827.567 735.551 756.935 735.551 704.519 733.319 C
697.103 716.471 687.815 695.519 680.255 677.519 C
756.215 679.175 832.031 679.175 907.271 677.519 C
898.631 696.599 889.415 716.039 879.911 733.319 C
b
0.000 0.000 0.000 1.000 K
0 j
0 J
0.215 w
[]0 d
683.855 996.839 m
757.583 1001.015 831.311 1001.015 905.039 996.839 C
904.103 987.839 898.055 982.439 897.839 972.359 C
828.431 968.111 759.023 968.111 689.615 972.359 C
689.183 981.791 683.855 986.759 683.855 996.839 C
s
0.000 0.000 0.000 1.000 K
0 j
0 J
0.215 w
[]0 d
0.000 0.000 0.000 0.098 k
682.991 970.127 m
733.103 967.823 L
738.143 951.551 L
673.991 951.551 L
674.351 957.095 674.567 963.287 676.511 967.751 C
677.951 969.839 679.895 970.415 682.991 970.127 C
b
0.000 0.000 0.000 1.000 K
0 j
0 J
0.215 w
[]0 d
0.000 0.000 0.000 0.098 k
904.103 970.127 m
853.991 967.823 L
848.879 951.551 L
913.103 951.551 L
912.743 957.095 912.527 963.287 910.511 967.751 C
909.071 969.839 907.199 970.415 904.103 970.127 C
b
0.000 0.000 0.000 1.000 K
0 j
0 J
0.215 w
[]0 d
0.000 0.000 0.000 0.498 k
665.639 946.511 m
686.519 945.287 L
902.447 945.287 L
923.039 946.511 L
923.039 937.511 L
901.295 936.791 L
686.519 936.791 L
665.639 937.511 L
665.639 946.511 L
b
0.000 0.000 0.000 1.000 K
0 j
0 J
0.215 w
[]0 d
0.000 0.000 0.000 0.498 k
690.048 930.815 m
896.039 930.815 L
893.663 924.623 883.727 919.007 870.623 919.295 C
862.559 919.295 857.231 919.007 853.631 914.615 C
733.463 914.615 L
729.935 919.727 721.511 919.295 711.575 919.295 C
701.567 920.087 691.559 923.543 690.048 930.815 C
b
0.000 0.000 0.000 1.000 k
668.951 907.415 m
698.255 907.415 L
698.255 871.631 L
696.167 866.879 672.048 866.879 668.951 871.631 C
668.951 907.415 L
f
0.000 0.000 0.000 1.000 k
920.519 580.175 m
916.415 585.216 910.799 589.751 902.015 589.967 C
891.287 589.967 L
891.287 544.391 L
893.375 539.639 917.423 539.639 920.519 544.391 C
920.519 580.175 L
f
0.000 0.000 0.000 1.000 k
889.991 907.415 m
919.295 907.415 L
919.295 871.631 L
917.207 866.879 893.087 866.879 889.991 871.631 C
889.991 907.415 L
f
0.000 0.000 0.000 1.000 k
699.623 589.967 m
688.175 589.967 L
681.551 588.599 674.423 584.711 670.319 580.175 C
670.319 544.391 L
672.407 539.639 696.527 539.639 699.623 544.391 C
699.623 589.967 L
f
0.000 0.000 0.000 1.000 K
0 j
0 J
0.215 w
[]0 d
0.000 0.000 0.000 0.498 k
657.144 1017.071 m
663.120 1017.431 669.671 1017.431 673.847 1015.271 C
676.223 1015.271 677.951 1013.543 677.951 1011.167 C
678.096 1008.215 678.527 1006.991 681.191 1006.847 C
673.631 992.663 L
668.015 995.255 661.679 996.911 654.767 997.631 C
652.463 997.631 650.663 999.431 650.663 1001.735 C
650.231 1005.767 650.951 1009.655 651.887 1013.183 C
651.887 1015.487 654.767 1017.071 657.144 1017.071 C
b
0.000 0.000 0.000 1.000 K
0 j
0 J
0.215 w
[]0 d
0.000 0.000 0.000 0.498 k
932.399 689.759 m
926.423 690.120 919.871 690.120 915.695 688.031 C
913.319 688.031 911.591 686.231 911.591 683.927 C
911.447 680.903 911.015 679.679 908.351 679.607 C
915.911 665.423 L
921.527 667.943 927.863 669.599 934.775 670.391 C
937.079 670.391 938.879 672.191 938.879 674.495 C
939.311 678.455 938.591 682.343 937.655 685.871 C
937.655 688.247 934.775 689.759 932.399 689.759 C
b
0.000 0.000 0.000 1.000 K
0 j
0 J
0.215 w
[]0 d
0.000 0.000 0.000 0.498 k
934.199 1017.071 m
928.223 1017.431 921.671 1017.431 917.423 1015.271 C
915.119 1015.271 913.319 1013.543 913.319 1011.167 C
913.247 1008.215 912.671 1007.207 910.007 1007.063 C
917.639 992.663 L
923.327 995.255 929.663 996.911 936.503 997.631 C
938.807 997.631 940.607 999.431 940.607 1001.735 C
941.039 1005.767 940.391 1009.655 939.383 1013.183 C
939.383 1015.487 936.503 1017.071 934.199 1017.071 C
b
0.000 0.000 0.000 1.000 K
0 j
0 J
0.215 w
[]0 d
0.000 0.000 0.000 0.498 k
655.487 689.759 m
661.463 690.120 668.015 690.120 672.191 688.031 C
674.567 688.031 676.295 686.231 676.295 683.927 C
676.439 680.903 677.015 679.895 679.607 679.823 C
671.975 665.423 L
666.359 667.943 660.024 669.599 653.111 670.391 C
650.807 670.391 649.079 672.191 649.079 674.495 C
648.575 678.455 649.295 682.343 650.231 685.871 C
650.231 688.247 653.111 689.759 655.487 689.759 C
b
0.000 0.000 0.000 1.000 K
0 j
0 J
0.215 w
[]0 d
0.000 0.000 0.000 0.498 k
736.631 963.791 m
850.103 963.791 L
847.151 953.999 L
740.015 953.999 L
736.631 963.791 L
b
0.000 0.000 0.000 1.000 K
0 j
0 J
0.215 w
[]0 d
0.000 0.000 0.000 0.498 k
698.255 907.415 m
890.063 907.415 L
890.063 891.791 L
855.791 898.487 L
846.431 898.487 841.463 900.575 834.263 903.455 C
831.383 897.335 825.263 895.607 816.623 894.167 C
795.023 894.167 L
785.087 895.895 L
755.567 893.015 L
742.679 893.591 728.279 892.223 717.119 894.455 C
698.255 888.695 L
698.255 907.415 L
b
0.000 0.000 0.000 1.000 K
0 j
0 J
0.215 w
[]0 d
0.000 0.000 0.000 0.498 k
891.287 589.895 m
753.839 589.895 L
746.207 596.447 731.231 596.591 723.455 589.895 C
699.479 589.895 L
699.479 567.072 L
733.751 569.447 L
743.111 569.447 748.079 575.855 755.279 578.735 C
758.159 572.615 764.279 570.887 772.919 569.447 C
794.519 569.447 L
804.455 571.175 L
833.975 568.295 L
846.863 568.871 861.263 567.503 872.423 569.735 C
891.287 563.975 L
891.287 589.895 L
b
u
u
0.000 0.000 0.000 1.000 K
0 j
0 J
0.215 w
[]0 d
689.183 969.767 m
687.671 951.479 L
S
U
U
u
u
0.000 0.000 0.000 1.000 K
0 j
0 J
0.215 w
[]0 d
897.911 969.767 m
899.423 951.479 L
S
U
U
u
u
0.000 0.000 0.000 1.000 K
0 j
0 J
0.215 w
[]0 d
673.775 951.767 m
670.967 946.151 L
S
U
U
u
u
0.000 0.000 0.000 1.000 K
0 j
0 J
0.215 w
[]0 d
913.031 951.479 m
915.839 946.439 L
S
U
U
u
u
0.000 0.000 0.000 1.000 K
0 j
0 J
0.215 w
[]0 d
700.487 997.703 m
730.727 975.455 L
S
U
U
u
u
0.000 0.000 0.000 1.000 K
0 j
0 J
0.215 w
[]0 d
887.111 997.703 m
856.871 975.455 L
S
U
U
0.000 0.000 0.000 1.000 K
0 j
0 J
0.215 w
[]0 d
0.000 0.000 0.000 0.298 k
793.439 963.359 m
798.263 963.359 802.223 961.343 802.223 958.895 c
802.223 956.447 798.263 954.503 793.439 954.503 c
788.615 954.503 784.583 956.447 784.583 958.895 c
784.583 961.343 788.615 963.359 793.439 963.359 c
b
u
u
0.000 0.000 0.000 1.000 K
0 j
0 J
0.215 w
[]0 d
738.000 951.479 m
849.311 951.479 L
S
U
U
u
u
0.000 0.000 0.000 1.000 K
0 j
0 J
0.215 w
[]0 d
733.247 967.679 m
773.423 966.095 813.599 965.879 853.847 967.679 C
S
U
U
u
u
0.000 0.000 0.000 1.000 K
0 j
0 J
0.215 w
[]0 d
677.663 969.047 m
672.983 971.495 667.079 974.807 665.567 978.263 C
S
U
U
u
u
0.000 0.000 0.000 1.000 K
0 j
0 J
0.215 w
[]0 d
908.711 969.047 m
913.319 971.495 921.671 974.807 923.183 978.263 C
S
U
U
0.000 0.000 0.000 1.000 k
738.935 943.703 m
848.591 943.703 l
849.671 943.703 850.535 942.839 850.535 941.759 c
850.535 939.743 l
850.535 938.591 849.671 937.727 848.591 937.727 c
738.935 937.727 l
737.855 937.727 736.919 938.591 736.919 939.743 c
736.919 941.759 l
736.919 942.839 737.855 943.703 738.935 943.703 c
f
u
u
0.000 0.000 0.000 0.298 K
0 j
0 J
0.215 w
[]0 d
736.919 940.751 m
850.247 940.751 L
S
U
U
u
u
0.000 0.000 0.000 0.298 K
0 j
0 J
0.215 w
[]0 d
747.287 943.919 m
747.287 937.871 L
S
U
U
u
u
0.000 0.000 0.000 0.298 K
0 j
0 J
0.215 w
[]0 d
759.023 943.919 m
759.023 937.871 L
S
U
U
u
u
0.000 0.000 0.000 0.298 K
0 j
0 J
0.215 w
[]0 d
770.831 943.919 m
770.831 937.871 L
S
U
U
u
u
0.000 0.000 0.000 0.298 K
0 j
0 J
0.215 w
[]0 d
782.567 943.919 m
782.567 937.871 L
S
U
U
u
u
0.000 0.000 0.000 0.298 K
0 j
0 J
0.215 w
[]0 d
794.231 943.919 m
794.231 937.871 L
S
U
U
u
u
0.000 0.000 0.000 0.298 K
0 j
0 J
0.215 w
[]0 d
805.967 943.919 m
805.967 937.871 L
S
U
U
u
u
0.000 0.000 0.000 0.298 K
0 j
0 J
0.215 w
[]0 d
817.703 943.919 m
817.703 937.871 L
S
U
U
u
u
0.000 0.000 0.000 0.298 K
0 j
0 J
0.215 w
[]0 d
829.511 943.919 m
829.511 937.871 L
S
U
U
u
u
0.000 0.000 0.000 0.298 K
0 j
0 J
0.215 w
[]0 d
841.247 943.919 m
841.247 937.871 L
S
U
U
u
u
0.000 0.000 0.000 1.000 K
0 j
0 J
0.215 w
[]0 d
729.215 917.783 m
720.791 930.815 L
S
U
U
u
u
0.000 0.000 0.000 1.000 K
0 j
0 J
0.215 w
[]0 d
856.799 917.783 m
865.223 930.815 L
S
U
U
u
u
0.000 0.000 0.000 1.000 K
0 j
0 J
0.215 w
[]0 d
717.335 919.295 m
870.263 919.295 L
S
U
U
u
u
0.000 0.000 0.000 1.000 K
0 j
0 J
0.215 w
[]0 d
740.807 914.687 m
740.807 930.887 L
S
U
U
u
u
0.000 0.000 0.000 1.000 K
0 j
0 J
0.215 w
[]0 d
758.231 914.687 m
758.231 930.887 L
S
U
U
u
u
0.000 0.000 0.000 1.000 K
0 j
0 J
0.215 w
[]0 d
775.583 914.687 m
775.583 930.887 L
S
U
U
u
u
0.000 0.000 0.000 1.000 K
0 j
0 J
0.215 w
[]0 d
793.079 914.687 m
793.079 930.887 L
S
U
U
u
u
0.000 0.000 0.000 1.000 K
0 j
0 J
0.215 w
[]0 d
810.431 914.687 m
810.431 930.887 L
S
U
U
u
u
0.000 0.000 0.000 1.000 K
0 j
0 J
0.215 w
[]0 d
827.855 914.687 m
827.855 930.887 L
S
U
U
u
u
0.000 0.000 0.000 1.000 K
0 j
0 J
0.215 w
[]0 d
845.207 914.687 m
845.207 930.887 L
S
U
U
u
u
0.000 0.000 0.000 1.000 K
0 j
0 J
0.215 w
[]0 d
733.463 926.207 m
854.063 926.207 L
S
U
U
u
u
0.000 0.000 0.000 1.000 K
0 j
0 J
0.215 w
[]0 d
690.048 930.743 m
681.263 931.751 672.048 929.807 666.287 927.431 C
S
U
U
u
u
0.000 0.000 0.000 1.000 K
0 j
0 J
0.215 w
[]0 d
899.495 604.799 m
908.063 605.015 917.495 602.567 923.255 600.192 C
S
U
U
u
u
0.000 0.000 0.000 1.000 K
0 j
0 J
0.215 w
[]0 d
896.687 930.743 m
905.399 931.751 916.631 929.807 922.391 927.431 C
S
U
U
u
u
0.000 0.000 0.000 1.000 K
0 j
0 J
0.215 w
[]0 d
902.951 604.799 m
686.015 604.799 L
678.671 604.583 671.399 601.919 667.007 600.192 C
S
U
U
u
u
0.000 0.000 0.000 1.000 K
0 j
0 J
0.215 w
[]0 d
667.727 911.951 m
920.375 911.951 L
S
U
U
u
u
0.000 0.000 0.000 1.000 K
0 j
0 J
0.215 w
[]0 d
715.823 1061.279 m
710.927 1065.167 L
S
U
U
u
u
0.000 0.000 0.000 1.000 K
0 j
0 J
0.215 w
[]0 d
877.751 1060.775 m
883.583 1065.167 L
S
U
U
u
u
0.000 0.000 0.000 1.000 K
0 j
0 J
0.215 w
[]0 d
683.927 996.767 m
676.367 996.767 L
S
U
U
u
u
0.000 0.000 0.000 1.000 K
0 j
0 J
0.215 w
[]0 d
905.039 996.767 m
915.119 996.767 L
S
U
U
u
u
0.000 0.000 0.000 1.000 K
0 j
0 J
0.215 w
[]0 d
681.551 996.767 m
689.543 1019.087 699.623 1041.480 712.583 1063.871 C
S
U
U
u
u
0.000 0.000 0.000 1.000 K
0 j
0 J
0.215 w
[]0 d
910.079 996.767 m
902.519 1018.871 894.095 1041.480 881.135 1063.871 C
S
U
U
u
u
0.000 0.000 0.000 1.000 K
0 j
0 J
0.215 w
[]0 d
684.575 996.767 m
692.567 1019.087 701.351 1039.895 714.311 1062.288 C
S
U
U
u
u
0.000 0.000 0.000 1.000 K
0 j
0 J
0.215 w
[]0 d
906.767 996.767 m
899.927 1019.375 892.367 1039.895 879.407 1062.288 C
S
U
U
u
u
0.000 0.000 0.000 1.000 K
0 j
0 J
0.215 w
[]0 d
704.807 736.271 m
763.343 739.079 822.023 738.719 880.631 736.271 C
S
U
U
0.000 0.000 0.000 1.000 K
0 j
0 J
0.215 w
[]0 d
879.335 663.191 m
879.335 625.607 L
708.479 625.607 L
708.479 663.191 L
879.335 663.191 L
s
u
u
0.000 0.000 0.000 1.000 K
0 j
0 J
0.215 w
[]0 d
698.471 663.191 m
671.111 663.191 L
S
U
U
u
u
0.000 0.000 0.000 1.000 K
0 j
0 J
0.215 w
[]0 d
889.055 663.191 m
916.487 663.191 L
S
U
U
u
u
0.000 0.000 0.000 1.000 K
0 j
0 J
0.215 w
[]0 d
889.487 663.120 m
917.495 663.120 L
S
U
U
0.000 0.000 0.000 1.000 K
0 j
0 J
0.215 w
[]0 d
743.327 660.887 m
842.615 660.887 l
845.999 660.887 848.663 658.295 848.663 654.911 c
848.663 632.663 l
848.663 629.279 845.999 626.615 842.615 626.615 c
743.327 626.615 l
739.943 626.615 737.351 629.279 737.351 632.663 c
737.351 654.911 l
737.351 658.295 739.943 660.887 743.327 660.887 c
s
0.000 0.000 0.000 1.000 K
0 j
0 J
0.215 w
[]0 d
0.000 0.000 0.000 0.298 k
708.479 663.407 m
679.751 663.407 L
673.775 661.607 674.855 640.439 674.639 628.703 C
708.479 628.703 L
708.479 663.407 L
b
0.000 0.000 0.000 1.000 K
0 j
0 J
0.215 w
[]0 d
0.000 0.000 0.000 0.298 k
879.479 663.407 m
908.135 663.407 L
914.183 661.607 913.031 640.439 913.247 628.703 C
879.479 628.703 L
879.479 663.407 L
b
u
u
0.000 0.000 0.000 1.000 K
0 j
0 J
0.215 w
[]0 d
674.639 645.263 m
708.479 645.263 L
S
U
U
u
u
0.000 0.000 0.000 1.000 K
0 j
0 J
0.215 w
[]0 d
913.247 645.263 m
879.479 645.263 L
S
U
U
u
u
0.000 0.000 0.000 1.000 K
0 j
0 J
0.215 w
[]0 d
674.639 636.048 m
708.479 636.048 L
S
U
U
u
u
0.000 0.000 0.000 1.000 K
0 j
0 J
0.215 w
[]0 d
913.247 636.048 m
879.479 636.048 L
S
U
U
u
u
0.000 0.000 0.000 1.000 K
0 j
0 J
0.215 w
[]0 d
684.719 645.263 m
684.719 650.303 L
684.719 651.383 685.799 652.031 687.024 652.031 C
708.623 652.031 L
S
U
U
u
u
0.000 0.000 0.000 1.000 K
0 j
0 J
0.215 w
[]0 d
903.239 645.263 m
903.239 650.303 L
903.239 651.383 902.087 652.031 900.863 652.031 C
879.263 652.031 L
S
U
U
u
u
0.000 0.000 0.000 1.000 K
0 j
0 J
0.215 w
[]0 d
674.639 628.631 m
671.687 628.631 668.015 627.263 666.575 625.607 C
S
U
U
u
u
0.000 0.000 0.000 1.000 K
0 j
0 J
0.215 w
[]0 d
912.887 628.631 m
915.911 628.631 922.103 627.263 923.543 625.607 C
S
U
U
0.000 0.000 0.000 1.000 K
0 j
0 J
0.215 w
[]0 d
0.000 0.000 0.000 0.498 k
675.359 625.391 m
698.039 625.391 L
889.631 625.535 L
911.375 625.391 L
915.767 625.175 921.023 624.887 923.759 622.511 C
923.615 607.679 L
919.079 609.911 909.143 612.791 901.583 612.647 C
684.863 612.647 L
678.887 612.216 672.767 610.559 667.007 608.111 C
666.575 622.439 L
668.663 624.311 670.319 625.319 675.359 625.391 C
b
0.000 0.000 0.000 1.000 K
0 j
0 J
0.215 w
[]0 d
0.000 0.000 0.000 0.298 k
793.079 664.199 m
798.047 664.199 802.295 666.431 802.295 669.024 c
802.295 671.615 798.047 673.847 793.079 673.847 c
787.967 673.847 783.791 671.615 783.791 669.024 c
783.791 666.431 787.967 664.199 793.079 664.199 c
b
u
u
U
u
0.000 0.000 0.000 1.000 K
0 j
0 J
0.215 w
[]0 d
-17.495 517.103 m
266.687 517.103 L
S
U
U
u
u
U
u
0.000 0.000 0.000 1.000 K
0 j
0 J
0.215 w
[]0 d
361.799 517.103 m
621.575 517.103 L
S
U
U
u
u
U
u
0.000 0.000 0.000 1.000 K
0 j
0 J
0.215 w
[]0 d
-24.983 532.079 m
-24.983 498.671 L
S
U
U
0.000 0.000 0.000 1.000 k
-25.199 517.175 m
-14.183 513.935 L
-14.183 520.487 L
-25.199 517.175 L
f
u
u
U
u
0.000 0.000 0.000 1.000 K
0 j
0 J
0.215 w
[]0 d
621.287 529.847 m
621.287 496.871 L
S
U
U
0.000 0.000 0.000 1.000 k
621.431 517.175 m
610.415 513.935 L
610.415 520.487 L
621.431 517.175 L
f
0.000 0.000 0.000 1.000 k
334.655 512.711 m
335.591 512.711 L
335.591 516.815 L
335.591 518.327 336.239 519.479 337.751 519.479 C
338.831 519.479 339.263 518.615 339.263 517.607 C
339.263 512.711 L
340.199 512.711 L
340.199 516.815 L
340.199 518.111 340.631 519.479 342.143 519.479 C
343.439 519.479 343.871 518.831 343.871 517.607 C
343.871 512.711 L
344.807 512.711 L
344.807 517.607 L
344.807 519.336 343.943 520.199 342.359 520.199 C
341.423 520.199 340.487 519.767 339.983 518.759 C
339.767 519.767 338.831 520.199 337.967 520.199 C
336.743 520.199 336.024 519.695 335.519 518.759 C
335.519 518.759 L
335.519 519.983 L
334.655 519.983 L
334.655 512.711 L
334.655 512.711 L
f
0.000 0.000 0.000 1.000 k
322.775 512.711 m
323.711 512.711 L
323.711 516.815 L
323.711 518.327 324.359 519.479 325.871 519.479 C
327.024 519.479 327.383 518.615 327.383 517.607 C
327.383 512.711 L
328.319 512.711 L
328.319 516.815 L
328.319 518.111 328.751 519.479 330.263 519.479 C
331.631 519.479 331.991 518.831 331.991 517.607 C
331.991 512.711 L
332.927 512.711 L
332.927 517.607 L
332.927 519.336 332.135 520.199 330.479 520.199 C
329.543 520.199 328.607 519.767 328.103 518.759 C
327.887 519.767 327.024 520.199 326.087 520.199 C
324.863 520.199 324.143 519.695 323.639 518.759 C
323.639 518.759 L
323.639 519.983 L
322.775 519.983 L
322.775 512.711 L
322.775 512.711 L
f
0.000 0.000 0.000 1.000 k
310.536 522.719 m
307.655 522.719 307.079 519.839 307.079 517.535 C
307.079 515.303 307.655 512.495 310.536 512.495 C
313.487 512.495 313.991 515.303 313.991 517.607 C
313.991 519.839 313.487 522.719 310.536 522.719 C
f
0.000 0.000 0.000 1.000 k
283.463 515.159 m
288.072 515.159 L
288.072 512.711 L
288.863 512.711 L
288.863 515.159 L
290.303 515.159 L
290.303 515.879 L
288.863 515.879 L
288.863 522.647 L
288.072 522.647 L
283.463 516.024 L
283.463 515.159 L
f
0.000 0.000 0.000 1.000 k
299.015 515.159 m
303.623 515.159 L
303.623 512.711 L
304.487 512.711 L
304.487 515.159 L
305.855 515.159 L
305.855 515.879 L
304.487 515.879 L
304.487 522.647 L
303.623 522.647 L
299.015 516.024 L
299.015 515.159 L
f
u
u
0.000 0.000 0.000 1.000 K
0 j
0 J
0.215 w
[]0 d
225.287 1001.879 m
219.671 999.647 211.895 999.647 202.391 999.647 C
197.999 999.359 195.479 1002.095 195.479 1005.191 C
197.207 1008.215 L
S
U
U
u
u
0.000 0.000 0.000 1.000 K
0 j
0 J
0.215 w
[]0 d
373.247 674.423 m
378.863 672.191 386.639 672.191 396.143 672.191 C
400.535 671.903 403.127 674.639 403.127 677.735 C
401.399 680.759 L
S
U
U
u
u
0.000 0.000 0.000 1.000 K
0 j
0 J
0.215 w
[]0 d
218.015 1021.967 m
213.839 1021.463 212.399 1021.103 209.159 1018.871 C
S
U
U
u
u
0.000 0.000 0.000 1.000 K
0 j
0 J
0.215 w
[]0 d
380.519 694.511 m
384.695 694.007 386.135 693.647 389.447 691.415 C
S
U
U
0.000 0.000 0.000 1.000 K
0 j
0 J
0.215 w
[]0 d
306.791 988.631 m
286.560 987.983 L
285.407 987.911 284.615 987.119 284.687 985.967 C
284.759 982.223 L
284.903 979.343 291.024 978.335 292.751 978.335 C
307.079 978.839 L
308.231 978.839 309.024 979.703 308.951 980.783 C
308.807 986.759 L
308.735 987.839 307.871 988.631 306.791 988.631 C
s
0.000 0.000 0.000 1.000 K
0 j
0 J
0.215 w
[]0 d
291.815 661.175 m
312.048 660.527 L
313.127 660.455 313.919 659.663 313.919 658.511 C
313.775 654.767 L
313.703 651.887 307.512 650.879 305.783 650.879 C
291.455 651.383 L
290.375 651.383 289.584 652.247 289.584 653.327 C
289.799 659.303 L
289.799 660.383 290.663 661.175 291.815 661.175 C
s
0.000 0.000 0.000 1.000 K
0 j
0 J
0.215 w
[]0 d
438.983 991.511 m
418.751 990.863 L
417.599 990.863 416.807 989.999 416.879 988.919 C
416.951 985.103 L
417.095 982.223 423.215 981.215 424.943 981.287 C
439.271 981.719 L
440.423 981.719 441.215 982.583 441.143 983.735 C
440.999 989.639 L
440.927 990.791 440.063 991.583 438.983 991.511 C
s
0.000 0.000 0.000 1.000 K
0 j
0 J
0.215 w
[]0 d
159.623 664.055 m
179.855 663.407 L
180.935 663.407 181.727 662.543 181.727 661.463 C
181.583 657.647 L
181.512 654.767 175.319 653.759 173.591 653.831 C
159.263 654.263 L
158.183 654.263 157.391 655.127 157.391 656.279 C
157.607 662.183 L
157.607 663.335 158.471 664.127 159.623 664.055 C
s
u
u
0.000 0.000 0.000 1.000 K
0 j
0 J
0.215 w
[]0 d
303.120 988.487 m
303.407 978.767 L
S
U
U
u
u
0.000 0.000 0.000 1.000 K
0 j
0 J
0.215 w
[]0 d
295.487 661.031 m
295.127 651.311 L
S
U
U
0.000 0.000 0.000 1.000 K
0 j
0 J
0.215 w
[]0 d
0.000 0.000 0.000 0.498 k
284.759 983.807 m
284.687 986.183 L
284.687 987.119 285.767 987.839 286.703 987.911 C
303.048 988.415 L
303.191 984.383 L
284.759 983.807 L
b
0.000 0.000 0.000 1.000 K
0 j
0 J
0.215 w
[]0 d
0.000 0.000 0.000 0.498 k
313.775 656.351 m
313.847 658.727 L
313.847 659.663 312.767 660.383 311.831 660.455 C
295.487 660.959 L
295.415 656.927 L
313.775 656.351 L
b
0.000 0.000 0.000 1.000 K
0 j
0 J
0.215 w
[]0 d
0.000 0.000 0.000 0.498 k
416.375 987.263 m
416.303 989.567 L
416.231 990.503 417.383 991.295 418.247 991.295 C
437.903 991.943 L
439.415 992.087 440.135 991.511 440.567 990.647 C
440.639 987.911 L
416.375 987.263 L
b
0.000 0.000 0.000 1.000 K
0 j
0 J
0.215 w
[]0 d
0.000 0.000 0.000 0.498 k
182.231 659.807 m
182.303 662.111 L
182.303 663.048 181.223 663.839 180.287 663.839 C
160.703 664.487 L
159.119 664.631 158.399 664.055 157.967 663.191 C
157.895 660.455 L
182.231 659.807 L
b
0.000 0.000 0.000 1.000 K
0 j
0 J
0.215 w
[]0 d
305.639 984.023 m
304.703 984.023 303.911 983.159 303.983 982.151 c
303.983 981.215 304.847 980.423 305.783 980.495 c
306.791 980.495 307.584 981.359 307.584 982.295 c
307.512 983.303 306.647 984.095 305.639 984.023 c
s
0.000 0.000 0.000 1.000 K
0 j
0 J
0.215 w
[]0 d
292.895 656.567 m
293.831 656.567 294.623 655.703 294.623 654.695 c
294.551 653.759 293.759 652.967 292.823 653.039 c
291.815 653.039 291.024 653.903 291.024 654.839 c
291.024 655.847 291.887 656.639 292.895 656.567 c
s
0.000 0.000 0.000 0.000 k
310.536 521.927 m
312.767 521.927 313.127 519.264 313.127 517.607 C
313.127 515.879 312.767 513.216 310.536 513.216 C
308.303 513.216 308.015 515.879 308.015 517.607 C
308.015 519.264 308.303 521.927 310.536 521.927 C
f
0.000 0.000 0.000 0.000 k
284.255 515.879 m
287.927 521.279 L
288.072 521.279 L
288.072 515.879 L
284.255 515.879 L
f
0.000 0.000 0.000 0.000 k
299.879 515.879 m
303.551 521.279 L
303.623 521.279 L
303.623 515.879 L
299.879 515.879 L
f
0.000 0.000 0.000 1.000 k
292.319 515.231 m
292.391 513.216 293.831 512.423 295.703 512.423 c
297.287 512.423 298.727 513.719 298.727 515.735 c
298.727 517.751 297.431 518.903 295.703 518.903 c
294.839 518.903 294.335 518.831 293.543 518.327 C
294.120 521.495 L
298.223 521.495 L
298.223 522.288 L
293.399 522.288 L
292.608 517.247 L
293.399 517.175 L
293.903 517.895 294.623 518.183 295.487 518.183 c
296.927 518.183 297.863 517.175 297.863 515.735 c
297.863 514.367 297.000 513.216 295.560 513.216 c
294.263 513.216 293.327 513.863 293.183 515.231 C
292.319 515.231 L
f
0.000 0.000 0.000 1.000 K
0 j
0 J
0.215 w
[]0 d
91.367 673.343 m
114.839 672.407 l
117.575 672.335 119.519 670.247 119.375 667.511 c
118.799 652.319 l
118.727 649.583 116.567 647.639 113.903 647.783 c
90.431 648.647 l
87.767 648.791 85.823 650.879 85.895 653.543 c
86.471 668.807 l
86.615 671.471 88.703 673.415 91.367 673.343 c
s
u
u
0.000 0.000 0.000 1.000 K
0 j
0 J
0.287 w
[]0 d
680.615 677.519 m
683.567 663.335 L
S
U
U
u
u
0.000 0.000 0.000 1.000 K
0 j
0 J
0.287 w
[]0 d
907.199 677.519 m
904.247 663.335 L
S
U
U
u
u
0.000 0.000 0.000 1.000 K
0 j
0 J
0.287 w
[]0 d
680.543 677.591 m
676.295 673.487 L
S
U
U
u
u
0.000 0.000 0.000 1.000 K
0 j
0 J
0.287 w
[]0 d
906.983 677.591 m
911.231 673.487 L
S
U
U
%%Trailer
_E end